<?xml version="1.0" encoding="utf-8"?>
<!DOCTYPE eagle SYSTEM "eagle.dtd">
<eagle version="6.5.0">
<drawing>
<settings>
<setting alwaysvectorfont="no"/>
<setting verticaltext="up"/>
</settings>
<grid distance="0.1" unitdist="inch" unit="inch" style="lines" multiple="1" display="no" altdistance="0.01" altunitdist="inch" altunit="inch"/>
<layers>
</layers>
<library>
<packages>
<package name="TO-92">
<description>&lt;b&gt;TO 92&lt;/b&gt;</description>
<wire x1="-0.7863" y1="2.5485" x2="-2.0946" y2="-1.651" width="0.1524" layer="21" curve="111.098962"/>
<wire x1="2.0945" y1="-1.651" x2="0.7863" y2="2.548396875" width="0.1524" layer="21" curve="111.099507"/>
<wire x1="-2.0945" y1="-1.651" x2="2.0945" y2="-1.651" width="0.1524" layer="21"/>
<wire x1="-2.6549" y1="-0.254" x2="-2.2537" y2="-0.254" width="0.1524" layer="21"/>
<wire x1="-0.2863" y1="-0.254" x2="0.2863" y2="-0.254" width="0.1524" layer="21"/>
<wire x1="2.2537" y1="-0.254" x2="2.6549" y2="-0.254" width="0.1524" layer="21"/>
<pad name="1" x="-1.27" y="0" drill="0.8128" diameter="1.8796"/>
<pad name="2" x="0" y="1.905" drill="0.8128" diameter="1.8796"/>
<pad name="3" x="1.27" y="0" drill="0.8128" diameter="1.8796"/>
<text x="3.175" y="0.635" size="1.016" layer="25" font="vector" ratio="15">&gt;NAME</text>
</package>
</packages>
<symbols>
<symbol name="NPN">
<wire x1="2.54" y1="2.54" x2="0.508" y2="1.524" width="0.1524" layer="94"/>
<wire x1="1.778" y1="-1.524" x2="2.54" y2="-2.54" width="0.1524" layer="94"/>
<wire x1="2.54" y1="-2.54" x2="1.27" y2="-2.54" width="0.1524" layer="94"/>
<wire x1="1.27" y1="-2.54" x2="1.778" y2="-1.524" width="0.1524" layer="94"/>
<wire x1="1.54" y1="-2.04" x2="0.308" y2="-1.424" width="0.1524" layer="94"/>
<wire x1="1.524" y1="-2.413" x2="2.286" y2="-2.413" width="0.254" layer="94"/>
<wire x1="2.286" y1="-2.413" x2="1.778" y2="-1.778" width="0.254" layer="94"/>
<wire x1="1.778" y1="-1.778" x2="1.524" y2="-2.286" width="0.254" layer="94"/>
<wire x1="1.524" y1="-2.286" x2="1.905" y2="-2.286" width="0.254" layer="94"/>
<wire x1="1.905" y1="-2.286" x2="1.778" y2="-2.032" width="0.254" layer="94"/>
<text x="5.08" y="0" size="1.778" layer="95">&gt;NAME</text>
<text x="5.08" y="-2.54" size="1.778" layer="96">&gt;VALUE</text>
<rectangle x1="-0.254" y1="-2.54" x2="0.508" y2="2.54" layer="94"/>
<pin name="B" x="-2.54" y="0" visible="off" length="short" direction="pas" swaplevel="1"/>
<pin name="E" x="2.54" y="-5.08" visible="off" length="short" direction="pas" swaplevel="3" rot="R90"/>
<pin name="C" x="2.54" y="5.08" visible="off" length="short" direction="pas" swaplevel="2" rot="R270"/>
</symbol>
</symbols>
<devicesets>
<deviceset name="P2N2222ARL1G" prefix="Q" uservalue="yes">
<gates>
<gate name="G$1" symbol="NPN" x="0" y="0"/>
</gates>
<devices>
<device name="P2N2222A" package="TO-92">
<connects>
<connect gate="G$1" pin="B" pad="2"/>
<connect gate="G$1" pin="C" pad="1"/>
<connect gate="G$1" pin="E" pad="3"/>
</connects>
<technologies>
<technology name="">
<attribute name="PROD_ID" value="TRANS-09536" constant="no"/>
</technology>
</technologies>
</device>
</devices>
</deviceset>
</devicesets>
</library>
</drawing>
</eagle>
