<eagle version="6.5.0" xmlns="eagle">
  <drawing>
    <library>
      <packages>
        <package name="VQFN32" xmlns="eagle">
          <smd name="P$1" x="-2.19" y="1.75" dx="0.28" dy="0.28" layer="1" roundness="100" rot="R270" stop="no" thermals="no" cream="no" />
          <rectangle x1="-2.685" y1="1.395" x2="-2.405" y2="2.105" layer="1" rot="R270" />
          <rectangle x1="-2.79" y1="1.36" x2="-2.37" y2="2.14" layer="29" rot="R270" />
          <polygon width="0.001" layer="29">
            <vertex x="-2.19" y="1.96" curve="-90" />
            <vertex x="-1.98" y="1.75" curve="-90" />
            <vertex x="-2.19" y="1.54" />
          </polygon>
          <rectangle x1="-2.79" y1="1.36" x2="-2.37" y2="2.14" layer="31" rot="R270" />
          <polygon width="0.001" layer="31">
            <vertex x="-2.19" y="1.96" curve="-90" />
            <vertex x="-1.98" y="1.75" curve="-90" />
            <vertex x="-2.19" y="1.54" />
          </polygon>
          <smd name="P$2" x="-2.19" y="1.25" dx="0.28" dy="0.28" layer="1" roundness="100" rot="R270" stop="no" thermals="no" cream="no" />
          <rectangle x1="-2.685" y1="0.895" x2="-2.405" y2="1.605" layer="1" rot="R270" />
          <rectangle x1="-2.79" y1="0.86" x2="-2.37" y2="1.64" layer="29" rot="R270" />
          <polygon width="0.001" layer="29">
            <vertex x="-2.19" y="1.46" curve="-90" />
            <vertex x="-1.98" y="1.25" curve="-90" />
            <vertex x="-2.19" y="1.04" />
          </polygon>
          <rectangle x1="-2.79" y1="0.86" x2="-2.37" y2="1.64" layer="31" rot="R270" />
          <polygon width="0.001" layer="31">
            <vertex x="-2.19" y="1.46" curve="-90" />
            <vertex x="-1.98" y="1.25" curve="-90" />
            <vertex x="-2.19" y="1.04" />
          </polygon>
          <smd name="P$3" x="-2.19" y="0.75" dx="0.28" dy="0.28" layer="1" roundness="100" rot="R270" stop="no" thermals="no" cream="no" />
          <rectangle x1="-2.685" y1="0.395" x2="-2.405" y2="1.105" layer="1" rot="R270" />
          <rectangle x1="-2.79" y1="0.36" x2="-2.37" y2="1.14" layer="29" rot="R270" />
          <polygon width="0.001" layer="29">
            <vertex x="-2.19" y="0.96" curve="-90" />
            <vertex x="-1.98" y="0.75" curve="-90" />
            <vertex x="-2.19" y="0.54" />
          </polygon>
          <rectangle x1="-2.79" y1="0.36" x2="-2.37" y2="1.14" layer="31" rot="R270" />
          <polygon width="0.001" layer="31">
            <vertex x="-2.19" y="0.96" curve="-90" />
            <vertex x="-1.98" y="0.75" curve="-90" />
            <vertex x="-2.19" y="0.54" />
          </polygon>
          <smd name="P$4" x="-2.19" y="0.25" dx="0.28" dy="0.28" layer="1" roundness="100" rot="R270" stop="no" thermals="no" cream="no" />
          <rectangle x1="-2.685" y1="-0.105" x2="-2.405" y2="0.605" layer="1" rot="R270" />
          <rectangle x1="-2.79" y1="-0.14" x2="-2.37" y2="0.64" layer="29" rot="R270" />
          <polygon width="0.001" layer="29">
            <vertex x="-2.19" y="0.46" curve="-90" />
            <vertex x="-1.98" y="0.25" curve="-90" />
            <vertex x="-2.19" y="0.04" />
          </polygon>
          <rectangle x1="-2.79" y1="-0.14" x2="-2.37" y2="0.64" layer="31" rot="R270" />
          <polygon width="0.001" layer="31">
            <vertex x="-2.19" y="0.46" curve="-90" />
            <vertex x="-1.98" y="0.25" curve="-90" />
            <vertex x="-2.19" y="0.04" />
          </polygon>
          <smd name="P$5" x="-2.19" y="-0.25" dx="0.28" dy="0.28" layer="1" roundness="100" rot="R270" stop="no" thermals="no" cream="no" />
          <rectangle x1="-2.685" y1="-0.605" x2="-2.405" y2="0.105" layer="1" rot="R270" />
          <rectangle x1="-2.79" y1="-0.64" x2="-2.37" y2="0.14" layer="29" rot="R270" />
          <polygon width="0.001" layer="29">
            <vertex x="-2.19" y="-0.04" curve="-90" />
            <vertex x="-1.98" y="-0.25" curve="-90" />
            <vertex x="-2.19" y="-0.46" />
          </polygon>
          <rectangle x1="-2.79" y1="-0.64" x2="-2.37" y2="0.14" layer="31" rot="R270" />
          <polygon width="0.001" layer="31">
            <vertex x="-2.19" y="-0.04" curve="-90" />
            <vertex x="-1.98" y="-0.25" curve="-90" />
            <vertex x="-2.19" y="-0.46" />
          </polygon>
          <smd name="P$6" x="-2.19" y="-0.75" dx="0.28" dy="0.28" layer="1" roundness="100" rot="R270" stop="no" thermals="no" cream="no" />
          <rectangle x1="-2.685" y1="-1.105" x2="-2.405" y2="-0.395" layer="1" rot="R270" />
          <rectangle x1="-2.79" y1="-1.14" x2="-2.37" y2="-0.36" layer="29" rot="R270" />
          <polygon width="0.001" layer="29">
            <vertex x="-2.19" y="-0.54" curve="-90" />
            <vertex x="-1.98" y="-0.75" curve="-90" />
            <vertex x="-2.19" y="-0.96" />
          </polygon>
          <rectangle x1="-2.79" y1="-1.14" x2="-2.37" y2="-0.36" layer="31" rot="R270" />
          <polygon width="0.001" layer="31">
            <vertex x="-2.19" y="-0.54" curve="-90" />
            <vertex x="-1.98" y="-0.75" curve="-90" />
            <vertex x="-2.19" y="-0.96" />
          </polygon>
          <smd name="P$7" x="-2.19" y="-1.25" dx="0.28" dy="0.28" layer="1" roundness="100" rot="R270" stop="no" thermals="no" cream="no" />
          <rectangle x1="-2.685" y1="-1.605" x2="-2.405" y2="-0.895" layer="1" rot="R270" />
          <rectangle x1="-2.79" y1="-1.64" x2="-2.37" y2="-0.86" layer="29" rot="R270" />
          <polygon width="0.001" layer="29">
            <vertex x="-2.19" y="-1.04" curve="-90" />
            <vertex x="-1.98" y="-1.25" curve="-90" />
            <vertex x="-2.19" y="-1.46" />
          </polygon>
          <rectangle x1="-2.79" y1="-1.64" x2="-2.37" y2="-0.86" layer="31" rot="R270" />
          <polygon width="0.001" layer="31">
            <vertex x="-2.19" y="-1.04" curve="-90" />
            <vertex x="-1.98" y="-1.25" curve="-90" />
            <vertex x="-2.19" y="-1.46" />
          </polygon>
          <smd name="P$8" x="-2.19" y="-1.75" dx="0.28" dy="0.28" layer="1" roundness="100" rot="R270" stop="no" thermals="no" cream="no" />
          <rectangle x1="-2.685" y1="-2.105" x2="-2.405" y2="-1.395" layer="1" rot="R270" />
          <rectangle x1="-2.79" y1="-2.14" x2="-2.37" y2="-1.36" layer="29" rot="R270" />
          <polygon width="0.001" layer="29">
            <vertex x="-2.19" y="-1.54" curve="-90" />
            <vertex x="-1.98" y="-1.75" curve="-90" />
            <vertex x="-2.19" y="-1.96" />
          </polygon>
          <rectangle x1="-2.79" y1="-2.14" x2="-2.37" y2="-1.36" layer="31" rot="R270" />
          <polygon width="0.001" layer="31">
            <vertex x="-2.19" y="-1.54" curve="-90" />
            <vertex x="-1.98" y="-1.75" curve="-90" />
            <vertex x="-2.19" y="-1.96" />
          </polygon>
          <smd name="P$9" x="-1.75" y="-2.19" dx="0.28" dy="0.28" layer="1" roundness="100" stop="no" thermals="no" cream="no" />
          <rectangle x1="-1.89" y1="-2.9" x2="-1.61" y2="-2.19" layer="1" />
          <rectangle x1="-1.96" y1="-2.97" x2="-1.54" y2="-2.19" layer="29" />
          <polygon width="0.001" layer="29">
            <vertex x="-1.96" y="-2.19" curve="-90" />
            <vertex x="-1.75" y="-1.98" curve="-90" />
            <vertex x="-1.54" y="-2.19" />
          </polygon>
          <rectangle x1="-1.96" y1="-2.97" x2="-1.54" y2="-2.19" layer="31" />
          <polygon width="0.001" layer="31">
            <vertex x="-1.96" y="-2.19" curve="-90" />
            <vertex x="-1.75" y="-1.98" curve="-90" />
            <vertex x="-1.54" y="-2.19" />
          </polygon>
          <smd name="P$10" x="-1.25" y="-2.19" dx="0.28" dy="0.28" layer="1" roundness="100" stop="no" thermals="no" cream="no" />
          <rectangle x1="-1.39" y1="-2.9" x2="-1.11" y2="-2.19" layer="1" />
          <rectangle x1="-1.46" y1="-2.97" x2="-1.04" y2="-2.19" layer="29" />
          <polygon width="0.001" layer="29">
            <vertex x="-1.46" y="-2.19" curve="-90" />
            <vertex x="-1.25" y="-1.98" curve="-90" />
            <vertex x="-1.04" y="-2.19" />
          </polygon>
          <rectangle x1="-1.46" y1="-2.97" x2="-1.04" y2="-2.19" layer="31" />
          <polygon width="0.001" layer="31">
            <vertex x="-1.46" y="-2.19" curve="-90" />
            <vertex x="-1.25" y="-1.98" curve="-90" />
            <vertex x="-1.04" y="-2.19" />
          </polygon>
          <smd name="P$11" x="-0.75" y="-2.19" dx="0.28" dy="0.28" layer="1" roundness="100" stop="no" thermals="no" cream="no" />
          <rectangle x1="-0.89" y1="-2.9" x2="-0.61" y2="-2.19" layer="1" />
          <rectangle x1="-0.96" y1="-2.97" x2="-0.54" y2="-2.19" layer="29" />
          <polygon width="0.001" layer="29">
            <vertex x="-0.96" y="-2.19" curve="-90" />
            <vertex x="-0.75" y="-1.98" curve="-90" />
            <vertex x="-0.54" y="-2.19" />
          </polygon>
          <rectangle x1="-0.96" y1="-2.97" x2="-0.54" y2="-2.19" layer="31" />
          <polygon width="0.001" layer="31">
            <vertex x="-0.96" y="-2.19" curve="-90" />
            <vertex x="-0.75" y="-1.98" curve="-90" />
            <vertex x="-0.54" y="-2.19" />
          </polygon>
          <smd name="P$12" x="-0.25" y="-2.19" dx="0.28" dy="0.28" layer="1" roundness="100" stop="no" thermals="no" cream="no" />
          <rectangle x1="-0.39" y1="-2.9" x2="-0.11" y2="-2.19" layer="1" />
          <rectangle x1="-0.46" y1="-2.97" x2="-0.04" y2="-2.19" layer="29" />
          <polygon width="0.001" layer="29">
            <vertex x="-0.46" y="-2.19" curve="-90" />
            <vertex x="-0.25" y="-1.98" curve="-90" />
            <vertex x="-0.04" y="-2.19" />
          </polygon>
          <rectangle x1="-0.46" y1="-2.97" x2="-0.04" y2="-2.19" layer="31" />
          <polygon width="0.001" layer="31">
            <vertex x="-0.46" y="-2.19" curve="-90" />
            <vertex x="-0.25" y="-1.98" curve="-90" />
            <vertex x="-0.04" y="-2.19" />
          </polygon>
          <smd name="P$13" x="0.25" y="-2.19" dx="0.28" dy="0.28" layer="1" roundness="100" stop="no" thermals="no" cream="no" />
          <rectangle x1="0.11" y1="-2.9" x2="0.39" y2="-2.19" layer="1" />
          <rectangle x1="0.04" y1="-2.97" x2="0.46" y2="-2.19" layer="29" />
          <polygon width="0.001" layer="29">
            <vertex x="0.04" y="-2.19" curve="-90" />
            <vertex x="0.25" y="-1.98" curve="-90" />
            <vertex x="0.46" y="-2.19" />
          </polygon>
          <rectangle x1="0.04" y1="-2.97" x2="0.46" y2="-2.19" layer="31" />
          <polygon width="0.001" layer="31">
            <vertex x="0.04" y="-2.19" curve="-90" />
            <vertex x="0.25" y="-1.98" curve="-90" />
            <vertex x="0.46" y="-2.19" />
          </polygon>
          <smd name="P$14" x="0.75" y="-2.19" dx="0.28" dy="0.28" layer="1" roundness="100" stop="no" thermals="no" cream="no" />
          <rectangle x1="0.61" y1="-2.9" x2="0.89" y2="-2.19" layer="1" />
          <rectangle x1="0.54" y1="-2.97" x2="0.96" y2="-2.19" layer="29" />
          <polygon width="0.001" layer="29">
            <vertex x="0.54" y="-2.19" curve="-90" />
            <vertex x="0.75" y="-1.98" curve="-90" />
            <vertex x="0.96" y="-2.19" />
          </polygon>
          <rectangle x1="0.54" y1="-2.97" x2="0.96" y2="-2.19" layer="31" />
          <polygon width="0.001" layer="31">
            <vertex x="0.54" y="-2.19" curve="-90" />
            <vertex x="0.75" y="-1.98" curve="-90" />
            <vertex x="0.96" y="-2.19" />
          </polygon>
          <smd name="P$15" x="1.25" y="-2.19" dx="0.28" dy="0.28" layer="1" roundness="100" stop="no" thermals="no" cream="no" />
          <rectangle x1="1.11" y1="-2.9" x2="1.39" y2="-2.19" layer="1" />
          <rectangle x1="1.04" y1="-2.97" x2="1.46" y2="-2.19" layer="29" />
          <polygon width="0.001" layer="29">
            <vertex x="1.04" y="-2.19" curve="-90" />
            <vertex x="1.25" y="-1.98" curve="-90" />
            <vertex x="1.46" y="-2.19" />
          </polygon>
          <rectangle x1="1.04" y1="-2.97" x2="1.46" y2="-2.19" layer="31" />
          <polygon width="0.001" layer="31">
            <vertex x="1.04" y="-2.19" curve="-90" />
            <vertex x="1.25" y="-1.98" curve="-90" />
            <vertex x="1.46" y="-2.19" />
          </polygon>
          <smd name="P$16" x="1.75" y="-2.19" dx="0.28" dy="0.28" layer="1" roundness="100" stop="no" thermals="no" cream="no" />
          <rectangle x1="1.61" y1="-2.9" x2="1.89" y2="-2.19" layer="1" />
          <rectangle x1="1.54" y1="-2.97" x2="1.96" y2="-2.19" layer="29" />
          <polygon width="0.001" layer="29">
            <vertex x="1.54" y="-2.19" curve="-90" />
            <vertex x="1.75" y="-1.98" curve="-90" />
            <vertex x="1.96" y="-2.19" />
          </polygon>
          <rectangle x1="1.54" y1="-2.97" x2="1.96" y2="-2.19" layer="31" />
          <polygon width="0.001" layer="31">
            <vertex x="1.54" y="-2.19" curve="-90" />
            <vertex x="1.75" y="-1.98" curve="-90" />
            <vertex x="1.96" y="-2.19" />
          </polygon>
          <smd name="P$17" x="2.19" y="-1.75" dx="0.28" dy="0.28" layer="1" roundness="100" rot="R90" stop="no" thermals="no" cream="no" />
          <rectangle x1="2.405" y1="-2.105" x2="2.685" y2="-1.395" layer="1" rot="R90" />
          <rectangle x1="2.37" y1="-2.14" x2="2.79" y2="-1.36" layer="29" rot="R90" />
          <polygon width="0.001" layer="29">
            <vertex x="2.19" y="-1.96" curve="-90" />
            <vertex x="1.98" y="-1.75" curve="-90" />
            <vertex x="2.19" y="-1.54" />
          </polygon>
          <rectangle x1="2.37" y1="-2.14" x2="2.79" y2="-1.36" layer="31" rot="R90" />
          <polygon width="0.001" layer="31">
            <vertex x="2.19" y="-1.96" curve="-90" />
            <vertex x="1.98" y="-1.75" curve="-90" />
            <vertex x="2.19" y="-1.54" />
          </polygon>
          <smd name="P$18" x="2.19" y="-1.25" dx="0.28" dy="0.28" layer="1" roundness="100" rot="R90" stop="no" thermals="no" cream="no" />
          <rectangle x1="2.405" y1="-1.605" x2="2.685" y2="-0.895" layer="1" rot="R90" />
          <rectangle x1="2.37" y1="-1.64" x2="2.79" y2="-0.86" layer="29" rot="R90" />
          <polygon width="0.001" layer="29">
            <vertex x="2.19" y="-1.46" curve="-90" />
            <vertex x="1.98" y="-1.25" curve="-90" />
            <vertex x="2.19" y="-1.04" />
          </polygon>
          <rectangle x1="2.37" y1="-1.64" x2="2.79" y2="-0.86" layer="31" rot="R90" />
          <polygon width="0.001" layer="31">
            <vertex x="2.19" y="-1.46" curve="-90" />
            <vertex x="1.98" y="-1.25" curve="-90" />
            <vertex x="2.19" y="-1.04" />
          </polygon>
          <smd name="P$19" x="2.19" y="-0.75" dx="0.28" dy="0.28" layer="1" roundness="100" rot="R90" stop="no" thermals="no" cream="no" />
          <rectangle x1="2.405" y1="-1.105" x2="2.685" y2="-0.395" layer="1" rot="R90" />
          <rectangle x1="2.37" y1="-1.14" x2="2.79" y2="-0.36" layer="29" rot="R90" />
          <polygon width="0.001" layer="29">
            <vertex x="2.19" y="-0.96" curve="-90" />
            <vertex x="1.98" y="-0.75" curve="-90" />
            <vertex x="2.19" y="-0.54" />
          </polygon>
          <rectangle x1="2.37" y1="-1.14" x2="2.79" y2="-0.36" layer="31" rot="R90" />
          <polygon width="0.001" layer="31">
            <vertex x="2.19" y="-0.96" curve="-90" />
            <vertex x="1.98" y="-0.75" curve="-90" />
            <vertex x="2.19" y="-0.54" />
          </polygon>
          <smd name="P$20" x="2.19" y="-0.25" dx="0.28" dy="0.28" layer="1" roundness="100" rot="R90" stop="no" thermals="no" cream="no" />
          <rectangle x1="2.405" y1="-0.605" x2="2.685" y2="0.105" layer="1" rot="R90" />
          <rectangle x1="2.37" y1="-0.64" x2="2.79" y2="0.14" layer="29" rot="R90" />
          <polygon width="0.001" layer="29">
            <vertex x="2.19" y="-0.46" curve="-90" />
            <vertex x="1.98" y="-0.25" curve="-90" />
            <vertex x="2.19" y="-0.04" />
          </polygon>
          <rectangle x1="2.37" y1="-0.64" x2="2.79" y2="0.14" layer="31" rot="R90" />
          <polygon width="0.001" layer="31">
            <vertex x="2.19" y="-0.46" curve="-90" />
            <vertex x="1.98" y="-0.25" curve="-90" />
            <vertex x="2.19" y="-0.04" />
          </polygon>
          <smd name="P$21" x="2.19" y="0.25" dx="0.28" dy="0.28" layer="1" roundness="100" rot="R90" stop="no" thermals="no" cream="no" />
          <rectangle x1="2.405" y1="-0.105" x2="2.685" y2="0.605" layer="1" rot="R90" />
          <rectangle x1="2.37" y1="-0.14" x2="2.79" y2="0.64" layer="29" rot="R90" />
          <polygon width="0.001" layer="29">
            <vertex x="2.19" y="0.04" curve="-90" />
            <vertex x="1.98" y="0.25" curve="-90" />
            <vertex x="2.19" y="0.46" />
          </polygon>
          <rectangle x1="2.37" y1="-0.14" x2="2.79" y2="0.64" layer="31" rot="R90" />
          <polygon width="0.001" layer="31">
            <vertex x="2.19" y="0.04" curve="-90" />
            <vertex x="1.98" y="0.25" curve="-90" />
            <vertex x="2.19" y="0.46" />
          </polygon>
          <smd name="P$22" x="2.19" y="0.75" dx="0.28" dy="0.28" layer="1" roundness="100" rot="R90" stop="no" thermals="no" cream="no" />
          <rectangle x1="2.405" y1="0.395" x2="2.685" y2="1.105" layer="1" rot="R90" />
          <rectangle x1="2.37" y1="0.36" x2="2.79" y2="1.14" layer="29" rot="R90" />
          <polygon width="0.001" layer="29">
            <vertex x="2.19" y="0.54" curve="-90" />
            <vertex x="1.98" y="0.75" curve="-90" />
            <vertex x="2.19" y="0.96" />
          </polygon>
          <rectangle x1="2.37" y1="0.36" x2="2.79" y2="1.14" layer="31" rot="R90" />
          <polygon width="0.001" layer="31">
            <vertex x="2.19" y="0.54" curve="-90" />
            <vertex x="1.98" y="0.75" curve="-90" />
            <vertex x="2.19" y="0.96" />
          </polygon>
          <smd name="P$23" x="2.19" y="1.25" dx="0.28" dy="0.28" layer="1" roundness="100" rot="R90" stop="no" thermals="no" cream="no" />
          <rectangle x1="2.405" y1="0.895" x2="2.685" y2="1.605" layer="1" rot="R90" />
          <rectangle x1="2.37" y1="0.86" x2="2.79" y2="1.64" layer="29" rot="R90" />
          <polygon width="0.001" layer="29">
            <vertex x="2.19" y="1.04" curve="-90" />
            <vertex x="1.98" y="1.25" curve="-90" />
            <vertex x="2.19" y="1.46" />
          </polygon>
          <rectangle x1="2.37" y1="0.86" x2="2.79" y2="1.64" layer="31" rot="R90" />
          <polygon width="0.001" layer="31">
            <vertex x="2.19" y="1.04" curve="-90" />
            <vertex x="1.98" y="1.25" curve="-90" />
            <vertex x="2.19" y="1.46" />
          </polygon>
          <smd name="P$24" x="2.19" y="1.75" dx="0.28" dy="0.28" layer="1" roundness="100" rot="R90" stop="no" thermals="no" cream="no" />
          <rectangle x1="2.405" y1="1.395" x2="2.685" y2="2.105" layer="1" rot="R90" />
          <rectangle x1="2.37" y1="1.36" x2="2.79" y2="2.14" layer="29" rot="R90" />
          <polygon width="0.001" layer="29">
            <vertex x="2.19" y="1.54" curve="-90" />
            <vertex x="1.98" y="1.75" curve="-90" />
            <vertex x="2.19" y="1.96" />
          </polygon>
          <rectangle x1="2.37" y1="1.36" x2="2.79" y2="2.14" layer="31" rot="R90" />
          <polygon width="0.001" layer="31">
            <vertex x="2.19" y="1.54" curve="-90" />
            <vertex x="1.98" y="1.75" curve="-90" />
            <vertex x="2.19" y="1.96" />
          </polygon>
          <smd name="P$25" x="1.75" y="2.19" dx="0.28" dy="0.28" layer="1" roundness="100" rot="R180" stop="no" thermals="no" cream="no" />
          <rectangle x1="1.61" y1="2.19" x2="1.89" y2="2.9" layer="1" rot="R180" />
          <rectangle x1="1.54" y1="2.19" x2="1.96" y2="2.97" layer="29" rot="R180" />
          <polygon width="0.001" layer="29">
            <vertex x="1.96" y="2.19" curve="-90" />
            <vertex x="1.75" y="1.98" curve="-90" />
            <vertex x="1.54" y="2.19" />
          </polygon>
          <rectangle x1="1.54" y1="2.19" x2="1.96" y2="2.97" layer="31" rot="R180" />
          <polygon width="0.001" layer="31">
            <vertex x="1.96" y="2.19" curve="-90" />
            <vertex x="1.75" y="1.98" curve="-90" />
            <vertex x="1.54" y="2.19" />
          </polygon>
          <smd name="P$26" x="1.25" y="2.19" dx="0.28" dy="0.28" layer="1" roundness="100" rot="R180" stop="no" thermals="no" cream="no" />
          <rectangle x1="1.11" y1="2.19" x2="1.39" y2="2.9" layer="1" rot="R180" />
          <rectangle x1="1.04" y1="2.19" x2="1.46" y2="2.97" layer="29" rot="R180" />
          <polygon width="0.001" layer="29">
            <vertex x="1.46" y="2.19" curve="-90" />
            <vertex x="1.25" y="1.98" curve="-90" />
            <vertex x="1.04" y="2.19" />
          </polygon>
          <rectangle x1="1.04" y1="2.19" x2="1.46" y2="2.97" layer="31" rot="R180" />
          <polygon width="0.001" layer="31">
            <vertex x="1.46" y="2.19" curve="-90" />
            <vertex x="1.25" y="1.98" curve="-90" />
            <vertex x="1.04" y="2.19" />
          </polygon>
          <smd name="P$27" x="0.75" y="2.19" dx="0.28" dy="0.28" layer="1" roundness="100" rot="R180" stop="no" thermals="no" cream="no" />
          <rectangle x1="0.61" y1="2.19" x2="0.89" y2="2.9" layer="1" rot="R180" />
          <rectangle x1="0.54" y1="2.19" x2="0.96" y2="2.97" layer="29" rot="R180" />
          <polygon width="0.001" layer="29">
            <vertex x="0.96" y="2.19" curve="-90" />
            <vertex x="0.75" y="1.98" curve="-90" />
            <vertex x="0.54" y="2.19" />
          </polygon>
          <rectangle x1="0.54" y1="2.19" x2="0.96" y2="2.97" layer="31" rot="R180" />
          <polygon width="0.001" layer="31">
            <vertex x="0.96" y="2.19" curve="-90" />
            <vertex x="0.75" y="1.98" curve="-90" />
            <vertex x="0.54" y="2.19" />
          </polygon>
          <smd name="P$28" x="0.25" y="2.19" dx="0.28" dy="0.28" layer="1" roundness="100" rot="R180" stop="no" thermals="no" cream="no" />
          <rectangle x1="0.11" y1="2.19" x2="0.39" y2="2.9" layer="1" rot="R180" />
          <rectangle x1="0.04" y1="2.19" x2="0.46" y2="2.97" layer="29" rot="R180" />
          <polygon width="0.001" layer="29">
            <vertex x="0.46" y="2.19" curve="-90" />
            <vertex x="0.25" y="1.98" curve="-90" />
            <vertex x="0.04" y="2.19" />
          </polygon>
          <rectangle x1="0.04" y1="2.19" x2="0.46" y2="2.97" layer="31" rot="R180" />
          <polygon width="0.001" layer="31">
            <vertex x="0.46" y="2.19" curve="-90" />
            <vertex x="0.25" y="1.98" curve="-90" />
            <vertex x="0.04" y="2.19" />
          </polygon>
          <smd name="P$29" x="-0.25" y="2.19" dx="0.28" dy="0.28" layer="1" roundness="100" rot="R180" stop="no" thermals="no" cream="no" />
          <rectangle x1="-0.39" y1="2.19" x2="-0.11" y2="2.9" layer="1" rot="R180" />
          <rectangle x1="-0.46" y1="2.19" x2="-0.04" y2="2.97" layer="29" rot="R180" />
          <polygon width="0.001" layer="29">
            <vertex x="-0.04" y="2.19" curve="-90" />
            <vertex x="-0.25" y="1.98" curve="-90" />
            <vertex x="-0.46" y="2.19" />
          </polygon>
          <rectangle x1="-0.46" y1="2.19" x2="-0.04" y2="2.97" layer="31" rot="R180" />
          <polygon width="0.001" layer="31">
            <vertex x="-0.04" y="2.19" curve="-90" />
            <vertex x="-0.25" y="1.98" curve="-90" />
            <vertex x="-0.46" y="2.19" />
          </polygon>
          <smd name="P$30" x="-0.75" y="2.19" dx="0.28" dy="0.28" layer="1" roundness="100" rot="R180" stop="no" thermals="no" cream="no" />
          <rectangle x1="-0.89" y1="2.19" x2="-0.61" y2="2.9" layer="1" rot="R180" />
          <rectangle x1="-0.96" y1="2.19" x2="-0.54" y2="2.97" layer="29" rot="R180" />
          <polygon width="0.001" layer="29">
            <vertex x="-0.54" y="2.19" curve="-90" />
            <vertex x="-0.75" y="1.98" curve="-90" />
            <vertex x="-0.96" y="2.19" />
          </polygon>
          <rectangle x1="-0.96" y1="2.19" x2="-0.54" y2="2.97" layer="31" rot="R180" />
          <polygon width="0.001" layer="31">
            <vertex x="-0.54" y="2.19" curve="-90" />
            <vertex x="-0.75" y="1.98" curve="-90" />
            <vertex x="-0.96" y="2.19" />
          </polygon>
          <smd name="P$31" x="-1.25" y="2.19" dx="0.28" dy="0.28" layer="1" roundness="100" rot="R180" stop="no" thermals="no" cream="no" />
          <rectangle x1="-1.39" y1="2.19" x2="-1.11" y2="2.9" layer="1" rot="R180" />
          <rectangle x1="-1.46" y1="2.19" x2="-1.04" y2="2.97" layer="29" rot="R180" />
          <polygon width="0.001" layer="29">
            <vertex x="-1.04" y="2.19" curve="-90" />
            <vertex x="-1.25" y="1.98" curve="-90" />
            <vertex x="-1.46" y="2.19" />
          </polygon>
          <rectangle x1="-1.46" y1="2.19" x2="-1.04" y2="2.97" layer="31" rot="R180" />
          <polygon width="0.001" layer="31">
            <vertex x="-1.04" y="2.19" curve="-90" />
            <vertex x="-1.25" y="1.98" curve="-90" />
            <vertex x="-1.46" y="2.19" />
          </polygon>
          <smd name="P$32" x="-1.75" y="2.19" dx="0.28" dy="0.28" layer="1" roundness="100" rot="R180" stop="no" thermals="no" cream="no" />
          <rectangle x1="-1.89" y1="2.19" x2="-1.61" y2="2.9" layer="1" rot="R180" />
          <rectangle x1="-1.96" y1="2.19" x2="-1.54" y2="2.97" layer="29" rot="R180" />
          <polygon width="0.001" layer="29">
            <vertex x="-1.54" y="2.19" curve="-90" />
            <vertex x="-1.75" y="1.98" curve="-90" />
            <vertex x="-1.96" y="2.19" />
          </polygon>
          <rectangle x1="-1.96" y1="2.19" x2="-1.54" y2="2.97" layer="31" rot="R180" />
          <polygon width="0.001" layer="31">
            <vertex x="-1.54" y="2.19" curve="-90" />
            <vertex x="-1.75" y="1.98" curve="-90" />
            <vertex x="-1.96" y="2.19" />
          </polygon>
          <circle x="-3.44" y="2" radius="0.1524" width="0" layer="21" />
          <text x="-2.785" y="3.34" size="1.016" layer="25" font="vector" ratio="15">&gt;NAME</text>
          <smd name="P$33" x="0" y="0" dx="3.45" dy="3.45" layer="1" cream="no" />
          <rectangle x1="-1.5" y1="0.15" x2="-0.15" y2="1.5" layer="31" />
          <rectangle x1="0.15" y1="0.15" x2="1.5" y2="1.5" layer="31" />
          <rectangle x1="-1.5" y1="-1.5" x2="-0.15" y2="-0.15" layer="31" />
          <rectangle x1="0.15" y1="-1.5" x2="1.5" y2="-0.15" layer="31" />
          <pad name="P$34" x="-1" y="1" drill="0.2" diameter="0.35" />
          <pad name="P$35" x="0" y="1" drill="0.2" diameter="0.35" />
          <pad name="P$36" x="1" y="1" drill="0.2" diameter="0.35" />
          <pad name="P$37" x="-1" y="0" drill="0.2" diameter="0.35" />
          <pad name="P$38" x="0" y="0" drill="0.2" diameter="0.35" />
          <pad name="P$39" x="1" y="0" drill="0.2" diameter="0.35" />
          <pad name="P$40" x="-1" y="-1" drill="0.2" diameter="0.35" />
          <pad name="P$41" x="0" y="-1" drill="0.2" diameter="0.35" />
          <pad name="P$42" x="1" y="-1" drill="0.2" diameter="0.35" />
        </package>
      </packages>
      <symbols>
        <symbol name="24LEDSINK">
          <pin name="SIN" x="-20.32" y="15.24" length="middle" direction="pas" />
          <pin name="SCLK" x="-20.32" y="12.7" length="middle" direction="pas" />
          <pin name="XLAT" x="-20.32" y="10.16" length="middle" direction="pas" />
          <pin name="BLANK" x="-20.32" y="7.62" length="middle" direction="pas" />
          <pin name="IREF" x="-20.32" y="0" length="middle" direction="pas" />
          <pin name="VCC" x="-20.32" y="-5.08" length="middle" direction="pas" />
          <pin name="SOUT" x="-20.32" y="-12.7" length="middle" direction="pas" />
          <pin name="GND" x="-20.32" y="-20.32" length="middle" direction="pas" />
          <pin name="OUT0" x="-10.16" y="30.48" length="middle" direction="pas" rot="R270" />
          <pin name="OUT1" x="-7.62" y="30.48" length="middle" direction="pas" rot="R270" />
          <pin name="OUT2" x="-5.08" y="30.48" length="middle" direction="pas" rot="R270" />
          <pin name="OUT3" x="-2.54" y="30.48" length="middle" direction="pas" rot="R270" />
          <pin name="OUT4" x="0" y="30.48" length="middle" direction="pas" rot="R270" />
          <pin name="OUT5" x="2.54" y="30.48" length="middle" direction="pas" rot="R270" />
          <pin name="OUT6" x="5.08" y="30.48" length="middle" direction="pas" rot="R270" />
          <pin name="OUT7" x="7.62" y="30.48" length="middle" direction="pas" rot="R270" />
          <pin name="OUT8" x="22.86" y="17.78" length="middle" direction="pas" rot="R180" />
          <pin name="OUT9" x="22.86" y="15.24" length="middle" direction="pas" rot="R180" />
          <pin name="OUT10" x="22.86" y="12.7" length="middle" direction="pas" rot="R180" />
          <pin name="OUT11" x="22.86" y="10.16" length="middle" direction="pas" rot="R180" />
          <pin name="OUT12" x="22.86" y="7.62" length="middle" direction="pas" rot="R180" />
          <pin name="OUT13" x="22.86" y="5.08" length="middle" direction="pas" rot="R180" />
          <pin name="OUT14" x="22.86" y="2.54" length="middle" direction="pas" rot="R180" />
          <pin name="OUT15" x="22.86" y="0" length="middle" direction="pas" rot="R180" />
          <pin name="OUT16" x="22.86" y="-2.54" length="middle" direction="pas" rot="R180" />
          <pin name="OUT17" x="22.86" y="-5.08" length="middle" direction="pas" rot="R180" />
          <pin name="OUT18" x="22.86" y="-7.62" length="middle" direction="pas" rot="R180" />
          <pin name="OUT19" x="22.86" y="-10.16" length="middle" direction="pas" rot="R180" />
          <pin name="OUT20" x="22.86" y="-12.7" length="middle" direction="pas" rot="R180" />
          <pin name="OUT21" x="22.86" y="-15.24" length="middle" direction="pas" rot="R180" />
          <pin name="OUT22" x="22.86" y="-17.78" length="middle" direction="pas" rot="R180" />
          <pin name="OUT23" x="22.86" y="-20.32" length="middle" direction="pas" rot="R180" />
          <wire x1="17.78" y1="25.4" x2="-15.24" y2="25.4" width="0.254" layer="94" />
          <wire x1="-15.24" y1="25.4" x2="-15.24" y2="-25.4" width="0.254" layer="94" />
          <wire x1="-15.24" y1="-25.4" x2="17.78" y2="-25.4" width="0.254" layer="94" />
          <wire x1="17.78" y1="-25.4" x2="17.78" y2="25.4" width="0.254" layer="94" />
          <text x="17.78" y="30.48" size="1.778" layer="95">&gt;NAME</text>
          <text x="17.78" y="27.94" size="1.778" layer="96">&gt;VALUE</text>
          <pin name="THERMAL" x="-20.32" y="-22.86" length="middle" direction="pas" />
        </symbol>
      </symbols>
      <devicesets>
        <deviceset name="TLC5947RHBTG4">
          <gates>
            <gate name="G$1" symbol="24LEDSINK" x="0" y="0" />
          </gates>
          <devices>
            <device name="" package="VQFN32" xmlns="eagle">
              <connects>
                <connect gate="G$1" pin="BLANK" pad="P$30" />
                <connect gate="G$1" pin="GND" pad="P$29" />
                <connect gate="G$1" pin="IREF" pad="P$27" />
                <connect gate="G$1" pin="OUT0" pad="P$1" />
                <connect gate="G$1" pin="OUT1" pad="P$2" />
                <connect gate="G$1" pin="OUT10" pad="P$11" />
                <connect gate="G$1" pin="OUT11" pad="P$12" />
                <connect gate="G$1" pin="OUT12" pad="P$13" />
                <connect gate="G$1" pin="OUT13" pad="P$14" />
                <connect gate="G$1" pin="OUT14" pad="P$15" />
                <connect gate="G$1" pin="OUT15" pad="P$16" />
                <connect gate="G$1" pin="OUT16" pad="P$17" />
                <connect gate="G$1" pin="OUT17" pad="P$18" />
                <connect gate="G$1" pin="OUT18" pad="P$19" />
                <connect gate="G$1" pin="OUT19" pad="P$20" />
                <connect gate="G$1" pin="OUT2" pad="P$3" />
                <connect gate="G$1" pin="OUT20" pad="P$21" />
                <connect gate="G$1" pin="OUT21" pad="P$22" />
                <connect gate="G$1" pin="OUT22" pad="P$23" />
                <connect gate="G$1" pin="OUT23" pad="P$24" />
                <connect gate="G$1" pin="OUT3" pad="P$4" />
                <connect gate="G$1" pin="OUT4" pad="P$5" />
                <connect gate="G$1" pin="OUT5" pad="P$6" />
                <connect gate="G$1" pin="OUT6" pad="P$7" />
                <connect gate="G$1" pin="OUT7" pad="P$8" />
                <connect gate="G$1" pin="OUT8" pad="P$9" />
                <connect gate="G$1" pin="OUT9" pad="P$10" />
                <connect gate="G$1" pin="SCLK" pad="P$31" />
                <connect gate="G$1" pin="SIN" pad="P$32" />
                <connect gate="G$1" pin="SOUT" pad="P$25" />
                <connect gate="G$1" pin="THERMAL" pad="P$33 P$34 P$35 P$36 P$37 P$38 P$39 P$40 P$41 P$42" route="any" />
                <connect gate="G$1" pin="VCC" pad="P$28" />
                <connect gate="G$1" pin="XLAT" pad="P$26" />
              </connects>
              <technologies>
                <technology name="" />
              </technologies>
            </device>
          </devices>
        </deviceset>
      </devicesets>
    </library>
  </drawing>
</eagle>