<?xml version="1.0" encoding="utf-8"?>
<!DOCTYPE eagle SYSTEM "eagle.dtd">
<eagle version="6.5.0">
<drawing>
<settings>
<setting alwaysvectorfont="no"/>
<setting verticaltext="up"/>
</settings>
<grid distance="0.2" unitdist="mm" unit="mm" style="lines" multiple="1" display="yes" altdistance="0.025" altunitdist="inch" altunit="inch"/>
<layers>
<layer number="1" name="Top" color="4" fill="1" visible="yes" active="yes"/>
<layer number="16" name="Bottom" color="1" fill="1" visible="yes" active="yes"/>
<layer number="17" name="Pads" color="2" fill="1" visible="yes" active="yes"/>
<layer number="18" name="Vias" color="2" fill="1" visible="yes" active="yes"/>
<layer number="19" name="Unrouted" color="6" fill="1" visible="yes" active="yes"/>
<layer number="20" name="Dimension" color="15" fill="1" visible="yes" active="yes"/>
<layer number="21" name="tPlace" color="7" fill="1" visible="yes" active="yes"/>
<layer number="22" name="bPlace" color="7" fill="1" visible="yes" active="yes"/>
<layer number="23" name="tOrigins" color="15" fill="1" visible="yes" active="yes"/>
<layer number="24" name="bOrigins" color="15" fill="1" visible="yes" active="yes"/>
<layer number="25" name="tNames" color="7" fill="1" visible="yes" active="yes"/>
<layer number="26" name="bNames" color="7" fill="1" visible="yes" active="yes"/>
<layer number="27" name="tValues" color="7" fill="1" visible="yes" active="yes"/>
<layer number="28" name="bValues" color="7" fill="1" visible="yes" active="yes"/>
<layer number="29" name="tStop" color="7" fill="3" visible="yes" active="yes"/>
<layer number="30" name="bStop" color="7" fill="6" visible="yes" active="yes"/>
<layer number="31" name="tCream" color="7" fill="4" visible="yes" active="yes"/>
<layer number="32" name="bCream" color="7" fill="5" visible="yes" active="yes"/>
<layer number="33" name="tFinish" color="6" fill="3" visible="yes" active="yes"/>
<layer number="34" name="bFinish" color="6" fill="6" visible="yes" active="yes"/>
<layer number="35" name="tGlue" color="7" fill="4" visible="yes" active="yes"/>
<layer number="36" name="bGlue" color="7" fill="5" visible="yes" active="yes"/>
<layer number="37" name="tTest" color="7" fill="1" visible="yes" active="yes"/>
<layer number="38" name="bTest" color="7" fill="1" visible="yes" active="yes"/>
<layer number="39" name="tKeepout" color="4" fill="11" visible="yes" active="yes"/>
<layer number="40" name="bKeepout" color="1" fill="11" visible="yes" active="yes"/>
<layer number="41" name="tRestrict" color="4" fill="10" visible="yes" active="yes"/>
<layer number="42" name="bRestrict" color="1" fill="10" visible="yes" active="yes"/>
<layer number="43" name="vRestrict" color="2" fill="10" visible="yes" active="yes"/>
<layer number="44" name="Drills" color="7" fill="1" visible="yes" active="yes"/>
<layer number="45" name="Holes" color="7" fill="1" visible="yes" active="yes"/>
<layer number="46" name="Milling" color="3" fill="1" visible="yes" active="yes"/>
<layer number="47" name="Measures" color="7" fill="1" visible="yes" active="yes"/>
<layer number="48" name="Document" color="7" fill="1" visible="yes" active="yes"/>
<layer number="49" name="Reference" color="7" fill="1" visible="yes" active="yes"/>
<layer number="50" name="dxf" color="7" fill="1" visible="yes" active="yes"/>
<layer number="51" name="tDocu" color="7" fill="1" visible="yes" active="yes"/>
<layer number="52" name="bDocu" color="7" fill="1" visible="yes" active="yes"/>
<layer number="53" name="tGND_GNDA" color="7" fill="1" visible="yes" active="yes"/>
<layer number="54" name="bGND_GNDA" color="7" fill="1" visible="yes" active="yes"/>
<layer number="56" name="wert" color="7" fill="1" visible="yes" active="yes"/>
<layer number="57" name="tCAD" color="7" fill="1" visible="yes" active="yes"/>
<layer number="91" name="Nets" color="2" fill="1" visible="yes" active="yes"/>
<layer number="92" name="Busses" color="1" fill="1" visible="yes" active="yes"/>
<layer number="93" name="Pins" color="2" fill="1" visible="yes" active="yes"/>
<layer number="94" name="Symbols" color="4" fill="1" visible="yes" active="yes"/>
<layer number="95" name="Names" color="7" fill="1" visible="yes" active="yes"/>
<layer number="96" name="Values" color="7" fill="1" visible="yes" active="yes"/>
<layer number="97" name="Info" color="7" fill="1" visible="yes" active="yes"/>
<layer number="98" name="Guide" color="6" fill="1" visible="yes" active="yes"/>
<layer number="99" name="SpiceOrder" color="7" fill="1" visible="yes" active="yes"/>
</layers>
<library>
<packages>
<package name="SOT23-3">
<smd name="3" x="0.925" y="0" dx="0.5" dy="0.75" layer="1" rot="R90"/>
<text x="-1.9255" y="1.848" size="1.016" layer="25" font="vector" ratio="15">&gt;NAME</text>
<circle x="-2.35" y="1.6" radius="0.1524" width="0" layer="21"/>
<smd name="1" x="-0.925" y="0.95" dx="0.5" dy="0.75" layer="1" rot="R90"/>
<smd name="2" x="-0.925" y="-0.95" dx="0.5" dy="0.75" layer="1" rot="R90"/>
<wire x1="-0.3" y1="1.5" x2="0.81" y2="1.5" width="0.1524" layer="21"/>
<wire x1="0.81" y1="1.5" x2="0.81" y2="0.8" width="0.1524" layer="21"/>
<wire x1="-0.3" y1="-1.5" x2="0.806" y2="-1.5" width="0.1524" layer="21"/>
<wire x1="0.806" y1="-1.5" x2="0.806" y2="-0.8" width="0.1524" layer="21"/>
<wire x1="-0.75" y1="0.33" x2="-0.75" y2="-0.33" width="0.1524" layer="21"/>
</package>
</packages>
<symbols>
<symbol name="MMBFJ270">
<wire x1="-3.6576" y1="2.413" x2="-3.6576" y2="-2.54" width="0.254" layer="94"/>
<wire x1="0" y1="1.905" x2="-2.0066" y2="1.905" width="0.1524" layer="94"/>
<wire x1="0" y1="0" x2="0" y2="-1.905" width="0.1524" layer="94"/>
<wire x1="-2.032" y1="-1.905" x2="0" y2="-1.905" width="0.1524" layer="94"/>
<wire x1="0" y1="2.54" x2="0" y2="1.905" width="0.1524" layer="94"/>
<wire x1="0" y1="1.905" x2="2.54" y2="1.905" width="0.1524" layer="94"/>
<wire x1="2.54" y1="-1.905" x2="0" y2="-1.905" width="0.1524" layer="94"/>
<wire x1="0" y1="-1.905" x2="0" y2="-2.54" width="0.1524" layer="94"/>
<wire x1="2.54" y1="-1.905" x2="2.54" y2="-0.762" width="0.1524" layer="94"/>
<wire x1="2.54" y1="-0.762" x2="2.54" y2="1.905" width="0.1524" layer="94"/>
<wire x1="2.54" y1="-0.762" x2="3.175" y2="0.635" width="0.1524" layer="94"/>
<wire x1="3.175" y1="0.635" x2="1.905" y2="0.635" width="0.1524" layer="94"/>
<wire x1="1.905" y1="0.635" x2="2.54" y2="-0.762" width="0.1524" layer="94"/>
<wire x1="3.175" y1="-0.762" x2="2.54" y2="-0.762" width="0.1524" layer="94"/>
<wire x1="2.54" y1="-0.762" x2="1.905" y2="-0.762" width="0.1524" layer="94"/>
<wire x1="1.905" y1="-0.762" x2="1.651" y2="-1.016" width="0.1524" layer="94"/>
<wire x1="3.175" y1="-0.762" x2="3.429" y2="-0.508" width="0.1524" layer="94"/>
<wire x1="0" y1="0" x2="-1.27" y2="0.508" width="0.1524" layer="94"/>
<wire x1="-1.27" y1="0.508" x2="-1.27" y2="-0.508" width="0.1524" layer="94"/>
<wire x1="-1.27" y1="-0.508" x2="0" y2="0" width="0.1524" layer="94"/>
<wire x1="-1.143" y1="0" x2="-2.032" y2="0" width="0.1524" layer="94"/>
<wire x1="-1.143" y1="-0.254" x2="-0.254" y2="0" width="0.3048" layer="94"/>
<wire x1="-0.254" y1="0" x2="-1.143" y2="0.254" width="0.3048" layer="94"/>
<wire x1="-1.143" y1="0.254" x2="-1.143" y2="0" width="0.3048" layer="94"/>
<wire x1="-1.143" y1="0" x2="-0.889" y2="0" width="0.3048" layer="94"/>
<wire x1="-3.81" y1="0" x2="-5.08" y2="0" width="0.1524" layer="94"/>
<circle x="0" y="-1.905" radius="0.127" width="0.4064" layer="94"/>
<circle x="0" y="1.905" radius="0.127" width="0.4064" layer="94"/>
<text x="5.08" y="2.54" size="1.778" layer="95">&gt;NAME</text>
<text x="5.08" y="0" size="1.778" layer="96">&gt;VALUE</text>
<text x="-1.27" y="2.54" size="1.778" layer="93">D</text>
<text x="-1.27" y="-3.556" size="1.778" layer="93">S</text>
<text x="-5.08" y="-1.27" size="1.778" layer="93">G</text>
<rectangle x1="-2.794" y1="-2.54" x2="-2.032" y2="-1.27" layer="94"/>
<rectangle x1="-2.794" y1="1.27" x2="-2.032" y2="2.54" layer="94"/>
<rectangle x1="-2.794" y1="-0.889" x2="-2.032" y2="0.889" layer="94"/>
<pin name="G" x="-7.62" y="0" visible="off" length="short" direction="pas"/>
<pin name="D" x="0" y="5.08" visible="off" length="short" direction="pas" rot="R270"/>
<pin name="S" x="0" y="-5.08" visible="off" length="short" direction="pas" rot="R90"/>
</symbol>
</symbols>
<devicesets>
<deviceset name="MMBFJ270">
<gates>
<gate name="G$1" symbol="MMBFJ270" x="0" y="0"/>
</gates>
<devices>
<device name="" package="SOT23-3">
<connects>
<connect gate="G$1" pin="D" pad="1"/>
<connect gate="G$1" pin="G" pad="3"/>
<connect gate="G$1" pin="S" pad="2"/>
</connects>
<technologies>
<technology name=""/>
</technologies>
</device>
</devices>
</deviceset>
</devicesets>
</library>
</drawing>
</eagle>
