* OPA336 (TINA NETLIST EDITOR FORMAT)

* OPA336 REV A CREATED BY MAREK LIS 
* GREEN-LIS MACRO-MODEL ARCHITECTURE
* DECEMBER 31, 2013

********************************************
**  THIS FILE WAS CREATED BY TINA        **
**    (C) 1996-2006 DESIGNSOFT, INC.   **
********************************************

* THIS MACROMODEL HAS BEEN OPTIMIZED TO MODEL THE AC, DC, NOISE, AND TRANSIENT RESPONSE PERFORMANCE WITHIN 
* THE DEVICE DATA SHEET SPECIFIED LIMITS. CORRECT OPERATION OF THIS MACROMODEL HAS BEEN VERIFIED ON DESIGNSOFT
* TINA VERSION 7.0.80.224 SF. FOR HELP WITH OTHER ANALOG SIMULATION SOFTWARE, PLEASE CONSULT THE SOFTWARE SUPPLIER.
*
* COPYRIGHT 2011 BY TEXAS INSTRUMENTS CORPORATION
*
* BEGIN MODEL OPA336
*
*GREEN-LIS MACRO-MODEL SIMULATED FEATURES:
*
*OPEN LOOP GAIN AND PHASE VS FREQUENCY WITH RL AND CL EFFECTS
*INPUT COMMON MODE REJECTION WITH FREQUENCY
*POWER SUPPLY REJECTION WITH FREQUENCY
*INPUT IMPEDANCE VS FREQUENCY 
*OUTPUT IMPEDANCE VS FREQUENCY AND OUTPUT CURRENT
*INPUT VOLTAGE NOISE VS FREQUENCY
*INPUT CURRENT NOISE VS FREQUENCY 
*OUTPUT VOLTAGE SWING VS OUTPUT CURRENT
*SHORT-CIRCUIT OUTPUT CURRENT
*QUIESCENT CURRENT VS SUPPLY VOLTAGE
*SETTLING TIME VS CAPACITIVE LOAD
*SLEW RATE
*SMALL SIGNAL OVERSHOOT VS CAPACITIVE LOAD
*LARGE SIGNAL RESPONSE
*OVERLOAD RECOVERY TIME
*INPUT BIAS CURRENT
*INPUT VOLTAGE OFFSET
*INPUT COMMON MODE RANGE
*OUTPUT CURRENT COMING THROUGH THE SUPPLY RAILS

.SUBCKT OPA336 +IN -IN V+ V- Vout
V7          17 61 100M
Vos         30 31 185U
V11         63 64 100M
V10         65 66 100M
V6          13 71 100
V5          72 13 100
V4          68 70 3
V1          69 67 3
V9          83 18 100M
IS2         V+ 30 2P
IS1         V+ V- 20U
IS3         57 V- -1P
V3          87 13 5
V2          13 88 5
XIn12       31 13 FEMT_0
R37         32 33 100MEG 
C6          34 32  1.00000000000000E-0016 IC=0 
C4          13 35 1N IC=0 
EVCVS1      12 13 9 36  -1
R38         35 37 10 
VCCVS2_in   36 10
HCCVS2      37 13 VCCVS2_in   1K
XU7         35 13 36 33 VC_RES_0
C25         12 34 2P IC=0 
C24         12 11 3U IC=0 
R32         11 34 32K 
R31         34 33 100MEG 
R30         12 34 500K 
EVCVS2      33 13 13 34  20MEG
R15         +IN 13 100MEG 
XR102       38 39 RNOISE_FREE_0
XR101       40 38 RNOISE_FREE_0
C1          38 +IN 1 IC=0 
EVCVS34     13 +IN 38 +IN  1
EVCVS29     40 +IN V+ +IN  1
EVCVS28     39 +IN V- +IN  1
SW13        12 11 13 14  S_VSWITCH_1
SW14        11 12 15 13  S_VSWITCH_2
XR105       16 13 RNOISE_FREE_1
XR105_2     41 42 RNOISE_FREE_0
R24         13 22 1K 
R17         13 23 1K 
R11         13 43 1K 
R10         13 44 1K 
R9          13 15 1K 
R8          13 14 1K 
L4          13 42 1 IC=0 
L1          45 13 1.2M IC=0 
R2          45 46 1 
GVCCS8      13 46 13 47  1
XR109       48 13 RNOISE_FREE_0
C3          48 13 100F IC=0 
GVCCS4      13 48 27 13  1U
C2          49 13 100P IC=0 
XR109_2     49 13 RNOISE_FREE_2
GVCCS3      13 49 48 13  1M
R4          50 25 10M 
CinDiff     51 52 2P IC=0 
CinpCM      52 13 4P IC=0 
CinnCM      13 51 4P IC=0 
XIn11       31 13 FEMT_0
L2          53 13  1.00000000000000E-0018 IC=0 
XR109_3     27 13 RNOISE_FREE_0
XR109_4     54 13 RNOISE_FREE_0
XVn11       52 31 VNSE_0
XU14        55 13 56 57 VCVS_LIMIT_0
L3          58 13 1U IC=0 
Rcm2        53 55 1 
GVCCS2      13 55 13 59  1
XU13        17 60 IDEAL_D_0
EVCVS5      61 13 V- 13  1
C11         54 13 150F IC=0 
XR109_5     26 13 RNOISE_FREE_2
GVCCS12     13 27 54 13  1U
XU5         19 13 V+ 20 VCVS_LIMIT_1
XU6         13 19 21 V- VCVS_LIMIT_2
C15         V+ V- 10P IC=0 
C22         13 24 1P IC=0 
R29         24 16 1 
C23         13 28 1P IC=0 
C9          62 13 10P IC=0 
R26         62 19 10 
C21         13 15 1P IC=0 
C20         13 14 1P IC=0 
C19         22 13 1P IC=0 
C17         23 13 1P IC=0 
C16         13 43 1P IC=0 
C12         44 13 1P IC=0 
R13         9 28 1 
R36         28 66 1M 
R35         28 64 1M 
SW12        67 63 22 13  S_VSWITCH_3
SW11        65 68 13 23  S_VSWITCH_4
R34         28 69 1K 
R33         28 70 1K 
SW10        72 16 24 13  S_VSWITCH_5
SW9         16 71 13 24  S_VSWITCH_6
R25         73 22 1 
R19         74 23 1 
R16         75 43 1 
R14         76 44 1 
R12         77 15 1 
R7          78 14 1 
R5          79 26 10M 
R6          80 16 10M 
C13         26 13 100P IC=0 
GVCCS1      13 26 49 13  1M
GIsinking   V- 13 81 13  1M
GIsourcing  V+ 13 82 13  1M
R23         81 13 10K 
SW7         19 81 62 13  S_VSWITCH_7
R21         13 82 10K 
SW8         19 82 62 13  S_VSWITCH_8
SW4         80 77 15 13  S_VSWITCH_9
SW3         78 80 13 14  S_VSWITCH_10
XU3         68 29 78 13 VCVS_LIMIT_3
XU1         67 29 77 13 VCVS_LIMIT_3
SW2         50 73 22 13  S_VSWITCH_11
SW1         74 50 13 23  S_VSWITCH_12
XU8         30 V+ IDEAL_D_1
XU12        V- 30 IDEAL_D_1
EVCVS6      83 13 V+ 13  1
R22         84 60 100 
EVCVS4      84 13 30 13  1
XU2         60 18 IDEAL_D_0
SW6         79 75 43 13  S_VSWITCH_13
SW5         76 79 13 44  S_VSWITCH_14
XU26        60 57 13 85 VCCS_LIMIT_0
XU4         85 13 13 16 VCCS_LIMIT_1
LPSR        86 13 13U IC=0 
XVCVSPSRR   46 13 56 51 VCVS_LIMIT_4
XU22        87 19 74 13 VCVS_LIMIT_5
XU21        88 19 73 13 VCVS_LIMIT_5
XU20        21 Vout 75 13 VCVS_LIMIT_5
XU19        20 Vout 76 13 VCVS_LIMIT_6
XU11        V- 57 IDEAL_D_1
XU10        57 V+ IDEAL_D_1
C10         25 13 100P IC=0 
C5          27 13 150F IC=0 
XR109_6     25 13 RNOISE_FREE_2
GVCCS15     13 25 26 13  1M
GVCCS10     13 54 41 13  1U
R20         +IN 52 100 
R18         -IN 51 100 
GVCCS6      13 41 29 13  1U
XR105_3     29 13 RNOISE_FREE_0
XR103       13 85 RNOISE_FREE_0
RPSR        86 47 1 
GVCCS11     13 47 V+ V-  25U
Rcm1        58 59 1 
GVCCS7      13 59 30 13  50U
VCCVS1_in   10 Vout
HCCVS1      19 13 VCCVS1_in   1K
GVCCS5      13 29 16 13  1U
Ccc         16 13 155U IC=0 
EVCVS3      9 13 25 13  1
.MODEL S_VSWITCH_1 VSWITCH (RON=1 ROFF=100MEG VON=100M VOFF=-100M)
.MODEL S_VSWITCH_2 VSWITCH (RON=1 ROFF=100MEG VON=100M VOFF=-100M)
.MODEL S_VSWITCH_3 VSWITCH (RON=1 ROFF=10MEG VON=100M VOFF=-100M)
.MODEL S_VSWITCH_4 VSWITCH (RON=1 ROFF=10MEG VON=100M VOFF=-100M)
.MODEL S_VSWITCH_5 VSWITCH (RON=10M ROFF=100MEG VON=150 VOFF=130)
.MODEL S_VSWITCH_6 VSWITCH (RON=10M ROFF=100MEG VON=150 VOFF=130)
.MODEL S_VSWITCH_7 VSWITCH (RON=1M ROFF=10MEG VON=-10M VOFF=0)
.MODEL S_VSWITCH_8 VSWITCH (RON=1M ROFF=10MEG VON=10M VOFF=0)
.MODEL S_VSWITCH_9 VSWITCH (RON=1 ROFF=10MEG VON=1 VOFF=-1)
.MODEL S_VSWITCH_10 VSWITCH (RON=1 ROFF=10MEG VON=1 VOFF=-1)
.MODEL S_VSWITCH_11 VSWITCH (RON=1 ROFF=1G VON=10 VOFF=-10)
.MODEL S_VSWITCH_12 VSWITCH (RON=1 ROFF=1G VON=10 VOFF=-10)
.MODEL S_VSWITCH_13 VSWITCH (RON=1 ROFF=1G VON=10 VOFF=-10)
.MODEL S_VSWITCH_14 VSWITCH (RON=1 ROFF=1G VON=10 VOFF=-10)
.ENDS


* BEGIN PROG NSE FEMTO AMP/RT-HZ 
.SUBCKT FEMT_0  1 2
* BEGIN SETUP OF NOISE GEN - FEMPTOAMPS/RT-HZ
* INPUT THREE VARIABLES
* SET UP INSE 1/F
* FA/RHZ AT 1/F FREQ
.PARAM NLFF=0.001
* FREQ FOR 1/F VAL
.PARAM FLWF=1
* SET UP INSE FB
* FA/RHZ FLATBAND
.PARAM NVRF=0.001
* END USER INPUT
* START CALC VALS
.PARAM GLFF={PWR(FLWF,0.25)*NLFF/1164}
.PARAM RNVF={1.184*PWR(NVRF,2)}
.MODEL DVNF D KF={PWR(FLWF,0.5)/1E11} IS=1.0E-16
* END CALC VALS
I1 0 7 10E-3
I2 0 8 10E-3
D1 7 0 DVNF
D2 8 0 DVNF
E1 3 6 7 8 {GLFF}
R1 3 0 1E9
R2 3 0 1E9
R3 3 6 1E9
E2 6 4 5 0 10
R4 5 0 {RNVF}
R5 5 0 {RNVF}
R6 3 4 1E9
R7 4 0 1E9
G1 1 2 3 4 1E-6
C1 1 0 1E-15
C2 2 0 1E-15
C3 1 2 1E-15
.ENDS
* END PROG NSE FEMTO AMP/RT-HZ


*VOLTAGE CONTROLLED RESISTOR
.SUBCKT VC_RES_0  1      2      3    4
*              VC+    VC-   RES1 RES2
ERES 3 40 VALUE = {(I(VSENSE) * (ABS(V(1,2))*ABS(V(1,2))*0.000352-0.02359*ABS(V(1,2))+0.5922))*195000*156700*50*2/414500}
VSENSE 40 4 DC 0
.ENDS VC_RES_0 


* NOISELESS RESISTOR
.SUBCKT RNOISE_FREE_0  1 2
*ROHMS = VALUE IN OHMS OF NOISELESS RESISTOR
.PARAM ROHMS=1E6
ERES 1 3 VALUE = { I(VSENSE) * ROHMS }
RDUMMY 30 3 1
VSENSE 30 2 DC 0V
.ENDS RNOISE_FREE_0 


* NOISELESS RESISTOR
.SUBCKT RNOISE_FREE_1  1 2
*ROHMS = VALUE IN OHMS OF NOISELESS RESISTOR
.PARAM ROHMS=1E4
ERES 1 3 VALUE = { I(VSENSE) * ROHMS }
RDUMMY 30 3 1
VSENSE 30 2 DC 0V
.ENDS RNOISE_FREE_1 


* NOISELESS RESISTOR
.SUBCKT RNOISE_FREE_2  1 2
*ROHMS = VALUE IN OHMS OF NOISELESS RESISTOR
.PARAM ROHMS=1E3
ERES 1 3 VALUE = { I(VSENSE) * ROHMS }
RDUMMY 30 3 1
VSENSE 30 2 DC 0V
.ENDS RNOISE_FREE_2 


* BEGIN PROG NSE NANO VOLT/RT-HZ
.SUBCKT VNSE_0  1 2
* BEGIN SETUP OF NOISE GEN - NANOVOLT/RT-HZ
* INPUT THREE VARIABLES
* SET UP VNSE 1/F
* NV/RHZ AT 1/F FREQ
.PARAM NLF=200
* FREQ FOR 1/F VAL
.PARAM FLW=1
* SET UP VNSE FB
* NV/RHZ FLATBAND
.PARAM NVR=40
* END USER INPUT
* START CALC VALS
.PARAM GLF={PWR(FLW,0.25)*NLF/1164}
.PARAM RNV={1.184*PWR(NVR,2)}
.MODEL DVN D KF={PWR(FLW,0.5)/1E11} IS=1.0E-16
* END CALC VALS
I1 0 7 10E-3
I2 0 8 10E-3
D1 7 0 DVN
D2 8 0 DVN
E1 3 6 7 8 {GLF}
R1 3 0 1E9
R2 3 0 1E9
R3 3 6 1E9
E2 6 4 5 0 10
R4 5 0 {RNV}
R5 5 0 {RNV}
R6 3 4 1E9
R7 4 0 1E9
E3 1 2 3 4 1
C1 1 0 1E-15
C2 2 0 1E-15
C3 1 2 1E-15
.ENDS
* END PROG NSE NANOV/RT-HZ


*VOLTAGE CONTROLLED SOURCE WITH LIMITS
.SUBCKT VCVS_LIMIT_0  VC+ VC- VOUT+ VOUT-
*              
.PARAM GAIN = 1
.PARAM VPOS = 100M
.PARAM VNEG = -100M
E1 VOUT+ VOUT- VALUE={LIMIT(GAIN*V(VC+,VC-),VNEG,VPOS)}
.ENDS VCVS_LIMIT_0 


*TG IDEAL DIODE
.SUBCKT IDEAL_D_0  A C
D1 A C DNOM
.MODEL DNOM D (TT=10P CJO=1E-18 IS=1E-15 RS=1E-3)
.ENDS IDEAL_D_0 


*VOLTAGE CONTROLLED SOURCE WITH LIMITS
.SUBCKT VCVS_LIMIT_1  VC+ VC- VOUT+ VOUT-
*              

E1 VOUT+ VOUT- TABLE {ABS(V(VC+,VC-))} = (0.0,0.020)(2.5,0.5)(4.99,2.5)
.ENDS VCVS_LIMIT_1 



*VOLTAGE CONTROLLED SOURCE WITH LIMITS
.SUBCKT VCVS_LIMIT_2  VC+ VC- VOUT+ VOUT-
*              

E1 VOUT+ VOUT- TABLE {ABS(V(VC+,VC-))} = (0.0,0.020)(2.0,0.25)(4.0,1.0)(4.99,1.7)
.ENDS VCVS_LIMIT_2 



*VOLTAGE CONTROLLED SOURCE WITH LIMITS
.SUBCKT VCVS_LIMIT_3  VC+ VC- VOUT+ VOUT-
*              
.PARAM GAIN = 100
.PARAM VPOS = 6000
.PARAM VNEG = -6000
E1 VOUT+ VOUT- VALUE={LIMIT(GAIN*V(VC+,VC-),VNEG,VPOS)}
.ENDS VCVS_LIMIT_3 


*TG IDEAL DIODE
.SUBCKT IDEAL_D_1  A C
D1 A C DNOM 
.MODEL DNOM D (TT=10P CJO=1E-18 IS=1E-15 RS=1E-3)
.ENDS IDEAL_D_1 


*VOLTAGE CONTROLLED SOURCE WITH LIMITS
.SUBCKT VCCS_LIMIT_0  VC+ VC- IOUT+ IOUT-
*              
.PARAM GAIN = 1M
.PARAM IPOS = .5
.PARAM INEG = -.5
G1 IOUT+ IOUT- VALUE={LIMIT(GAIN*V(VC+,VC-),INEG,IPOS)}
.ENDS VCCS_LIMIT_0 


*VOLTAGE CONTROLLED SOURCE WITH LIMITS
.SUBCKT VCCS_LIMIT_1  VC+ VC- IOUT+ IOUT-
*              
.PARAM GAIN = 100M
.PARAM IPOS = 4.65
.PARAM INEG = -4.65
G1 IOUT+ IOUT- VALUE={LIMIT(GAIN*V(VC+,VC-),INEG,IPOS)}
.ENDS VCCS_LIMIT_1 


*VOLTAGE CONTROLLED SOURCE WITH LIMITS
.SUBCKT VCVS_LIMIT_4  VC+ VC- VOUT+ VOUT-
*              
.PARAM GAIN = -1
.PARAM VPOS = 100M
.PARAM VNEG = -100M
E1 VOUT+ VOUT- VALUE={LIMIT(GAIN*V(VC+,VC-),VNEG,VPOS)}
.ENDS VCVS_LIMIT_4 


*VOLTAGE CONTROLLED SOURCE WITH LIMITS
.SUBCKT VCVS_LIMIT_5  VC+ VC- VOUT+ VOUT-
*              
.PARAM GAIN = 100
.PARAM VPOS = 5000
.PARAM VNEG = -5000
E1 VOUT+ VOUT- VALUE={LIMIT(GAIN*V(VC+,VC-),VNEG,VPOS)}
.ENDS VCVS_LIMIT_5 


*VOLTAGE CONTROLLED SOURCE WITH LIMITS
.SUBCKT VCVS_LIMIT_6  VC+ VC- VOUT+ VOUT-
*             
.PARAM GAIN = 100
.PARAM VPOS = 5000
.PARAM VNEG = -5000
E1 VOUT+ VOUT- VALUE={LIMIT(GAIN*V(VC+,VC-),VNEG,VPOS)}
.ENDS VCVS_LIMIT_6 

.END
