<?xml version="1.0" encoding="utf-8"?>
<!DOCTYPE eagle SYSTEM "eagle.dtd">
<eagle version="6.5.0">
<drawing>
<settings>
<setting alwaysvectorfont="no"/>
<setting verticaltext="up"/>
</settings>
<grid distance="0.1" unitdist="inch" unit="inch" style="lines" multiple="1" display="no" altdistance="0.01" altunitdist="inch" altunit="inch"/>
<layers>
<layer number="1" name="Top" color="4" fill="1" visible="yes" active="yes"/>
<layer number="16" name="Bottom" color="1" fill="1" visible="yes" active="yes"/>
<layer number="17" name="Pads" color="2" fill="1" visible="yes" active="yes"/>
<layer number="18" name="Vias" color="2" fill="1" visible="yes" active="yes"/>
<layer number="19" name="Unrouted" color="6" fill="1" visible="yes" active="yes"/>
<layer number="20" name="Dimension" color="15" fill="1" visible="yes" active="yes"/>
<layer number="21" name="tPlace" color="7" fill="1" visible="yes" active="yes"/>
<layer number="22" name="bPlace" color="7" fill="1" visible="yes" active="yes"/>
<layer number="23" name="tOrigins" color="15" fill="1" visible="yes" active="yes"/>
<layer number="24" name="bOrigins" color="15" fill="1" visible="yes" active="yes"/>
<layer number="25" name="tNames" color="7" fill="1" visible="yes" active="yes"/>
<layer number="26" name="bNames" color="7" fill="1" visible="yes" active="yes"/>
<layer number="27" name="tValues" color="7" fill="1" visible="yes" active="yes"/>
<layer number="28" name="bValues" color="7" fill="1" visible="yes" active="yes"/>
<layer number="29" name="tStop" color="7" fill="3" visible="yes" active="yes"/>
<layer number="30" name="bStop" color="7" fill="6" visible="yes" active="yes"/>
<layer number="31" name="tCream" color="7" fill="4" visible="yes" active="yes"/>
<layer number="32" name="bCream" color="7" fill="5" visible="yes" active="yes"/>
<layer number="33" name="tFinish" color="6" fill="3" visible="yes" active="yes"/>
<layer number="34" name="bFinish" color="6" fill="6" visible="yes" active="yes"/>
<layer number="35" name="tGlue" color="7" fill="4" visible="yes" active="yes"/>
<layer number="36" name="bGlue" color="7" fill="5" visible="yes" active="yes"/>
<layer number="37" name="tTest" color="7" fill="1" visible="yes" active="yes"/>
<layer number="38" name="bTest" color="7" fill="1" visible="yes" active="yes"/>
<layer number="39" name="tKeepout" color="4" fill="11" visible="yes" active="yes"/>
<layer number="40" name="bKeepout" color="1" fill="11" visible="yes" active="yes"/>
<layer number="41" name="tRestrict" color="4" fill="10" visible="yes" active="yes"/>
<layer number="42" name="bRestrict" color="1" fill="10" visible="yes" active="yes"/>
<layer number="43" name="vRestrict" color="2" fill="10" visible="yes" active="yes"/>
<layer number="44" name="Drills" color="7" fill="1" visible="yes" active="yes"/>
<layer number="45" name="Holes" color="7" fill="1" visible="yes" active="yes"/>
<layer number="46" name="Milling" color="3" fill="1" visible="yes" active="yes"/>
<layer number="47" name="Measures" color="7" fill="1" visible="yes" active="yes"/>
<layer number="48" name="Document" color="7" fill="1" visible="yes" active="yes"/>
<layer number="49" name="Reference" color="7" fill="1" visible="yes" active="yes"/>
<layer number="50" name="dxf" color="7" fill="1" visible="yes" active="yes"/>
<layer number="51" name="tDocu" color="7" fill="1" visible="yes" active="yes"/>
<layer number="52" name="bDocu" color="7" fill="1" visible="yes" active="yes"/>
<layer number="53" name="tGND_GNDA" color="7" fill="1" visible="yes" active="yes"/>
<layer number="54" name="bGND_GNDA" color="7" fill="1" visible="yes" active="yes"/>
<layer number="56" name="wert" color="7" fill="1" visible="yes" active="yes"/>
<layer number="57" name="tCAD" color="7" fill="1" visible="yes" active="yes"/>
<layer number="91" name="Nets" color="2" fill="1" visible="yes" active="yes"/>
<layer number="92" name="Busses" color="1" fill="1" visible="yes" active="yes"/>
<layer number="93" name="Pins" color="2" fill="1" visible="yes" active="yes"/>
<layer number="94" name="Symbols" color="4" fill="1" visible="yes" active="yes"/>
<layer number="95" name="Names" color="7" fill="1" visible="yes" active="yes"/>
<layer number="96" name="Values" color="7" fill="1" visible="yes" active="yes"/>
<layer number="97" name="Info" color="7" fill="1" visible="yes" active="yes"/>
<layer number="98" name="Guide" color="6" fill="1" visible="yes" active="yes"/>
<layer number="99" name="SpiceOrder" color="7" fill="1" visible="yes" active="yes"/>
</layers>
<library>
<packages>
<package name="RM10">
<text x="-2.8" y="1.8" size="1.27" layer="25">&gt;NAME</text>
<wire x1="1.55" y1="1.55" x2="-1.55" y2="1.55" width="0.127" layer="21"/>
<wire x1="1.55" y1="-1.55" x2="-1.55" y2="-1.55" width="0.127" layer="21"/>
<smd name="P$1" x="-2.1" y="1" dx="0.3" dy="1.1" layer="1" rot="R270" stop="no"/>
<rectangle x1="-2.3" y1="0.4" x2="-1.9" y2="1.6" layer="29" rot="R270"/>
<smd name="P$2" x="-2.1" y="0.5" dx="0.3" dy="1.1" layer="1" rot="R270" stop="no"/>
<rectangle x1="-2.3" y1="-0.1" x2="-1.9" y2="1.1" layer="29" rot="R270"/>
<smd name="P$3" x="-2.1" y="0" dx="0.3" dy="1.1" layer="1" rot="R270" stop="no"/>
<rectangle x1="-2.3" y1="-0.6" x2="-1.9" y2="0.6" layer="29" rot="R270"/>
<smd name="P$4" x="-2.1" y="-0.5" dx="0.3" dy="1.1" layer="1" rot="R270" stop="no"/>
<rectangle x1="-2.3" y1="-1.1" x2="-1.9" y2="0.1" layer="29" rot="R270"/>
<smd name="P$5" x="-2.1" y="-1" dx="0.3" dy="1.1" layer="1" rot="R270" stop="no"/>
<rectangle x1="-2.3" y1="-1.6" x2="-1.9" y2="-0.4" layer="29" rot="R270"/>
<smd name="P$6" x="2.1" y="-1" dx="0.3" dy="1.1" layer="1" rot="R270" stop="no"/>
<rectangle x1="1.9" y1="-1.6" x2="2.3" y2="-0.4" layer="29" rot="R270"/>
<smd name="P$7" x="2.1" y="-0.5" dx="0.3" dy="1.1" layer="1" rot="R270" stop="no"/>
<rectangle x1="1.9" y1="-1.1" x2="2.3" y2="0.1" layer="29" rot="R270"/>
<smd name="P$8" x="2.1" y="0" dx="0.3" dy="1.1" layer="1" rot="R270" stop="no"/>
<rectangle x1="1.9" y1="-0.6" x2="2.3" y2="0.6" layer="29" rot="R270"/>
<smd name="P$9" x="2.1" y="0.5" dx="0.3" dy="1.1" layer="1" rot="R270" stop="no"/>
<rectangle x1="1.9" y1="-0.1" x2="2.3" y2="1.1" layer="29" rot="R270"/>
<smd name="P$10" x="2.1" y="1" dx="0.3" dy="1.1" layer="1" rot="R270" stop="no"/>
<rectangle x1="1.9" y1="0.4" x2="2.3" y2="1.6" layer="29" rot="R270"/>
<circle x="-3.2" y="1.4" radius="0.2" width="0.127" layer="21"/>
</package>
</packages>
<symbols>
<symbol name="ADA4897-2ARMZ">
<pin name="+IN1" x="-20.32" y="0" length="middle"/>
<pin name="-IN1" x="-20.32" y="5.08" length="middle"/>
<pin name="OUT1" x="-20.32" y="10.16" length="middle"/>
<pin name="-VS" x="-20.32" y="-5.08" length="middle"/>
<pin name="DISABLE1" x="-20.32" y="-10.16" length="middle"/>
<pin name="DISABLE2" x="20.32" y="-10.16" length="middle" rot="R180"/>
<pin name="+IN2" x="20.32" y="-5.08" length="middle" rot="R180"/>
<pin name="-IN2" x="20.32" y="0" length="middle" rot="R180"/>
<pin name="OUT2" x="20.32" y="5.08" length="middle" rot="R180"/>
<pin name="+VS" x="20.32" y="10.16" length="middle" rot="R180"/>
<wire x1="-15.24" y1="12.7" x2="-15.24" y2="-12.7" width="0.254" layer="94"/>
<wire x1="-15.24" y1="-12.7" x2="15.24" y2="-12.7" width="0.254" layer="94"/>
<wire x1="15.24" y1="-12.7" x2="15.24" y2="12.7" width="0.254" layer="94"/>
<wire x1="15.24" y1="12.7" x2="-15.24" y2="12.7" width="0.254" layer="94"/>
</symbol>
</symbols>
<devicesets>
<deviceset name="ADA4897-2ARMZ">
<gates>
<gate name="G$1" symbol="ADA4897-2ARMZ" x="0" y="0"/>
</gates>
<devices>
<device name="" package="RM10">
<connects>
<connect gate="G$1" pin="+IN1" pad="P$3"/>
<connect gate="G$1" pin="+IN2" pad="P$7"/>
<connect gate="G$1" pin="+VS" pad="P$10"/>
<connect gate="G$1" pin="-IN1" pad="P$2"/>
<connect gate="G$1" pin="-IN2" pad="P$8"/>
<connect gate="G$1" pin="-VS" pad="P$4"/>
<connect gate="G$1" pin="DISABLE1" pad="P$5"/>
<connect gate="G$1" pin="DISABLE2" pad="P$6"/>
<connect gate="G$1" pin="OUT1" pad="P$1"/>
<connect gate="G$1" pin="OUT2" pad="P$9"/>
</connects>
<technologies>
<technology name=""/>
</technologies>
</device>
</devices>
</deviceset>
</devicesets>
</library>
</drawing>
</eagle>
