<eagle version="6.5.0" xmlns="eagle">
  <drawing>
    <library>
      <packages>
        <package name="VL6180" xmlns="eagle">
          <circle x="-2.54" y="-1.651" radius="0.1524" width="0" layer="21" />
          <wire x1="-2.4" y1="1.4" x2="2.4" y2="1.4" width="0.1524" layer="51" />
          <wire x1="2.4" y1="1.4" x2="2.4" y2="-1.4" width="0.1524" layer="21" />
          <wire x1="2.4" y1="-1.4" x2="-2.4" y2="-1.4" width="0.1524" layer="51" />
          <wire x1="-2.4" y1="-1.4" x2="-2.4" y2="1.4" width="0.1524" layer="21" />
          <smd name="1" x="-1.875" y="-1" dx="0.55" dy="0.6" layer="1" cream="no" />
          <smd name="2" x="-1.125" y="-1" dx="0.55" dy="0.6" layer="1" cream="no" />
          <smd name="3" x="-0.375" y="-1" dx="0.55" dy="0.6" layer="1" cream="no" />
          <smd name="4" x="0.375" y="-1" dx="0.55" dy="0.6" layer="1" cream="no" />
          <smd name="5" x="1.125" y="-1" dx="0.55" dy="0.6" layer="1" cream="no" />
          <smd name="6" x="1.875" y="-1" dx="0.55" dy="0.6" layer="1" cream="no" />
          <smd name="7" x="1.875" y="1" dx="0.55" dy="0.6" layer="1" cream="no" />
          <smd name="8" x="1.125" y="1" dx="0.55" dy="0.6" layer="1" cream="no" />
          <smd name="9" x="0.375" y="1" dx="0.55" dy="0.6" layer="1" cream="no" />
          <smd name="10" x="-0.375" y="1" dx="0.55" dy="0.6" layer="1" cream="no" />
          <smd name="11" x="-1.125" y="1" dx="0.55" dy="0.6" layer="1" cream="no" />
          <smd name="12" x="-1.875" y="1" dx="0.55" dy="0.6" layer="1" cream="no" />
          <text x="-2.54" y="1.778" size="1.016" layer="25" font="vector" ratio="15">&gt;NAME</text>
          <polygon width="0.127" layer="31">
            <vertex x="-1.875" y="-0.825" curve="-90" />
            <vertex x="-1.725" y="-0.975" curve="-90" />
            <vertex x="-1.875" y="-1.125" curve="-90" />
            <vertex x="-2.025" y="-0.975" curve="-90" />
          </polygon>
          <polygon width="0.127" layer="31">
            <vertex x="-1.125" y="-0.825" curve="-90" />
            <vertex x="-0.975" y="-0.975" curve="-90" />
            <vertex x="-1.125" y="-1.125" curve="-90" />
            <vertex x="-1.275" y="-0.975" curve="-90" />
          </polygon>
          <polygon width="0.127" layer="31">
            <vertex x="-0.375" y="-0.825" curve="-90" />
            <vertex x="-0.225" y="-0.975" curve="-90" />
            <vertex x="-0.375" y="-1.125" curve="-90" />
            <vertex x="-0.525" y="-0.975" curve="-90" />
          </polygon>
          <polygon width="0.127" layer="31">
            <vertex x="0.375" y="-0.825" curve="-90" />
            <vertex x="0.525" y="-0.975" curve="-90" />
            <vertex x="0.375" y="-1.125" curve="-90" />
            <vertex x="0.225" y="-0.975" curve="-90" />
          </polygon>
          <polygon width="0.127" layer="31">
            <vertex x="1.125" y="-0.825" curve="-90" />
            <vertex x="1.275" y="-0.975" curve="-90" />
            <vertex x="1.125" y="-1.125" curve="-90" />
            <vertex x="0.975" y="-0.975" curve="-90" />
          </polygon>
          <polygon width="0.127" layer="31">
            <vertex x="1.875" y="-0.825" curve="-90" />
            <vertex x="2.025" y="-0.975" curve="-90" />
            <vertex x="1.875" y="-1.125" curve="-90" />
            <vertex x="1.725" y="-0.975" curve="-90" />
          </polygon>
          <polygon width="0.127" layer="31">
            <vertex x="1.875" y="1.125" curve="-90" />
            <vertex x="2.025" y="0.975" curve="-90" />
            <vertex x="1.875" y="0.825" curve="-90" />
            <vertex x="1.725" y="0.975" curve="-90" />
          </polygon>
          <polygon width="0.127" layer="31">
            <vertex x="1.125" y="1.125" curve="-90" />
            <vertex x="1.275" y="0.975" curve="-90" />
            <vertex x="1.125" y="0.825" curve="-90" />
            <vertex x="0.975" y="0.975" curve="-90" />
          </polygon>
          <polygon width="0.127" layer="31">
            <vertex x="0.375" y="1.125" curve="-90" />
            <vertex x="0.525" y="0.975" curve="-90" />
            <vertex x="0.375" y="0.825" curve="-90" />
            <vertex x="0.225" y="0.975" curve="-90" />
          </polygon>
          <polygon width="0.127" layer="31">
            <vertex x="-0.375" y="1.125" curve="-90" />
            <vertex x="-0.225" y="0.975" curve="-90" />
            <vertex x="-0.375" y="0.825" curve="-90" />
            <vertex x="-0.525" y="0.975" curve="-90" />
          </polygon>
          <polygon width="0.127" layer="31">
            <vertex x="-1.125" y="1.125" curve="-90" />
            <vertex x="-0.975" y="0.975" curve="-90" />
            <vertex x="-1.125" y="0.825" curve="-90" />
            <vertex x="-1.275" y="0.975" curve="-90" />
          </polygon>
          <polygon width="0.127" layer="31">
            <vertex x="-1.875" y="1.125" curve="-90" />
            <vertex x="-1.725" y="0.975" curve="-90" />
            <vertex x="-1.875" y="0.825" curve="-90" />
            <vertex x="-2.025" y="0.975" curve="-90" />
          </polygon>
        </package>
      </packages>
      <symbols>
        <symbol name="VL6180">
          <wire x1="-15.24" y1="-10.16" x2="15.24" y2="-10.16" width="0.254" layer="94" />
          <wire x1="15.24" y1="-10.16" x2="15.24" y2="10.16" width="0.254" layer="94" />
          <wire x1="15.24" y1="10.16" x2="-15.24" y2="10.16" width="0.254" layer="94" />
          <wire x1="-15.24" y1="10.16" x2="-15.24" y2="-10.16" width="0.254" layer="94" />
          <pin name="AVDD" x="20.32" y="7.62" length="middle" direction="pas" rot="R180" />
          <pin name="AVDD_VCSEL" x="20.32" y="5.08" length="middle" direction="pas" rot="R180" />
          <pin name="AVSS_VCSEL" x="20.32" y="-5.08" length="middle" direction="pas" rot="R180" />
          <pin name="GND" x="20.32" y="-7.62" length="middle" direction="pas" rot="R180" />
          <pin name="GPIO0" x="-20.32" y="2.54" length="middle" direction="pas" />
          <pin name="GPIO1" x="-20.32" y="7.62" length="middle" direction="pas" />
          <pin name="SCL" x="-20.32" y="-5.08" length="middle" direction="pas" />
          <pin name="SDA" x="-20.32" y="-7.62" length="middle" direction="pas" />
          <text x="-15.24" y="11.43" size="1.778" layer="94" ratio="15">&gt;NAME</text>
          <text x="-15.24" y="-12.7" size="1.778" layer="94" ratio="15">&gt;VALUE</text>
        </symbol>
      </symbols>
      <devicesets>
        <deviceset name="VL6180" prefix="U">
          <gates>
            <gate name="G$1" symbol="VL6180" x="0" y="0" />
          </gates>
          <devices>
            <device name="" package="VL6180" xmlns="eagle">
              <connects>
                <connect gate="G$1" pin="AVDD" pad="10" />
                <connect gate="G$1" pin="AVDD_VCSEL" pad="8" />
                <connect gate="G$1" pin="AVSS_VCSEL" pad="9" />
                <connect gate="G$1" pin="GND" pad="12" />
                <connect gate="G$1" pin="GPIO0" pad="4" />
                <connect gate="G$1" pin="GPIO1" pad="1" />
                <connect gate="G$1" pin="SCL" pad="5" />
                <connect gate="G$1" pin="SDA" pad="6" />
              </connects>
              <technologies>
                <technology name="">
                  <attribute name="PROD_ID" value="IC-12007" constant="no" />
                </technology>
              </technologies>
            </device>
          </devices>
        </deviceset>
      </devicesets>
    </library>
  </drawing>
</eagle>