{
  "boardWidth": 13.0,
  "boardHeight": 15.0,
  "numLayers": 2,
  "boardTemplate": null,
  "designRules": "MacroFab_2_Layer.dru",
  "omitBoundary": null,
  "packages": [
    {
      "name": "C1",
      "package": "TANT_6032-METRIC",
      "pkg_idx": 0,
      "ComponentID": "1e1c7e5a-172d-4d4f-8081-1b8a296bb458",
      "RelComponentID": null,
      "width": 7.8292,
      "height": 2.5,
      "koWidth": 7.8292,
      "koHeight": 2.5,
      "originX": -0.4,
      "originY": 0.0,
      "x": 1.7854,
      "y": 2.55,
      "rotation": 2,
      "layer": 1,
      "constraints": null,
      "multiLayer": null,
      "doNotPlace": null
    },
    {
      "name": "OutAtten",
      "package": "EVUFXL",
      "pkg_idx": 1,
      "ComponentID": "5c03b50f-e165-41e9-9e0b-ca0bf84ceaf5",
      "RelComponentID": null,
      "width": 11.8,
      "height": 13.7382,
      "koWidth": 11.8,
      "koHeight": 13.7382,
      "originX": 0.0,
      "originY": -1.0,
      "x": 0.5,
      "y": 0.4309,
      "rotation": 0,
      "layer": 0,
      "constraints": null,
      "multiLayer": null,
      "doNotPlace": null
    },
    {
      "name": "R1",
      "package": "R_0603",
      "pkg_idx": 2,
      "ComponentID": "7aad6913-0a9c-41a8-8aaa-1832ba56ab2e",
      "RelComponentID": null,
      "width": 2.4,
      "height": 0.8,
      "koWidth": 2.4,
      "koHeight": 0.8,
      "originX": 0.0,
      "originY": 0.0,
      "x": 10.3,
      "y": 0.9,
      "rotation": 3,
      "layer": 1,
      "constraints": null,
      "multiLayer": null,
      "doNotPlace": null
    }
  ],
  "signals": [
    {
      "name": "N$0",
      "length": 2.5350178288490333,
      "bends": 3,
      "RelComponentID": null,
      "pins": [
        {
          "name": "-",
          "gate": "G$1",
          "pad": "P$2",
          "package": "C1"
        },
        {
          "name": "1",
          "gate": "G$1",
          "pad": "P$1",
          "package": "R1"
        }
      ],
      "wires": [
        {
          "x1": 9.2964,
          "y1": 3.048,
          "x2": 10.668,
          "y2": 3.048,
          "width": 0.1524,
          "layer": 16,
          "curve": 0.0
        },
        {
          "x1": 8.6868,
          "y1": 3.6576,
          "x2": 9.2964,
          "y2": 3.048,
          "width": 0.1524,
          "layer": 16,
          "curve": 0.0
        },
        {
          "x1": 10.668,
          "y1": 3.048,
          "x2": 10.7,
          "y2": 2.9,
          "width": 0.1524,
          "layer": 16,
          "curve": 0.0
        },
        {
          "x1": 8.6868,
          "y1": 3.6576,
          "x2": 8.64,
          "y2": 3.8,
          "width": 0.1524,
          "layer": 16,
          "curve": 0.0
        }
      ],
      "vias": [],
      "polygons": []
    },
    {
      "name": "N$1",
      "length": 1.8710886558490132,
      "bends": 2,
      "RelComponentID": null,
      "pins": [
        {
          "name": "E",
          "gate": "G$1",
          "pad": "3",
          "package": "OutAtten"
        },
        {
          "name": "2",
          "gate": "G$1",
          "pad": "P$2",
          "package": "R1"
        }
      ],
      "wires": [
        {
          "x1": 8.9916,
          "y1": 1.3716,
          "x2": 10.668,
          "y2": 1.3716,
          "width": 0.1524,
          "layer": 16,
          "curve": 0.0
        },
        {
          "x1": 10.668,
          "y1": 1.3716,
          "x2": 10.7,
          "y2": 1.3,
          "width": 0.1524,
          "layer": 16,
          "curve": 0.0
        },
        {
          "x1": 8.9916,
          "y1": 1.3716,
          "x2": 8.9,
          "y2": 1.3,
          "width": 0.1524,
          "layer": 16,
          "curve": 0.0
        }
      ],
      "vias": [],
      "polygons": []
    }
  ],
  "constraints": null,
  "border": null
}