<eagle version="6.5.0" xmlns="eagle">
  <drawing>
    <library>
      <packages>
        <package name="LFCSP_20" xmlns="eagle">
          <smd name="1" x="-1.85" y="1" dx="0.25" dy="0.5" layer="1" rot="R270" />
          <smd name="2" x="-1.85" y="0.5" dx="0.25" dy="0.5" layer="1" rot="R270" />
          <smd name="3" x="-1.85" y="0" dx="0.25" dy="0.5" layer="1" rot="R270" />
          <smd name="4" x="-1.85" y="-0.5" dx="0.25" dy="0.5" layer="1" rot="R270" />
          <smd name="5" x="-1.85" y="-1" dx="0.25" dy="0.5" layer="1" rot="R270" />
          <smd name="6" x="-1" y="-1.85" dx="0.25" dy="0.5" layer="1" />
          <smd name="7" x="-0.5" y="-1.85" dx="0.25" dy="0.5" layer="1" />
          <smd name="8" x="0" y="-1.85" dx="0.25" dy="0.5" layer="1" />
          <smd name="9" x="0.5" y="-1.85" dx="0.25" dy="0.5" layer="1" />
          <smd name="10" x="1" y="-1.85" dx="0.25" dy="0.5" layer="1" />
          <smd name="11" x="1.85" y="-1" dx="0.25" dy="0.5" layer="1" rot="R90" />
          <smd name="12" x="1.85" y="-0.5" dx="0.25" dy="0.5" layer="1" rot="R90" />
          <smd name="13" x="1.85" y="0" dx="0.25" dy="0.5" layer="1" rot="R90" />
          <smd name="14" x="1.85" y="0.5" dx="0.25" dy="0.5" layer="1" rot="R90" />
          <smd name="15" x="1.85" y="1" dx="0.25" dy="0.5" layer="1" rot="R90" />
          <smd name="16" x="1" y="1.85" dx="0.25" dy="0.5" layer="1" rot="R180" />
          <smd name="17" x="0.5" y="1.85" dx="0.25" dy="0.5" layer="1" rot="R180" />
          <smd name="18" x="0" y="1.85" dx="0.25" dy="0.5" layer="1" rot="R180" />
          <smd name="19" x="-0.5" y="1.85" dx="0.25" dy="0.5" layer="1" rot="R180" />
          <smd name="20" x="-1" y="1.85" dx="0.25" dy="0.5" layer="1" rot="R180" />
          <wire x1="2.25" y1="2.25" x2="-2.25" y2="2.25" width="0.2032" layer="51" />
          <wire x1="-2.25" y1="2.25" x2="-2.25" y2="-2.25" width="0.2032" layer="51" />
          <wire x1="-2.25" y1="-2.25" x2="2.25" y2="-2.25" width="0.2032" layer="51" />
          <wire x1="2.25" y1="-2.25" x2="2.25" y2="2.25" width="0.2032" layer="51" />
          <smd name="PAD" x="0" y="0" dx="2.5" dy="2.5" layer="1" roundness="10" cream="no" />
          <circle x="-1.729" y="1.7" radius="0.282840625" width="0" layer="51" />
          <text x="-2.54" y="2.54" size="0.8128" layer="27" font="vector" ratio="20">&gt;VALUE</text>
          <text x="-2.54" y="-2.54" size="0.8128" layer="25" font="vector" ratio="20" align="top-left">&gt;NAME</text>
          <polygon width="0.127" layer="31">
            <vertex x="0" y="0.508" curve="-90" />
            <vertex x="0.508" y="0" curve="-90" />
            <vertex x="0" y="-0.508" curve="-90" />
            <vertex x="-0.508" y="0" curve="-90" />
          </polygon>
        </package>
      </packages>
      <symbols>
        <symbol name="AD8232">
          <pin name="OUT" x="-20.32" y="-25.4" length="middle" xmlns="eagle" />
          <pin name="OPAMP-" x="-20.32" y="-15.24" length="middle" xmlns="eagle" />
          <pin name="REFOUT" x="-20.32" y="-5.08" length="middle" xmlns="eagle" />
          <pin name="OPAMP+" x="-20.32" y="5.08" length="middle" xmlns="eagle" />
          <pin name="SW" x="-20.32" y="10.16" length="middle" xmlns="eagle" />
          <pin name="RLD" x="-20.32" y="15.24" length="middle" xmlns="eagle" />
          <pin name="RLDFB" x="-20.32" y="25.4" length="middle" xmlns="eagle" />
          <pin name="-IN" x="-20.32" y="30.48" length="middle" xmlns="eagle" />
          <pin name="+IN" x="-20.32" y="35.56" length="middle" xmlns="eagle" />
          <pin name="HPDRIVE" x="-20.32" y="40.64" length="middle" xmlns="eagle" />
          <pin name="HPSENSE" x="20.32" y="40.64" length="middle" rot="R180" xmlns="eagle" />
          <pin name="IAOUT" x="20.32" y="30.48" length="middle" rot="R180" xmlns="eagle" />
          <pin name="REFIN" x="20.32" y="22.86" length="middle" rot="R180" xmlns="eagle" />
          <pin name="+VS" x="20.32" y="12.7" length="middle" rot="R180" xmlns="eagle" />
          <pin name="GND" x="20.32" y="5.08" length="middle" rot="R180" xmlns="eagle" />
          <pin name="FR" x="20.32" y="0" length="middle" rot="R180" xmlns="eagle" />
          <pin name="AC/!DC" x="20.32" y="-5.08" length="middle" rot="R180" xmlns="eagle" />
          <pin name="!SDN" x="20.32" y="-15.24" length="middle" rot="R180" xmlns="eagle" />
          <pin name="LO+" x="20.32" y="-20.32" length="middle" rot="R180" xmlns="eagle" />
          <pin name="LO-" x="20.32" y="-25.4" length="middle" rot="R180" xmlns="eagle" />
          <wire x1="-15.24" y1="43.18" x2="15.24" y2="43.18" width="0.254" layer="94" xmlns="eagle" />
          <wire x1="15.24" y1="43.18" x2="15.24" y2="-27.94" width="0.254" layer="94" xmlns="eagle" />
          <wire x1="15.24" y1="-27.94" x2="-15.24" y2="-27.94" width="0.254" layer="94" xmlns="eagle" />
          <wire x1="-15.24" y1="-27.94" x2="-15.24" y2="43.18" width="0.254" layer="94" xmlns="eagle" />
          <text x="-15.24" y="45.72" size="1.27" layer="95" align="top-left" xmlns="eagle">&gt;NAME</text>
          <text x="-15.24" y="-30.48" size="1.27" layer="95" xmlns="eagle">&gt;VALUE</text>
          <pin name="GND_PAD" x="0" y="-33.02" length="middle" rot="R90" xmlns="eagle" />
        </symbol>
      </symbols>
      <devicesets>
        <deviceset name="AD8232">
          <gates>
            <gate name="U$1" symbol="AD8232" x="0" y="0" />
          </gates>
          <devices>
            <device name="" package="LFCSP_20" xmlns="eagle">
              <connects>
                <connect gate="U$1" pin="!SDN" pad="13" />
                <connect gate="U$1" pin="+IN" pad="2" />
                <connect gate="U$1" pin="+VS" pad="17" />
                <connect gate="U$1" pin="-IN" pad="3" />
                <connect gate="U$1" pin="AC/!DC" pad="14" />
                <connect gate="U$1" pin="FR" pad="15" />
                <connect gate="U$1" pin="GND" pad="16" />
                <connect gate="U$1" pin="GND_PAD" pad="PAD" />
                <connect gate="U$1" pin="HPDRIVE" pad="1" />
                <connect gate="U$1" pin="HPSENSE" pad="20" />
                <connect gate="U$1" pin="IAOUT" pad="19" />
                <connect gate="U$1" pin="LO+" pad="12" />
                <connect gate="U$1" pin="LO-" pad="11" />
                <connect gate="U$1" pin="OPAMP+" pad="7" />
                <connect gate="U$1" pin="OPAMP-" pad="9" />
                <connect gate="U$1" pin="OUT" pad="10" />
                <connect gate="U$1" pin="REFIN" pad="18" />
                <connect gate="U$1" pin="REFOUT" pad="8" />
                <connect gate="U$1" pin="RLD" pad="5" />
                <connect gate="U$1" pin="RLDFB" pad="4" />
                <connect gate="U$1" pin="SW" pad="6" />
              </connects>
              <technologies>
                <technology name="" />
              </technologies>
            </device>
          </devices>
        </deviceset>
      </devicesets>
    </library>
  </drawing>
</eagle>