<eagle version="6.5.0" xmlns="eagle">
  <drawing>
<layers>
<layer number="1" name="Top" color="4" fill="1" visible="yes" active="yes"/>
<layer number="16" name="Bottom" color="1" fill="1" visible="yes" active="yes"/>
<layer number="17" name="Pads" color="2" fill="1" visible="yes" active="yes"/>
<layer number="18" name="Vias" color="2" fill="1" visible="yes" active="yes"/>
<layer number="19" name="Unrouted" color="6" fill="1" visible="yes" active="yes"/>
<layer number="20" name="Dimension" color="15" fill="1" visible="yes" active="yes"/>
<layer number="21" name="tPlace" color="7" fill="1" visible="yes" active="yes"/>
<layer number="22" name="bPlace" color="7" fill="1" visible="yes" active="yes"/>
<layer number="23" name="tOrigins" color="15" fill="1" visible="yes" active="yes"/>
<layer number="24" name="bOrigins" color="15" fill="1" visible="yes" active="yes"/>
<layer number="25" name="tNames" color="7" fill="1" visible="yes" active="yes"/>
<layer number="26" name="bNames" color="7" fill="1" visible="yes" active="yes"/>
<layer number="27" name="tValues" color="7" fill="1" visible="yes" active="yes"/>
<layer number="28" name="bValues" color="7" fill="1" visible="yes" active="yes"/>
<layer number="29" name="tStop" color="7" fill="3" visible="yes" active="yes"/>
<layer number="30" name="bStop" color="7" fill="6" visible="yes" active="yes"/>
<layer number="31" name="tCream" color="7" fill="4" visible="yes" active="yes"/>
<layer number="32" name="bCream" color="7" fill="5" visible="yes" active="yes"/>
<layer number="33" name="tFinish" color="6" fill="3" visible="yes" active="yes"/>
<layer number="34" name="bFinish" color="6" fill="6" visible="yes" active="yes"/>
<layer number="35" name="tGlue" color="7" fill="4" visible="yes" active="yes"/>
<layer number="36" name="bGlue" color="7" fill="5" visible="yes" active="yes"/>
<layer number="37" name="tTest" color="7" fill="1" visible="yes" active="yes"/>
<layer number="38" name="bTest" color="7" fill="1" visible="yes" active="yes"/>
<layer number="39" name="tKeepout" color="4" fill="11" visible="yes" active="yes"/>
<layer number="40" name="bKeepout" color="1" fill="11" visible="yes" active="yes"/>
<layer number="41" name="tRestrict" color="4" fill="10" visible="yes" active="yes"/>
<layer number="42" name="bRestrict" color="1" fill="10" visible="yes" active="yes"/>
<layer number="43" name="vRestrict" color="2" fill="10" visible="yes" active="yes"/>
<layer number="44" name="Drills" color="7" fill="1" visible="yes" active="yes"/>
<layer number="45" name="Holes" color="7" fill="1" visible="yes" active="yes"/>
<layer number="46" name="Milling" color="3" fill="1" visible="yes" active="yes"/>
<layer number="47" name="Measures" color="7" fill="1" visible="yes" active="yes"/>
<layer number="48" name="Document" color="7" fill="1" visible="yes" active="yes"/>
<layer number="49" name="Reference" color="7" fill="1" visible="yes" active="yes"/>
<layer number="50" name="dxf" color="7" fill="1" visible="yes" active="yes"/>
<layer number="51" name="tDocu" color="7" fill="1" visible="yes" active="yes"/>
<layer number="52" name="bDocu" color="7" fill="1" visible="yes" active="yes"/>
<layer number="53" name="tGND_GNDA" color="7" fill="1" visible="yes" active="yes"/>
<layer number="54" name="bGND_GNDA" color="7" fill="1" visible="yes" active="yes"/>
<layer number="56" name="wert" color="7" fill="1" visible="yes" active="yes"/>
<layer number="57" name="tCAD" color="7" fill="1" visible="yes" active="yes"/>
<layer number="91" name="Nets" color="2" fill="1" visible="yes" active="yes"/>
<layer number="92" name="Busses" color="1" fill="1" visible="yes" active="yes"/>
<layer number="93" name="Pins" color="2" fill="1" visible="yes" active="yes"/>
<layer number="94" name="Symbols" color="4" fill="1" visible="yes" active="yes"/>
<layer number="95" name="Names" color="7" fill="1" visible="yes" active="yes"/>
<layer number="96" name="Values" color="7" fill="1" visible="yes" active="yes"/>
<layer number="97" name="Info" color="7" fill="1" visible="yes" active="yes"/>
<layer number="98" name="Guide" color="6" fill="1" visible="yes" active="yes"/>
<layer number="99" name="SpiceOrder" color="7" fill="1" visible="yes" active="yes"/>
</layers>
    <library>
      <packages>
        <package name="6-WFDFN" xmlns="eagle">
          <description>&lt;B&gt;6-WFDFN Exposed Pad&lt;/B&gt;&lt;P&gt;
Designed for the Linear Technology LT3460EDC-1#TRPBF IC REG BOOST ADJ 0.18A 6DFN&lt;br&gt;
Digi-Key Part Number LT3460EDC-1#TRPBF-ND
&lt;p&gt;
Also called DC Package
6-Lead Plastic DFN (2mm × 2mm).</description>
          <circle x="-1" y="-1.3" radius="0.1" width="0.127" layer="21" />
          <wire x1="-1.1" y1="1" x2="-1.1" y2="-1" width="0.127" layer="21" />
          <wire x1="1.1" y1="1" x2="1.1" y2="-1" width="0.127" layer="21" />
          <wire x1="-1.1" y1="1" x2="-0.9" y2="1" width="0.127" layer="21" />
          <wire x1="-1.1" y1="-1" x2="-0.9" y2="-1" width="0.127" layer="21" />
          <wire x1="1.1" y1="-1" x2="0.9" y2="-1" width="0.127" layer="21" />
          <wire x1="1.1" y1="1" x2="0.9" y2="1" width="0.127" layer="21" />
          <smd name="P$1" x="-0.5" y="-0.9125" dx="0.25" dy="0.675" layer="1" />
          <smd name="P$2" x="0" y="-0.9125" dx="0.25" dy="0.675" layer="1" />
          <smd name="P$3" x="0.5" y="-0.9125" dx="0.25" dy="0.675" layer="1" />
          <smd name="P$4" x="0.5" y="1" dx="0.25" dy="0.675" layer="1" rot="R180" />
          <smd name="P$5" x="0" y="1" dx="0.25" dy="0.675" layer="1" rot="R180" />
          <smd name="P$6" x="-0.5" y="1" dx="0.25" dy="0.675" layer="1" rot="R180" />
          <smd name="P$7" x="0" y="0" dx="1.42" dy="0.61" layer="1" />
          <text x="-1.2" y="1.6" size="1.016" layer="25" ratio="15" font="vector">&gt;NAME</text>
        </package>
      </packages>
      <symbols>
        <symbol name="LT3460">
          <description>&lt;B&gt;LT3460 Step-Up 
DC/DC Converter&lt;/B&gt;</description>
          <wire x1="-12.7" y1="10.16" x2="12.7" y2="10.16" width="0.254" layer="94" />
          <wire x1="12.7" y1="10.16" x2="12.7" y2="-10.16" width="0.254" layer="94" />
          <wire x1="12.7" y1="-10.16" x2="-12.7" y2="-10.16" width="0.254" layer="94" />
          <wire x1="-12.7" y1="-10.16" x2="-12.7" y2="10.16" width="0.254" layer="94" />
          <pin name="!SHDN" x="-17.78" y="0" length="middle"  direction="pas"/>
          <pin name="FB" x="17.78" y="0" length="middle" rot="R180"  direction="pas"/>
          <pin name="GND" x="0" y="-15.24" length="middle" rot="R90"  direction="pas"/>
          <pin name="SW" x="7.62" y="15.24" length="middle" rot="R270"  direction="pas"/>
          <pin name="VIN" x="-7.62" y="15.24" length="middle" rot="R270"  direction="pas"/>
          <text x="-17.272" y="10.922" size="1.778" layer="95">&gt;NAME</text>
          <text x="2.54" y="-12.7" size="1.778" layer="96">&gt;VALUE</text>
        </symbol>
      </symbols>
      <devicesets>
        <deviceset name="PMIC-LT3460">
          <gates>
            <gate name="G$1" symbol="LT3460" x="-17.78" y="2.54" />
          </gates>
          <devices>
            <device name="" package="6-WFDFN" xmlns="eagle">
              <connects>
                <connect gate="G$1" pin="!SHDN" pad="P$6" />
                <connect gate="G$1" pin="FB" pad="P$1" />
                <connect gate="G$1" pin="GND" pad="P$7" />
                <connect gate="G$1" pin="SW" pad="P$3" />
                <connect gate="G$1" pin="VIN" pad="P$4" />
              </connects>
              <technologies>
                <technology name="" />
              </technologies>
            </device>
          </devices>
        </deviceset>
      </devicesets>
    </library>
  </drawing>
</eagle>