<?xml version="1.0" encoding="UTF-8" standalone="no"?>
<svg
   xmlns:dc="http://purl.org/dc/elements/1.1/"
   xmlns:cc="http://creativecommons.org/ns#"
   xmlns:rdf="http://www.w3.org/1999/02/22-rdf-syntax-ns#"
   xmlns:svg="http://www.w3.org/2000/svg"
   xmlns="http://www.w3.org/2000/svg"
   xmlns:sodipodi="http://sodipodi.sourceforge.net/DTD/sodipodi-0.dtd"
   xmlns:inkscape="http://www.inkscape.org/namespaces/inkscape"
   version="1.1"
   x="0px"
   y="0px"
   viewBox="0 0 100 33"
   enable-background="new 0 0 100 100"
   xml:space="preserve"
   id="svg2"
   inkscape:version="0.91 r13725"
   sodipodi:docname="9DegreesOfFreedom.svg"
   width="100"
   height="33"><metadata
     id="metadata10"><rdf:RDF><cc:Work
         rdf:about=""><dc:format>image/svg+xml</dc:format><dc:type
           rdf:resource="http://purl.org/dc/dcmitype/StillImage" /><dc:title></dc:title></cc:Work></rdf:RDF></metadata><defs
     id="defs8" /><sodipodi:namedview
     pagecolor="#ffffff"
     bordercolor="#666666"
     borderopacity="1"
     objecttolerance="10"
     gridtolerance="10"
     guidetolerance="10"
     inkscape:pageopacity="0"
     inkscape:pageshadow="2"
     inkscape:window-width="2048"
     inkscape:window-height="1091"
     id="namedview6"
     showgrid="false"
     inkscape:zoom="4.72"
     inkscape:cx="66.508067"
     inkscape:cy="67.848736"
     inkscape:window-x="-8"
     inkscape:window-y="-8"
     inkscape:window-maximized="1"
     inkscape:current-layer="svg2" /><path
     d="m 32.5,16.692037 -5.641593,-2.976847 0,1.719956 c -0.06637,0 0.04593,0.885586 -0.02044,0.885006 l -8.258025,0.03531 4.288974,-4.455428 c 0.03319,-0.03307 0.70409,0.425966 0.70409,0.392886 0.929204,0.529218 1.891594,0.562294 2.422567,0.03308 0.16593,-0.16538 0.298673,-0.396913 0.331858,-0.661522 l 0.03319,0.03307 0.464602,-4.5314228 -4.380532,0.595369 0,0 c -0.265486,0.03307 -0.497787,0.165381 -0.696902,0.330761 -0.530974,0.529217 -0.464602,1.455347 0.03319,2.3814778 l 0.498599,0.807679 -4.394905,4.49074 -0.03531,-8.5376388 2.504624,-0.03531 -2.986725,-5.622932 -2.986726,5.622933 2.434003,0 0.03531,9.1540218 -8.6376312,0 -0.070618,-2.60496 L 2.5,16.725114 l 5.6415928,2.976846 0,-2.145919 8.0419112,-0.105932 -4.253662,4.10232 C 11.000638,21.056288 9.4358408,20.495786 8.9048675,21.025006 8.7389381,21.190386 8.6061948,21.421918 8.5730088,21.686527 l -0.033187,-0.06615 -0.464602,4.531422 4.3805312,-0.595369 0,0 c 0.265487,-0.03308 0.497788,-0.165381 0.696903,-0.330762 0.530973,-0.529216 -0.02975,-2.020319 -0.527537,-2.946449 l 4.324283,-4.384806 -0.07062,8.058929 -2.398693,0 2.986725,5.62293 2.986726,-5.622933 -2.434004,0 -0.03531,-8.679783 8.884807,0.07062 c 0.196989,-0.31556 -0.04593,0.388418 0.02043,0.355344 l 0.03531,2.002442 z"
     id="path4"
     inkscape:connector-curvature="0"
     style="fill:#000000"
     sodipodi:nodetypes="cccscccsccccccccccccccccccccccscccccccccccccccccc" /><path
     d="m 37.526316,15.937974 -0.631579,0 c -0.174632,0 -0.31579,0.14266 -0.31579,0.319149 0,0.17617 0.141158,0.319149 0.31579,0.319149 l 0.631579,0 c 0.174315,0 0.315789,-0.142979 0.315789,-0.319149 0,-0.176489 -0.141474,-0.319149 -0.315789,-0.319149 z m 12.947368,13.723405 0,-0.638298 c 0,-0.17649 -0.141473,-0.31915 -0.315789,-0.31915 -0.174632,0 -0.31579,0.14266 -0.31579,0.31915 l 0,0.638298 c 0,0.17617 0.141158,0.319148 0.31579,0.319148 0.174316,0 0.315789,-0.142978 0.315789,-0.319148 z m -0.315789,0.638297 c -0.348948,0 -0.631579,0.285958 -0.631579,0.638298 0,0.352341 0.282631,0.638298 0.631579,0.638298 0.348631,0 0.631579,-0.285957 0.631579,-0.638298 0,-0.35234 -0.282948,-0.638298 -0.631579,-0.638298 z M 35.631579,15.618825 C 35.282631,15.618825 35,15.904783 35,16.257123 c 0,0.35234 0.282631,0.638298 0.631579,0.638298 0.348632,0 0.631579,-0.285958 0.631579,-0.638298 0,-0.35234 -0.282947,-0.638298 -0.631579,-0.638298 z M 50.157895,2.8528672 c 0.348631,0 0.631579,-0.285958 0.631579,-0.638298 0,-0.352341 -0.282948,-0.638298 -0.631579,-0.638298 -0.348948,0 -0.631579,0.285957 -0.631579,0.638298 0,0.35234 0.282631,0.638298 0.631579,0.638298 z m -9.156,13.3991498 c 0,-0.503618 2.450194,-1.232107 6.0843,-1.505936 l 0.05285,-0.951133 c -4.567895,0.334468 -7.084523,1.401962 -7.084523,2.457069 0,1.055106 2.513283,2.141786 7.081178,2.475936 l -0.03763,-0.968376 c -3.634104,-0.27351 -6.096174,-1.003943 -6.096174,-1.50756 z m 8.84021,-12.7608528 0,0.638298 c 0,0.176171 0.141158,0.31915 0.31579,0.31915 0.174316,0 0.315789,-0.142979 0.315789,-0.31915 l 0,-0.638298 c 0,-0.176489 -0.141473,-0.319148 -0.315789,-0.319148 -0.174632,0 -0.31579,0.142659 -0.31579,0.319148 z m -0.629684,10.2207458 -0.05436,0.959043 c 0.311684,-0.007 0.677097,-0.01468 1.001728,-0.01468 5.052632,0 8.842106,0.957446 8.842106,1.595744 0,0.638298 -3.789474,1.595745 -8.842106,1.595745 -0.324631,0 -0.694102,-0.01301 -1.005786,-0.02036 l 0.05842,0.964401 c 0.310736,0.0067 0.620526,0.01341 0.947368,0.01341 6,0 9.789474,-1.276595 9.789474,-2.553191 0,-1.276596 -3.789474,-2.553192 -9.789474,-2.553192 -0.326842,0 -0.636632,0.007 -0.947368,0.01309 z m 15.156,1.906915 c -0.348947,0 -0.631579,0.285958 -0.631579,0.638298 0,0.35234 0.282632,0.638298 0.631579,0.638298 0.348632,0 0.631579,-0.285958 0.631579,-0.638298 0,-0.35234 -0.282947,-0.638298 -0.631579,-0.638298 z M 49.844,4.7626542 c -6.104211,0 -11.368421,5.3939368 -11.368421,11.6489368 0,6.254681 5.26421,11.648936 11.368421,11.648936 6.104211,0 11.684211,-5.394255 11.684211,-11.648936 0,-6.254681 -5.58,-11.6489368 -11.684211,-11.6489368 z m 0,22.3404268 c -5.668105,0 -10.421053,-4.876277 -10.421053,-10.69149 0,-5.815532 4.752948,-10.6914898 10.421053,-10.6914898 5.668105,0 10.736842,4.8759578 10.736842,10.6914898 0,5.815213 -5.068737,10.69149 -10.736842,10.69149 z m 13.261263,-11.165107 -0.631579,0 c -0.174631,0 -0.315789,0.14266 -0.315789,0.319149 0,0.17617 0.141158,0.319149 0.315789,0.319149 l 0.631579,0 c 0.174316,0 0.31579,-0.142979 0.31579,-0.319149 0,-0.176489 -0.141474,-0.319149 -0.31579,-0.319149 z m -12.945474,9.250213 c -0.631578,0 -1.578947,-3.829788 -1.578947,-8.93617 0,-5.106383 0.947369,-8.9361708 1.578947,-8.9361708 0.491053,0 1.170316,2.317659 1.44979,5.7446808 l 0.937263,0 C 52.186211,9.0347822 51.173789,6.3583982 50.159789,6.3583982 c -1.263158,0 -2.526315,4.1489378 -2.526315,9.8936188 0,5.74468 1.263157,9.893617 2.526315,9.893617 1.013369,0 2.022632,-2.678617 2.383264,-6.702128 l -0.93379,0 c -0.278842,3.427979 -0.958421,5.744681 -1.449474,5.744681 z m 4.105264,-8.93617 c 0,-0.52883 -1.837895,-0.957447 -4.105264,-0.957447 -0.327473,0 -0.734309,0.01117 -1.039362,0.02841 -0.03982,0.62808 -0.03093,1.239752 -0.0042,1.845407 0.305053,0.01723 0.71607,0.04108 1.043544,0.04108 2.267368,0 4.105263,-0.428617 4.105263,-0.957447 z m -4.736842,0 c 0,-0.352341 0.282947,-0.638298 0.631578,-0.638298 0.348632,0 0.63158,0.285957 0.63158,0.638298 0,0.35234 -0.282948,0.638298 -0.63158,0.638298 -0.348631,0 -0.631578,-0.285639 -0.631578,-0.638298 z m -3.473685,0 c 0,0.271276 0.226411,0.402506 1.003569,0.576761 l -0.0057,-1.190355 c -0.777157,0.174256 -0.997881,0.342317 -0.997881,0.613594 z"
     id="path8"
     inkscape:connector-curvature="0"
     style="clip-rule:evenodd;fill-rule:evenodd"
     sodipodi:nodetypes="ssssssssssssssssssssssssssssssccsccssssssssccsssccssscsssssssssssssssssssssssssccsssccsssccssssssssccs" /><path
     inkscape:connector-curvature="0"
     d="M 83.000302,31.576272 C 74.728744,31.576272 68,24.847227 68,16.576272 68,8.3050152 74.728744,1.5762712 83.000302,1.5762712 91.271558,1.5762712 98,8.3050152 98,16.576272 c 0,8.270955 -6.728442,15 -14.999698,15 z m 0.05297,-28.3806238 c -6.940403,0 -13.27469,6.440522 -13.27469,13.3806238 0,6.940101 6.334589,13.168758 13.27469,13.168758 6.939799,0 13.168456,-6.228959 13.168456,-13.168758 0,-6.9401018 -6.228657,-13.3806238 -13.168456,-13.3806238 z"
     id="path4-8"
     sodipodi:nodetypes="ssssssssss" /><path
     inkscape:connector-curvature="0"
     d="m 82.070151,17.506121 c -0.400704,-0.400402 -0.484221,-0.993467 -0.2599,-1.479799 l -0.959397,-0.959397 -5.050251,8.708744 8.708744,-5.04995 -0.960603,-0.96 c -0.485427,0.224322 -1.078191,0.141106 -1.478593,-0.259598 z"
     id="path6" /><path
     inkscape:connector-curvature="0"
     d="m 83.929849,15.646423 c 0.400402,0.400703 0.48392,0.993467 0.259598,1.479196 l 0.96,0.960301 5.04995,-8.7087438 -8.708744,5.0502518 0.959699,0.959397 c 0.485728,-0.224623 1.078794,-0.141106 1.479497,0.259598 z"
     id="path8-7" /></svg>