<?xml version="1.0" encoding="UTF-8" standalone="no"?>
<svg
   xmlns:dc="http://purl.org/dc/elements/1.1/"
   xmlns:cc="http://creativecommons.org/ns#"
   xmlns:rdf="http://www.w3.org/1999/02/22-rdf-syntax-ns#"
   xmlns:svg="http://www.w3.org/2000/svg"
   xmlns="http://www.w3.org/2000/svg"
   xmlns:sodipodi="http://sodipodi.sourceforge.net/DTD/sodipodi-0.dtd"
   xmlns:inkscape="http://www.inkscape.org/namespaces/inkscape"
   version="1.1"
   x="0px"
   y="0px"
   viewBox="0 0 612 792"
   enable-background="new 0 0 612 792"
   xml:space="preserve"
   id="svg2"
   inkscape:version="0.91 r13725"
   sodipodi:docname="OLEDScreen2.svg"><metadata
     id="metadata372"><rdf:RDF><cc:Work
         rdf:about=""><dc:format>image/svg+xml</dc:format><dc:type
           rdf:resource="http://purl.org/dc/dcmitype/StillImage" /><dc:title></dc:title></cc:Work></rdf:RDF></metadata><defs
     id="defs370" /><sodipodi:namedview
     pagecolor="#ffffff"
     bordercolor="#666666"
     borderopacity="1"
     objecttolerance="10"
     gridtolerance="10"
     guidetolerance="10"
     inkscape:pageopacity="0"
     inkscape:pageshadow="2"
     inkscape:window-width="2048"
     inkscape:window-height="1084"
     id="namedview368"
     showgrid="false"
     inkscape:zoom="1.1919192"
     inkscape:cx="-76.1642"
     inkscape:cy="364.22309"
     inkscape:window-x="-8"
     inkscape:window-y="-8"
     inkscape:window-maximized="1"
     inkscape:current-layer="g28" /><g
     id="g4"><g
       id="g6"><rect
         x="43.137"
         y="134.467"
         width="524.881"
         height="28.799"
         id="rect8" /></g></g><g
     id="g10"><g
       id="g12"><rect
         x="43.138"
         y="628.582"
         width="524.88"
         height="28.799"
         id="rect14" /></g></g><g
     id="g16"><g
       id="g18"><rect
         x="43.138"
         y="170.795"
         width="28.8"
         height="448.456"
         id="rect20" /></g></g><g
     id="g22"><g
       id="g24"><rect
         x="539.219"
         y="170.795"
         width="28.799"
         height="448.456"
         id="rect26" /></g></g><g
     id="g28"><rect
       x="83.172"
       y="171.106"
       width="23.4"
       height="23.399"
       id="rect30" /><rect
       x="83.172"
       y="241.909"
       width="23.4"
       height="23.4"
       id="rect32" /><rect
       x="83.172"
       y="206.508"
       width="23.4"
       height="23.4"
       id="rect34" /><rect
       x="83.172"
       y="277.311"
       width="23.4"
       height="23.4"
       id="rect36" /><rect
       x="83.172"
       y="312.713"
       width="23.4"
       height="23.4"
       id="rect38" /><rect
       x="83.172"
       y="454.32"
       width="23.4"
       height="23.4"
       id="rect46" /><rect
       x="83.172"
       y="489.721"
       width="23.4"
       height="23.4"
       id="rect48" /><rect
       x="83.172"
       y="525.123"
       width="23.4"
       height="23.4"
       id="rect50" /><rect
       x="83.172"
       y="560.525"
       width="23.4"
       height="23.4"
       id="rect52" /><rect
       x="83.172"
       y="595.928"
       width="23.4"
       height="23.4"
       id="rect54" /><rect
       x="118.295"
       y="171.106"
       width="23.4"
       height="23.399"
       id="rect56" /><rect
       x="118.295"
       y="241.909"
       width="23.4"
       height="23.4"
       id="rect58" /><rect
       x="118.295"
       y="206.508"
       width="23.4"
       height="23.4"
       id="rect60" /><rect
       x="118.295"
       y="277.311"
       width="23.4"
       height="23.4"
       id="rect62" /><rect
       x="118.295"
       y="348.115"
       width="23.4"
       height="23.4"
       id="rect66" /><rect
       x="118.295"
       y="383.516"
       width="23.4"
       height="23.4"
       id="rect68" /><rect
       x="118.295"
       y="418.918"
       width="23.4"
       height="23.4"
       id="rect70" /><rect
       x="118.295"
       y="489.721"
       width="23.4"
       height="23.4"
       id="rect74" /><rect
       x="118.295"
       y="525.123"
       width="23.4"
       height="23.4"
       id="rect76" /><rect
       x="118.295"
       y="560.525"
       width="23.4"
       height="23.4"
       id="rect78" /><rect
       x="118.295"
       y="595.928"
       width="23.4"
       height="23.4"
       id="rect80" /><rect
       x="153.419"
       y="171.106"
       width="23.4"
       height="23.399"
       id="rect82" /><rect
       x="153.419"
       y="241.909"
       width="23.4"
       height="23.4"
       id="rect84" /><rect
       x="153.419"
       y="206.508"
       width="23.4"
       height="23.4"
       id="rect86" /><rect
       x="153.419"
       y="277.311"
       width="23.4"
       height="23.4"
       id="rect88" /><rect
       x="153.419"
       y="312.713"
       width="23.4"
       height="23.4"
       id="rect90" /><g
       id="g3702"
       style="opacity:0.16"><rect
         id="rect40"
         height="23.4"
         width="23.4"
         y="348.115"
         x="83.172"
         style="" /><rect
         id="rect42"
         height="23.4"
         width="23.4"
         y="383.516"
         x="83.172"
         style="" /><rect
         id="rect44"
         height="23.4"
         width="23.4"
         y="418.918"
         x="83.172"
         style="" /><rect
         id="rect64"
         height="23.4"
         width="23.4"
         y="312.713"
         x="118.295"
         style="" /><rect
         id="rect72"
         height="23.4"
         width="23.4"
         y="454.32"
         x="118.295"
         style="" /><rect
         id="rect92"
         height="23.4"
         width="23.4"
         y="348.115"
         x="153.419"
         style="" /><rect
         id="rect94"
         height="23.4"
         width="23.4"
         y="383.516"
         x="153.419"
         style="" /><rect
         id="rect96"
         height="23.4"
         width="23.4"
         y="418.918"
         x="153.419"
         style="" /></g><rect
       x="153.419"
       y="454.32"
       width="23.4"
       height="23.4"
       id="rect98" /><rect
       x="153.419"
       y="489.721"
       width="23.4"
       height="23.4"
       id="rect100" /><rect
       x="153.419"
       y="525.123"
       width="23.4"
       height="23.4"
       id="rect102" /><rect
       x="153.419"
       y="560.525"
       width="23.4"
       height="23.4"
       id="rect104" /><rect
       x="153.419"
       y="595.928"
       width="23.4"
       height="23.4"
       id="rect106" /><rect
       x="504.652"
       y="171.106"
       width="23.398"
       height="23.399"
       id="rect108" /><rect
       x="504.652"
       y="241.909"
       width="23.398"
       height="23.4"
       id="rect110" /><rect
       x="504.652"
       y="206.508"
       width="23.398"
       height="23.4"
       id="rect112" /><rect
       x="504.652"
       y="277.311"
       width="23.398"
       height="23.4"
       id="rect114" /><rect
       x="504.652"
       y="312.713"
       width="23.398"
       height="23.4"
       id="rect116" /><rect
       x="504.652"
       y="454.32"
       width="23.398"
       height="23.4"
       id="rect124" /><rect
       x="504.652"
       y="489.721"
       width="23.398"
       height="23.4"
       id="rect126" /><rect
       x="504.652"
       y="525.123"
       width="23.398"
       height="23.4"
       id="rect128" /><rect
       x="504.652"
       y="560.525"
       width="23.398"
       height="23.4"
       id="rect130" /><rect
       x="504.652"
       y="595.928"
       width="23.398"
       height="23.4"
       id="rect132" /><rect
       x="469.529"
       y="171.106"
       width="23.398"
       height="23.399"
       id="rect134" /><rect
       x="469.529"
       y="241.909"
       width="23.398"
       height="23.4"
       id="rect136" /><rect
       x="469.529"
       y="206.508"
       width="23.398"
       height="23.4"
       id="rect138" /><rect
       x="469.529"
       y="277.311"
       width="23.398"
       height="23.4"
       id="rect140" /><rect
       x="469.529"
       y="348.115"
       width="23.398"
       height="23.4"
       id="rect144" /><rect
       x="469.529"
       y="383.516"
       width="23.398"
       height="23.4"
       id="rect146" /><rect
       x="469.529"
       y="418.918"
       width="23.398"
       height="23.4"
       id="rect148" /><rect
       x="469.529"
       y="489.721"
       width="23.398"
       height="23.4"
       id="rect152" /><rect
       x="469.529"
       y="525.123"
       width="23.398"
       height="23.4"
       id="rect154" /><rect
       x="469.529"
       y="560.525"
       width="23.398"
       height="23.4"
       id="rect156" /><rect
       x="469.529"
       y="595.928"
       width="23.398"
       height="23.4"
       id="rect158" /><rect
       x="434.404"
       y="171.106"
       width="23.4"
       height="23.399"
       id="rect160" /><rect
       x="434.404"
       y="241.909"
       width="23.4"
       height="23.4"
       id="rect162" /><rect
       x="434.404"
       y="206.508"
       width="23.4"
       height="23.4"
       id="rect164" /><rect
       x="434.404"
       y="277.311"
       width="23.4"
       height="23.4"
       id="rect166" /><g
       id="g4512"
       style="opacity:0.18"><rect
         id="rect118"
         height="23.4"
         width="23.398"
         y="348.115"
         x="504.652"
         style="" /><rect
         id="rect120"
         height="23.4"
         width="23.398"
         y="383.516"
         x="504.652"
         style="" /><rect
         id="rect122"
         height="23.4"
         width="23.398"
         y="418.918"
         x="504.652"
         style="" /><rect
         id="rect142"
         height="23.4"
         width="23.398"
         y="312.713"
         x="469.529"
         style="" /><rect
         id="rect150"
         height="23.4"
         width="23.398"
         y="454.32"
         x="469.529"
         style="" /><rect
         id="rect168"
         height="23.4"
         width="23.4"
         y="312.713"
         x="434.404"
         style="" /><rect
         id="rect170"
         height="23.4"
         width="23.4"
         y="348.115"
         x="434.404"
         style="" /><rect
         id="rect172"
         height="23.4"
         width="23.4"
         y="383.516"
         x="434.404"
         style="" /><rect
         id="rect174"
         height="23.4"
         width="23.4"
         y="418.918"
         x="434.404"
         style="" /><rect
         id="rect176"
         height="23.4"
         width="23.4"
         y="454.32"
         x="434.404"
         style="" /></g><rect
       x="434.404"
       y="489.721"
       width="23.4"
       height="23.4"
       id="rect178" /><rect
       x="434.404"
       y="525.123"
       width="23.4"
       height="23.4"
       id="rect180" /><rect
       x="434.404"
       y="560.525"
       width="23.4"
       height="23.4"
       id="rect182" /><rect
       x="434.404"
       y="595.928"
       width="23.4"
       height="23.4"
       id="rect184" /><rect
       x="399.281"
       y="171.106"
       width="23.4"
       height="23.399"
       id="rect186" /><rect
       x="399.281"
       y="241.909"
       width="23.4"
       height="23.4"
       id="rect188" /><rect
       x="399.281"
       y="206.508"
       width="23.4"
       height="23.4"
       id="rect190" /><rect
       x="399.281"
       y="277.311"
       width="23.4"
       height="23.4"
       id="rect192" /><rect
       x="399.281"
       y="312.713"
       width="23.4"
       height="23.4"
       id="rect194" /><rect
       x="399.281"
       y="348.115"
       width="23.4"
       height="23.4"
       id="rect196" /><rect
       x="399.281"
       y="383.516"
       width="23.4"
       height="23.4"
       id="rect198" /><rect
       x="399.281"
       y="418.918"
       width="23.4"
       height="23.4"
       id="rect200" /><rect
       x="399.281"
       y="454.32"
       width="23.4"
       height="23.4"
       id="rect202" /><rect
       x="399.281"
       y="489.721"
       width="23.4"
       height="23.4"
       id="rect204" /><rect
       x="399.281"
       y="525.123"
       width="23.4"
       height="23.4"
       id="rect206" /><rect
       x="399.281"
       y="560.525"
       width="23.4"
       height="23.4"
       id="rect208" /><rect
       x="399.281"
       y="595.928"
       width="23.4"
       height="23.4"
       id="rect210" /><rect
       x="364.158"
       y="171.106"
       width="23.4"
       height="23.399"
       id="rect212" /><rect
       x="364.158"
       y="241.909"
       width="23.4"
       height="23.4"
       id="rect214" /><rect
       x="364.158"
       y="206.508"
       width="23.4"
       height="23.4"
       id="rect216" /><rect
       x="364.158"
       y="277.311"
       width="23.4"
       height="23.4"
       id="rect218" /><rect
       x="364.158"
       y="348.115"
       width="23.4"
       height="23.4"
       id="rect222" /><rect
       x="364.158"
       y="418.918"
       width="23.4"
       height="23.4"
       id="rect226" /><rect
       x="364.158"
       y="489.721"
       width="23.4"
       height="23.4"
       id="rect230" /><rect
       x="364.158"
       y="525.123"
       width="23.4"
       height="23.4"
       id="rect232" /><rect
       x="364.158"
       y="560.525"
       width="23.4"
       height="23.4"
       id="rect234" /><rect
       x="364.158"
       y="595.928"
       width="23.4"
       height="23.4"
       id="rect236" /><rect
       x="329.035"
       y="171.106"
       width="23.4"
       height="23.399"
       id="rect238" /><rect
       x="329.035"
       y="241.909"
       width="23.4"
       height="23.4"
       id="rect240" /><rect
       x="329.035"
       y="206.508"
       width="23.4"
       height="23.4"
       id="rect242" /><rect
       x="329.035"
       y="277.311"
       width="23.4"
       height="23.4"
       id="rect244" /><g
       id="g4532"
       style="opacity:0.154"><rect
         id="rect220"
         height="23.4"
         width="23.4"
         y="312.713"
         x="364.158"
         style="" /><rect
         id="rect224"
         height="23.4"
         width="23.4"
         y="383.516"
         x="364.158"
         style="" /><rect
         id="rect228"
         height="23.4"
         width="23.4"
         y="454.32"
         x="364.158"
         style="" /><rect
         id="rect246"
         height="23.4"
         width="23.4"
         y="312.713"
         x="329.035"
         style="" /><rect
         id="rect248"
         height="23.4"
         width="23.4"
         y="348.115"
         x="329.035"
         style="" /><rect
         id="rect250"
         height="23.4"
         width="23.4"
         y="383.516"
         x="329.035"
         style="" /><rect
         id="rect252"
         height="23.4"
         width="23.4"
         y="418.918"
         x="329.035"
         style="" /><rect
         id="rect254"
         height="23.4"
         width="23.4"
         y="454.32"
         x="329.035"
         style="" /></g><rect
       x="329.035"
       y="489.721"
       width="23.4"
       height="23.4"
       id="rect256" /><rect
       x="329.035"
       y="525.123"
       width="23.4"
       height="23.4"
       id="rect258" /><rect
       x="329.035"
       y="560.525"
       width="23.4"
       height="23.4"
       id="rect260" /><rect
       x="329.035"
       y="595.928"
       width="23.4"
       height="23.4"
       id="rect262" /><rect
       x="293.912"
       y="171.106"
       width="23.4"
       height="23.399"
       id="rect264" /><rect
       x="293.912"
       y="241.909"
       width="23.4"
       height="23.4"
       id="rect266" /><rect
       x="293.912"
       y="206.508"
       width="23.4"
       height="23.4"
       id="rect268" /><rect
       x="293.912"
       y="277.311"
       width="23.4"
       height="23.4"
       id="rect270" /><rect
       x="293.912"
       y="312.713"
       width="23.4"
       height="23.4"
       id="rect272" /><rect
       x="293.912"
       y="348.115"
       width="23.4"
       height="23.4"
       id="rect274" /><rect
       x="293.912"
       y="383.516"
       width="23.4"
       height="23.4"
       id="rect276" /><rect
       x="293.912"
       y="418.918"
       width="23.4"
       height="23.4"
       id="rect278" /><rect
       x="293.912"
       y="454.32"
       width="23.4"
       height="23.4"
       id="rect280" /><rect
       x="293.912"
       y="489.721"
       width="23.4"
       height="23.4"
       id="rect282" /><rect
       x="293.912"
       y="525.123"
       width="23.4"
       height="23.4"
       id="rect284" /><rect
       x="293.912"
       y="560.525"
       width="23.4"
       height="23.4"
       id="rect286" /><rect
       x="293.912"
       y="595.928"
       width="23.4"
       height="23.4"
       id="rect288" /><rect
       x="258.789"
       y="171.106"
       width="23.4"
       height="23.399"
       id="rect290" /><rect
       x="258.789"
       y="241.909"
       width="23.4"
       height="23.4"
       id="rect292" /><rect
       x="258.789"
       y="206.508"
       width="23.4"
       height="23.4"
       id="rect294" /><rect
       x="258.789"
       y="277.311"
       width="23.4"
       height="23.4"
       id="rect296" /><rect
       x="258.789"
       y="312.713"
       width="23.4"
       height="23.4"
       id="rect298" /><rect
       x="258.789"
       y="348.115"
       width="23.4"
       height="23.4"
       id="rect300" /><rect
       x="258.789"
       y="383.516"
       width="23.4"
       height="23.4"
       id="rect302" /><rect
       x="258.789"
       y="418.918"
       width="23.4"
       height="23.4"
       id="rect304" /><rect
       x="258.789"
       y="489.721"
       width="23.4"
       height="23.4"
       id="rect308" /><rect
       x="258.789"
       y="525.123"
       width="23.4"
       height="23.4"
       id="rect310" /><rect
       x="258.789"
       y="560.525"
       width="23.4"
       height="23.4"
       id="rect312" /><rect
       x="258.789"
       y="595.928"
       width="23.4"
       height="23.4"
       id="rect314" /><rect
       x="223.666"
       y="171.106"
       width="23.4"
       height="23.399"
       id="rect316" /><rect
       x="223.666"
       y="241.909"
       width="23.4"
       height="23.4"
       id="rect318" /><rect
       x="223.666"
       y="206.508"
       width="23.4"
       height="23.4"
       id="rect320" /><rect
       x="223.666"
       y="277.311"
       width="23.4"
       height="23.4"
       id="rect322" /><g
       id="g4524"
       style="opacity:0.147"><rect
         id="rect306"
         height="23.4"
         width="23.4"
         y="454.32"
         x="258.789"
         style="" /><rect
         id="rect324"
         height="23.4"
         width="23.4"
         y="312.713"
         x="223.666"
         style="" /><rect
         id="rect326"
         height="23.4"
         width="23.4"
         y="348.115"
         x="223.666"
         style="" /><rect
         id="rect328"
         height="23.4"
         width="23.4"
         y="383.516"
         x="223.666"
         style="" /><rect
         id="rect330"
         height="23.4"
         width="23.4"
         y="418.918"
         x="223.666"
         style="" /><rect
         id="rect332"
         height="23.4"
         width="23.4"
         y="454.32"
         x="223.666"
         style="" /></g><rect
       x="223.666"
       y="489.721"
       width="23.4"
       height="23.4"
       id="rect334" /><rect
       x="223.666"
       y="525.123"
       width="23.4"
       height="23.4"
       id="rect336" /><rect
       x="223.666"
       y="560.525"
       width="23.4"
       height="23.4"
       id="rect338" /><rect
       x="223.666"
       y="595.928"
       width="23.4"
       height="23.4"
       id="rect340" /><rect
       x="188.542"
       y="171.106"
       width="23.399"
       height="23.399"
       id="rect342" /><rect
       x="188.542"
       y="241.909"
       width="23.399"
       height="23.4"
       id="rect344" /><rect
       x="188.542"
       y="206.508"
       width="23.399"
       height="23.4"
       id="rect346" /><rect
       x="188.542"
       y="277.311"
       width="23.399"
       height="23.4"
       id="rect348" /><rect
       x="188.542"
       y="312.713"
       width="23.399"
       height="23.4"
       id="rect350" /><rect
       x="188.542"
       y="348.115"
       width="23.399"
       height="23.4"
       id="rect352" /><rect
       x="188.542"
       y="383.516"
       width="23.399"
       height="23.4"
       id="rect354" /><rect
       x="188.542"
       y="418.918"
       width="23.399"
       height="23.4"
       id="rect356" /><rect
       x="188.542"
       y="454.32"
       width="23.399"
       height="23.4"
       id="rect358" /><rect
       x="188.542"
       y="489.721"
       width="23.399"
       height="23.4"
       id="rect360" /><rect
       x="188.542"
       y="525.123"
       width="23.399"
       height="23.4"
       id="rect362" /><rect
       x="188.542"
       y="560.525"
       width="23.399"
       height="23.4"
       id="rect364" /><rect
       x="188.542"
       y="595.928"
       width="23.399"
       height="23.4"
       id="rect366" /></g></svg>