<?xml version="1.0" encoding="UTF-8" standalone="no"?>
<svg
   xmlns:dc="http://purl.org/dc/elements/1.1/"
   xmlns:cc="http://creativecommons.org/ns#"
   xmlns:rdf="http://www.w3.org/1999/02/22-rdf-syntax-ns#"
   xmlns:svg="http://www.w3.org/2000/svg"
   xmlns="http://www.w3.org/2000/svg"
   xmlns:sodipodi="http://sodipodi.sourceforge.net/DTD/sodipodi-0.dtd"
   xmlns:inkscape="http://www.inkscape.org/namespaces/inkscape"
   version="1.1"
   x="0px"
   y="0px"
   viewBox="0 0 612 600"
   enable-background="new 0 0 612 792"
   xml:space="preserve"
   id="svg2"
   inkscape:version="0.91 r13725"
   sodipodi:docname="OLEDScreen.svg"
   width="612"
   height="600"><metadata
     id="metadata372"><rdf:RDF><cc:Work
         rdf:about=""><dc:format>image/svg+xml</dc:format><dc:type
           rdf:resource="http://purl.org/dc/dcmitype/StillImage" /><dc:title></dc:title></cc:Work></rdf:RDF></metadata><defs
     id="defs370" /><sodipodi:namedview
     pagecolor="#ffffff"
     bordercolor="#666666"
     borderopacity="1"
     objecttolerance="10"
     gridtolerance="10"
     guidetolerance="10"
     inkscape:pageopacity="0"
     inkscape:pageshadow="2"
     inkscape:window-width="2048"
     inkscape:window-height="1091"
     id="namedview368"
     showgrid="false"
     inkscape:zoom="0.4084613"
     inkscape:cx="-168.09124"
     inkscape:cy="148.84203"
     inkscape:window-x="-8"
     inkscape:window-y="-8"
     inkscape:window-maximized="1"
     inkscape:current-layer="g28" /><g
     id="g4"
     transform="translate(0,-94)"><g
       id="g6"><rect
         x="43.137001"
         y="134.467"
         width="524.88098"
         height="28.799"
         id="rect8" /></g></g><g
     id="g10"
     transform="translate(0,-94)"><g
       id="g12"><rect
         x="43.138"
         y="628.58197"
         width="524.88"
         height="28.799"
         id="rect14" /></g></g><g
     id="g16"
     transform="translate(0,-94)"><g
       id="g18"><rect
         x="43.138"
         y="170.795"
         width="28.799999"
         height="448.45599"
         id="rect20" /></g></g><g
     id="g22"
     transform="translate(0,-94)"><g
       id="g24"><rect
         x="539.21899"
         y="170.795"
         width="28.799"
         height="448.45599"
         id="rect26" /></g></g><g
     id="g28"
     transform="translate(0,-192)"><g
       id="g3702"
       style="opacity:1"
       transform="translate(0,98)"><rect
         id="rect40"
         height="23.4"
         width="23.4"
         y="348.11499"
         x="83.171997" /><rect
         id="rect42"
         height="23.4"
         width="23.4"
         y="383.51599"
         x="83.171997" /><rect
         id="rect44"
         height="23.4"
         width="23.4"
         y="418.918"
         x="83.171997" /><rect
         id="rect64"
         height="23.4"
         width="23.4"
         y="312.71301"
         x="118.295" /><rect
         id="rect72"
         height="23.4"
         width="23.4"
         y="454.32001"
         x="118.295" /><rect
         id="rect92"
         height="23.4"
         width="23.4"
         y="348.11499"
         x="153.41901" /><rect
         id="rect94"
         height="23.4"
         width="23.4"
         y="383.51599"
         x="153.41901" /><rect
         id="rect96"
         height="23.4"
         width="23.4"
         y="418.918"
         x="153.41901" /></g><g
       id="g4512"
       style="opacity:1"
       transform="translate(0,98)"><rect
         id="rect118"
         height="23.4"
         width="23.398001"
         y="348.11499"
         x="504.65201" /><rect
         id="rect120"
         height="23.4"
         width="23.398001"
         y="383.51599"
         x="504.65201" /><rect
         id="rect122"
         height="23.4"
         width="23.398001"
         y="418.918"
         x="504.65201" /><rect
         id="rect142"
         height="23.4"
         width="23.398001"
         y="312.71301"
         x="469.52899" /><rect
         id="rect150"
         height="23.4"
         width="23.398001"
         y="454.32001"
         x="469.52899" /><rect
         id="rect168"
         height="23.4"
         width="23.4"
         y="312.71301"
         x="434.40399" /><rect
         id="rect170"
         height="23.4"
         width="23.4"
         y="348.11499"
         x="434.40399" /><rect
         id="rect172"
         height="23.4"
         width="23.4"
         y="383.51599"
         x="434.40399" /><rect
         id="rect174"
         height="23.4"
         width="23.4"
         y="418.918"
         x="434.40399" /><rect
         id="rect176"
         height="23.4"
         width="23.4"
         y="454.32001"
         x="434.40399" /></g><g
       id="g4532"
       style="opacity:1"
       transform="translate(0,98)"><rect
         id="rect220"
         height="23.4"
         width="23.4"
         y="312.71301"
         x="364.15799" /><rect
         id="rect224"
         height="23.4"
         width="23.4"
         y="383.51599"
         x="364.15799" /><rect
         id="rect228"
         height="23.4"
         width="23.4"
         y="454.32001"
         x="364.15799" /><rect
         id="rect246"
         height="23.4"
         width="23.4"
         y="312.71301"
         x="329.035" /><rect
         id="rect248"
         height="23.4"
         width="23.4"
         y="348.11499"
         x="329.035" /><rect
         id="rect250"
         height="23.4"
         width="23.4"
         y="383.51599"
         x="329.035" /><rect
         id="rect252"
         height="23.4"
         width="23.4"
         y="418.918"
         x="329.035" /><rect
         id="rect254"
         height="23.4"
         width="23.4"
         y="454.32001"
         x="329.035" /></g><g
       id="g4524"
       style="opacity:1"
       transform="translate(0,98)"><rect
         id="rect306"
         height="23.4"
         width="23.4"
         y="454.32001"
         x="258.789" /><rect
         id="rect324"
         height="23.4"
         width="23.4"
         y="312.71301"
         x="223.666" /><rect
         id="rect326"
         height="23.4"
         width="23.4"
         y="348.11499"
         x="223.666" /><rect
         id="rect328"
         height="23.4"
         width="23.4"
         y="383.51599"
         x="223.666" /><rect
         id="rect330"
         height="23.4"
         width="23.4"
         y="418.918"
         x="223.666" /><rect
         id="rect332"
         height="23.4"
         width="23.4"
         y="454.32001"
         x="223.666" /></g><g
       id="g4631"
       style="opacity:0.06600001"
       transform="translate(0,98)"><rect
         id="rect30"
         height="23.399"
         width="23.4"
         y="171.106"
         x="83.171997" /><rect
         id="rect32"
         height="23.4"
         width="23.4"
         y="241.909"
         x="83.171997" /><rect
         id="rect34"
         height="23.4"
         width="23.4"
         y="206.508"
         x="83.171997" /><rect
         id="rect36"
         height="23.4"
         width="23.4"
         y="277.311"
         x="83.171997" /><rect
         id="rect56"
         height="23.399"
         width="23.4"
         y="171.106"
         x="118.295" /><rect
         id="rect58"
         height="23.4"
         width="23.4"
         y="241.909"
         x="118.295" /><rect
         id="rect60"
         height="23.4"
         width="23.4"
         y="206.508"
         x="118.295" /><rect
         id="rect62"
         height="23.4"
         width="23.4"
         y="277.311"
         x="118.295" /><rect
         id="rect82"
         height="23.399"
         width="23.4"
         y="171.106"
         x="153.41901" /><rect
         id="rect84"
         height="23.4"
         width="23.4"
         y="241.909"
         x="153.41901" /><rect
         id="rect86"
         height="23.4"
         width="23.4"
         y="206.508"
         x="153.41901" /><rect
         id="rect88"
         height="23.4"
         width="23.4"
         y="277.311"
         x="153.41901" /><rect
         id="rect108"
         height="23.399"
         width="23.398001"
         y="171.106"
         x="504.65201" /><rect
         id="rect110"
         height="23.4"
         width="23.398001"
         y="241.909"
         x="504.65201" /><rect
         id="rect112"
         height="23.4"
         width="23.398001"
         y="206.508"
         x="504.65201" /><rect
         id="rect114"
         height="23.4"
         width="23.398001"
         y="277.311"
         x="504.65201" /><rect
         id="rect134"
         height="23.399"
         width="23.398001"
         y="171.106"
         x="469.52899" /><rect
         id="rect136"
         height="23.4"
         width="23.398001"
         y="241.909"
         x="469.52899" /><rect
         id="rect138"
         height="23.4"
         width="23.398001"
         y="206.508"
         x="469.52899" /><rect
         id="rect140"
         height="23.4"
         width="23.398001"
         y="277.311"
         x="469.52899" /><rect
         id="rect160"
         height="23.399"
         width="23.4"
         y="171.106"
         x="434.40399" /><rect
         id="rect162"
         height="23.4"
         width="23.4"
         y="241.909"
         x="434.40399" /><rect
         id="rect164"
         height="23.4"
         width="23.4"
         y="206.508"
         x="434.40399" /><rect
         id="rect166"
         height="23.4"
         width="23.4"
         y="277.311"
         x="434.40399" /><rect
         id="rect186"
         height="23.399"
         width="23.4"
         y="171.106"
         x="399.28101" /><rect
         id="rect188"
         height="23.4"
         width="23.4"
         y="241.909"
         x="399.28101" /><rect
         id="rect190"
         height="23.4"
         width="23.4"
         y="206.508"
         x="399.28101" /><rect
         id="rect192"
         height="23.4"
         width="23.4"
         y="277.311"
         x="399.28101" /><rect
         id="rect212"
         height="23.399"
         width="23.4"
         y="171.106"
         x="364.15799" /><rect
         id="rect214"
         height="23.4"
         width="23.4"
         y="241.909"
         x="364.15799" /><rect
         id="rect216"
         height="23.4"
         width="23.4"
         y="206.508"
         x="364.15799" /><rect
         id="rect218"
         height="23.4"
         width="23.4"
         y="277.311"
         x="364.15799" /><rect
         id="rect238"
         height="23.399"
         width="23.4"
         y="171.106"
         x="329.035" /><rect
         id="rect240"
         height="23.4"
         width="23.4"
         y="241.909"
         x="329.035" /><rect
         id="rect242"
         height="23.4"
         width="23.4"
         y="206.508"
         x="329.035" /><rect
         id="rect244"
         height="23.4"
         width="23.4"
         y="277.311"
         x="329.035" /><rect
         id="rect264"
         height="23.399"
         width="23.4"
         y="171.106"
         x="293.91199" /><rect
         id="rect266"
         height="23.4"
         width="23.4"
         y="241.909"
         x="293.91199" /><rect
         id="rect268"
         height="23.4"
         width="23.4"
         y="206.508"
         x="293.91199" /><rect
         id="rect270"
         height="23.4"
         width="23.4"
         y="277.311"
         x="293.91199" /><rect
         id="rect290"
         height="23.399"
         width="23.4"
         y="171.106"
         x="258.789" /><rect
         id="rect292"
         height="23.4"
         width="23.4"
         y="241.909"
         x="258.789" /><rect
         id="rect294"
         height="23.4"
         width="23.4"
         y="206.508"
         x="258.789" /><rect
         id="rect296"
         height="23.4"
         width="23.4"
         y="277.311"
         x="258.789" /><rect
         id="rect316"
         height="23.399"
         width="23.4"
         y="171.106"
         x="223.666" /><rect
         id="rect318"
         height="23.4"
         width="23.4"
         y="241.909"
         x="223.666" /><rect
         id="rect320"
         height="23.4"
         width="23.4"
         y="206.508"
         x="223.666" /><rect
         id="rect322"
         height="23.4"
         width="23.4"
         y="277.311"
         x="223.666" /><rect
         id="rect342"
         height="23.399"
         width="23.399"
         y="171.106"
         x="188.54201" /><rect
         id="rect344"
         height="23.4"
         width="23.399"
         y="241.909"
         x="188.54201" /><rect
         id="rect346"
         height="23.4"
         width="23.399"
         y="206.508"
         x="188.54201" /><rect
         id="rect348"
         height="23.4"
         width="23.399"
         y="277.311"
         x="188.54201" /></g><g
       id="g4542"
       style="opacity:0.06600001"
       transform="translate(0,98)"><rect
         id="rect38"
         height="23.4"
         width="23.4"
         y="312.71301"
         x="83.171997" /><rect
         id="rect46"
         height="23.4"
         width="23.4"
         y="454.32001"
         x="83.171997" /><rect
         id="rect66"
         height="23.4"
         width="23.4"
         y="348.11499"
         x="118.295" /><rect
         id="rect68"
         height="23.4"
         width="23.4"
         y="383.51599"
         x="118.295" /><rect
         id="rect70"
         height="23.4"
         width="23.4"
         y="418.918"
         x="118.295" /><rect
         id="rect90"
         height="23.4"
         width="23.4"
         y="312.71301"
         x="153.41901" /><rect
         id="rect98"
         height="23.4"
         width="23.4"
         y="454.32001"
         x="153.41901" /><rect
         id="rect116"
         height="23.4"
         width="23.398001"
         y="312.71301"
         x="504.65201" /><rect
         id="rect124"
         height="23.4"
         width="23.398001"
         y="454.32001"
         x="504.65201" /><rect
         id="rect144"
         height="23.4"
         width="23.398001"
         y="348.11499"
         x="469.52899" /><rect
         id="rect146"
         height="23.4"
         width="23.398001"
         y="383.51599"
         x="469.52899" /><rect
         id="rect148"
         height="23.4"
         width="23.398001"
         y="418.918"
         x="469.52899" /><rect
         id="rect194"
         height="23.4"
         width="23.4"
         y="312.71301"
         x="399.28101" /><rect
         id="rect196"
         height="23.4"
         width="23.4"
         y="348.11499"
         x="399.28101" /><rect
         id="rect198"
         height="23.4"
         width="23.4"
         y="383.51599"
         x="399.28101" /><rect
         id="rect200"
         height="23.4"
         width="23.4"
         y="418.918"
         x="399.28101" /><rect
         id="rect202"
         height="23.4"
         width="23.4"
         y="454.32001"
         x="399.28101" /><rect
         id="rect222"
         height="23.4"
         width="23.4"
         y="348.11499"
         x="364.15799" /><rect
         id="rect226"
         height="23.4"
         width="23.4"
         y="418.918"
         x="364.15799" /><rect
         id="rect272"
         height="23.4"
         width="23.4"
         y="312.71301"
         x="293.91199" /><rect
         id="rect274"
         height="23.4"
         width="23.4"
         y="348.11499"
         x="293.91199" /><rect
         id="rect276"
         height="23.4"
         width="23.4"
         y="383.51599"
         x="293.91199" /><rect
         id="rect278"
         height="23.4"
         width="23.4"
         y="418.918"
         x="293.91199" /><rect
         id="rect280"
         height="23.4"
         width="23.4"
         y="454.32001"
         x="293.91199" /><rect
         id="rect298"
         height="23.4"
         width="23.4"
         y="312.71301"
         x="258.789" /><rect
         id="rect300"
         height="23.4"
         width="23.4"
         y="348.11499"
         x="258.789" /><rect
         id="rect302"
         height="23.4"
         width="23.4"
         y="383.51599"
         x="258.789" /><rect
         id="rect304"
         height="23.4"
         width="23.4"
         y="418.918"
         x="258.789" /><rect
         id="rect350"
         height="23.4"
         width="23.399"
         y="312.71301"
         x="188.54201" /><rect
         id="rect352"
         height="23.4"
         width="23.399"
         y="348.11499"
         x="188.54201" /><rect
         id="rect354"
         height="23.4"
         width="23.399"
         y="383.51599"
         x="188.54201" /><rect
         id="rect356"
         height="23.4"
         width="23.399"
         y="418.918"
         x="188.54201" /><rect
         id="rect358"
         height="23.4"
         width="23.399"
         y="454.32001"
         x="188.54201" /></g><g
       id="g4577"
       style="opacity:0.06600001"
       transform="translate(0,98)"><rect
         id="rect48"
         height="23.4"
         width="23.4"
         y="489.72101"
         x="83.171997" /><rect
         id="rect50"
         height="23.4"
         width="23.4"
         y="525.12299"
         x="83.171997" /><rect
         id="rect52"
         height="23.4"
         width="23.4"
         y="560.52502"
         x="83.171997" /><rect
         id="rect54"
         height="23.4"
         width="23.4"
         y="595.92798"
         x="83.171997" /><rect
         id="rect74"
         height="23.4"
         width="23.4"
         y="489.72101"
         x="118.295" /><rect
         id="rect76"
         height="23.4"
         width="23.4"
         y="525.12299"
         x="118.295" /><rect
         id="rect78"
         height="23.4"
         width="23.4"
         y="560.52502"
         x="118.295" /><rect
         id="rect80"
         height="23.4"
         width="23.4"
         y="595.92798"
         x="118.295" /><rect
         id="rect100"
         height="23.4"
         width="23.4"
         y="489.72101"
         x="153.41901" /><rect
         id="rect102"
         height="23.4"
         width="23.4"
         y="525.12299"
         x="153.41901" /><rect
         id="rect104"
         height="23.4"
         width="23.4"
         y="560.52502"
         x="153.41901" /><rect
         id="rect106"
         height="23.4"
         width="23.4"
         y="595.92798"
         x="153.41901" /><rect
         id="rect126"
         height="23.4"
         width="23.398001"
         y="489.72101"
         x="504.65201" /><rect
         id="rect128"
         height="23.4"
         width="23.398001"
         y="525.12299"
         x="504.65201" /><rect
         id="rect130"
         height="23.4"
         width="23.398001"
         y="560.52502"
         x="504.65201" /><rect
         id="rect132"
         height="23.4"
         width="23.398001"
         y="595.92798"
         x="504.65201" /><rect
         id="rect152"
         height="23.4"
         width="23.398001"
         y="489.72101"
         x="469.52899" /><rect
         id="rect154"
         height="23.4"
         width="23.398001"
         y="525.12299"
         x="469.52899" /><rect
         id="rect156"
         height="23.4"
         width="23.398001"
         y="560.52502"
         x="469.52899" /><rect
         id="rect158"
         height="23.4"
         width="23.398001"
         y="595.92798"
         x="469.52899" /><rect
         id="rect178"
         height="23.4"
         width="23.4"
         y="489.72101"
         x="434.40399" /><rect
         id="rect180"
         height="23.4"
         width="23.4"
         y="525.12299"
         x="434.40399" /><rect
         id="rect182"
         height="23.4"
         width="23.4"
         y="560.52502"
         x="434.40399" /><rect
         id="rect184"
         height="23.4"
         width="23.4"
         y="595.92798"
         x="434.40399" /><rect
         id="rect204"
         height="23.4"
         width="23.4"
         y="489.72101"
         x="399.28101" /><rect
         id="rect206"
         height="23.4"
         width="23.4"
         y="525.12299"
         x="399.28101" /><rect
         id="rect208"
         height="23.4"
         width="23.4"
         y="560.52502"
         x="399.28101" /><rect
         id="rect210"
         height="23.4"
         width="23.4"
         y="595.92798"
         x="399.28101" /><rect
         id="rect230"
         height="23.4"
         width="23.4"
         y="489.72101"
         x="364.15799" /><rect
         id="rect232"
         height="23.4"
         width="23.4"
         y="525.12299"
         x="364.15799" /><rect
         id="rect234"
         height="23.4"
         width="23.4"
         y="560.52502"
         x="364.15799" /><rect
         id="rect236"
         height="23.4"
         width="23.4"
         y="595.92798"
         x="364.15799" /><rect
         id="rect256"
         height="23.4"
         width="23.4"
         y="489.72101"
         x="329.035" /><rect
         id="rect258"
         height="23.4"
         width="23.4"
         y="525.12299"
         x="329.035" /><rect
         id="rect260"
         height="23.4"
         width="23.4"
         y="560.52502"
         x="329.035" /><rect
         id="rect262"
         height="23.4"
         width="23.4"
         y="595.92798"
         x="329.035" /><rect
         id="rect282"
         height="23.4"
         width="23.4"
         y="489.72101"
         x="293.91199" /><rect
         id="rect284"
         height="23.4"
         width="23.4"
         y="525.12299"
         x="293.91199" /><rect
         id="rect286"
         height="23.4"
         width="23.4"
         y="560.52502"
         x="293.91199" /><rect
         id="rect288"
         height="23.4"
         width="23.4"
         y="595.92798"
         x="293.91199" /><rect
         id="rect308"
         height="23.4"
         width="23.4"
         y="489.72101"
         x="258.789" /><rect
         id="rect310"
         height="23.4"
         width="23.4"
         y="525.12299"
         x="258.789" /><rect
         id="rect312"
         height="23.4"
         width="23.4"
         y="560.52502"
         x="258.789" /><rect
         id="rect314"
         height="23.4"
         width="23.4"
         y="595.92798"
         x="258.789" /><rect
         id="rect334"
         height="23.4"
         width="23.4"
         y="489.72101"
         x="223.666" /><rect
         id="rect336"
         height="23.4"
         width="23.4"
         y="525.12299"
         x="223.666" /><rect
         id="rect338"
         height="23.4"
         width="23.4"
         y="560.52502"
         x="223.666" /><rect
         id="rect340"
         height="23.4"
         width="23.4"
         y="595.92798"
         x="223.666" /><rect
         id="rect360"
         height="23.4"
         width="23.399"
         y="489.72101"
         x="188.54201" /><rect
         id="rect362"
         height="23.4"
         width="23.399"
         y="525.12299"
         x="188.54201" /><rect
         id="rect364"
         height="23.4"
         width="23.399"
         y="560.52502"
         x="188.54201" /><rect
         id="rect366"
         height="23.4"
         width="23.399"
         y="595.92798"
         x="188.54201" /></g></g></svg>