<?xml version="1.0" encoding="UTF-8" standalone="no"?>
<svg
   xmlns:dc="http://purl.org/dc/elements/1.1/"
   xmlns:cc="http://creativecommons.org/ns#"
   xmlns:rdf="http://www.w3.org/1999/02/22-rdf-syntax-ns#"
   xmlns:svg="http://www.w3.org/2000/svg"
   xmlns="http://www.w3.org/2000/svg"
   xmlns:xlink="http://www.w3.org/1999/xlink"
   xmlns:sodipodi="http://sodipodi.sourceforge.net/DTD/sodipodi-0.dtd"
   xmlns:inkscape="http://www.inkscape.org/namespaces/inkscape"
   version="1.1"
   x="0px"
   y="0px"
   viewBox="0 0 100 100"
   enable-background="new 0 0 100 100"
   xml:space="preserve"
   id="svg2"
   inkscape:version="0.91 r13725"
   sodipodi:docname="VoiceRecorder.svg"><metadata
     id="metadata18"><rdf:RDF><cc:Work
         rdf:about=""><dc:format>image/svg+xml</dc:format><dc:type
           rdf:resource="http://purl.org/dc/dcmitype/StillImage" /></cc:Work></rdf:RDF></metadata><defs
     id="defs16" /><sodipodi:namedview
     pagecolor="#ffffff"
     bordercolor="#666666"
     borderopacity="1"
     objecttolerance="10"
     gridtolerance="10"
     guidetolerance="10"
     inkscape:pageopacity="0"
     inkscape:pageshadow="2"
     inkscape:window-width="2048"
     inkscape:window-height="1066"
     id="namedview14"
     showgrid="false"
     inkscape:zoom="4.72"
     inkscape:cx="58.295618"
     inkscape:cy="54.930314"
     inkscape:window-x="-8"
     inkscape:window-y="-8"
     inkscape:window-maximized="1"
     inkscape:current-layer="g4" /><g
     id="g4"><defs
       id="defs6"><rect
         id="b"
         x="31.833"
         y="5.995"
         width="35.861"
         height="89.971" /></defs><clipPath
       id="a"><use
         xlink:href="#b"
         overflow="visible"
         id="use10" /></clipPath><path
       clip-path="url(#a)"
       d="m 66.503,20.773 -0.771,0 0,4.989 0.771,0 z m 1.191,-5.434 -1.962,0 0,4.988 1.962,0 z m -30.453,1.509 5.341,-6.088 -1.106,0 -4.234,4.867 0,1.221 z m 12.062,5.484 c 0,0.213 0.07,0.406 0.167,0.582 -0.102,0.159 -0.235,0.292 -0.403,0.382 -0.156,-0.073 -0.328,-0.12 -0.514,-0.12 -0.187,0 -0.359,0.048 -0.517,0.122 -0.19,-0.102 -0.343,-0.253 -0.447,-0.442 0.077,-0.161 0.129,-0.336 0.129,-0.524 0,-0.19 -0.051,-0.363 -0.126,-0.523 0.092,-0.168 0.227,-0.303 0.391,-0.403 0.171,0.094 0.36,0.158 0.569,0.158 0.209,0 0.396,-0.064 0.567,-0.156 0.142,0.088 0.257,0.202 0.347,0.343 -0.094,0.176 -0.163,0.367 -0.163,0.581 m 2.595,0.027 c 0,-1.846 -1.502,-3.348 -3.349,-3.348 -1.846,0 -3.349,1.502 -3.349,3.348 0,1.845 1.502,3.348 3.349,3.348 1.847,10e-4 3.349,-1.502 3.349,-3.348 m -2.595,13.208 c 0,0.214 0.07,0.407 0.167,0.583 -0.102,0.159 -0.235,0.292 -0.403,0.382 -0.156,-0.073 -0.328,-0.12 -0.514,-0.12 -0.187,0 -0.359,0.048 -0.517,0.122 -0.19,-0.101 -0.343,-0.253 -0.447,-0.441 0.077,-0.162 0.129,-0.336 0.129,-0.526 0,-0.188 -0.051,-0.362 -0.126,-0.522 0.092,-0.168 0.227,-0.303 0.391,-0.403 0.171,0.093 0.36,0.158 0.569,0.158 0.209,0 0.396,-0.063 0.567,-0.156 0.142,0.088 0.257,0.203 0.347,0.343 -0.094,0.176 -0.163,0.367 -0.163,0.58 m 2.595,0.151 c 0,-1.845 -1.502,-3.348 -3.349,-3.348 -1.846,0 -3.349,1.502 -3.349,3.348 0,1.847 1.502,3.348 3.349,3.348 1.847,0 3.349,-1.502 3.349,-3.348 m 0.908,0 c 0,2.347 -1.91,4.255 -4.256,4.255 -2.346,0 -4.256,-1.908 -4.256,-4.255 0,-2.346 1.91,-4.255 4.256,-4.255 2.346,0 4.256,1.909 4.256,4.255 m -3.803,-4.908 -0.907,0 0,-3.593 0.907,0 z m 3.803,-8.451 c 0,2.346 -1.91,4.255 -4.256,4.255 -2.346,0 -4.256,-1.909 -4.256,-4.255 0,-2.347 1.91,-4.255 4.256,-4.255 2.346,0 4.256,1.908 4.256,4.255 m 2.615,18.148 0,-22.936 c -0.003,-0.215 -0.076,-2.119 -2.119,-2.119 l -9.504,0 c -0.216,0.002 -2.118,0.076 -2.118,2.119 l 0,22.936 c 0.002,0.215 0.075,2.117 2.118,2.117 l 9.502,0 c 0.218,-0.002 2.121,-0.075 2.121,-2.117 m 0.907,0 c 0,2.393 -1.98,3.024 -3.026,3.024 l -9.504,0 c -2.394,0 -3.025,-1.979 -3.025,-3.024 l 0,-22.936 c 0,-2.394 1.979,-3.026 3.025,-3.026 l 9.504,0 c 2.394,0 3.026,1.979 3.026,3.026 z m 3.529,4.693 0,-32.323 C 59.856,12.662 59.781,10.759 57.74,10.759 l -13.899,0 -6.6,7.397 0,27.044 c 0.002,0.215 0.076,2.119 2.119,2.119 l 18.378,0 c 0.217,-0.004 2.119,-0.076 2.119,-2.119 m 0.909,0 c 0,2.394 -1.979,3.026 -3.025,3.026 l -18.381,0 c -2.394,0 -3.026,-1.98 -3.026,-3.026 l 0,-32.323 c 0,-2.393 1.979,-3.025 3.026,-3.025 l 18.38,0 c 2.393,0 3.025,1.979 3.025,3.025 l 0,32.323 z m -23.109,7.871 c 0,-0.282 0.229,-0.511 0.51,-0.511 0.281,0 0.509,0.229 0.509,0.511 0,0.281 -0.228,0.51 -0.509,0.51 -0.281,0 -0.51,-0.228 -0.51,-0.51 m 0,3.64 c 0,-0.28 0.229,-0.509 0.51,-0.509 0.281,0 0.509,0.229 0.509,0.509 0,0.281 -0.228,0.51 -0.509,0.51 -0.281,0 -0.51,-0.229 -0.51,-0.51 m 1.31,-5.46 c 0,-0.282 0.229,-0.511 0.51,-0.511 0.281,0 0.51,0.229 0.51,0.511 0,0.282 -0.229,0.511 -0.51,0.511 -0.281,0 -0.51,-0.229 -0.51,-0.511 m 0,3.64 c 0,-0.281 0.229,-0.51 0.51,-0.51 0.281,0 0.51,0.229 0.51,0.51 0,0.282 -0.229,0.511 -0.51,0.511 -0.281,0 -0.51,-0.229 -0.51,-0.511 m 0,3.639 c 0,-0.282 0.229,-0.511 0.51,-0.511 0.281,0 0.51,0.229 0.51,0.511 0,0.281 -0.229,0.509 -0.51,0.509 -0.281,0 -0.51,-0.227 -0.51,-0.509 m 1.31,-5.459 c 0,-0.282 0.228,-0.511 0.509,-0.511 0.281,0 0.51,0.229 0.51,0.511 0,0.281 -0.229,0.51 -0.51,0.51 -0.281,0 -0.509,-0.228 -0.509,-0.51 m 0,3.64 c 0,-0.28 0.228,-0.509 0.509,-0.509 0.281,0 0.51,0.229 0.51,0.509 0,0.281 -0.229,0.51 -0.51,0.51 -0.281,0 -0.509,-0.229 -0.509,-0.51 m 1.238,-5.46 c 0,-0.282 0.229,-0.511 0.51,-0.511 0.281,0 0.51,0.229 0.51,0.511 0,0.282 -0.229,0.511 -0.51,0.511 -0.281,0 -0.51,-0.229 -0.51,-0.511 m 0,3.64 c 0,-0.281 0.229,-0.51 0.51,-0.51 0.281,0 0.51,0.229 0.51,0.51 0,0.282 -0.229,0.511 -0.51,0.511 -0.281,0 -0.51,-0.229 -0.51,-0.511 m 0,3.639 c 0,-0.282 0.229,-0.511 0.51,-0.511 0.281,0 0.51,0.229 0.51,0.511 0,0.281 -0.229,0.509 -0.51,0.509 -0.281,0 -0.51,-0.227 -0.51,-0.509 m 1.31,-5.459 c 0,-0.282 0.228,-0.511 0.509,-0.511 0.281,0 0.51,0.229 0.51,0.511 0,0.281 -0.229,0.51 -0.51,0.51 -0.281,0 -0.509,-0.228 -0.509,-0.51 m 0,3.64 c 0,-0.28 0.228,-0.509 0.509,-0.509 0.281,0 0.51,0.229 0.51,0.509 0,0.281 -0.229,0.51 -0.51,0.51 -0.281,0 -0.509,-0.229 -0.509,-0.51 m 1.309,-5.46 c 0,-0.282 0.23,-0.511 0.51,-0.511 0.281,0 0.509,0.229 0.509,0.511 0,0.282 -0.228,0.511 -0.509,0.511 -0.28,0 -0.51,-0.229 -0.51,-0.511 m 0,3.64 c 0,-0.281 0.23,-0.51 0.51,-0.51 0.281,0 0.509,0.229 0.509,0.51 0,0.282 -0.228,0.511 -0.509,0.511 -0.28,-10e-4 -0.51,-0.229 -0.51,-0.511 m 0,3.639 c 0,-0.282 0.23,-0.511 0.51,-0.511 0.281,0 0.509,0.229 0.509,0.511 0,0.281 -0.228,0.509 -0.509,0.509 -0.28,0 -0.51,-0.227 -0.51,-0.509 m 1.312,-5.459 c 0,-0.282 0.228,-0.511 0.509,-0.511 0.282,0 0.51,0.229 0.51,0.511 0,0.281 -0.229,0.51 -0.51,0.51 -0.281,0 -0.509,-0.228 -0.509,-0.51 m 0,3.64 c 0,-0.28 0.228,-0.509 0.509,-0.509 0.282,0 0.51,0.229 0.51,0.509 0,0.281 -0.229,0.51 -0.51,0.51 -0.281,0 -0.509,-0.229 -0.509,-0.51 m 1.237,-5.46 c 0,-0.282 0.229,-0.511 0.51,-0.511 0.281,0 0.509,0.229 0.509,0.511 0,0.282 -0.228,0.511 -0.509,0.511 -0.281,0 -0.51,-0.229 -0.51,-0.511 m 0,3.64 c 0,-0.281 0.229,-0.51 0.51,-0.51 0.281,0 0.509,0.229 0.509,0.51 0,0.282 -0.228,0.511 -0.509,0.511 -0.281,0 -0.51,-0.229 -0.51,-0.511 m 0,3.639 c 0,-0.282 0.229,-0.511 0.51,-0.511 0.281,0 0.509,0.229 0.509,0.511 0,0.281 -0.228,0.509 -0.509,0.509 -0.281,0 -0.51,-0.227 -0.51,-0.509 m 1.82,-4.949 c -0.281,0 -0.509,-0.229 -0.509,-0.51 0,-0.282 0.228,-0.511 0.509,-0.511 0.281,0 0.51,0.229 0.51,0.511 0,0.282 -0.229,0.51 -0.51,0.51 m 0.51,3.13 c 0,0.281 -0.229,0.51 -0.51,0.51 -0.281,0 -0.509,-0.229 -0.509,-0.51 0,-0.28 0.228,-0.509 0.509,-0.509 0.281,0 0.51,0.229 0.51,0.509 m 0.8,-4.949 c -0.281,0 -0.51,-0.229 -0.51,-0.511 0,-0.282 0.229,-0.511 0.51,-0.511 0.28,0 0.51,0.229 0.51,0.511 0,0.282 -0.23,0.511 -0.51,0.511 m 0.51,3.129 c 0,0.282 -0.229,0.511 -0.51,0.511 -0.281,0 -0.51,-0.229 -0.51,-0.511 0,-0.281 0.229,-0.51 0.51,-0.51 0.28,0 0.51,0.228 0.51,0.51 m -0.51,4.148 c -0.281,0 -0.51,-0.228 -0.51,-0.509 0,-0.282 0.229,-0.511 0.51,-0.511 0.28,0 0.51,0.229 0.51,0.511 0,0.282 -0.23,0.509 -0.51,0.509 m 0.8,-5.968 c 0,-0.282 0.229,-0.511 0.51,-0.511 0.281,0 0.51,0.229 0.51,0.511 0,0.281 -0.229,0.51 -0.51,0.51 -0.281,0 -0.51,-0.228 -0.51,-0.51 m 0,3.64 c 0,-0.28 0.229,-0.509 0.51,-0.509 0.281,0 0.51,0.229 0.51,0.509 0,0.281 -0.229,0.51 -0.51,0.51 -0.281,0 -0.51,-0.229 -0.51,-0.51 m 1.238,-5.46 c 0,-0.282 0.229,-0.511 0.511,-0.511 0.279,0 0.509,0.229 0.509,0.511 0,0.282 -0.229,0.511 -0.509,0.511 -0.283,0 -0.511,-0.229 -0.511,-0.511 m 0,3.64 c 0,-0.281 0.229,-0.51 0.511,-0.51 0.279,0 0.509,0.229 0.509,0.51 0,0.282 -0.229,0.511 -0.509,0.511 -0.283,-10e-4 -0.511,-0.229 -0.511,-0.511 m 0,3.639 c 0,-0.282 0.229,-0.511 0.511,-0.511 0.279,0 0.509,0.229 0.509,0.511 0,0.281 -0.229,0.509 -0.509,0.509 -0.283,0 -0.511,-0.227 -0.511,-0.509 m 1.309,-5.459 c 0,-0.282 0.229,-0.511 0.51,-0.511 0.282,0 0.511,0.229 0.511,0.511 0,0.281 -0.229,0.51 -0.511,0.51 -0.281,0 -0.51,-0.228 -0.51,-0.51 m 0,3.64 c 0,-0.28 0.229,-0.509 0.51,-0.509 0.282,0 0.511,0.229 0.511,0.509 0,0.281 -0.229,0.51 -0.511,0.51 -0.281,0 -0.51,-0.229 -0.51,-0.51 m 1.311,-5.46 c 0,-0.282 0.229,-0.511 0.509,-0.511 0.282,0 0.511,0.229 0.511,0.511 0,0.282 -0.229,0.511 -0.511,0.511 -0.28,0 -0.509,-0.229 -0.509,-0.511 m 0,3.64 c 0,-0.281 0.229,-0.51 0.509,-0.51 0.282,0 0.511,0.229 0.511,0.51 0,0.282 -0.229,0.511 -0.511,0.511 -0.28,-10e-4 -0.509,-0.229 -0.509,-0.511 m 0,3.639 c 0,-0.282 0.229,-0.511 0.509,-0.511 0.282,0 0.511,0.229 0.511,0.511 0,0.281 -0.229,0.509 -0.511,0.509 -0.28,0 -0.509,-0.227 -0.509,-0.509 m 1.31,-5.459 c 0,-0.282 0.229,-0.511 0.51,-0.511 0.28,0 0.51,0.229 0.51,0.511 0,0.281 -0.229,0.51 -0.51,0.51 -0.281,0 -0.51,-0.228 -0.51,-0.51 m 0,3.64 c 0,-0.28 0.229,-0.509 0.51,-0.509 0.28,0 0.51,0.229 0.51,0.509 0,0.281 -0.229,0.51 -0.51,0.51 -0.281,0 -0.51,-0.229 -0.51,-0.51 m 1.237,-5.46 c 0,-0.282 0.23,-0.511 0.51,-0.511 0.282,0 0.511,0.229 0.511,0.511 0,0.282 -0.229,0.511 -0.511,0.511 -0.28,0 -0.51,-0.229 -0.51,-0.511 m 0,3.64 c 0,-0.281 0.23,-0.51 0.51,-0.51 0.282,0 0.511,0.229 0.511,0.51 0,0.282 -0.229,0.511 -0.511,0.511 -0.28,-10e-4 -0.51,-0.229 -0.51,-0.511 m 0,3.639 c 0,-0.282 0.23,-0.511 0.51,-0.511 0.282,0 0.511,0.229 0.511,0.511 0,0.281 -0.229,0.509 -0.511,0.509 -0.28,0 -0.51,-0.227 -0.51,-0.509 m 1.311,-5.459 c 0,-0.282 0.228,-0.511 0.508,-0.511 0.282,0 0.511,0.229 0.511,0.511 0,0.281 -0.229,0.51 -0.511,0.51 -0.28,0 -0.508,-0.228 -0.508,-0.51 m 0,3.64 c 0,-0.28 0.228,-0.509 0.508,-0.509 0.282,0 0.511,0.229 0.511,0.509 0,0.281 -0.229,0.51 -0.511,0.51 -0.28,0 -0.508,-0.229 -0.508,-0.51 m 6.937,2.774 0,-50.919 c 0,0 0,-2.572 -2.572,-2.572 l -28.289,0 c 0,0 -2.572,0 -2.572,2.572 l 0,50.919 c 0,0 0,2.571 2.572,2.571 0,0 -9.217469,0 28.287,0 10e-4,0.001 2.574,0.001 2.574,-2.571 m 0.466,-44.592 1.962,0 0,-4.539 c 0,-0.425 -0.376,-0.45 -0.376,-0.45 l -1.586,0 z m 1.962,15.89 0,-4.575 -1.962,0 0,4.989 1.538,0 c 0.001,0 0.424,0.02 0.424,-0.414"
       id="path12"
       inkscape:connector-curvature="0"
       sodipodi:nodetypes="cccccccccccccccccccsccsccsccccsscccccsccsccsccccsssccssscccccccssscccscscsccsssssssssccscccscccssssssscccsssccsssccsssccsssccsssccsssccsssccsssccsssccsssccsssccsssccsssccsscccsssccsssccsssccsssccsssccsssccsssccsssccsssccsssccsssccsssccsssccsssccsscccsssccsssccsssccsssccsscccsssccsssccsssccsssccsscccsssccsssccssscccscsccccccscccccccsc"
       transform="matrix(1.5611599,-0.23653691,0.23653691,1.5611599,-34.799204,8.5636043)" /></g></svg>