<eagle version="6.5.0" xmlns="eagle">
  <drawing>
    <library>
      <packages>
        <package name="5-LEADTSOT" xmlns="eagle">
          <smd name="P$1" x="-1.1" y="0.95" dx="0.7" dy="0.8" layer="1" rot="R270" />
          <smd name="P$2" x="-1.1" y="0" dx="0.7" dy="0.8" layer="1" rot="R270" />
          <smd name="P$3" x="-1.1" y="-0.95" dx="0.7" dy="0.8" layer="1" rot="R270" />
          <smd name="P$4" x="1.1" y="-0.95" dx="0.7" dy="0.8" layer="1" rot="R270" />
          <smd name="P$5" x="1.1" y="0.95" dx="0.7" dy="0.8" layer="1" rot="R270" />
          <wire x1="1.4" y1="0.4" x2="1.4" y2="-0.4" width="0.127" layer="21" />
          <wire x1="0.4" y1="-1.2" x2="-0.4" y2="-1.2" width="0.127" layer="21" />
          <wire x1="0.4" y1="1.2" x2="-0.4" y2="1.2" width="0.127" layer="21" />
          <circle x="-1.4" y="1.8" radius="0.152" width="0" layer="21" />
          <text x="-2.2" y="2" size="1.27" layer="25">&gt;NAME</text>
        </package>
      </packages>
      <symbols>
        <symbol name="OPAMP">
          <wire x1="-10.16" y1="10.16" x2="-10.16" y2="-10.16" width="0.254" layer="94" />
          <wire x1="-10.16" y1="-10.16" x2="10.16" y2="0" width="0.254" layer="94" />
          <wire x1="10.16" y1="0" x2="-10.16" y2="10.16" width="0.254" layer="94" />
          <pin name="IN+" x="-15.24" y="5.08" length="middle" />
          <pin name="IN-" x="-15.24" y="-5.08" length="middle" />
          <pin name="V+" x="0" y="10.16" length="middle" rot="R270" />
          <pin name="V-" x="0" y="-10.16" length="middle" rot="R90" />
          <pin name="OUT" x="15.24" y="0" length="middle" rot="R180" />
          <text x="-10.16" y="15.24" size="1.27" layer="95">&gt;NAME</text>
          <text x="-10.16" y="17.78" size="1.27" layer="96">&gt;VALUE</text>
        </symbol>
      </symbols>
      <devicesets>
        <deviceset name="AD8603">
          <gates>
            <gate name="G$1" symbol="OPAMP" x="0" y="0" />
          </gates>
          <devices>
            <device name="" package="5-LEADTSOT" xmlns="eagle">
              <connects>
                <connect gate="G$1" pin="IN+" pad="P$3" />
                <connect gate="G$1" pin="IN-" pad="P$4" />
                <connect gate="G$1" pin="OUT" pad="P$1" />
                <connect gate="G$1" pin="V+" pad="P$5" />
                <connect gate="G$1" pin="V-" pad="P$2" />
              </connects>
              <technologies>
                <technology name="" />
              </technologies>
            </device>
          </devices>
        </deviceset>
      </devicesets>
    </library>
  </drawing>
</eagle>