<eagle version="6.5.0" xmlns="eagle">
  <drawing>
    <library>
      <packages>
        <package name="SOD-523" xmlns="eagle">
          <smd name="C" x="0.7" y="0" dx="0.4" dy="0.4" layer="1" />
          <smd name="A" x="-0.7" y="0" dx="0.4" dy="0.4" layer="1" />
          <wire x1="-0.6" y1="-0.4" x2="0.4" y2="-0.4" width="0.15239999999999998" layer="21" />
          <wire x1="0.4" y1="-0.4" x2="0.6" y2="-0.4" width="0.15239999999999998" layer="21" />
          <wire x1="0.6" y1="0.4" x2="0.4" y2="0.4" width="0.15239999999999998" layer="21" />
          <wire x1="0.4" y1="0.4" x2="-0.6" y2="0.4" width="0.15239999999999998" layer="21" />
          <wire x1="0.6" y1="0.4" x2="0.4" y2="0.6" width="0.15239999999999998" layer="21" />
          <wire x1="0.6" y1="-0.4" x2="0.4" y2="-0.6" width="0.15239999999999998" layer="21" />
          <wire x1="0.4" y1="-0.6" x2="0.4" y2="-0.4" width="0.15239999999999998" layer="21" />
          <wire x1="0.4" y1="0.6" x2="0.4" y2="0.4" width="0.15239999999999998" layer="21" />
          <wire x1="-0.6" y1="-0.4" x2="0.3" y2="-0.4" width="0.15239999999999998" layer="51" />
          <wire x1="0.3" y1="-0.4" x2="0.6" y2="-0.4" width="0.15239999999999998" layer="51" />
          <wire x1="0.6" y1="-0.4" x2="0.6" y2="-0.1" width="0.15239999999999998" layer="51" />
          <wire x1="0.6" y1="-0.1" x2="0.6" y2="0.1" width="0.15239999999999998" layer="51" />
          <wire x1="0.6" y1="0.1" x2="0.6" y2="0.4" width="0.15239999999999998" layer="51" />
          <wire x1="0.6" y1="0.4" x2="0.3" y2="0.4" width="0.15239999999999998" layer="51" />
          <wire x1="0.3" y1="0.4" x2="-0.6" y2="0.4" width="0.15239999999999998" layer="51" />
          <wire x1="-0.6" y1="0.4" x2="-0.6" y2="0.1" width="0.15239999999999998" layer="51" />
          <wire x1="-0.6" y1="0.1" x2="-0.6" y2="-0.1" width="0.15239999999999998" layer="51" />
          <wire x1="-0.6" y1="-0.1" x2="-0.6" y2="-0.4" width="0.15239999999999998" layer="51" />
          <wire x1="0.6" y1="0.1" x2="0.8" y2="0.1" width="0.15239999999999998" layer="51" />
          <wire x1="0.8" y1="0.1" x2="0.8" y2="-0.1" width="0.15239999999999998" layer="51" />
          <wire x1="0.8" y1="-0.1" x2="0.6" y2="-0.1" width="0.15239999999999998" layer="51" />
          <wire x1="-0.6" y1="-0.1" x2="-0.8" y2="-0.1" width="0.15239999999999998" layer="51" />
          <wire x1="-0.6" y1="0.1" x2="-0.8" y2="0.1" width="0.15239999999999998" layer="51" />
          <wire x1="-0.8" y1="0.1" x2="-0.8" y2="-0.1" width="0.15239999999999998" layer="51" />
          <wire x1="0.3" y1="0.4" x2="0.3" y2="-0.4" width="0.15239999999999998" layer="51" />
        </package>
      </packages>
      <symbols>
        <symbol name="DIODE-SCHOTTKY">
          <wire x1="-1.27" y1="-1.27" x2="1.27" y2="0" width="0.254" layer="94" xmlns="eagle" />
          <wire x1="1.27" y1="0" x2="-1.27" y2="1.27" width="0.254" layer="94" xmlns="eagle" />
          <wire x1="1.27" y1="1.27" x2="1.27" y2="0" width="0.254" layer="94" xmlns="eagle" />
          <wire x1="-1.27" y1="1.27" x2="-1.27" y2="0" width="0.254" layer="94" xmlns="eagle" />
          <wire x1="-1.27" y1="0" x2="-1.27" y2="-1.27" width="0.254" layer="94" xmlns="eagle" />
          <wire x1="1.27" y1="0" x2="1.27" y2="-1.27" width="0.254" layer="94" xmlns="eagle" />
          <wire x1="1.27" y1="1.27" x2="1.778" y2="1.524" width="0.254" layer="94" xmlns="eagle" />
          <wire x1="1.27" y1="-1.27" x2="0.762" y2="-1.524" width="0.254" layer="94" xmlns="eagle" />
          <text x="2.54" y="0.4826" size="1.778" layer="95" xmlns="eagle">&gt;NAME</text>
          <text x="2.54" y="-2.3114" size="1.778" layer="96" xmlns="eagle">&gt;VALUE</text>
          <pin name="A" x="-2.54" y="0" visible="off" length="point" direction="pas" xmlns="eagle" />
          <pin name="C" x="2.54" y="0" visible="off" length="point" direction="pas" rot="R180" xmlns="eagle" />
          <wire x1="-2.54" y1="0" x2="-1.27" y2="0" width="0.1524" layer="94" xmlns="eagle" />
          <wire x1="2.54" y1="0" x2="1.27" y2="0" width="0.1524" layer="94" xmlns="eagle" />
        </symbol>
      </symbols>
      <devicesets>
        <deviceset name="RB751" prefix="D" uservalue="yes">
          <gates>
            <gate name="G$1" symbol="DIODE-SCHOTTKY" x="0" y="0" />
          </gates>
          <devices>
            <device name="" package="SOD-523" xmlns="eagle">
              <connects>
                <connect gate="G$1" pin="A" pad="A" />
                <connect gate="G$1" pin="C" pad="C" />
              </connects>
              <technologies>
                <technology name="">
                  <attribute name="PROD_ID" value="DIO-11018" />
                  <attribute name="VALUE" value="RB751" constant="no" />
                </technology>
              </technologies>
            </device>
          </devices>
        </deviceset>
      </devicesets>
    </library>
  </drawing>
</eagle>