<?xml version="1.0" encoding="utf-8"?>
<!DOCTYPE eagle SYSTEM "eagle.dtd">
<eagle version="6.5.0">
<drawing>
<settings>
<setting alwaysvectorfont="no"/>
<setting verticaltext="up"/>
</settings>
<grid distance="0.1" unitdist="inch" unit="inch" style="lines" multiple="1" display="no" altdistance="0.01" altunitdist="inch" altunit="inch"/>
<layers>
<layer number="1" name="Top" color="4" fill="1" visible="yes" active="yes"/>
<layer number="16" name="Bottom" color="1" fill="1" visible="yes" active="yes"/>
<layer number="17" name="Pads" color="2" fill="1" visible="yes" active="yes"/>
<layer number="18" name="Vias" color="2" fill="1" visible="yes" active="yes"/>
<layer number="19" name="Unrouted" color="6" fill="1" visible="yes" active="yes"/>
<layer number="20" name="Dimension" color="15" fill="1" visible="yes" active="yes"/>
<layer number="21" name="tPlace" color="7" fill="1" visible="yes" active="yes"/>
<layer number="22" name="bPlace" color="7" fill="1" visible="yes" active="yes"/>
<layer number="23" name="tOrigins" color="15" fill="1" visible="yes" active="yes"/>
<layer number="24" name="bOrigins" color="15" fill="1" visible="yes" active="yes"/>
<layer number="25" name="tNames" color="7" fill="1" visible="yes" active="yes"/>
<layer number="26" name="bNames" color="7" fill="1" visible="yes" active="yes"/>
<layer number="27" name="tValues" color="7" fill="1" visible="yes" active="yes"/>
<layer number="28" name="bValues" color="7" fill="1" visible="yes" active="yes"/>
<layer number="29" name="tStop" color="7" fill="3" visible="yes" active="yes"/>
<layer number="30" name="bStop" color="7" fill="6" visible="yes" active="yes"/>
<layer number="31" name="tCream" color="7" fill="4" visible="yes" active="yes"/>
<layer number="32" name="bCream" color="7" fill="5" visible="yes" active="yes"/>
<layer number="33" name="tFinish" color="6" fill="3" visible="yes" active="yes"/>
<layer number="34" name="bFinish" color="6" fill="6" visible="yes" active="yes"/>
<layer number="35" name="tGlue" color="7" fill="4" visible="yes" active="yes"/>
<layer number="36" name="bGlue" color="7" fill="5" visible="yes" active="yes"/>
<layer number="37" name="tTest" color="7" fill="1" visible="yes" active="yes"/>
<layer number="38" name="bTest" color="7" fill="1" visible="yes" active="yes"/>
<layer number="39" name="tKeepout" color="4" fill="11" visible="yes" active="yes"/>
<layer number="40" name="bKeepout" color="1" fill="11" visible="yes" active="yes"/>
<layer number="41" name="tRestrict" color="4" fill="10" visible="yes" active="yes"/>
<layer number="42" name="bRestrict" color="1" fill="10" visible="yes" active="yes"/>
<layer number="43" name="vRestrict" color="2" fill="10" visible="yes" active="yes"/>
<layer number="44" name="Drills" color="7" fill="1" visible="yes" active="yes"/>
<layer number="45" name="Holes" color="7" fill="1" visible="yes" active="yes"/>
<layer number="46" name="Milling" color="3" fill="1" visible="yes" active="yes"/>
<layer number="47" name="Measures" color="7" fill="1" visible="yes" active="yes"/>
<layer number="48" name="Document" color="7" fill="1" visible="yes" active="yes"/>
<layer number="49" name="Reference" color="7" fill="1" visible="yes" active="yes"/>
<layer number="50" name="dxf" color="7" fill="1" visible="yes" active="yes"/>
<layer number="51" name="tDocu" color="7" fill="1" visible="yes" active="yes"/>
<layer number="52" name="bDocu" color="7" fill="1" visible="yes" active="yes"/>
<layer number="53" name="tGND_GNDA" color="7" fill="1" visible="yes" active="yes"/>
<layer number="54" name="bGND_GNDA" color="7" fill="1" visible="yes" active="yes"/>
<layer number="56" name="wert" color="7" fill="1" visible="yes" active="yes"/>
<layer number="57" name="tCAD" color="7" fill="1" visible="yes" active="yes"/>
<layer number="91" name="Nets" color="2" fill="1" visible="yes" active="yes"/>
<layer number="92" name="Busses" color="1" fill="1" visible="yes" active="yes"/>
<layer number="93" name="Pins" color="2" fill="1" visible="yes" active="yes"/>
<layer number="94" name="Symbols" color="4" fill="1" visible="yes" active="yes"/>
<layer number="95" name="Names" color="7" fill="1" visible="yes" active="yes"/>
<layer number="96" name="Values" color="7" fill="1" visible="yes" active="yes"/>
<layer number="97" name="Info" color="7" fill="1" visible="yes" active="yes"/>
<layer number="98" name="Guide" color="6" fill="1" visible="yes" active="yes"/>
<layer number="99" name="SpiceOrder" color="7" fill="1" visible="yes" active="yes"/>
</layers>
<library>
<packages>
<package name="ABM3">
<smd name="P$1" x="-2.05" y="0" dx="1.9" dy="2.4" layer="1"/>
<smd name="P$2" x="2.05" y="0" dx="1.9" dy="2.4" layer="1"/>
<wire x1="-0.8" y1="1.3" x2="0.8" y2="1.3" width="0.127" layer="21"/>
<wire x1="-0.8" y1="-1.3" x2="0.8" y2="-1.3" width="0.127" layer="21"/>
<circle x="-3.4" y="1.3" radius="0.152" width="0" layer="21"/>
<text x="-4.3" y="1.7" size="1.27" layer="25">&gt;NAME</text>
</package>
</packages>
<symbols>
<symbol name="ABM3">
<wire x1="-2.54" y1="3.81" x2="-2.54" y2="-3.81" width="0.254" layer="94"/>
<wire x1="-2.54" y1="-3.81" x2="2.54" y2="-3.81" width="0.254" layer="94"/>
<wire x1="2.54" y1="-3.81" x2="2.54" y2="3.81" width="0.254" layer="94"/>
<wire x1="2.54" y1="3.81" x2="-2.54" y2="3.81" width="0.254" layer="94"/>
<wire x1="-3.81" y1="3.81" x2="-3.81" y2="0" width="0.254" layer="94"/>
<wire x1="-3.81" y1="0" x2="-3.81" y2="-3.81" width="0.254" layer="94"/>
<wire x1="3.81" y1="3.81" x2="3.81" y2="0" width="0.254" layer="94"/>
<wire x1="3.81" y1="0" x2="3.81" y2="-3.81" width="0.254" layer="94"/>
<wire x1="3.81" y1="0" x2="16.51" y2="0" width="0.254" layer="94"/>
<wire x1="-3.81" y1="0" x2="-16.51" y2="0" width="0.254" layer="94"/>
<pin name="S1" x="-20.32" y="0" length="middle"/>
<pin name="S2" x="20.32" y="0" length="middle" rot="R180"/>
</symbol>
</symbols>
<devicesets>
<deviceset name="ABM3">
<gates>
<gate name="G$1" symbol="ABM3" x="0" y="0"/>
</gates>
<devices>
<device name="" package="ABM3">
<connects>
<connect gate="G$1" pin="S1" pad="P$1"/>
<connect gate="G$1" pin="S2" pad="P$2"/>
</connects>
<technologies>
<technology name=""/>
</technologies>
</device>
</devices>
</deviceset>
</devicesets>
</library>
</drawing>
</eagle>
