<!DOCTYPE eagle SYSTEM "eagle.dtd">
<eagle version="6.5.0">
<drawing>
<layers>
<layer number="1" name="Top" color="4" fill="1" visible="yes" active="yes"/>
<layer number="16" name="Bottom" color="1" fill="1" visible="yes" active="yes"/>
<layer number="17" name="Pads" color="2" fill="1" visible="yes" active="yes"/>
<layer number="18" name="Vias" color="2" fill="1" visible="yes" active="yes"/>
<layer number="19" name="Unrouted" color="6" fill="1" visible="yes" active="yes"/>
<layer number="20" name="Dimension" color="15" fill="1" visible="yes" active="yes"/>
<layer number="21" name="tPlace" color="7" fill="1" visible="yes" active="yes"/>
<layer number="22" name="bPlace" color="7" fill="1" visible="yes" active="yes"/>
<layer number="23" name="tOrigins" color="15" fill="1" visible="yes" active="yes"/>
<layer number="24" name="bOrigins" color="15" fill="1" visible="yes" active="yes"/>
<layer number="25" name="tNames" color="7" fill="1" visible="yes" active="yes"/>
<layer number="26" name="bNames" color="7" fill="1" visible="yes" active="yes"/>
<layer number="27" name="tValues" color="7" fill="1" visible="yes" active="yes"/>
<layer number="28" name="bValues" color="7" fill="1" visible="yes" active="yes"/>
<layer number="29" name="tStop" color="7" fill="3" visible="yes" active="yes"/>
<layer number="30" name="bStop" color="7" fill="6" visible="yes" active="yes"/>
<layer number="31" name="tCream" color="7" fill="4" visible="yes" active="yes"/>
<layer number="32" name="bCream" color="7" fill="5" visible="yes" active="yes"/>
<layer number="33" name="tFinish" color="6" fill="3" visible="yes" active="yes"/>
<layer number="34" name="bFinish" color="6" fill="6" visible="yes" active="yes"/>
<layer number="35" name="tGlue" color="7" fill="4" visible="yes" active="yes"/>
<layer number="36" name="bGlue" color="7" fill="5" visible="yes" active="yes"/>
<layer number="37" name="tTest" color="7" fill="1" visible="yes" active="yes"/>
<layer number="38" name="bTest" color="7" fill="1" visible="yes" active="yes"/>
<layer number="39" name="tKeepout" color="4" fill="11" visible="yes" active="yes"/>
<layer number="40" name="bKeepout" color="1" fill="11" visible="yes" active="yes"/>
<layer number="41" name="tRestrict" color="4" fill="10" visible="yes" active="yes"/>
<layer number="42" name="bRestrict" color="1" fill="10" visible="yes" active="yes"/>
<layer number="43" name="vRestrict" color="2" fill="10" visible="yes" active="yes"/>
<layer number="44" name="Drills" color="7" fill="1" visible="yes" active="yes"/>
<layer number="45" name="Holes" color="7" fill="1" visible="yes" active="yes"/>
<layer number="46" name="Milling" color="3" fill="1" visible="yes" active="yes"/>
<layer number="47" name="Measures" color="7" fill="1" visible="yes" active="yes"/>
<layer number="48" name="Document" color="7" fill="1" visible="yes" active="yes"/>
<layer number="49" name="Reference" color="7" fill="1" visible="yes" active="yes"/>
<layer number="50" name="dxf" color="7" fill="1" visible="yes" active="yes"/>
<layer number="51" name="tDocu" color="7" fill="1" visible="yes" active="yes"/>
<layer number="52" name="bDocu" color="7" fill="1" visible="yes" active="yes"/>
<layer number="53" name="tGND_GNDA" color="7" fill="1" visible="yes" active="yes"/>
<layer number="54" name="bGND_GNDA" color="7" fill="1" visible="yes" active="yes"/>
<layer number="56" name="wert" color="7" fill="1" visible="yes" active="yes"/>
<layer number="57" name="tCAD" color="7" fill="1" visible="yes" active="yes"/>
<layer number="91" name="Nets" color="2" fill="1" visible="yes" active="yes"/>
<layer number="92" name="Busses" color="1" fill="1" visible="yes" active="yes"/>
<layer number="93" name="Pins" color="2" fill="1" visible="yes" active="yes"/>
<layer number="94" name="Symbols" color="4" fill="1" visible="yes" active="yes"/>
<layer number="95" name="Names" color="7" fill="1" visible="yes" active="yes"/>
<layer number="96" name="Values" color="7" fill="1" visible="yes" active="yes"/>
<layer number="97" name="Info" color="7" fill="1" visible="yes" active="yes"/>
<layer number="98" name="Guide" color="6" fill="1" visible="yes" active="yes"/>
<layer number="99" name="SpiceOrder" color="7" fill="1" visible="yes" active="yes"/>
</layers>
<library>
<packages>
<package name="SOT23-5">
<description>&lt;b&gt;Small Outline Transistor&lt;/b&gt;</description>
<wire x1="1.4" y1="-0.8" x2="-1.4" y2="-0.8" width="0.15239999999999998" layer="51"/>
<wire x1="-1.4" y1="0.8" x2="1.4" y2="0.8" width="0.15239999999999998" layer="51"/>
<wire x1="1.4" y1="0.8" x2="1.4" y2="-0.8" width="0.15239999999999998" layer="51"/>
<wire x1="-1.4" y1="0.8" x2="-1.4" y2="-0.8" width="0.15239999999999998" layer="51"/>
<smd name="1" x="-0.95" y="-1.35" dx="0.6" dy="1.05" layer="1" stop="no"/>
<smd name="2" x="0" y="-1.35" dx="0.6" dy="1.05" layer="1" stop="no"/>
<smd name="3" x="0.95" y="-1.35" dx="0.6" dy="1.05" layer="1" stop="no"/>
<smd name="4" x="0.95" y="1.35" dx="0.6" dy="1.05" layer="1" stop="no"/>
<smd name="5" x="-0.95" y="1.35" dx="0.6" dy="1.05" layer="1" stop="no"/>
<text x="-2.159" y="2.159" size="1.016" layer="25" font="vector" ratio="15">&gt;NAME</text>
<rectangle x1="-1.32" y1="0.755" x2="-0.58" y2="1.945" layer="29"/>
<rectangle x1="0.58" y1="0.755" x2="1.32" y2="1.945" layer="29"/>
<rectangle x1="-1.32" y1="-1.945" x2="-0.58" y2="-0.755" layer="29"/>
<rectangle x1="0.58" y1="-1.945" x2="1.32" y2="-0.755" layer="29"/>
<rectangle x1="-0.37" y1="-1.945" x2="0.37" y2="-0.755" layer="29"/>
<circle x="-1.8" y="-1.8" radius="0.15239999999999998" width="0" layer="21"/>
</package>
</packages>
<symbols>
<symbol name="OP-AMP+-">
<wire x1="-1.27" y1="-3.175" x2="-1.27" y2="-1.905" width="0.1524" layer="94"/>
<wire x1="-1.905" y1="-2.54" x2="-0.635" y2="-2.54" width="0.1524" layer="94"/>
<wire x1="-1.905" y1="2.54" x2="-0.635" y2="2.54" width="0.1524" layer="94"/>
<wire x1="0" y1="-5.08" x2="0" y2="-3.8862" width="0.1524" layer="94"/>
<wire x1="0" y1="3.9116" x2="0" y2="5.08" width="0.1524" layer="94"/>
<wire x1="7.62" y1="0" x2="-2.54" y2="-5.08" width="0.4064" layer="94"/>
<wire x1="-2.54" y1="-5.08" x2="-2.54" y2="5.08" width="0.4064" layer="94"/>
<wire x1="-2.54" y1="5.08" x2="7.62" y2="0" width="0.4064" layer="94"/>
<pin name="+IN" x="-5.08" y="-2.54" visible="pad" length="short" direction="pas"/>
<pin name="-IN" x="-5.08" y="2.54" visible="pad" length="short" direction="pas"/>
<pin name="OUT" x="10.16" y="0" visible="pad" length="short" direction="pas" rot="R180"/>
<pin name="V+" x="0" y="7.62" visible="pad" length="short" direction="pas" rot="R270"/>
<pin name="V-" x="0" y="-7.62" visible="pad" length="short" direction="pas" rot="R90"/>
<text x="5.08" y="-5.715" size="1.778" layer="95" rot="MR180">&gt;NAME</text>
<text x="5.08" y="5.08" size="1.778" layer="96" rot="MR180">&gt;VALUE</text>
<text x="1.27" y="5.715" size="1.778" layer="93" rot="MR270">V+</text>
<text x="1.27" y="-4.445" size="1.778" layer="93" rot="MR270">V-</text>
</symbol>
</symbols>
<devicesets>
<deviceset name="OPA344" prefix="U">
<gates>
<gate name="G$1" symbol="OP-AMP+-" x="0" y="0"/>
</gates>
<devices>
<device name="" package="SOT23-5">
<connects>
<connect gate="G$1" pin="+IN" pad="3"/>
<connect gate="G$1" pin="-IN" pad="4"/>
<connect gate="G$1" pin="OUT" pad="1"/>
<connect gate="G$1" pin="V+" pad="5"/>
<connect gate="G$1" pin="V-" pad="2"/>
</connects>
<technologies>
<technology name=""/>
</technologies>
</device>
</devices>
</deviceset>
</devicesets>
</library>
</drawing>
</eagle>