<?xml version="1.0" encoding="utf-8"?>
<!DOCTYPE eagle SYSTEM "eagle.dtd">
<eagle version="6.6.0">
<drawing>
<settings>
<setting alwaysvectorfont="no"/>
<setting verticaltext="up"/>
</settings>
<grid distance="0.1" unitdist="inch" unit="inch" style="lines" multiple="1" display="no" altdistance="0.01" altunitdist="inch" altunit="inch"/>
<layers>
</layers>
<library>
<packages>
<package name="SO08">
<wire x1="2.159" y1="1.9558" x2="-2.159" y2="1.9558" width="0.1524" layer="21"/>
<wire x1="2.159" y1="-1.9558" x2="2.54" y2="-1.5748" width="0.1524" layer="21" curve="90"/>
<wire x1="-2.54" y1="1.5748" x2="-2.159" y2="1.9558" width="0.1524" layer="21" curve="-90"/>
<wire x1="2.159" y1="1.9558" x2="2.54" y2="1.5748" width="0.1524" layer="21" curve="-90"/>
<wire x1="-2.54" y1="-1.5748" x2="-2.159" y2="-1.9558" width="0.1524" layer="21" curve="90"/>
<wire x1="-2.159" y1="-1.9558" x2="2.159" y2="-1.9558" width="0.1524" layer="21"/>
<wire x1="2.54" y1="-1.5748" x2="2.54" y2="1.5748" width="0.1524" layer="21"/>
<wire x1="-2.54" y1="1.5748" x2="-2.54" y2="-1.5748" width="0.1524" layer="21"/>
<wire x1="-2.54" y1="0.508" x2="-2.54" y2="-0.508" width="0.1524" layer="21" curve="-180"/>
<wire x1="-2.54" y1="-1.6002" x2="2.54" y2="-1.6002" width="0.0508" layer="21"/>
<smd name="1" x="-1.905" y="-3.0734" dx="0.6604" dy="2.032" layer="1"/>
<smd name="8" x="-1.905" y="3.0734" dx="0.6604" dy="2.032" layer="1"/>
<smd name="2" x="-0.635" y="-3.0734" dx="0.6604" dy="2.032" layer="1"/>
<smd name="3" x="0.635" y="-3.0734" dx="0.6604" dy="2.032" layer="1"/>
<smd name="7" x="-0.635" y="3.0734" dx="0.6604" dy="2.032" layer="1"/>
<smd name="6" x="0.635" y="3.0734" dx="0.6604" dy="2.032" layer="1"/>
<smd name="4" x="1.905" y="-3.0734" dx="0.6604" dy="2.032" layer="1"/>
<smd name="5" x="1.905" y="3.0734" dx="0.6604" dy="2.032" layer="1"/>
<text x="3.937" y="-2.032" size="1.27" layer="27" ratio="10" rot="R90">&gt;VALUE</text>
<text x="-2.921" y="-1.905" size="1.27" layer="25" ratio="10" rot="R90">&gt;NAME</text>
<rectangle x1="1.651" y1="1.9558" x2="2.159" y2="3.0988" layer="51"/>
<rectangle x1="-2.159" y1="-3.0988" x2="-1.651" y2="-1.9558" layer="51"/>
<rectangle x1="-0.889" y1="-3.0988" x2="-0.381" y2="-1.9558" layer="51"/>
<rectangle x1="0.381" y1="-3.0734" x2="0.889" y2="-1.9304" layer="51"/>
<rectangle x1="1.651" y1="-3.0988" x2="2.159" y2="-1.9558" layer="51"/>
<rectangle x1="0.381" y1="1.9558" x2="0.889" y2="3.0988" layer="51"/>
<rectangle x1="-0.889" y1="1.9558" x2="-0.381" y2="3.0988" layer="51"/>
<rectangle x1="-2.159" y1="1.9558" x2="-1.651" y2="3.0988" layer="51"/>
</package>
</packages>
<symbols>
<symbol name="MAX6675">
<wire x1="-7.62" y1="5.08" x2="10.16" y2="5.08" width="0.254" layer="94"/>
<wire x1="10.16" y1="5.08" x2="10.16" y2="-12.7" width="0.254" layer="94"/>
<wire x1="10.16" y1="-12.7" x2="-7.62" y2="-12.7" width="0.254" layer="94"/>
<wire x1="-7.62" y1="-12.7" x2="-7.62" y2="5.08" width="0.254" layer="94"/>
<text x="-7.62" y="-15.24" size="1.778" layer="96">&gt;VALUE</text>
<text x="10.16" y="7.62" size="1.778" layer="95" rot="R180">&gt;NAME</text>
<pin name="GND" x="-12.7" y="2.54" length="middle" direction="pwr"/>
<pin name="T-" x="-12.7" y="-2.54" length="middle" direction="in"/>
<pin name="T+" x="-12.7" y="-5.08" length="middle" direction="in"/>
<pin name="VCC" x="-12.7" y="-10.16" length="middle" direction="pwr"/>
<pin name="SCK" x="15.24" y="-7.62" length="middle" direction="in" rot="R180"/>
<pin name="/CS" x="15.24" y="-5.08" length="middle" direction="in" rot="R180"/>
<pin name="DO" x="15.24" y="-2.54" length="middle" direction="out" rot="R180"/>
</symbol>
</symbols>
<devicesets>
<deviceset name="MAX31855KASA+" prefix="IC">
<gates>
<gate name="G$1" symbol="MAX6675" x="0" y="2.54"/>
</gates>
<devices>
<device name="" package="SO08">
<connects>
<connect gate="G$1" pin="/CS" pad="6"/>
<connect gate="G$1" pin="DO" pad="7"/>
<connect gate="G$1" pin="GND" pad="1"/>
<connect gate="G$1" pin="SCK" pad="5"/>
<connect gate="G$1" pin="T+" pad="3"/>
<connect gate="G$1" pin="T-" pad="2"/>
<connect gate="G$1" pin="VCC" pad="4"/>
</connects>
<technologies>
<technology name=""/>
</technologies>
</device>
</devices>
</deviceset>
</devicesets>
</library>
</drawing>
</eagle>
