<?xml version="1.0" encoding="UTF-8" standalone="no"?>
<svg
   xmlns:dc="http://purl.org/dc/elements/1.1/"
   xmlns:cc="http://creativecommons.org/ns#"
   xmlns:rdf="http://www.w3.org/1999/02/22-rdf-syntax-ns#"
   xmlns:svg="http://www.w3.org/2000/svg"
   xmlns="http://www.w3.org/2000/svg"
   xmlns:sodipodi="http://sodipodi.sourceforge.net/DTD/sodipodi-0.dtd"
   xmlns:inkscape="http://www.inkscape.org/namespaces/inkscape"
   xml:space="preserve"
   style="clip-rule:evenodd;fill-rule:evenodd;image-rendering:optimizeQuality;shape-rendering:geometricPrecision;text-rendering:geometricPrecision"
   viewBox="0 0 46.3608 20.548099"
   x="0px"
   y="0px"
   id="svg2"
   version="1.1"
   inkscape:version="0.91 r13725"
   sodipodi:docname="icon.svg"
   width="46.360802"
   height="20.5481"><metadata
     id="metadata12"><rdf:RDF><cc:Work
         rdf:about=""><dc:format>image/svg+xml</dc:format><dc:type
           rdf:resource="http://purl.org/dc/dcmitype/StillImage" /><dc:title></dc:title></cc:Work></rdf:RDF></metadata><defs
     id="defs10" /><sodipodi:namedview
     pagecolor="#ffffff"
     bordercolor="#666666"
     borderopacity="1"
     objecttolerance="10"
     gridtolerance="10"
     guidetolerance="10"
     inkscape:pageopacity="0"
     inkscape:pageshadow="2"
     inkscape:window-width="2048"
     inkscape:window-height="1072"
     id="namedview8"
     showgrid="false"
     inkscape:zoom="6.2121445"
     inkscape:cx="23.180401"
     inkscape:cy="7.7740502"
     inkscape:window-x="-8"
     inkscape:window-y="-8"
     inkscape:window-maximized="1"
     inkscape:current-layer="svg2" /><g
     id="g4"
     transform="translate(0,2.5853749)"><path
       d="m 0,1.02511 c 7.37301,-1.69216 13.3418,-1.10984 19.9533,0.431004 0.980336,0.228437 2.01613,0.483085 3.10994,0.516531 1.82163,0.055755 3.86934,-0.397634 5.63498,-0.841176 6.97034,-1.75102 12.4154,-0.840229 17.6626,0.280897 l -0.387597,3.10078 c -0.819169,0.018143 -1.07677,0.400058 -1.31081,1.14571 -1.22476,3.90199 -0.181621,10.6161 -9.23585,9.82662 -5.95641,-0.519334 -7.66224,-2.15138 -10.5011,-9.32691 -0.241505,-0.61039 -0.398581,-1.61895 -1.77792,-1.58167 -0.77883,0.02106 -1.47543,0.158667 -1.71841,1.51187 -0.452821,2.52148 -3.89589,9.37221 -10.8867,9.36467 -6.17466,-0.0066 -8.53005,-3.21168 -8.81132,-10.274 C 1.6961903,4.302542 0.932019,4.136106 0.473703,4.125846 L -2.7e-5,1.025066 Z m 2.28252,1.37812 c 0.653987,0 1.18434,0.134994 1.18434,0.301464 0,0.16647 -0.530356,0.301464 -1.18434,0.301464 -0.653949,0 -1.1843,-0.134994 -1.1843,-0.301464 0,-0.16647 0.530356,-0.301464 1.1843,-0.301464 z m 41.925,0.301464 c 0.653987,0 1.18434,0.134994 1.18434,0.301464 0,0.16647 -0.530356,0.301464 -1.18434,0.301464 -0.653949,0 -1.1843,-0.134994 -1.1843,-0.301464 0,-0.16647 0.530356,-0.301464 1.1843,-0.301464 z m -14.4464,0.19181 c 0.793375,-0.261807 2.58318,-0.397672 2.24536,-0.075338 -1.64989,1.36968 -3.73033,3.7498 -2.86169,6.94281 0.08723,0.2009 -5.64453,-4.8015 0.616337,-6.86747 z"
       id="path6"
       inkscape:connector-curvature="0"
       style="fill:#002285" /></g></svg>