<?xml version="1.0" encoding="utf-8"?>
<!DOCTYPE eagle SYSTEM "eagle.dtd">
<eagle version="6.5.0">
<drawing>
<settings>
<setting alwaysvectorfont="no"/>
<setting verticaltext="up"/>
</settings>
<grid distance="0.05" unitdist="inch" unit="inch" style="lines" multiple="1" display="yes" altdistance="0.025" altunitdist="inch" altunit="inch"/>
<layers>
</layers>
<library>
<packages>
<package name="SO08">
<description>&lt;p&gt;8-pin SOIC package&lt;/p&gt;</description>
<wire x1="-1.803" y1="2.362" x2="-1.803" y2="-2.362" width="0.1524" layer="51"/>
<wire x1="-1.803" y1="-2.362" x2="1.803" y2="-2.362" width="0.1524" layer="21"/>
<wire x1="1.803" y1="-2.362" x2="1.803" y2="2.362" width="0.1524" layer="51"/>
<wire x1="1.803" y1="2.362" x2="-1.803" y2="2.362" width="0.1524" layer="21"/>
<circle x="-4.1906" y="2.2034" radius="0.1524" width="0" layer="21"/>
<smd name="1" x="-2.6162" y="1.905" dx="0.6096" dy="2.2098" layer="1" rot="R270"/>
<smd name="2" x="-2.6162" y="0.635" dx="0.6096" dy="2.2098" layer="1" rot="R270"/>
<smd name="3" x="-2.6162" y="-0.635" dx="0.6096" dy="2.2098" layer="1" rot="R270"/>
<smd name="4" x="-2.6162" y="-1.905" dx="0.6096" dy="2.2098" layer="1" rot="R270"/>
<smd name="5" x="2.6162" y="-1.905" dx="0.6096" dy="2.2098" layer="1" rot="R270"/>
<smd name="6" x="2.6162" y="-0.635" dx="0.6096" dy="2.2098" layer="1" rot="R270"/>
<smd name="7" x="2.6162" y="0.635" dx="0.6096" dy="2.2098" layer="1" rot="R270"/>
<smd name="8" x="2.6162" y="1.905" dx="0.6096" dy="2.2098" layer="1" rot="R270"/>
<text x="-3.74" y="2.61" size="1.016" layer="25" font="vector" ratio="15">&gt;NAME</text>
<rectangle x1="-2.54" y1="1.397" x2="-2.1844" y2="2.413" layer="51" rot="R270"/>
<rectangle x1="-2.54" y1="0.127" x2="-2.1844" y2="1.143" layer="51" rot="R270"/>
<rectangle x1="-2.54" y1="-1.143" x2="-2.1844" y2="-0.127" layer="51" rot="R270"/>
<rectangle x1="-2.54" y1="-2.413" x2="-2.1844" y2="-1.397" layer="51" rot="R270"/>
<rectangle x1="2.1844" y1="1.397" x2="2.54" y2="2.413" layer="51" rot="R270"/>
<rectangle x1="2.1844" y1="0.127" x2="2.54" y2="1.143" layer="51" rot="R270"/>
<rectangle x1="2.1844" y1="-1.143" x2="2.54" y2="-0.127" layer="51" rot="R270"/>
<rectangle x1="2.1844" y1="-2.413" x2="2.54" y2="-1.397" layer="51" rot="R270"/>
</package>
</packages>
<symbols>
<symbol name="SPI_FLASH_DUAL/QUAD">
<description>&lt;h3&gt;SPI Serial Flash Memory with Dual/Quad-IO Support&lt;/h3&gt;
&lt;p&gt;Example: Adesto Technologies AT25SF041-SSHD-T &lt;a href="http://www.digikey.com/product-detail/en/AT25SF041-SSHD-T/1265-1131-1-ND/4824165"&gt;(1265-1131-1-ND)&lt;/a&gt;&lt;/p&gt;</description>
<pin name="!CS!" x="-15.24" y="2.54" length="short" direction="pas"/>
<pin name="SO(D1)" x="-15.24" y="0" length="short" direction="pas"/>
<pin name="!WP!(D2)" x="-15.24" y="-2.54" length="short" direction="pas"/>
<pin name="GND" x="-15.24" y="-5.08" length="short" direction="pas"/>
<pin name="SI(D0)" x="15.24" y="-5.08" length="short" direction="pas" rot="R180"/>
<pin name="SCK" x="15.24" y="-2.54" length="short" direction="pas" rot="R180"/>
<pin name="!HOLD!(D3)" x="15.24" y="0" length="short" direction="pas" rot="R180"/>
<pin name="VCC" x="15.24" y="2.54" length="short" direction="pas" rot="R180"/>
<wire x1="-12.7" y1="-7.62" x2="-12.7" y2="5.08" width="0.254" layer="94"/>
<wire x1="-12.7" y1="5.08" x2="12.7" y2="5.08" width="0.254" layer="94"/>
<wire x1="12.7" y1="5.08" x2="12.7" y2="-7.62" width="0.254" layer="94"/>
<wire x1="12.7" y1="-7.62" x2="-12.7" y2="-7.62" width="0.254" layer="94"/>
<text x="-12.7" y="5.334" size="1.778" layer="95">&gt;Name</text>
<text x="-12.7" y="-7.874" size="1.778" layer="96" align="top-left">&gt;Value</text>
</symbol>
</symbols>
<devicesets>
<deviceset name="AT25SF041-SSHD-T" prefix="U">
<gates>
<gate name="G$1" symbol="SPI_FLASH_DUAL/QUAD" x="0" y="2.54"/>
</gates>
<devices>
<device name="-SOIC8" package="SO08">
<connects>
<connect gate="G$1" pin="!CS!" pad="1"/>
<connect gate="G$1" pin="!HOLD!(D3)" pad="7"/>
<connect gate="G$1" pin="!WP!(D2)" pad="3"/>
<connect gate="G$1" pin="GND" pad="4"/>
<connect gate="G$1" pin="SCK" pad="6"/>
<connect gate="G$1" pin="SI(D0)" pad="5"/>
<connect gate="G$1" pin="SO(D1)" pad="2"/>
<connect gate="G$1" pin="VCC" pad="8"/>
</connects>
<technologies>
<technology name="">
<attribute name="PROD_ID" value="IC-12455"/>
</technology>
</technologies>
</device>
</devices>
</deviceset>
</devicesets>
</library>
</drawing>
</eagle>
