<eagle version="6.5.0" xmlns="eagle">
  <drawing>
    <library>
      <packages>
        <package name="SOT23-3" xmlns="eagle">
          <wire x1="-1.4224" y1="-0.3" x2="-1.4224" y2="0.6604" width="0.15239999999999998" layer="21" />
          <wire x1="-1.4224" y1="0.6604" x2="-0.6576" y2="0.6604" width="0.15239999999999998" layer="21" />
          <wire x1="1.4224" y1="0.6604" x2="1.4224" y2="-0.3" width="0.15239999999999998" layer="21" />
          <wire x1="0.6326" y1="0.6604" x2="1.4224" y2="0.6604" width="0.15239999999999998" layer="21" />
          <smd name="3" x="0" y="1" dx="0.8" dy="0.9" layer="1" />
          <smd name="2" x="0.95" y="-1" dx="0.8" dy="0.9" layer="1" />
          <smd name="1" x="-0.95" y="-1" dx="0.8" dy="0.9" layer="1" />
          <text x="-1.905" y="1.905" size="1.016" layer="25" ratio="15" font="vector">&gt;NAME</text>
        </package>
      </packages>
      <symbols>
        <symbol name="N-CHANNEL-MOSFET">
          <wire x1="-2.54" y1="-2.54" x2="-1.2192" y2="-2.54" width="0.1524" layer="94" xmlns="eagle" />
          <wire x1="0" y1="0.762" x2="0" y2="0" width="0.254" layer="94" xmlns="eagle" />
          <wire x1="0" y1="0" x2="0" y2="-0.762" width="0.254" layer="94" xmlns="eagle" />
          <wire x1="0" y1="3.683" x2="0" y2="2.54" width="0.254" layer="94" xmlns="eagle" />
          <wire x1="0" y1="2.54" x2="0" y2="1.397" width="0.254" layer="94" xmlns="eagle" />
          <wire x1="1.905" y1="0.635" x2="0.635" y2="0" width="0.254" layer="94" xmlns="eagle" />
          <wire x1="1.905" y1="-0.635" x2="0.635" y2="0" width="0.254" layer="94" xmlns="eagle" />
          <wire x1="0" y1="0" x2="0.635" y2="0" width="0.1524" layer="94" xmlns="eagle" />
          <wire x1="0.635" y1="0" x2="2.54" y2="0" width="0.1524" layer="94" xmlns="eagle" />
          <wire x1="2.54" y1="0" x2="2.54" y2="-2.54" width="0.1524" layer="94" xmlns="eagle" />
          <wire x1="0" y1="-1.397" x2="0" y2="-2.54" width="0.254" layer="94" xmlns="eagle" />
          <wire x1="0" y1="-2.54" x2="0" y2="-3.683" width="0.254" layer="94" xmlns="eagle" />
          <wire x1="-1.143" y1="2.54" x2="-1.143" y2="-2.54" width="0.254" layer="94" xmlns="eagle" />
          <wire x1="0" y1="-2.54" x2="2.54" y2="-2.54" width="0.1524" layer="94" xmlns="eagle" />
          <wire x1="2.54" y1="-2.54" x2="2.54" y2="-3.81" width="0.1524" layer="94" xmlns="eagle" />
          <wire x1="0" y1="2.54" x2="2.54" y2="2.54" width="0.1524" layer="94" xmlns="eagle" />
          <wire x1="2.54" y1="2.54" x2="2.54" y2="3.81" width="0.1524" layer="94" xmlns="eagle" />
          <wire x1="5.08" y1="1.27" x2="3.81" y2="1.27" width="0.1524" layer="94" xmlns="eagle" />
          <wire x1="5.08" y1="1.27" x2="6.35" y2="1.27" width="0.1524" layer="94" xmlns="eagle" />
          <wire x1="5.08" y1="1.27" x2="5.08" y2="3.81" width="0.1524" layer="94" xmlns="eagle" />
          <wire x1="5.08" y1="3.81" x2="2.54" y2="3.81" width="0.1524" layer="94" xmlns="eagle" />
          <wire x1="5.08" y1="0" x2="5.08" y2="-3.81" width="0.1524" layer="94" xmlns="eagle" />
          <wire x1="5.08" y1="-3.81" x2="2.54" y2="-3.81" width="0.1524" layer="94" xmlns="eagle" />
          <wire x1="2.54" y1="5.08" x2="2.54" y2="3.81" width="0.1524" layer="94" xmlns="eagle" />
          <wire x1="2.54" y1="-5.08" x2="2.54" y2="-3.81" width="0.1524" layer="94" xmlns="eagle" />
          <text x="-12.7" y="0" size="1.778" layer="96" xmlns="eagle">&gt;VALUE</text>
          <text x="-12.7" y="2.54" size="1.778" layer="95" xmlns="eagle">&gt;NAME</text>
          <text x="-3.81" y="-3.81" size="1.778" layer="94" xmlns="eagle">G</text>
          <text x="1.27" y="-5.08" size="1.778" layer="94" xmlns="eagle">S</text>
          <text x="1.27" y="5.08" size="1.778" layer="94" xmlns="eagle">D</text>
          <pin name="D" x="2.54" y="7.62" visible="off" length="short" direction="pas" rot="R270" xmlns="eagle" />
          <pin name="S" x="2.54" y="-7.62" visible="off" length="short" direction="pas" rot="R90" xmlns="eagle" />
          <pin name="G" x="-5.08" y="-2.54" visible="off" length="short" direction="pas" xmlns="eagle" />
          <polygon width="0.1524" layer="94" xmlns="eagle">
            <vertex x="5.08" y="1.27" />
            <vertex x="3.81" y="0" />
            <vertex x="6.35" y="0" />
          </polygon>
        </symbol>
      </symbols>
      <devicesets>
        <deviceset name="N-CHANNEL-MOSFET">
          <gates>
            <gate name="G$1" symbol="N-CHANNEL-MOSFET" x="0" y="0" />
          </gates>
          <devices>
            <device name="-BSS138" package="SOT23-3" xmlns="eagle">
              <connects>
                <connect gate="G$1" pin="D" pad="3" />
                <connect gate="G$1" pin="G" pad="1" />
                <connect gate="G$1" pin="S" pad="2" />
              </connects>
              <technologies>
                <technology name="">
                  <attribute name="DATASHEET" value="http://www.fairchildsemi.com/ds/BS/BSS138.pdf" constant="no" />
                  <attribute name="DIGIKEY" value="BSS138TR-ND" constant="no" />
                  <attribute name="ELEMENT14" value="2323154" constant="no" />
                  <attribute name="OTHER" value="" constant="no" />
                  <attribute name="URL" value="http://au.element14.com/fairchild-semiconductor/bss138/mosfet-n-ch-50v-220ma-sot-23/dp/2323154" constant="no" />
                </technology>
              </technologies>
            </device>
          </devices>
        </deviceset>
      </devicesets>
    </library>
  </drawing>
</eagle>