<eagle version="6.5.0" xmlns="eagle">
  <drawing>
    <library>
      <packages>
        <package name="0805" xmlns="eagle">
          <description>0805 (2012 Metric)</description>
          <wire x1="-1.873" y1="0.883" x2="1.873" y2="0.883" width="0.0508" layer="39" />
          <wire x1="1.873" y1="-0.883" x2="-1.873" y2="-0.883" width="0.0508" layer="39" />
          <wire x1="-1.873" y1="-0.883" x2="-1.873" y2="0.883" width="0.0508" layer="39" />
          <wire x1="-0.381" y1="0.66" x2="0.381" y2="0.66" width="0.1016" layer="51" />
          <wire x1="-0.356" y1="-0.66" x2="0.381" y2="-0.66" width="0.1016" layer="51" />
          <wire x1="1.873" y1="0.883" x2="1.873" y2="-0.883" width="0.0508" layer="39" />
          <wire x1="1.8" y1="0.9" x2="1.8" y2="-0.9" width="0.2032" layer="21" />
          <wire x1="1.8" y1="-0.9" x2="-1.8" y2="-0.9" width="0.2032" layer="21" />
          <wire x1="-1.8" y1="-0.9" x2="-1.8" y2="0.9" width="0.2032" layer="21" />
          <wire x1="-1.8" y1="0.9" x2="1.8" y2="0.9" width="0.2032" layer="21" />
          <smd name="1" x="-0.95" y="0" dx="1.3" dy="1.5" layer="1" />
          <smd name="2" x="0.95" y="0" dx="1.3" dy="1.5" layer="1" />
          <text x="2.032" y="-0.127" size="0.8128" layer="25" ratio="18">&gt;NAME</text>
          <text x="2.032" y="-0.762" size="0.4064" layer="27" ratio="10">&gt;VALUE</text>
          <rectangle x1="-1.0922" y1="-0.7239" x2="-0.3421" y2="0.7262" layer="51" />
          <rectangle x1="0.3556" y1="-0.7239" x2="1.1057" y2="0.7262" layer="51" />
          <rectangle x1="-0.1001" y1="-0.4001" x2="0.1001" y2="0.4001" layer="35" />
        </package>
      </packages>
      <symbols>
        <symbol name="FERRITE">
          <text x="-1.27" y="1.905" size="1.27" layer="95">&gt;NAME</text>
          <text x="-1.27" y="-3.175" size="1.27" layer="95">&gt;VALUE</text>
          <pin name="P$1" x="-2.54" y="0" visible="off" length="short" direction="pas" />
          <pin name="P$2" x="2.54" y="0" visible="off" length="short" direction="pas" rot="R180" />
          <wire x1="-1.27" y1="0.9525" x2="1.27" y2="0.9525" width="0.4064" layer="94" />
          <wire x1="1.27" y1="0.9525" x2="1.27" y2="-0.9525" width="0.4064" layer="94" />
          <wire x1="1.27" y1="-0.9525" x2="-1.27" y2="-0.9525" width="0.4064" layer="94" />
          <wire x1="-1.27" y1="-0.9525" x2="-1.27" y2="0.9525" width="0.4064" layer="94" />
        </symbol>
      </symbols>
      <devicesets>
        <deviceset name="FERRITE" prefix="FB" uservalue="yes">
          <gates>
            <gate name="G$1" symbol="FERRITE" x="0" y="0" />
          </gates>
          <devices>
            <device name="0805" package="0805" xmlns="eagle">
              <connects>
                <connect gate="G$1" pin="P$1" pad="1" />
                <connect gate="G$1" pin="P$2" pad="2" />
              </connects>
              <technologies>
                <technology name="" />
              </technologies>
            </device>
          </devices>
        </deviceset>
      </devicesets>
    </library>
  </drawing>
</eagle>