<!DOCTYPE eagle SYSTEM "eagle.dtd">
<eagle version="6.6.0">
<drawing>
<settings>
<setting alwaysvectorfont="no"/>
<setting verticaltext="up"/>
</settings>
<grid distance="0.2" unitdist="mm" unit="mm" style="lines" multiple="1" display="yes" altdistance="0.025" altunitdist="inch" altunit="inch"/>
<layers>
</layers>
<library>
<packages>
<package name="TQFP-64">
<smd name="56" x="0.25" y="5.5" dx="1.1" dy="0.2825" layer="1" rot="R90"/>
<smd name="57" x="-0.25" y="5.5" dx="1.1" dy="0.2825" layer="1" rot="R90"/>
<smd name="55" x="0.75" y="5.5" dx="1.1" dy="0.2825" layer="1" rot="R90"/>
<smd name="54" x="1.25" y="5.5" dx="1.1" dy="0.2825" layer="1" rot="R90"/>
<smd name="53" x="1.75" y="5.5" dx="1.1" dy="0.2825" layer="1" rot="R90"/>
<smd name="52" x="2.25" y="5.5" dx="1.1" dy="0.2825" layer="1" rot="R90"/>
<smd name="51" x="2.75" y="5.5" dx="1.1" dy="0.2825" layer="1" rot="R90"/>
<smd name="50" x="3.25" y="5.5" dx="1.1" dy="0.2825" layer="1" rot="R90"/>
<smd name="58" x="-0.75" y="5.5" dx="1.1" dy="0.2825" layer="1" rot="R90"/>
<smd name="59" x="-1.25" y="5.5" dx="1.1" dy="0.2825" layer="1" rot="R90"/>
<smd name="60" x="-1.75" y="5.5" dx="1.1" dy="0.2825" layer="1" rot="R90"/>
<smd name="61" x="-2.25" y="5.5" dx="1.1" dy="0.2825" layer="1" rot="R90"/>
<smd name="62" x="-2.75" y="5.5" dx="1.1" dy="0.2825" layer="1" rot="R90"/>
<smd name="63" x="-3.25" y="5.5" dx="1.1" dy="0.2825" layer="1" rot="R90"/>
<smd name="64" x="-3.75" y="5.5" dx="1.1" dy="0.2825" layer="1" rot="R90"/>
<smd name="49" x="3.75" y="5.5" dx="1.1" dy="0.2825" layer="1" rot="R90"/>
<smd name="25" x="0.25" y="-5.5" dx="1.1" dy="0.2825" layer="1" rot="R90"/>
<smd name="24" x="-0.25" y="-5.5" dx="1.1" dy="0.2825" layer="1" rot="R90"/>
<smd name="26" x="0.75" y="-5.5" dx="1.1" dy="0.2825" layer="1" rot="R90"/>
<smd name="27" x="1.25" y="-5.5" dx="1.1" dy="0.2825" layer="1" rot="R90"/>
<smd name="28" x="1.75" y="-5.5" dx="1.1" dy="0.2825" layer="1" rot="R90"/>
<smd name="29" x="2.25" y="-5.5" dx="1.1" dy="0.2825" layer="1" rot="R90"/>
<smd name="30" x="2.75" y="-5.5" dx="1.1" dy="0.2825" layer="1" rot="R90"/>
<smd name="31" x="3.25" y="-5.5" dx="1.1" dy="0.2825" layer="1" rot="R90"/>
<smd name="23" x="-0.75" y="-5.5" dx="1.1" dy="0.2825" layer="1" rot="R90"/>
<smd name="22" x="-1.25" y="-5.5" dx="1.1" dy="0.2825" layer="1" rot="R90"/>
<smd name="21" x="-1.75" y="-5.5" dx="1.1" dy="0.2825" layer="1" rot="R90"/>
<smd name="20" x="-2.25" y="-5.5" dx="1.1" dy="0.2825" layer="1" rot="R90"/>
<smd name="19" x="-2.75" y="-5.5" dx="1.1" dy="0.2825" layer="1" rot="R90"/>
<smd name="18" x="-3.25" y="-5.5" dx="1.1" dy="0.2825" layer="1" rot="R90"/>
<smd name="17" x="-3.75" y="-5.5" dx="1.1" dy="0.2825" layer="1" rot="R90"/>
<smd name="32" x="3.75" y="-5.5" dx="1.1" dy="0.2825" layer="1" rot="R90"/>
<smd name="8" x="-5.5" y="0.25" dx="1.1" dy="0.2825" layer="1" rot="R180"/>
<smd name="9" x="-5.5" y="-0.25" dx="1.1" dy="0.2825" layer="1" rot="R180"/>
<smd name="7" x="-5.5" y="0.75" dx="1.1" dy="0.2825" layer="1" rot="R180"/>
<smd name="6" x="-5.5" y="1.25" dx="1.1" dy="0.2825" layer="1" rot="R180"/>
<smd name="5" x="-5.5" y="1.75" dx="1.1" dy="0.2825" layer="1" rot="R180"/>
<smd name="4" x="-5.5" y="2.25" dx="1.1" dy="0.2825" layer="1" rot="R180"/>
<smd name="3" x="-5.5" y="2.75" dx="1.1" dy="0.2825" layer="1" rot="R180"/>
<smd name="2" x="-5.5" y="3.25" dx="1.1" dy="0.2825" layer="1" rot="R180"/>
<smd name="10" x="-5.5" y="-0.75" dx="1.1" dy="0.2825" layer="1" rot="R180"/>
<smd name="11" x="-5.5" y="-1.25" dx="1.1" dy="0.2825" layer="1" rot="R180"/>
<smd name="12" x="-5.5" y="-1.75" dx="1.1" dy="0.2825" layer="1" rot="R180"/>
<smd name="13" x="-5.5" y="-2.25" dx="1.1" dy="0.2825" layer="1" rot="R180"/>
<smd name="14" x="-5.5" y="-2.75" dx="1.1" dy="0.2825" layer="1" rot="R180"/>
<smd name="15" x="-5.5" y="-3.25" dx="1.1" dy="0.2825" layer="1" rot="R180"/>
<smd name="16" x="-5.5" y="-3.75" dx="1.1" dy="0.2825" layer="1" rot="R180"/>
<smd name="1" x="-5.5" y="3.75" dx="1.1" dy="0.2825" layer="1" rot="R180"/>
<smd name="41" x="5.5" y="0.25" dx="1.1" dy="0.2825" layer="1" rot="R180"/>
<smd name="40" x="5.5" y="-0.25" dx="1.1" dy="0.2825" layer="1" rot="R180"/>
<smd name="42" x="5.5" y="0.75" dx="1.1" dy="0.2825" layer="1" rot="R180"/>
<smd name="43" x="5.5" y="1.25" dx="1.1" dy="0.2825" layer="1" rot="R180"/>
<smd name="44" x="5.5" y="1.75" dx="1.1" dy="0.2825" layer="1" rot="R180"/>
<smd name="45" x="5.5" y="2.25" dx="1.1" dy="0.2825" layer="1" rot="R180"/>
<smd name="46" x="5.5" y="2.75" dx="1.1" dy="0.28256875" layer="1" rot="R180"/>
<smd name="47" x="5.5" y="3.25" dx="1.1" dy="0.2825" layer="1" rot="R180"/>
<smd name="39" x="5.5" y="-0.75" dx="1.1" dy="0.2825" layer="1" rot="R180"/>
<smd name="38" x="5.5" y="-1.25" dx="1.1" dy="0.2825" layer="1" rot="R180"/>
<smd name="37" x="5.5" y="-1.75" dx="1.1" dy="0.2825" layer="1" rot="R180"/>
<smd name="36" x="5.5" y="-2.25" dx="1.1" dy="0.2825" layer="1" rot="R180"/>
<smd name="35" x="5.5" y="-2.75" dx="1.1" dy="0.2825" layer="1" rot="R180"/>
<smd name="34" x="5.5" y="-3.25" dx="1.1" dy="0.2825" layer="1" rot="R180"/>
<smd name="33" x="5.5" y="-3.75" dx="1.1" dy="0.2825" layer="1" rot="R180"/>
<smd name="48" x="5.5" y="3.75" dx="1.1" dy="0.2825" layer="1" rot="R180"/>
<wire x1="-5" y1="4.2" x2="-5" y2="5" width="0.127" layer="21"/>
<wire x1="-5" y1="5" x2="-4.2" y2="5" width="0.127" layer="21"/>
<wire x1="-5" y1="-4.2" x2="-5" y2="-5" width="0.127" layer="21"/>
<wire x1="-5" y1="-5" x2="-4.2" y2="-5" width="0.127" layer="21"/>
<wire x1="4.2" y1="-5" x2="5" y2="-5" width="0.127" layer="21"/>
<wire x1="5" y1="-5" x2="5" y2="-4.2" width="0.127" layer="21"/>
<wire x1="4.2" y1="5" x2="5" y2="5" width="0.127" layer="21"/>
<wire x1="5" y1="5" x2="5" y2="4.2" width="0.127" layer="21"/>
<circle x="-6.7" y="4" radius="0.025" width="0.5" layer="21"/>
<text x="-4.75" y="6.75" size="0.6096" layer="25">&gt;NAME</text>
</package>
</packages>
<symbols>
<symbol name="S1V30120">
<wire x1="-25.4" y1="25.4" x2="25.4" y2="25.4" width="0.254" layer="94"/>
<wire x1="25.4" y1="25.4" x2="25.4" y2="-25.4" width="0.254" layer="94"/>
<wire x1="25.4" y1="-25.4" x2="-25.4" y2="-25.4" width="0.254" layer="94"/>
<wire x1="-25.4" y1="-25.4" x2="-25.4" y2="25.4" width="0.254" layer="94"/>
<pin name="GPIOA10" x="-20.32" y="19.05" length="middle" rot="R180"/>
<pin name="GPIOA11" x="-20.32" y="16.51" length="middle" rot="R180"/>
<pin name="LVDD" x="-20.32" y="13.97" length="middle" rot="R180"/>
<pin name="SLCK" x="-20.32" y="11.43" length="middle" rot="R180"/>
<pin name="SIN" x="-20.32" y="8.89" length="middle" rot="R180"/>
<pin name="VSS" x="-20.32" y="6.35" length="middle" rot="R180"/>
<pin name="SFRM1" x="-20.32" y="3.81" length="middle" rot="R180"/>
<pin name="HVDD" x="-20.32" y="1.27" length="middle" rot="R180"/>
<pin name="SOUT" x="-20.32" y="-1.27" length="middle" rot="R180"/>
<pin name="SFRM2" x="-20.32" y="-3.81" length="middle" rot="R180"/>
<pin name="LVDD2" x="-20.32" y="-6.35" length="middle" rot="R180"/>
<pin name="TCK" x="-20.32" y="-8.89" length="middle" rot="R180"/>
<pin name="TMS" x="-20.32" y="-11.43" length="middle" rot="R180"/>
<pin name="TDI" x="-20.32" y="-13.97" length="middle" rot="R180"/>
<pin name="NTRST" x="-20.32" y="-16.51" length="middle" rot="R180"/>
<pin name="VSS2" x="-20.32" y="-19.05" length="middle" rot="R180"/>
<pin name="HPON" x="-19.05" y="-20.32" length="middle" rot="R270"/>
<pin name="HVDD2" x="-16.51" y="-20.32" length="middle" rot="R270"/>
<pin name="TDO" x="-13.97" y="-20.32" length="middle" rot="R270"/>
<pin name="LVDD3" x="-11.43" y="-20.32" length="middle" rot="R270"/>
<pin name="HPOP" x="-8.89" y="-20.32" length="middle" rot="R270"/>
<pin name="AUDCLK" x="-6.35" y="-20.32" length="middle" rot="R270"/>
<pin name="VSS3" x="-3.81" y="-20.32" length="middle" rot="R270"/>
<pin name="LVDD4" x="-1.27" y="-20.32" length="middle" rot="R270"/>
<pin name="AVSS" x="1.27" y="-20.32" length="middle" rot="R270"/>
<pin name="HPO" x="3.81" y="-20.32" length="middle" rot="R270"/>
<pin name="AVDD" x="6.35" y="-20.32" length="middle" rot="R270"/>
<pin name="HVDD3" x="8.89" y="-20.32" length="middle" rot="R270"/>
<pin name="LVDD5" x="11.43" y="-20.32" length="middle" rot="R270"/>
<pin name="SPHMT" x="13.97" y="-20.32" length="middle" rot="R270"/>
<pin name="SPPDN" x="16.51" y="-20.32" length="middle" rot="R270"/>
<pin name="VSS4" x="19.05" y="-20.32" length="middle" rot="R270"/>
<pin name="PLLVDD" x="20.32" y="-19.05" length="middle"/>
<pin name="VCP" x="20.32" y="-16.51" length="middle"/>
<pin name="PLLVSS" x="20.32" y="-13.97" length="middle"/>
<pin name="CLKI" x="20.32" y="-11.43" length="middle"/>
<pin name="HVDD4" x="20.32" y="-8.89" length="middle"/>
<pin name="EXCKM" x="20.32" y="-6.35" length="middle"/>
<pin name="LVDD6" x="20.32" y="-3.81" length="middle"/>
<pin name="TESTEN" x="20.32" y="-1.27" length="middle"/>
<pin name="VSS5" x="20.32" y="1.27" length="middle"/>
<pin name="TSTMODE0" x="20.32" y="3.81" length="middle"/>
<pin name="TSTMODE1" x="20.32" y="6.35" length="middle"/>
<pin name="TSTMODE2" x="20.32" y="8.89" length="middle"/>
<pin name="LVDD7" x="20.32" y="11.43" length="middle"/>
<pin name="GPIOA0" x="20.32" y="13.97" length="middle"/>
<pin name="GPIOA9" x="20.32" y="16.51" length="middle"/>
<pin name="GPIOA8" x="20.32" y="19.05" length="middle"/>
<pin name="HVDD5" x="19.05" y="20.32" length="middle" rot="R90"/>
<pin name="LVDD8" x="16.51" y="20.32" length="middle" rot="R90"/>
<pin name="VSS6" x="13.97" y="20.32" length="middle" rot="R90"/>
<pin name="GPIOA1" x="11.43" y="20.32" length="middle" rot="R90"/>
<pin name="GPIOA2" x="8.89" y="20.32" length="middle" rot="R90"/>
<pin name="GPIOA3" x="6.35" y="20.32" length="middle" rot="R90"/>
<pin name="GPIOA4" x="3.81" y="20.32" length="middle" rot="R90"/>
<pin name="HVDD6" x="1.27" y="20.32" length="middle" rot="R90"/>
<pin name="LVDD9" x="-1.27" y="20.32" length="middle" rot="R90"/>
<pin name="GPIOA5" x="-3.81" y="20.32" length="middle" rot="R90"/>
<pin name="GPIOA6" x="-6.35" y="20.32" length="middle" rot="R90"/>
<pin name="GPIOA7" x="-8.89" y="20.32" length="middle" rot="R90"/>
<pin name="VSS7" x="-11.43" y="20.32" length="middle" rot="R90"/>
<pin name="NRESET" x="-13.97" y="20.32" length="middle" rot="R90"/>
<pin name="SCANEN" x="-16.51" y="20.32" length="middle" rot="R90"/>
<pin name="HVDD7" x="-19.05" y="20.32" length="middle" rot="R90"/>
<text x="-30.48" y="38.1" size="1.27" layer="95">&gt;NAME</text>
<text x="-30.48" y="35.56" size="1.27" layer="96">&gt;VALUE</text>
</symbol>
</symbols>
<devicesets>
<deviceset name="S1V30120F01A100">
<gates>
<gate name="G$1" symbol="S1V30120" x="0" y="0"/>
</gates>
<devices>
<device name="" package="TQFP-64">
<connects>
<connect gate="G$1" pin="AUDCLK" pad="22"/>
<connect gate="G$1" pin="AVDD" pad="27"/>
<connect gate="G$1" pin="AVSS" pad="25"/>
<connect gate="G$1" pin="CLKI" pad="36"/>
<connect gate="G$1" pin="EXCKM" pad="38"/>
<connect gate="G$1" pin="GPIOA0" pad="46"/>
<connect gate="G$1" pin="GPIOA1" pad="52"/>
<connect gate="G$1" pin="GPIOA10" pad="1"/>
<connect gate="G$1" pin="GPIOA11" pad="2"/>
<connect gate="G$1" pin="GPIOA2" pad="53"/>
<connect gate="G$1" pin="GPIOA3" pad="54"/>
<connect gate="G$1" pin="GPIOA4" pad="55"/>
<connect gate="G$1" pin="GPIOA5" pad="58"/>
<connect gate="G$1" pin="GPIOA6" pad="59"/>
<connect gate="G$1" pin="GPIOA7" pad="60"/>
<connect gate="G$1" pin="GPIOA8" pad="48"/>
<connect gate="G$1" pin="GPIOA9" pad="47"/>
<connect gate="G$1" pin="HPO" pad="26"/>
<connect gate="G$1" pin="HPON" pad="17"/>
<connect gate="G$1" pin="HPOP" pad="21"/>
<connect gate="G$1" pin="HVDD" pad="8"/>
<connect gate="G$1" pin="HVDD2" pad="18"/>
<connect gate="G$1" pin="HVDD3" pad="28"/>
<connect gate="G$1" pin="HVDD4" pad="37"/>
<connect gate="G$1" pin="HVDD5" pad="49"/>
<connect gate="G$1" pin="HVDD6" pad="56"/>
<connect gate="G$1" pin="HVDD7" pad="64"/>
<connect gate="G$1" pin="LVDD" pad="3"/>
<connect gate="G$1" pin="LVDD2" pad="11"/>
<connect gate="G$1" pin="LVDD3" pad="20"/>
<connect gate="G$1" pin="LVDD4" pad="24"/>
<connect gate="G$1" pin="LVDD5" pad="29"/>
<connect gate="G$1" pin="LVDD6" pad="39"/>
<connect gate="G$1" pin="LVDD7" pad="45"/>
<connect gate="G$1" pin="LVDD8" pad="50"/>
<connect gate="G$1" pin="LVDD9" pad="57"/>
<connect gate="G$1" pin="NRESET" pad="62"/>
<connect gate="G$1" pin="NTRST" pad="15"/>
<connect gate="G$1" pin="PLLVDD" pad="33"/>
<connect gate="G$1" pin="PLLVSS" pad="35"/>
<connect gate="G$1" pin="SCANEN" pad="63"/>
<connect gate="G$1" pin="SFRM1" pad="7"/>
<connect gate="G$1" pin="SFRM2" pad="10"/>
<connect gate="G$1" pin="SIN" pad="5"/>
<connect gate="G$1" pin="SLCK" pad="4"/>
<connect gate="G$1" pin="SOUT" pad="9"/>
<connect gate="G$1" pin="SPHMT" pad="30"/>
<connect gate="G$1" pin="SPPDN" pad="31"/>
<connect gate="G$1" pin="TCK" pad="12"/>
<connect gate="G$1" pin="TDI" pad="14"/>
<connect gate="G$1" pin="TDO" pad="19"/>
<connect gate="G$1" pin="TESTEN" pad="40"/>
<connect gate="G$1" pin="TMS" pad="13"/>
<connect gate="G$1" pin="TSTMODE0" pad="42"/>
<connect gate="G$1" pin="TSTMODE1" pad="43"/>
<connect gate="G$1" pin="TSTMODE2" pad="44"/>
<connect gate="G$1" pin="VCP" pad="34"/>
<connect gate="G$1" pin="VSS" pad="6"/>
<connect gate="G$1" pin="VSS2" pad="16"/>
<connect gate="G$1" pin="VSS3" pad="23"/>
<connect gate="G$1" pin="VSS4" pad="32"/>
<connect gate="G$1" pin="VSS5" pad="41"/>
<connect gate="G$1" pin="VSS6" pad="51"/>
<connect gate="G$1" pin="VSS7" pad="61"/>
</connects>
<technologies>
<technology name=""/>
</technologies>
</device>
</devices>
</deviceset>
</devicesets>
</library>
</drawing>
</eagle>