{
  "boardWidth": 15.0,
  "boardHeight": 15.0,
  "numLayers": 2,
  "boardTemplate": null,
  "designRules": "MacroFab_2_Layer.dru",
  "omitBoundary": null,
  "packages": [
    {
      "name": "EOG Sensor",
      "package": "__spaceClaim__",
      "pkg_idx": 0,
      "ComponentID": "4b5d9bf7-a110-471c-9117-f02e60e08f6e",
      "RelComponentID": null,
      "width": 14.0,
      "height": 14.0,
      "koWidth": null,
      "koHeight": null,
      "originX": null,
      "originY": null,
      "x": 0.5,
      "y": 0.5,
      "rotation": 0,
      "layer": 0,
      "constraints": null,
      "multiLayer": null,
      "doNotPlace": null
    },
    {
      "name": "AD8232ACPZ-R7",
      "package": "LFCSP_20",
      "pkg_idx": 1,
      "ComponentID": "{edd6c72b-1c27-468b-8af2-aabcf51683f1}",
      "RelComponentID": "4b5d9bf7-a110-471c-9117-f02e60e08f6e",
      "width": 4.2,
      "height": 4.2,
      "koWidth": 4.2,
      "koHeight": 4.2,
      "originX": 0.0,
      "originY": 0.0,
      "x": 4.8,
      "y": 5.7,
      "rotation": 0,
      "layer": 0,
      "constraints": [],
      "multiLayer": null,
      "doNotPlace": true
    },
    {
      "name": "C1",
      "package": "C_0402",
      "pkg_idx": 2,
      "ComponentID": "{88234cc3-25b9-4497-8031-4954bfdcc38c}",
      "RelComponentID": "4b5d9bf7-a110-471c-9117-f02e60e08f6e",
      "width": 1.72,
      "height": 0.72,
      "koWidth": 1.72,
      "koHeight": 0.72,
      "originX": 0.0,
      "originY": 0.0,
      "x": 3.24,
      "y": 8.74,
      "rotation": 1,
      "layer": 0,
      "constraints": [],
      "multiLayer": null,
      "doNotPlace": true
    },
    {
      "name": "C2",
      "package": "C_1206",
      "pkg_idx": 3,
      "ComponentID": "{f4a2e713-9762-41ac-9c21-21cf02163b55}",
      "RelComponentID": "4b5d9bf7-a110-471c-9117-f02e60e08f6e",
      "width": 4.5500000000000007,
      "height": 1.9,
      "koWidth": 4.5500000000000007,
      "koHeight": 1.9,
      "originX": 0.0,
      "originY": 0.0,
      "x": 2.325,
      "y": 11.95,
      "rotation": 2,
      "layer": 0,
      "constraints": [],
      "multiLayer": null,
      "doNotPlace": true
    },
    {
      "name": "C3",
      "package": "C_1206",
      "pkg_idx": 4,
      "ComponentID": "{8414975b-9c90-4037-9958-d907e7e819b7}",
      "RelComponentID": "4b5d9bf7-a110-471c-9117-f02e60e08f6e",
      "width": 4.5500000000000007,
      "height": 1.9,
      "koWidth": 4.5500000000000007,
      "koHeight": 1.9,
      "originX": 0.0,
      "originY": 0.0,
      "x": 9.55,
      "y": 2.225,
      "rotation": 3,
      "layer": 0,
      "constraints": [],
      "multiLayer": null,
      "doNotPlace": true
    },
    {
      "name": "C4",
      "package": "C_0201",
      "pkg_idx": 5,
      "ComponentID": "{e24af5ae-be78-4403-9fe7-8bc838cd3f2f}",
      "RelComponentID": "4b5d9bf7-a110-471c-9117-f02e60e08f6e",
      "width": 1.26,
      "height": 0.5,
      "koWidth": 1.26,
      "koHeight": 0.5,
      "originX": 0.0,
      "originY": 0.0,
      "x": 2.57,
      "y": 3.65,
      "rotation": 2,
      "layer": 0,
      "constraints": [],
      "multiLayer": null,
      "doNotPlace": true
    },
    {
      "name": "C5",
      "package": "C_0201",
      "pkg_idx": 6,
      "ComponentID": "{fc78758f-82a8-4317-a1c1-361d1e74e455}",
      "RelComponentID": "4b5d9bf7-a110-471c-9117-f02e60e08f6e",
      "width": 1.26,
      "height": 0.5,
      "koWidth": 1.26,
      "koHeight": 0.5,
      "originX": 0.0,
      "originY": 0.0,
      "x": 7.65,
      "y": 1.27,
      "rotation": 1,
      "layer": 0,
      "constraints": [],
      "multiLayer": null,
      "doNotPlace": true
    },
    {
      "name": "C6",
      "package": "C_0805",
      "pkg_idx": 7,
      "ComponentID": "{c324e520-0465-4c3d-974d-3d7287e7b85c}",
      "RelComponentID": "4b5d9bf7-a110-471c-9117-f02e60e08f6e",
      "width": 3.35,
      "height": 1.55,
      "koWidth": 3.35,
      "koHeight": 1.55,
      "originX": 0.0,
      "originY": 0.0,
      "x": 1.725,
      "y": 4.625,
      "rotation": 3,
      "layer": 0,
      "constraints": [],
      "multiLayer": null,
      "doNotPlace": true
    },
    {
      "name": "C7",
      "package": "C_0603",
      "pkg_idx": 8,
      "ComponentID": "{16909de8-88c9-43bb-9b2b-ba077f8db327}",
      "RelComponentID": "4b5d9bf7-a110-471c-9117-f02e60e08f6e",
      "width": 2.95,
      "height": 1.1,
      "koWidth": 2.95,
      "koHeight": 1.1,
      "originX": 0.0,
      "originY": 0.0,
      "x": 10.225,
      "y": 11.55,
      "rotation": 0,
      "layer": 0,
      "constraints": [],
      "multiLayer": null,
      "doNotPlace": true
    },
    {
      "name": "C8",
      "package": "C_0603",
      "pkg_idx": 9,
      "ComponentID": "{5a3683b0-89cf-4704-8547-df609566a327}",
      "RelComponentID": "4b5d9bf7-a110-471c-9117-f02e60e08f6e",
      "width": 2.95,
      "height": 1.1,
      "koWidth": 2.95,
      "koHeight": 1.1,
      "originX": 0.0,
      "originY": 0.0,
      "x": 12.15,
      "y": 6.625,
      "rotation": 3,
      "layer": 0,
      "constraints": [],
      "multiLayer": null,
      "doNotPlace": true
    },
    {
      "name": "R1",
      "package": "R_0402",
      "pkg_idx": 10,
      "ComponentID": "{f45d1c0e-d622-43b3-aa08-60ad6481cd70}",
      "RelComponentID": "4b5d9bf7-a110-471c-9117-f02e60e08f6e",
      "width": 1.7,
      "height": 0.5,
      "koWidth": 1.7,
      "koHeight": 0.5,
      "originX": 0.0,
      "originY": 0.0,
      "x": 1.15,
      "y": 11.45,
      "rotation": 1,
      "layer": 0,
      "constraints": [],
      "multiLayer": null,
      "doNotPlace": true
    },
    {
      "name": "R10",
      "package": "R_0603",
      "pkg_idx": 11,
      "ComponentID": "{baf33cfd-6dd1-45aa-a54c-f4da79d4e287}",
      "RelComponentID": "4b5d9bf7-a110-471c-9117-f02e60e08f6e",
      "width": 2.4,
      "height": 0.8,
      "koWidth": 2.4,
      "koHeight": 0.8,
      "originX": 0.0,
      "originY": 0.0,
      "x": 12.1,
      "y": 13.0,
      "rotation": 0,
      "layer": 0,
      "constraints": [],
      "multiLayer": null,
      "doNotPlace": true
    },
    {
      "name": "R14",
      "package": "R_0603",
      "pkg_idx": 12,
      "ComponentID": "{074a0f36-b982-4d2e-987b-214b2c0bc629}",
      "RelComponentID": "4b5d9bf7-a110-471c-9117-f02e60e08f6e",
      "width": 2.4,
      "height": 0.8,
      "koWidth": 2.4,
      "koHeight": 0.8,
      "originX": 0.0,
      "originY": 0.0,
      "x": 11.8,
      "y": 1.0,
      "rotation": 0,
      "layer": 0,
      "constraints": [],
      "multiLayer": null,
      "doNotPlace": true
    },
    {
      "name": "R2",
      "package": "R_0402",
      "pkg_idx": 13,
      "ComponentID": "{0cda4a34-ba49-42d9-a6e7-14045a8c0e8e}",
      "RelComponentID": "4b5d9bf7-a110-471c-9117-f02e60e08f6e",
      "width": 1.7,
      "height": 0.5,
      "koWidth": 1.7,
      "koHeight": 0.5,
      "originX": 0.0,
      "originY": 0.0,
      "x": 7.45,
      "y": 13.85,
      "rotation": 0,
      "layer": 0,
      "constraints": [],
      "multiLayer": null,
      "doNotPlace": true
    },
    {
      "name": "R3",
      "package": "R_0402",
      "pkg_idx": 14,
      "ComponentID": "{707788c6-8ddb-455b-9b06-202475479c09}",
      "RelComponentID": "4b5d9bf7-a110-471c-9117-f02e60e08f6e",
      "width": 1.7,
      "height": 0.5,
      "koWidth": 1.7,
      "koHeight": 0.5,
      "originX": 0.0,
      "originY": 0.0,
      "x": 8.45,
      "y": 2.55,
      "rotation": 3,
      "layer": 0,
      "constraints": [],
      "multiLayer": null,
      "doNotPlace": true
    },
    {
      "name": "R4",
      "package": "R_0402",
      "pkg_idx": 15,
      "ComponentID": "{b6e569de-2e2b-46e2-af76-8fe28c79c611}",
      "RelComponentID": "4b5d9bf7-a110-471c-9117-f02e60e08f6e",
      "width": 1.7,
      "height": 0.5,
      "koWidth": 1.7,
      "koHeight": 0.5,
      "originX": 0.0,
      "originY": 0.0,
      "x": 5.05,
      "y": 1.75,
      "rotation": 2,
      "layer": 0,
      "constraints": [],
      "multiLayer": null,
      "doNotPlace": true
    },
    {
      "name": "R5",
      "package": "R_0402",
      "pkg_idx": 16,
      "ComponentID": "{06ccf455-b588-464c-9e49-95106e596662}",
      "RelComponentID": "4b5d9bf7-a110-471c-9117-f02e60e08f6e",
      "width": 1.7,
      "height": 0.5,
      "koWidth": 1.7,
      "koHeight": 0.5,
      "originX": 0.0,
      "originY": 0.0,
      "x": 4.65,
      "y": 2.45,
      "rotation": 1,
      "layer": 0,
      "constraints": [],
      "multiLayer": null,
      "doNotPlace": true
    },
    {
      "name": "R6",
      "package": "R_0402",
      "pkg_idx": 17,
      "ComponentID": "{f1443bdc-4f4a-4a85-ab82-5b867e125b5f}",
      "RelComponentID": "4b5d9bf7-a110-471c-9117-f02e60e08f6e",
      "width": 1.7,
      "height": 0.5,
      "koWidth": 1.7,
      "koHeight": 0.5,
      "originX": 0.0,
      "originY": 0.0,
      "x": 6.35,
      "y": 3.65,
      "rotation": 0,
      "layer": 0,
      "constraints": [],
      "multiLayer": null,
      "doNotPlace": true
    },
    {
      "name": "R7",
      "package": "R_0402",
      "pkg_idx": 18,
      "ComponentID": "{1ee92c15-6e51-4610-a0ba-2a1302bec36a}",
      "RelComponentID": "4b5d9bf7-a110-471c-9117-f02e60e08f6e",
      "width": 1.7,
      "height": 0.5,
      "koWidth": 1.7,
      "koHeight": 0.5,
      "originX": 0.0,
      "originY": 0.0,
      "x": 2.65,
      "y": 1.55,
      "rotation": 0,
      "layer": 0,
      "constraints": [],
      "multiLayer": null,
      "doNotPlace": true
    },
    {
      "name": "Ra",
      "package": "R_0603",
      "pkg_idx": 19,
      "ComponentID": "{eb44aa9f-741b-43e7-a207-4ca87f1e9b83}",
      "RelComponentID": "4b5d9bf7-a110-471c-9117-f02e60e08f6e",
      "width": 2.4,
      "height": 0.8,
      "koWidth": 2.4,
      "koHeight": 0.8,
      "originX": 0.0,
      "originY": 0.0,
      "x": 7.3,
      "y": 11.3,
      "rotation": 0,
      "layer": 0,
      "constraints": [],
      "multiLayer": null,
      "doNotPlace": true
    },
    {
      "name": "Rb",
      "package": "R_0603",
      "pkg_idx": 20,
      "ComponentID": "{78fee0b2-bb9f-4edb-aa03-dd5119d1e62b}",
      "RelComponentID": "4b5d9bf7-a110-471c-9117-f02e60e08f6e",
      "width": 2.4,
      "height": 0.8,
      "koWidth": 2.4,
      "koHeight": 0.8,
      "originX": 0.0,
      "originY": 0.0,
      "x": 9.4,
      "y": 7.9,
      "rotation": 0,
      "layer": 0,
      "constraints": [],
      "multiLayer": null,
      "doNotPlace": true
    },
    {
      "name": "SensorIn",
      "package": "TP4",
      "pkg_idx": 21,
      "ComponentID": "{02fafc1d-8f8b-478d-a49d-ce751be1ecb9}",
      "RelComponentID": "4b5d9bf7-a110-471c-9117-f02e60e08f6e",
      "width": 0.5,
      "height": 7.0,
      "koWidth": 0.5,
      "koHeight": 7.0,
      "originX": 0.0,
      "originY": -0.3,
      "x": 0.55,
      "y": 3.7,
      "rotation": 0,
      "layer": 0,
      "constraints": [],
      "multiLayer": null,
      "doNotPlace": true
    },
    {
      "name": "Sys",
      "package": "TP4",
      "pkg_idx": 22,
      "ComponentID": "{2d5d1389-8707-497a-9b50-92cdb0aac468}",
      "RelComponentID": "4b5d9bf7-a110-471c-9117-f02e60e08f6e",
      "width": 0.5,
      "height": 7.0,
      "koWidth": 0.5,
      "koHeight": 7.0,
      "originX": 0.0,
      "originY": -0.3,
      "x": 14.15,
      "y": 5.0,
      "rotation": 0,
      "layer": 0,
      "constraints": [],
      "multiLayer": null,
      "doNotPlace": true
    }
  ],
  "signals": [
    {
      "name": "N$0",
      "length": 9.6183516888880067,
      "bends": 13,
      "RelComponentID": "4b5d9bf7-a110-471c-9117-f02e60e08f6e",
      "pins": [
        {
          "name": "SW",
          "gate": "U$1",
          "pad": "6",
          "package": "AD8232ACPZ-R7"
        },
        {
          "name": "2",
          "gate": "G$1",
          "pad": "P$2",
          "package": "R3"
        },
        {
          "name": "1",
          "gate": "G$1",
          "pad": "P$1",
          "package": "R4"
        },
        {
          "name": "P$2",
          "gate": "G$1",
          "pad": "2",
          "package": "C3"
        }
      ],
      "wires": [
        {
          "x1": 5.9,
          "y1": 4.95,
          "x2": 5.9,
          "y2": 5.95,
          "width": 0.1524,
          "layer": 1,
          "curve": 0.0
        },
        {
          "x1": 5.7,
          "y1": 4.95,
          "x2": 5.9,
          "y2": 4.95,
          "width": 0.1524,
          "layer": 1,
          "curve": 0.0
        },
        {
          "x1": 5.7,
          "y1": 2.75,
          "x2": 5.7,
          "y2": 4.95,
          "width": 0.1524,
          "layer": 16,
          "curve": 0.0
        },
        {
          "x1": 6.45,
          "y1": 2.0,
          "x2": 5.7,
          "y2": 2.75,
          "width": 0.1524,
          "layer": 1,
          "curve": 0.0
        },
        {
          "x1": 8.75,
          "y1": 2.9,
          "x2": 8.7,
          "y2": 2.85,
          "width": 0.1524,
          "layer": 1,
          "curve": 0.0
        },
        {
          "x1": 10.5,
          "y1": 2.9,
          "x2": 8.75,
          "y2": 2.9,
          "width": 0.1524,
          "layer": 1,
          "curve": 0.0
        },
        {
          "x1": 7.95,
          "y1": 3.05,
          "x2": 5.75,
          "y2": 3.05,
          "width": 0.1524,
          "layer": 16,
          "curve": 0.0
        },
        {
          "x1": 8.1,
          "y1": 2.9,
          "x2": 7.95,
          "y2": 3.05,
          "width": 0.1524,
          "layer": 1,
          "curve": 0.0
        },
        {
          "x1": 8.65,
          "y1": 2.9,
          "x2": 8.1,
          "y2": 2.9,
          "width": 0.1524,
          "layer": 1,
          "curve": 0.0
        },
        {
          "x1": 5.75,
          "y1": 3.05,
          "x2": 5.7,
          "y2": 2.75,
          "width": 0.1524,
          "layer": 16,
          "curve": 0.0
        },
        {
          "x1": 8.65,
          "y1": 2.9,
          "x2": 8.7,
          "y2": 2.85,
          "width": 0.1524,
          "layer": 1,
          "curve": 0.0
        }
      ],
      "vias": [
        {
          "x": 5.7,
          "y": 4.95,
          "drill": 0.3048,
          "layerBegin": 1,
          "layerEnd": 16
        },
        {
          "x": 5.7,
          "y": 2.75,
          "drill": 0.3048,
          "layerBegin": 1,
          "layerEnd": 16
        },
        {
          "x": 7.95,
          "y": 3.05,
          "drill": 0.3048,
          "layerBegin": 1,
          "layerEnd": 16
        }
      ],
      "polygons": []
    },
    {
      "name": "N$1",
      "length": 4.3571067811865474,
      "bends": 7,
      "RelComponentID": "4b5d9bf7-a110-471c-9117-f02e60e08f6e",
      "pins": [
        {
          "name": "HPDRIVE",
          "gate": "U$1",
          "pad": "1",
          "package": "AD8232ACPZ-R7"
        },
        {
          "name": "P$1",
          "gate": "G$1",
          "pad": "1",
          "package": "C1"
        }
      ],
      "wires": [
        {
          "x1": 5.05,
          "y1": 9.4,
          "x2": 5.05,
          "y2": 8.8,
          "width": 0.1524,
          "layer": 1,
          "curve": 0.0
        },
        {
          "x1": 5.25,
          "y1": 9.4,
          "x2": 5.05,
          "y2": 9.4,
          "width": 0.1524,
          "layer": 1,
          "curve": 0.0
        },
        {
          "x1": 4.85,
          "y1": 9.0,
          "x2": 5.25,
          "y2": 9.4,
          "width": 0.1524,
          "layer": 16,
          "curve": 0.0
        },
        {
          "x1": 2.75,
          "y1": 9.0,
          "x2": 4.85,
          "y2": 9.0,
          "width": 0.1524,
          "layer": 16,
          "curve": 0.0
        },
        {
          "x1": 2.85,
          "y1": 9.1,
          "x2": 2.75,
          "y2": 9.0,
          "width": 0.1524,
          "layer": 1,
          "curve": 0.0
        },
        {
          "x1": 3.6,
          "y1": 9.1,
          "x2": 2.85,
          "y2": 9.1,
          "width": 0.1524,
          "layer": 1,
          "curve": 0.0
        }
      ],
      "vias": [
        {
          "x": 5.25,
          "y": 9.4,
          "drill": 0.3048,
          "layerBegin": 1,
          "layerEnd": 16
        },
        {
          "x": 2.75,
          "y": 9.0,
          "drill": 0.3048,
          "layerBegin": 1,
          "layerEnd": 16
        }
      ],
      "polygons": []
    },
    {
      "name": "N$2",
      "length": 6.8556349186104049,
      "bends": 5,
      "RelComponentID": "4b5d9bf7-a110-471c-9117-f02e60e08f6e",
      "pins": [
        {
          "name": "OPAMP-",
          "gate": "U$1",
          "pad": "9",
          "package": "AD8232ACPZ-R7"
        },
        {
          "name": "2",
          "gate": "G$1",
          "pad": "P$2",
          "package": "R7"
        },
        {
          "name": "1",
          "gate": "G$1",
          "pad": "P$1",
          "package": "R6"
        }
      ],
      "wires": [
        {
          "x1": 7.4,
          "y1": 4.4,
          "x2": 7.4,
          "y2": 5.95,
          "width": 0.1524,
          "layer": 1,
          "curve": 0.0
        },
        {
          "x1": 7.15,
          "y1": 4.4,
          "x2": 7.4,
          "y2": 4.4,
          "width": 0.1524,
          "layer": 1,
          "curve": 0.0
        },
        {
          "x1": 6.65,
          "y1": 3.9,
          "x2": 7.15,
          "y2": 4.4,
          "width": 0.1524,
          "layer": 1,
          "curve": 0.0
        },
        {
          "x1": 4.05,
          "y1": 3.3,
          "x2": 4.05,
          "y2": 1.8,
          "width": 0.1524,
          "layer": 1,
          "curve": 0.0
        },
        {
          "x1": 6.05,
          "y1": 3.3,
          "x2": 4.05,
          "y2": 3.3,
          "width": 0.1524,
          "layer": 1,
          "curve": 0.0
        },
        {
          "x1": 6.65,
          "y1": 3.9,
          "x2": 6.05,
          "y2": 3.3,
          "width": 0.1524,
          "layer": 1,
          "curve": 0.0
        }
      ],
      "vias": [],
      "polygons": []
    },
    {
      "name": "N$3",
      "length": 25.516042558696054,
      "bends": 28,
      "RelComponentID": "4b5d9bf7-a110-471c-9117-f02e60e08f6e",
      "pins": [
        {
          "name": "GND",
          "gate": "U$1",
          "pad": "16",
          "package": "AD8232ACPZ-R7"
        },
        {
          "name": "2",
          "gate": "G$1",
          "pad": "P$2",
          "package": "R14"
        },
        {
          "name": "P$2",
          "gate": "G$1",
          "pad": "2",
          "package": "C8"
        },
        {
          "name": "FR",
          "gate": "U$1",
          "pad": "15",
          "package": "AD8232ACPZ-R7"
        },
        {
          "name": "P$4",
          "gate": "G$1",
          "pad": "P$4",
          "package": "Sys"
        },
        {
          "name": "AC/!DC",
          "gate": "U$1",
          "pad": "14",
          "package": "AD8232ACPZ-R7"
        },
        {
          "name": "P$2",
          "gate": "G$1",
          "pad": "2",
          "package": "C7"
        }
      ],
      "wires": [
        {
          "x1": 8.75,
          "y1": 8.8,
          "x2": 8.75,
          "y2": 8.3,
          "width": 0.1524,
          "layer": 1,
          "curve": 0.0
        },
        {
          "x1": 8.35,
          "y1": 9.2,
          "x2": 8.1,
          "y2": 9.45,
          "width": 0.1524,
          "layer": 1,
          "curve": 0.0
        },
        {
          "x1": 8.1,
          "y1": 9.45,
          "x2": 7.9,
          "y2": 9.65,
          "width": 0.1524,
          "layer": 1,
          "curve": 0.0
        },
        {
          "x1": 8.35,
          "y1": 9.15,
          "x2": 8.35,
          "y2": 9.2,
          "width": 0.1524,
          "layer": 1,
          "curve": 0.0
        },
        {
          "x1": 8.65,
          "y1": 8.85,
          "x2": 8.35,
          "y2": 9.15,
          "width": 0.1524,
          "layer": 1,
          "curve": 0.0
        },
        {
          "x1": 8.7,
          "y1": 8.85,
          "x2": 8.65,
          "y2": 8.85,
          "width": 0.1524,
          "layer": 1,
          "curve": 0.0
        },
        {
          "x1": 8.7,
          "y1": 8.85,
          "x2": 8.75,
          "y2": 8.8,
          "width": 0.1524,
          "layer": 1,
          "curve": 0.0
        },
        {
          "x1": 13.6,
          "y1": 6.1,
          "x2": 13.8,
          "y2": 5.9,
          "width": 0.1524,
          "layer": 1,
          "curve": 0.0
        },
        {
          "x1": 13.8,
          "y1": 5.9,
          "x2": 14.4,
          "y2": 5.3,
          "width": 0.1524,
          "layer": 1,
          "curve": 0.0
        },
        {
          "x1": 13.5,
          "y1": 6.1,
          "x2": 13.6,
          "y2": 6.1,
          "width": 0.1524,
          "layer": 1,
          "curve": 0.0
        },
        {
          "x1": 12.7,
          "y1": 6.9,
          "x2": 13.5,
          "y2": 6.1,
          "width": 0.1524,
          "layer": 1,
          "curve": 0.0
        },
        {
          "x1": 12.7,
          "y1": 7.2,
          "x2": 12.7,
          "y2": 6.9,
          "width": 0.1524,
          "layer": 1,
          "curve": 0.0
        },
        {
          "x1": 13.05,
          "y1": 2.15,
          "x2": 13.8,
          "y2": 1.4,
          "width": 0.1524,
          "layer": 1,
          "curve": 0.0
        },
        {
          "x1": 13.2,
          "y1": 2.3,
          "x2": 13.05,
          "y2": 2.15,
          "width": 0.1524,
          "layer": 16,
          "curve": 0.0
        },
        {
          "x1": 13.2,
          "y1": 5.3,
          "x2": 13.2,
          "y2": 2.3,
          "width": 0.1524,
          "layer": 16,
          "curve": 0.0
        },
        {
          "x1": 13.8,
          "y1": 5.9,
          "x2": 13.2,
          "y2": 5.3,
          "width": 0.1524,
          "layer": 1,
          "curve": 0.0
        },
        {
          "x1": 12.6,
          "y1": 11.05,
          "x2": 12.6,
          "y2": 12.1,
          "width": 0.1524,
          "layer": 1,
          "curve": 0.0
        },
        {
          "x1": 13.15,
          "y1": 10.5,
          "x2": 12.6,
          "y2": 11.05,
          "width": 0.1524,
          "layer": 16,
          "curve": 0.0
        },
        {
          "x1": 13.15,
          "y1": 5.35,
          "x2": 13.15,
          "y2": 10.5,
          "width": 0.1524,
          "layer": 16,
          "curve": 0.0
        },
        {
          "x1": 13.15,
          "y1": 5.35,
          "x2": 13.2,
          "y2": 5.3,
          "width": 0.1524,
          "layer": 16,
          "curve": 0.0
        },
        {
          "x1": 8.6,
          "y1": 9.95,
          "x2": 8.1,
          "y2": 9.45,
          "width": 0.1524,
          "layer": 1,
          "curve": 0.0
        },
        {
          "x1": 13.2,
          "y1": 9.95,
          "x2": 8.6,
          "y2": 9.95,
          "width": 0.1524,
          "layer": 1,
          "curve": 0.0
        },
        {
          "x1": 13.5,
          "y1": 9.65,
          "x2": 13.2,
          "y2": 9.95,
          "width": 0.1524,
          "layer": 1,
          "curve": 0.0
        },
        {
          "x1": 13.5,
          "y1": 7.25,
          "x2": 13.5,
          "y2": 9.65,
          "width": 0.1524,
          "layer": 1,
          "curve": 0.0
        },
        {
          "x1": 12.75,
          "y1": 7.25,
          "x2": 13.5,
          "y2": 7.25,
          "width": 0.1524,
          "layer": 1,
          "curve": 0.0
        },
        {
          "x1": 12.75,
          "y1": 7.25,
          "x2": 12.7,
          "y2": 7.2,
          "width": 0.1524,
          "layer": 1,
          "curve": 0.0
        }
      ],
      "vias": [
        {
          "x": 13.05,
          "y": 2.15,
          "drill": 0.3048,
          "layerBegin": 1,
          "layerEnd": 16
        },
        {
          "x": 13.2,
          "y": 5.3,
          "drill": 0.3048,
          "layerBegin": 1,
          "layerEnd": 16
        },
        {
          "x": 12.6,
          "y": 11.05,
          "drill": 0.3048,
          "layerBegin": 1,
          "layerEnd": 16
        }
      ],
      "polygons": []
    },
    {
      "name": "N$4",
      "length": 16.349898987322334,
      "bends": 16,
      "RelComponentID": "4b5d9bf7-a110-471c-9117-f02e60e08f6e",
      "pins": [
        {
          "name": "OUT",
          "gate": "U$1",
          "pad": "10",
          "package": "AD8232ACPZ-R7"
        },
        {
          "name": "2",
          "gate": "G$1",
          "pad": "P$2",
          "package": "R6"
        },
        {
          "name": "P$2",
          "gate": "G$1",
          "pad": "2",
          "package": "C5"
        },
        {
          "name": "P$2",
          "gate": "G$1",
          "pad": "P$2",
          "package": "Sys"
        }
      ],
      "wires": [
        {
          "x1": 7.4,
          "y1": 2.8,
          "x2": 7.9,
          "y2": 2.3,
          "width": 0.1524,
          "layer": 1,
          "curve": 0.0
        },
        {
          "x1": 7.4,
          "y1": 3.9,
          "x2": 7.4,
          "y2": 2.8,
          "width": 0.1524,
          "layer": 1,
          "curve": 0.0
        },
        {
          "x1": 7.75,
          "y1": 3.9,
          "x2": 7.4,
          "y2": 3.9,
          "width": 0.1524,
          "layer": 1,
          "curve": 0.0
        },
        {
          "x1": 7.9,
          "y1": 2.3,
          "x2": 7.9,
          "y2": 2.28,
          "width": 0.1524,
          "layer": 1,
          "curve": 0.0
        },
        {
          "x1": 7.9,
          "y1": 3.95,
          "x2": 7.9,
          "y2": 5.3,
          "width": 0.1524,
          "layer": 1,
          "curve": 0.0
        },
        {
          "x1": 7.9,
          "y1": 5.3,
          "x2": 7.9,
          "y2": 5.95,
          "width": 0.1524,
          "layer": 1,
          "curve": 0.0
        },
        {
          "x1": 7.8,
          "y1": 3.95,
          "x2": 7.9,
          "y2": 3.95,
          "width": 0.1524,
          "layer": 1,
          "curve": 0.0
        },
        {
          "x1": 7.8,
          "y1": 3.95,
          "x2": 7.75,
          "y2": 3.9,
          "width": 0.1524,
          "layer": 1,
          "curve": 0.0
        },
        {
          "x1": 14.4,
          "y1": 8.05,
          "x2": 14.4,
          "y2": 9.8,
          "width": 0.1524,
          "layer": 1,
          "curve": 0.0
        },
        {
          "x1": 14.3,
          "y1": 7.95,
          "x2": 14.4,
          "y2": 8.05,
          "width": 0.1524,
          "layer": 16,
          "curve": 0.0
        },
        {
          "x1": 14.3,
          "y1": 4.55,
          "x2": 14.3,
          "y2": 7.95,
          "width": 0.1524,
          "layer": 16,
          "curve": 0.0
        },
        {
          "x1": 14.1,
          "y1": 4.75,
          "x2": 14.3,
          "y2": 4.55,
          "width": 0.1524,
          "layer": 1,
          "curve": 0.0
        },
        {
          "x1": 9.25,
          "y1": 4.75,
          "x2": 14.1,
          "y2": 4.75,
          "width": 0.1524,
          "layer": 1,
          "curve": 0.0
        },
        {
          "x1": 8.7,
          "y1": 5.3,
          "x2": 9.25,
          "y2": 4.75,
          "width": 0.1524,
          "layer": 1,
          "curve": 0.0
        },
        {
          "x1": 7.9,
          "y1": 5.3,
          "x2": 8.7,
          "y2": 5.3,
          "width": 0.1524,
          "layer": 1,
          "curve": 0.0
        }
      ],
      "vias": [
        {
          "x": 14.4,
          "y": 8.05,
          "drill": 0.3048,
          "layerBegin": 1,
          "layerEnd": 16
        },
        {
          "x": 14.3,
          "y": 4.55,
          "drill": 0.3048,
          "layerBegin": 1,
          "layerEnd": 16
        }
      ],
      "polygons": []
    },
    {
      "name": "N$5",
      "length": 15.300609665440987,
      "bends": 12,
      "RelComponentID": "4b5d9bf7-a110-471c-9117-f02e60e08f6e",
      "pins": [
        {
          "name": "REFOUT",
          "gate": "U$1",
          "pad": "8",
          "package": "AD8232ACPZ-R7"
        },
        {
          "name": "1",
          "gate": "G$1",
          "pad": "P$1",
          "package": "R3"
        },
        {
          "name": "P$1",
          "gate": "G$1",
          "pad": "1",
          "package": "C2"
        }
      ],
      "wires": [
        {
          "x1": 6.9,
          "y1": 5.2,
          "x2": 6.9,
          "y2": 5.95,
          "width": 0.1524,
          "layer": 1,
          "curve": 0.0
        },
        {
          "x1": 6.85,
          "y1": 5.2,
          "x2": 6.9,
          "y2": 5.2,
          "width": 0.1524,
          "layer": 1,
          "curve": 0.0
        },
        {
          "x1": 8.45,
          "y1": 5.2,
          "x2": 6.85,
          "y2": 5.2,
          "width": 0.1524,
          "layer": 16,
          "curve": 0.0
        },
        {
          "x1": 8.45,
          "y1": 4.75,
          "x2": 8.45,
          "y2": 5.2,
          "width": 0.1524,
          "layer": 16,
          "curve": 0.0
        },
        {
          "x1": 8.45,
          "y1": 3.95,
          "x2": 8.45,
          "y2": 4.75,
          "width": 0.1524,
          "layer": 1,
          "curve": 0.0
        },
        {
          "x1": 8.7,
          "y1": 3.95,
          "x2": 8.45,
          "y2": 3.95,
          "width": 0.1524,
          "layer": 1,
          "curve": 0.0
        },
        {
          "x1": 9.6,
          "y1": 6.35,
          "x2": 8.45,
          "y2": 5.2,
          "width": 0.1524,
          "layer": 16,
          "curve": 0.0
        },
        {
          "x1": 9.6,
          "y1": 12.6,
          "x2": 9.6,
          "y2": 6.35,
          "width": 0.1524,
          "layer": 16,
          "curve": 0.0
        },
        {
          "x1": 9.3,
          "y1": 12.9,
          "x2": 9.6,
          "y2": 12.6,
          "width": 0.1524,
          "layer": 1,
          "curve": 0.0
        },
        {
          "x1": 6.2,
          "y1": 12.9,
          "x2": 9.3,
          "y2": 12.9,
          "width": 0.1524,
          "layer": 1,
          "curve": 0.0
        }
      ],
      "vias": [
        {
          "x": 6.85,
          "y": 5.2,
          "drill": 0.3048,
          "layerBegin": 1,
          "layerEnd": 16
        },
        {
          "x": 8.45,
          "y": 4.75,
          "drill": 0.3048,
          "layerBegin": 1,
          "layerEnd": 16
        },
        {
          "x": 9.6,
          "y": 12.6,
          "drill": 0.3048,
          "layerBegin": 1,
          "layerEnd": 16
        }
      ],
      "polygons": []
    },
    {
      "name": "N$6",
      "length": 4.5306601717798216,
      "bends": 7,
      "RelComponentID": "4b5d9bf7-a110-471c-9117-f02e60e08f6e",
      "pins": [
        {
          "name": "OPAMP+",
          "gate": "U$1",
          "pad": "7",
          "package": "AD8232ACPZ-R7"
        },
        {
          "name": "P$1",
          "gate": "G$1",
          "pad": "1",
          "package": "C4"
        },
        {
          "name": "2",
          "gate": "G$1",
          "pad": "P$2",
          "package": "R5"
        }
      ],
      "wires": [
        {
          "x1": 3.65,
          "y1": 3.85,
          "x2": 3.6,
          "y2": 3.9,
          "width": 0.1524,
          "layer": 1,
          "curve": 0.0
        },
        {
          "x1": 4.9,
          "y1": 3.85,
          "x2": 3.65,
          "y2": 3.85,
          "width": 0.1524,
          "layer": 1,
          "curve": 0.0
        },
        {
          "x1": 3.6,
          "y1": 3.9,
          "x2": 3.58,
          "y2": 3.9,
          "width": 0.1524,
          "layer": 1,
          "curve": 0.0
        },
        {
          "x1": 6.4,
          "y1": 5.55,
          "x2": 6.4,
          "y2": 5.95,
          "width": 0.1524,
          "layer": 1,
          "curve": 0.0
        },
        {
          "x1": 6.25,
          "y1": 5.4,
          "x2": 6.4,
          "y2": 5.55,
          "width": 0.1524,
          "layer": 1,
          "curve": 0.0
        },
        {
          "x1": 6.25,
          "y1": 4.4,
          "x2": 6.25,
          "y2": 5.4,
          "width": 0.1524,
          "layer": 1,
          "curve": 0.0
        },
        {
          "x1": 5.45,
          "y1": 4.4,
          "x2": 6.25,
          "y2": 4.4,
          "width": 0.1524,
          "layer": 1,
          "curve": 0.0
        },
        {
          "x1": 4.9,
          "y1": 3.85,
          "x2": 5.45,
          "y2": 4.4,
          "width": 0.1524,
          "layer": 1,
          "curve": 0.0
        }
      ],
      "vias": [],
      "polygons": []
    },
    {
      "name": "N$7",
      "length": 5.3698484809834994,
      "bends": 4,
      "RelComponentID": "4b5d9bf7-a110-471c-9117-f02e60e08f6e",
      "pins": [
        {
          "name": "HPSENSE",
          "gate": "U$1",
          "pad": "20",
          "package": "AD8232ACPZ-R7"
        },
        {
          "name": "1",
          "gate": "G$1",
          "pad": "P$1",
          "package": "R1"
        },
        {
          "name": "P$2",
          "gate": "G$1",
          "pad": "2",
          "package": "C1"
        }
      ],
      "wires": [
        {
          "x1": 5.45,
          "y1": 10.1,
          "x2": 5.9,
          "y2": 9.65,
          "width": 0.1524,
          "layer": 1,
          "curve": 0.0
        },
        {
          "x1": 3.6,
          "y1": 10.1,
          "x2": 5.45,
          "y2": 10.1,
          "width": 0.1524,
          "layer": 1,
          "curve": 0.0
        },
        {
          "x1": 3.0,
          "y1": 10.15,
          "x2": 1.4,
          "y2": 11.75,
          "width": 0.1524,
          "layer": 1,
          "curve": 0.0
        },
        {
          "x1": 3.55,
          "y1": 10.15,
          "x2": 3.0,
          "y2": 10.15,
          "width": 0.1524,
          "layer": 1,
          "curve": 0.0
        },
        {
          "x1": 3.55,
          "y1": 10.15,
          "x2": 3.6,
          "y2": 10.1,
          "width": 0.1524,
          "layer": 1,
          "curve": 0.0
        }
      ],
      "vias": [],
      "polygons": []
    },
    {
      "name": "N$8",
      "length": 16.198228000208733,
      "bends": 18,
      "RelComponentID": "4b5d9bf7-a110-471c-9117-f02e60e08f6e",
      "pins": [
        {
          "name": "+VS",
          "gate": "U$1",
          "pad": "17",
          "package": "AD8232ACPZ-R7"
        },
        {
          "name": "P$1",
          "gate": "G$1",
          "pad": "P$1",
          "package": "Sys"
        },
        {
          "name": "2",
          "gate": "G$1",
          "pad": "P$2",
          "package": "Ra"
        },
        {
          "name": "2",
          "gate": "G$1",
          "pad": "P$2",
          "package": "Rb"
        },
        {
          "name": "P$1",
          "gate": "G$1",
          "pad": "1",
          "package": "C7"
        },
        {
          "name": "2",
          "gate": "G$1",
          "pad": "P$2",
          "package": "R10"
        }
      ],
      "wires": [
        {
          "x1": 14.4,
          "y1": 13.4,
          "x2": 14.4,
          "y2": 11.8,
          "width": 0.1524,
          "layer": 1,
          "curve": 0.0
        },
        {
          "x1": 14.1,
          "y1": 13.4,
          "x2": 14.4,
          "y2": 13.4,
          "width": 0.1524,
          "layer": 1,
          "curve": 0.0
        },
        {
          "x1": 7.4,
          "y1": 11.05,
          "x2": 7.4,
          "y2": 9.65,
          "width": 0.1524,
          "layer": 1,
          "curve": 0.0
        },
        {
          "x1": 8.65,
          "y1": 11.05,
          "x2": 7.4,
          "y2": 11.05,
          "width": 0.1524,
          "layer": 1,
          "curve": 0.0
        },
        {
          "x1": 9.3,
          "y1": 11.7,
          "x2": 8.65,
          "y2": 11.05,
          "width": 0.1524,
          "layer": 1,
          "curve": 0.0
        },
        {
          "x1": 11.05,
          "y1": 8.65,
          "x2": 11.4,
          "y2": 8.3,
          "width": 0.1524,
          "layer": 1,
          "curve": 0.0
        },
        {
          "x1": 11.0,
          "y1": 8.65,
          "x2": 11.05,
          "y2": 8.65,
          "width": 0.1524,
          "layer": 1,
          "curve": 0.0
        },
        {
          "x1": 10.25,
          "y1": 9.4,
          "x2": 11.0,
          "y2": 8.65,
          "width": 0.1524,
          "layer": 1,
          "curve": 0.0
        },
        {
          "x1": 10.15,
          "y1": 9.5,
          "x2": 10.25,
          "y2": 9.4,
          "width": 0.1524,
          "layer": 16,
          "curve": 0.0
        },
        {
          "x1": 10.15,
          "y1": 10.55,
          "x2": 10.15,
          "y2": 9.5,
          "width": 0.1524,
          "layer": 16,
          "curve": 0.0
        },
        {
          "x1": 9.2,
          "y1": 11.5,
          "x2": 9.7,
          "y2": 11.0,
          "width": 0.1524,
          "layer": 1,
          "curve": 0.0
        },
        {
          "x1": 9.7,
          "y1": 11.0,
          "x2": 10.15,
          "y2": 10.55,
          "width": 0.1524,
          "layer": 1,
          "curve": 0.0
        },
        {
          "x1": 9.2,
          "y1": 11.5,
          "x2": 9.3,
          "y2": 11.7,
          "width": 0.1524,
          "layer": 1,
          "curve": 0.0
        },
        {
          "x1": 9.7,
          "y1": 11.0,
          "x2": 10.8,
          "y2": 12.1,
          "width": 0.1524,
          "layer": 1,
          "curve": 0.0
        },
        {
          "x1": 13.1,
          "y1": 10.5,
          "x2": 14.4,
          "y2": 11.8,
          "width": 0.1524,
          "layer": 1,
          "curve": 0.0
        },
        {
          "x1": 10.2,
          "y1": 10.5,
          "x2": 13.1,
          "y2": 10.5,
          "width": 0.1524,
          "layer": 1,
          "curve": 0.0
        },
        {
          "x1": 10.2,
          "y1": 10.5,
          "x2": 10.15,
          "y2": 10.55,
          "width": 0.1524,
          "layer": 1,
          "curve": 0.0
        }
      ],
      "vias": [
        {
          "x": 10.25,
          "y": 9.4,
          "drill": 0.3048,
          "layerBegin": 1,
          "layerEnd": 16
        },
        {
          "x": 10.15,
          "y": 10.55,
          "drill": 0.3048,
          "layerBegin": 1,
          "layerEnd": 16
        }
      ],
      "polygons": []
    },
    {
      "name": "N$9",
      "length": 11.65269119345812,
      "bends": 12,
      "RelComponentID": "4b5d9bf7-a110-471c-9117-f02e60e08f6e",
      "pins": [
        {
          "name": "-IN",
          "gate": "U$1",
          "pad": "3",
          "package": "AD8232ACPZ-R7"
        },
        {
          "name": "P$2",
          "gate": "G$1",
          "pad": "P$2",
          "package": "SensorIn"
        },
        {
          "name": "1",
          "gate": "G$1",
          "pad": "P$1",
          "package": "Rb"
        }
      ],
      "wires": [
        {
          "x1": 1.05,
          "y1": 8.25,
          "x2": 0.8,
          "y2": 8.5,
          "width": 0.1524,
          "layer": 1,
          "curve": 0.0
        },
        {
          "x1": 4.4,
          "y1": 8.25,
          "x2": 4.2,
          "y2": 8.25,
          "width": 0.1524,
          "layer": 1,
          "curve": 0.0
        },
        {
          "x1": 4.2,
          "y1": 8.25,
          "x2": 1.05,
          "y2": 8.25,
          "width": 0.1524,
          "layer": 1,
          "curve": 0.0
        },
        {
          "x1": 4.85,
          "y1": 7.8,
          "x2": 4.4,
          "y2": 8.25,
          "width": 0.1524,
          "layer": 1,
          "curve": 0.0
        },
        {
          "x1": 5.05,
          "y1": 7.8,
          "x2": 4.85,
          "y2": 7.8,
          "width": 0.1524,
          "layer": 1,
          "curve": 0.0
        },
        {
          "x1": 9.8,
          "y1": 9.05,
          "x2": 9.8,
          "y2": 8.3,
          "width": 0.1524,
          "layer": 1,
          "curve": 0.0
        },
        {
          "x1": 9.25,
          "y1": 9.05,
          "x2": 9.8,
          "y2": 9.05,
          "width": 0.1524,
          "layer": 1,
          "curve": 0.0
        },
        {
          "x1": 8.9,
          "y1": 9.4,
          "x2": 9.25,
          "y2": 9.05,
          "width": 0.1524,
          "layer": 1,
          "curve": 0.0
        },
        {
          "x1": 7.65,
          "y1": 8.15,
          "x2": 8.9,
          "y2": 9.4,
          "width": 0.1524,
          "layer": 16,
          "curve": 0.0
        },
        {
          "x1": 4.2,
          "y1": 8.15,
          "x2": 7.65,
          "y2": 8.15,
          "width": 0.1524,
          "layer": 16,
          "curve": 0.0
        },
        {
          "x1": 4.2,
          "y1": 8.15,
          "x2": 4.2,
          "y2": 8.25,
          "width": 0.1524,
          "layer": 1,
          "curve": 0.0
        }
      ],
      "vias": [
        {
          "x": 8.9,
          "y": 9.4,
          "drill": 0.3048,
          "layerBegin": 1,
          "layerEnd": 16
        },
        {
          "x": 4.2,
          "y": 8.15,
          "drill": 0.3048,
          "layerBegin": 1,
          "layerEnd": 16
        }
      ],
      "polygons": []
    },
    {
      "name": "N$10",
      "length": 22.59888527117068,
      "bends": 15,
      "RelComponentID": "4b5d9bf7-a110-471c-9117-f02e60e08f6e",
      "pins": [
        {
          "name": "REFIN",
          "gate": "U$1",
          "pad": "18",
          "package": "AD8232ACPZ-R7"
        },
        {
          "name": "P$1",
          "gate": "G$1",
          "pad": "1",
          "package": "C8"
        },
        {
          "name": "1",
          "gate": "G$1",
          "pad": "P$1",
          "package": "R10"
        },
        {
          "name": "1",
          "gate": "G$1",
          "pad": "P$1",
          "package": "R14"
        }
      ],
      "wires": [
        {
          "x1": 6.9,
          "y1": 10.65,
          "x2": 6.9,
          "y2": 9.65,
          "width": 0.1524,
          "layer": 1,
          "curve": 0.0
        },
        {
          "x1": 6.85,
          "y1": 10.65,
          "x2": 6.9,
          "y2": 10.65,
          "width": 0.1524,
          "layer": 1,
          "curve": 0.0
        },
        {
          "x1": 9.6,
          "y1": 13.4,
          "x2": 6.85,
          "y2": 10.65,
          "width": 0.1524,
          "layer": 16,
          "curve": 0.0
        },
        {
          "x1": 12.5,
          "y1": 13.4,
          "x2": 9.6,
          "y2": 13.4,
          "width": 0.1524,
          "layer": 1,
          "curve": 0.0
        },
        {
          "x1": 12.2,
          "y1": 4.15,
          "x2": 12.2,
          "y2": 1.4,
          "width": 0.1524,
          "layer": 1,
          "curve": 0.0
        },
        {
          "x1": 11.1,
          "y1": 5.25,
          "x2": 12.2,
          "y2": 4.15,
          "width": 0.1524,
          "layer": 16,
          "curve": 0.0
        },
        {
          "x1": 11.1,
          "y1": 11.9,
          "x2": 11.1,
          "y2": 9.2,
          "width": 0.1524,
          "layer": 16,
          "curve": 0.0
        },
        {
          "x1": 11.1,
          "y1": 9.2,
          "x2": 11.1,
          "y2": 5.25,
          "width": 0.1524,
          "layer": 16,
          "curve": 0.0
        },
        {
          "x1": 9.6,
          "y1": 13.4,
          "x2": 11.1,
          "y2": 11.9,
          "width": 0.1524,
          "layer": 16,
          "curve": 0.0
        },
        {
          "x1": 12.5,
          "y1": 9.2,
          "x2": 12.7,
          "y2": 9.0,
          "width": 0.1524,
          "layer": 1,
          "curve": 0.0
        },
        {
          "x1": 11.25,
          "y1": 9.2,
          "x2": 12.5,
          "y2": 9.2,
          "width": 0.1524,
          "layer": 1,
          "curve": 0.0
        },
        {
          "x1": 11.1,
          "y1": 9.2,
          "x2": 11.25,
          "y2": 9.2,
          "width": 0.1524,
          "layer": 16,
          "curve": 0.0
        }
      ],
      "vias": [
        {
          "x": 6.85,
          "y": 10.65,
          "drill": 0.3048,
          "layerBegin": 1,
          "layerEnd": 16
        },
        {
          "x": 9.6,
          "y": 13.4,
          "drill": 0.3048,
          "layerBegin": 1,
          "layerEnd": 16
        },
        {
          "x": 12.2,
          "y": 4.15,
          "drill": 0.3048,
          "layerBegin": 1,
          "layerEnd": 16
        },
        {
          "x": 11.25,
          "y": 9.2,
          "drill": 0.3048,
          "layerBegin": 1,
          "layerEnd": 16
        }
      ],
      "polygons": []
    },
    {
      "name": "N$11",
      "length": 12.889949493661167,
      "bends": 13,
      "RelComponentID": "4b5d9bf7-a110-471c-9117-f02e60e08f6e",
      "pins": [
        {
          "name": "+IN",
          "gate": "U$1",
          "pad": "2",
          "package": "AD8232ACPZ-R7"
        },
        {
          "name": "P$1",
          "gate": "G$1",
          "pad": "P$1",
          "package": "SensorIn"
        },
        {
          "name": "1",
          "gate": "G$1",
          "pad": "P$1",
          "package": "Ra"
        }
      ],
      "wires": [
        {
          "x1": 0.8,
          "y1": 12.3,
          "x2": 0.8,
          "y2": 10.5,
          "width": 0.1524,
          "layer": 1,
          "curve": 0.0
        },
        {
          "x1": 1.75,
          "y1": 12.3,
          "x2": 0.8,
          "y2": 12.3,
          "width": 0.1524,
          "layer": 1,
          "curve": 0.0
        },
        {
          "x1": 2.05,
          "y1": 12.0,
          "x2": 1.75,
          "y2": 12.3,
          "width": 0.1524,
          "layer": 1,
          "curve": 0.0
        },
        {
          "x1": 2.05,
          "y1": 11.7,
          "x2": 2.05,
          "y2": 12.0,
          "width": 0.1524,
          "layer": 1,
          "curve": 0.0
        },
        {
          "x1": 7.7,
          "y1": 11.7,
          "x2": 4.45,
          "y2": 11.7,
          "width": 0.1524,
          "layer": 1,
          "curve": 0.0
        },
        {
          "x1": 4.45,
          "y1": 11.7,
          "x2": 2.05,
          "y2": 11.7,
          "width": 0.1524,
          "layer": 1,
          "curve": 0.0
        },
        {
          "x1": 4.95,
          "y1": 8.4,
          "x2": 5.05,
          "y2": 8.3,
          "width": 0.1524,
          "layer": 1,
          "curve": 0.0
        },
        {
          "x1": 4.75,
          "y1": 8.4,
          "x2": 4.95,
          "y2": 8.4,
          "width": 0.1524,
          "layer": 1,
          "curve": 0.0
        },
        {
          "x1": 4.45,
          "y1": 8.7,
          "x2": 4.75,
          "y2": 8.4,
          "width": 0.1524,
          "layer": 1,
          "curve": 0.0
        },
        {
          "x1": 4.45,
          "y1": 9.55,
          "x2": 4.45,
          "y2": 8.7,
          "width": 0.1524,
          "layer": 1,
          "curve": 0.0
        },
        {
          "x1": 4.45,
          "y1": 11.65,
          "x2": 4.45,
          "y2": 9.55,
          "width": 0.1524,
          "layer": 16,
          "curve": 0.0
        },
        {
          "x1": 4.45,
          "y1": 11.65,
          "x2": 4.45,
          "y2": 11.7,
          "width": 0.1524,
          "layer": 1,
          "curve": 0.0
        }
      ],
      "vias": [
        {
          "x": 4.45,
          "y": 9.55,
          "drill": 0.3048,
          "layerBegin": 1,
          "layerEnd": 16
        },
        {
          "x": 4.45,
          "y": 11.65,
          "drill": 0.3048,
          "layerBegin": 1,
          "layerEnd": 16
        }
      ],
      "polygons": []
    },
    {
      "name": "N$12",
      "length": 15.294722215136416,
      "bends": 11,
      "RelComponentID": "4b5d9bf7-a110-471c-9117-f02e60e08f6e",
      "pins": [
        {
          "name": "!SDN",
          "gate": "U$1",
          "pad": "13",
          "package": "AD8232ACPZ-R7"
        },
        {
          "name": "P$3",
          "gate": "G$1",
          "pad": "P$3",
          "package": "Sys"
        }
      ],
      "wires": [
        {
          "x1": 8.85,
          "y1": 7.7,
          "x2": 8.75,
          "y2": 7.8,
          "width": 0.1524,
          "layer": 1,
          "curve": 0.0
        },
        {
          "x1": 9.25,
          "y1": 7.7,
          "x2": 8.85,
          "y2": 7.7,
          "width": 0.1524,
          "layer": 1,
          "curve": 0.0
        },
        {
          "x1": 9.7,
          "y1": 7.25,
          "x2": 9.25,
          "y2": 7.7,
          "width": 0.1524,
          "layer": 1,
          "curve": 0.0
        },
        {
          "x1": 10.15,
          "y1": 7.25,
          "x2": 9.7,
          "y2": 7.25,
          "width": 0.1524,
          "layer": 1,
          "curve": 0.0
        },
        {
          "x1": 10.75,
          "y1": 6.65,
          "x2": 10.15,
          "y2": 7.25,
          "width": 0.1524,
          "layer": 16,
          "curve": 0.0
        },
        {
          "x1": 10.75,
          "y1": 3.65,
          "x2": 10.75,
          "y2": 6.65,
          "width": 0.1524,
          "layer": 16,
          "curve": 0.0
        },
        {
          "x1": 12.8,
          "y1": 1.6,
          "x2": 10.75,
          "y2": 3.65,
          "width": 0.1524,
          "layer": 16,
          "curve": 0.0
        },
        {
          "x1": 13.75,
          "y1": 1.6,
          "x2": 12.8,
          "y2": 1.6,
          "width": 0.1524,
          "layer": 16,
          "curve": 0.0
        },
        {
          "x1": 13.75,
          "y1": 6.65,
          "x2": 13.75,
          "y2": 1.6,
          "width": 0.1524,
          "layer": 16,
          "curve": 0.0
        },
        {
          "x1": 14.4,
          "y1": 7.3,
          "x2": 13.75,
          "y2": 6.65,
          "width": 0.1524,
          "layer": 1,
          "curve": 0.0
        }
      ],
      "vias": [
        {
          "x": 10.15,
          "y": 7.25,
          "drill": 0.3048,
          "layerBegin": 1,
          "layerEnd": 16
        },
        {
          "x": 13.75,
          "y": 6.65,
          "drill": 0.3048,
          "layerBegin": 1,
          "layerEnd": 16
        }
      ],
      "polygons": []
    },
    {
      "name": "N$13",
      "length": 5.161269837220809,
      "bends": 4,
      "RelComponentID": "4b5d9bf7-a110-471c-9117-f02e60e08f6e",
      "pins": [
        {
          "name": "RLD",
          "gate": "U$1",
          "pad": "5",
          "package": "AD8232ACPZ-R7"
        },
        {
          "name": "P$2",
          "gate": "G$1",
          "pad": "2",
          "package": "C6"
        },
        {
          "name": "P$3",
          "gate": "G$1",
          "pad": "P$3",
          "package": "SensorIn"
        }
      ],
      "wires": [
        {
          "x1": 1.5,
          "y1": 5.3,
          "x2": 0.8,
          "y2": 6.0,
          "width": 0.1524,
          "layer": 1,
          "curve": 0.0
        },
        {
          "x1": 2.5,
          "y1": 5.3,
          "x2": 1.5,
          "y2": 5.3,
          "width": 0.1524,
          "layer": 1,
          "curve": 0.0
        },
        {
          "x1": 3.6,
          "y1": 5.35,
          "x2": 5.05,
          "y2": 6.8,
          "width": 0.1524,
          "layer": 1,
          "curve": 0.0
        },
        {
          "x1": 2.55,
          "y1": 5.35,
          "x2": 3.6,
          "y2": 5.35,
          "width": 0.1524,
          "layer": 1,
          "curve": 0.0
        },
        {
          "x1": 2.55,
          "y1": 5.35,
          "x2": 2.5,
          "y2": 5.3,
          "width": 0.1524,
          "layer": 1,
          "curve": 0.0
        }
      ],
      "vias": [],
      "polygons": []
    },
    {
      "name": "N$14",
      "length": 2.55,
      "bends": 0,
      "RelComponentID": "4b5d9bf7-a110-471c-9117-f02e60e08f6e",
      "pins": [
        {
          "name": "RLDFB",
          "gate": "U$1",
          "pad": "4",
          "package": "AD8232ACPZ-R7"
        },
        {
          "name": "P$1",
          "gate": "G$1",
          "pad": "1",
          "package": "C6"
        }
      ],
      "wires": [
        {
          "x1": 2.5,
          "y1": 7.3,
          "x2": 5.05,
          "y2": 7.3,
          "width": 0.1524,
          "layer": 1,
          "curve": 0.0
        }
      ],
      "vias": [],
      "polygons": []
    },
    {
      "name": "N$15",
      "length": 6.8677669529663685,
      "bends": 3,
      "RelComponentID": "4b5d9bf7-a110-471c-9117-f02e60e08f6e",
      "pins": [
        {
          "name": "P$2",
          "gate": "G$1",
          "pad": "2",
          "package": "C2"
        },
        {
          "name": "1",
          "gate": "G$1",
          "pad": "P$1",
          "package": "R2"
        },
        {
          "name": "2",
          "gate": "G$1",
          "pad": "P$2",
          "package": "R1"
        }
      ],
      "wires": [
        {
          "x1": 1.45,
          "y1": 12.9,
          "x2": 1.4,
          "y2": 12.85,
          "width": 0.1524,
          "layer": 1,
          "curve": 0.0
        },
        {
          "x1": 3.0,
          "y1": 12.9,
          "x2": 1.45,
          "y2": 12.9,
          "width": 0.1524,
          "layer": 1,
          "curve": 0.0
        },
        {
          "x1": 4.2,
          "y1": 14.1,
          "x2": 7.75,
          "y2": 14.1,
          "width": 0.1524,
          "layer": 1,
          "curve": 0.0
        },
        {
          "x1": 3.0,
          "y1": 12.9,
          "x2": 4.2,
          "y2": 14.1,
          "width": 0.1524,
          "layer": 1,
          "curve": 0.0
        }
      ],
      "vias": [],
      "polygons": []
    },
    {
      "name": "N$16",
      "length": 10.37045814642449,
      "bends": 7,
      "RelComponentID": "4b5d9bf7-a110-471c-9117-f02e60e08f6e",
      "pins": [
        {
          "name": "P$1",
          "gate": "G$1",
          "pad": "1",
          "package": "C3"
        },
        {
          "name": "2",
          "gate": "G$1",
          "pad": "P$2",
          "package": "R2"
        }
      ],
      "wires": [
        {
          "x1": 8.95,
          "y1": 14.2,
          "x2": 8.85,
          "y2": 14.1,
          "width": 0.1524,
          "layer": 1,
          "curve": 0.0
        },
        {
          "x1": 9.65,
          "y1": 14.2,
          "x2": 8.95,
          "y2": 14.2,
          "width": 0.1524,
          "layer": 1,
          "curve": 0.0
        },
        {
          "x1": 11.8,
          "y1": 12.05,
          "x2": 9.65,
          "y2": 14.2,
          "width": 0.1524,
          "layer": 16,
          "curve": 0.0
        },
        {
          "x1": 11.8,
          "y1": 7.4,
          "x2": 11.8,
          "y2": 12.05,
          "width": 0.1524,
          "layer": 16,
          "curve": 0.0
        },
        {
          "x1": 11.65,
          "y1": 7.25,
          "x2": 11.8,
          "y2": 7.4,
          "width": 0.1524,
          "layer": 16,
          "curve": 0.0
        },
        {
          "x1": 10.5,
          "y1": 6.1,
          "x2": 11.65,
          "y2": 7.25,
          "width": 0.1524,
          "layer": 1,
          "curve": 0.0
        }
      ],
      "vias": [
        {
          "x": 9.65,
          "y": 14.2,
          "drill": 0.3048,
          "layerBegin": 1,
          "layerEnd": 16
        },
        {
          "x": 11.65,
          "y": 7.25,
          "drill": 0.3048,
          "layerBegin": 1,
          "layerEnd": 16
        }
      ],
      "polygons": []
    },
    {
      "name": "N$17",
      "length": 2.23,
      "bends": 2,
      "RelComponentID": "4b5d9bf7-a110-471c-9117-f02e60e08f6e",
      "pins": [
        {
          "name": "P$2",
          "gate": "G$1",
          "pad": "2",
          "package": "C4"
        },
        {
          "name": "1",
          "gate": "G$1",
          "pad": "P$1",
          "package": "R7"
        }
      ],
      "wires": [
        {
          "x1": 2.85,
          "y1": 1.8,
          "x2": 2.85,
          "y2": 3.9,
          "width": 0.1524,
          "layer": 1,
          "curve": 0.0
        },
        {
          "x1": 2.95,
          "y1": 1.8,
          "x2": 2.85,
          "y2": 1.8,
          "width": 0.1524,
          "layer": 1,
          "curve": 0.0
        },
        {
          "x1": 2.85,
          "y1": 3.9,
          "x2": 2.82,
          "y2": 3.9,
          "width": 0.1524,
          "layer": 1,
          "curve": 0.0
        }
      ],
      "vias": [],
      "polygons": []
    },
    {
      "name": "N$18",
      "length": 3.9478174593052024,
      "bends": 5,
      "RelComponentID": "4b5d9bf7-a110-471c-9117-f02e60e08f6e",
      "pins": [
        {
          "name": "P$1",
          "gate": "G$1",
          "pad": "1",
          "package": "C5"
        },
        {
          "name": "1",
          "gate": "G$1",
          "pad": "P$1",
          "package": "R5"
        },
        {
          "name": "2",
          "gate": "G$1",
          "pad": "P$2",
          "package": "R4"
        }
      ],
      "wires": [
        {
          "x1": 5.85,
          "y1": 1.5,
          "x2": 7.9,
          "y2": 1.5,
          "width": 0.1524,
          "layer": 1,
          "curve": 0.0
        },
        {
          "x1": 5.35,
          "y1": 2.0,
          "x2": 5.85,
          "y2": 1.5,
          "width": 0.1524,
          "layer": 1,
          "curve": 0.0
        },
        {
          "x1": 7.9,
          "y1": 1.5,
          "x2": 7.9,
          "y2": 1.52,
          "width": 0.1524,
          "layer": 1,
          "curve": 0.0
        },
        {
          "x1": 4.9,
          "y1": 2.05,
          "x2": 4.9,
          "y2": 2.75,
          "width": 0.1524,
          "layer": 1,
          "curve": 0.0
        },
        {
          "x1": 5.3,
          "y1": 2.05,
          "x2": 4.9,
          "y2": 2.05,
          "width": 0.1524,
          "layer": 1,
          "curve": 0.0
        },
        {
          "x1": 5.3,
          "y1": 2.05,
          "x2": 5.35,
          "y2": 2.0,
          "width": 0.1524,
          "layer": 1,
          "curve": 0.0
        }
      ],
      "vias": [],
      "polygons": []
    }
  ],
  "constraints": null,
  "border": null
}