<eagle version="6.5.0" xmlns="eagle">
  <drawing>
    <library>
      <packages>
        <package name="SSOP28DB" xmlns="eagle">
          <description>&lt;b&gt;Small Shrink Outline Package&lt;/b&gt;</description>
          <wire x1="-5.2" y1="2.925" x2="5.2" y2="2.925" width="0.15239999999999998" layer="21" />
          <wire x1="5.2" y1="2.925" x2="5.2" y2="-2.925" width="0.15239999999999998" layer="21" />
          <wire x1="5.2" y1="-2.925" x2="-5.2" y2="-2.925" width="0.15239999999999998" layer="21" />
          <wire x1="-5.2" y1="-2.925" x2="-5.2" y2="2.925" width="0.15239999999999998" layer="21" />
          <wire x1="-5.038" y1="2.763" x2="5.038" y2="2.763" width="0.15239999999999998" layer="27" />
          <wire x1="5.038" y1="2.763" x2="5.038" y2="-2.763" width="0.15239999999999998" layer="27" />
          <wire x1="5.038" y1="-2.763" x2="-5.038" y2="-2.763" width="0.15239999999999998" layer="27" />
          <wire x1="-5.038" y1="-2.763" x2="-5.038" y2="2.763" width="0.15239999999999998" layer="27" />
          <smd name="28" x="-4.225" y="3.656" dx="0.348" dy="1.397" layer="1" />
          <smd name="27" x="-3.575" y="3.656" dx="0.348" dy="1.397" layer="1" />
          <smd name="26" x="-2.925" y="3.656" dx="0.348" dy="1.397" layer="1" />
          <smd name="25" x="-2.275" y="3.656" dx="0.348" dy="1.397" layer="1" />
          <smd name="24" x="-1.625" y="3.656" dx="0.348" dy="1.397" layer="1" />
          <smd name="23" x="-0.975" y="3.656" dx="0.348" dy="1.397" layer="1" />
          <smd name="22" x="-0.325" y="3.656" dx="0.348" dy="1.397" layer="1" />
          <smd name="20" x="0.975" y="3.656" dx="0.348" dy="1.397" layer="1" />
          <smd name="21" x="0.325" y="3.656" dx="0.348" dy="1.397" layer="1" />
          <smd name="19" x="1.625" y="3.656" dx="0.348" dy="1.397" layer="1" />
          <smd name="18" x="2.275" y="3.656" dx="0.348" dy="1.397" layer="1" />
          <smd name="17" x="2.925" y="3.656" dx="0.348" dy="1.397" layer="1" />
          <smd name="16" x="3.575" y="3.656" dx="0.348" dy="1.397" layer="1" />
          <smd name="15" x="4.225" y="3.656" dx="0.348" dy="1.397" layer="1" />
          <smd name="1" x="-4.225" y="-3.656" dx="0.348" dy="1.397" layer="1" />
          <smd name="2" x="-3.575" y="-3.656" dx="0.348" dy="1.397" layer="1" />
          <smd name="3" x="-2.925" y="-3.656" dx="0.348" dy="1.397" layer="1" />
          <smd name="4" x="-2.275" y="-3.656" dx="0.348" dy="1.397" layer="1" />
          <smd name="5" x="-1.625" y="-3.656" dx="0.348" dy="1.397" layer="1" />
          <smd name="6" x="-0.975" y="-3.656" dx="0.348" dy="1.397" layer="1" />
          <smd name="7" x="-0.325" y="-3.656" dx="0.348" dy="1.397" layer="1" />
          <smd name="8" x="0.325" y="-3.656" dx="0.348" dy="1.397" layer="1" />
          <smd name="9" x="0.975" y="-3.656" dx="0.348" dy="1.397" layer="1" />
          <smd name="10" x="1.625" y="-3.656" dx="0.348" dy="1.397" layer="1" />
          <smd name="11" x="2.275" y="-3.656" dx="0.348" dy="1.397" layer="1" />
          <smd name="12" x="2.925" y="-3.656" dx="0.348" dy="1.397" layer="1" />
          <smd name="13" x="3.575" y="-3.656" dx="0.348" dy="1.397" layer="1" />
          <smd name="14" x="4.225" y="-3.656" dx="0.348" dy="1.397" layer="1" />
          <text x="-3.81" y="1.27" size="1.016" layer="25" ratio="15" font="vector">&gt;NAME</text>
          <rectangle x1="-4.3875" y1="2.9656" x2="-4.0625" y2="3.9" layer="51" />
          <rectangle x1="-4.3875" y1="-3.9" x2="-4.0625" y2="-2.9656" layer="51" />
          <rectangle x1="-3.7375" y1="-3.9" x2="-3.4125" y2="-2.9656" layer="51" />
          <rectangle x1="-3.0875" y1="-3.9" x2="-2.7625" y2="-2.9656" layer="51" />
          <rectangle x1="-3.7375" y1="2.9656" x2="-3.4125" y2="3.9" layer="51" />
          <rectangle x1="-3.0875" y1="2.9656" x2="-2.7625" y2="3.9" layer="51" />
          <rectangle x1="-2.4375" y1="2.9656" x2="-2.1125" y2="3.9" layer="51" />
          <rectangle x1="-1.7875" y1="2.9656" x2="-1.4625" y2="3.9" layer="51" />
          <rectangle x1="-1.1375" y1="2.9656" x2="-0.8125" y2="3.9" layer="51" />
          <rectangle x1="-0.4875" y1="2.9656" x2="-0.1625" y2="3.9" layer="51" />
          <rectangle x1="0.1625" y1="2.9656" x2="0.4875" y2="3.9" layer="51" />
          <rectangle x1="0.8125" y1="2.9656" x2="1.1375" y2="3.9" layer="51" />
          <rectangle x1="1.4625" y1="2.9656" x2="1.7875" y2="3.9" layer="51" />
          <rectangle x1="2.1125" y1="2.9656" x2="2.4375" y2="3.9" layer="51" />
          <rectangle x1="2.7625" y1="2.9656" x2="3.0875" y2="3.9" layer="51" />
          <rectangle x1="3.4125" y1="2.9656" x2="3.7375" y2="3.9" layer="51" />
          <rectangle x1="4.0625" y1="2.9656" x2="4.3875" y2="3.9" layer="51" />
          <rectangle x1="-2.4375" y1="-3.9" x2="-2.1125" y2="-2.9656" layer="51" />
          <rectangle x1="-1.7875" y1="-3.9" x2="-1.4625" y2="-2.9656" layer="51" />
          <rectangle x1="-1.1375" y1="-3.9" x2="-0.8125" y2="-2.9656" layer="51" />
          <rectangle x1="-0.4875" y1="-3.9" x2="-0.1625" y2="-2.9656" layer="51" />
          <rectangle x1="0.1625" y1="-3.9" x2="0.4875" y2="-2.9656" layer="51" />
          <rectangle x1="0.8125" y1="-3.9" x2="1.1375" y2="-2.9656" layer="51" />
          <rectangle x1="1.4625" y1="-3.9" x2="1.7875" y2="-2.9656" layer="51" />
          <rectangle x1="2.1125" y1="-3.9" x2="2.4375" y2="-2.9656" layer="51" />
          <rectangle x1="2.7625" y1="-3.9" x2="3.0875" y2="-2.9656" layer="51" />
          <rectangle x1="3.4125" y1="-3.9" x2="3.7375" y2="-2.9656" layer="51" />
          <rectangle x1="4.0625" y1="-3.9" x2="4.3875" y2="-2.9656" layer="51" />
          <circle x="-5" y="-3.6" radius="0.15239999999999998" width="0" layer="21" />
        </package>
      </packages>
      <symbols>
        <symbol name="FT232R">
          <wire x1="-10.16" y1="20.32" x2="10.16" y2="20.32" width="0.254" layer="94" />
          <wire x1="10.16" y1="20.32" x2="10.16" y2="-20.32" width="0.254" layer="94" />
          <wire x1="10.16" y1="-20.32" x2="-10.16" y2="-20.32" width="0.254" layer="94" />
          <wire x1="-10.16" y1="-20.32" x2="-10.16" y2="20.32" width="0.254" layer="94" />
          <text x="-7.62" y="20.828" size="1.778" layer="95">&gt;NAME</text>
          <text x="-7.62" y="-22.86" size="1.778" layer="96">&gt;VALUE</text>
          <pin name="RESET" x="-15.24" y="-5.08" length="middle" direction="pas" function="dot" />
          <pin name="OSCI" x="-15.24" y="0" length="middle" direction="pas" />
          <pin name="OSCO" x="-15.24" y="-2.54" length="middle" direction="pas" />
          <pin name="DSR" x="15.24" y="2.54" length="middle" direction="pas" function="dot" rot="R180" />
          <pin name="DCD" x="15.24" y="0" length="middle" direction="pas" function="dot" rot="R180" />
          <pin name="RI" x="15.24" y="-2.54" length="middle" direction="pas" function="dot" rot="R180" />
          <pin name="3V3OUT" x="-15.24" y="7.62" length="middle" direction="pas" />
          <pin name="USBDM" x="-15.24" y="17.78" length="middle" direction="pas" />
          <pin name="USBDP" x="-15.24" y="15.24" length="middle" direction="pas" />
          <pin name="GND7" x="-15.24" y="-12.7" length="middle" direction="pas" />
          <pin name="GND18" x="-15.24" y="-15.24" length="middle" direction="pas" />
          <pin name="GND21" x="-15.24" y="-17.78" length="middle" direction="pas" />
          <pin name="TXD" x="15.24" y="17.78" length="middle" direction="pas" rot="R180" />
          <pin name="RXD" x="15.24" y="15.24" length="middle" direction="pas" rot="R180" />
          <pin name="VCCIO" x="-15.24" y="5.08" length="middle" direction="pas" />
          <pin name="AGND" x="-15.24" y="-10.16" length="middle" direction="pas" />
          <pin name="TEST" x="-15.24" y="-7.62" length="middle" direction="pas" />
          <pin name="VCC" x="-15.24" y="10.16" length="middle" direction="pas" />
          <pin name="TXLED" x="15.24" y="-7.62" length="middle" direction="pas" function="dot" rot="R180" />
          <pin name="RXLED" x="15.24" y="-10.16" length="middle" direction="pas" function="dot" rot="R180" />
          <pin name="RTS" x="15.24" y="7.62" length="middle" direction="pas" function="dot" rot="R180" />
          <pin name="CTS" x="15.24" y="10.16" length="middle" direction="pas" function="dot" rot="R180" />
          <pin name="DTR" x="15.24" y="5.08" length="middle" direction="pas" function="dot" rot="R180" />
          <pin name="PWREN" x="15.24" y="-12.7" length="middle" direction="pas" function="dot" rot="R180" />
          <pin name="TXDEN" x="15.24" y="-15.24" length="middle" direction="pas" rot="R180" />
          <pin name="SLEEP" x="15.24" y="-17.78" length="middle" direction="pas" function="dot" rot="R180" />
        </symbol>
      </symbols>
      <devicesets>
        <deviceset name="FT232RL" prefix="U">
          <gates>
            <gate name="G$1" symbol="FT232R" x="0" y="0" />
          </gates>
          <devices>
            <device name="SSOP" package="SSOP28DB" xmlns="eagle">
              <connects>
                <connect gate="G$1" pin="3V3OUT" pad="17" />
                <connect gate="G$1" pin="AGND" pad="25" />
                <connect gate="G$1" pin="CTS" pad="11" />
                <connect gate="G$1" pin="DCD" pad="10" />
                <connect gate="G$1" pin="DSR" pad="9" />
                <connect gate="G$1" pin="DTR" pad="2" />
                <connect gate="G$1" pin="GND18" pad="18" />
                <connect gate="G$1" pin="GND21" pad="21" />
                <connect gate="G$1" pin="GND7" pad="7" />
                <connect gate="G$1" pin="OSCI" pad="27" />
                <connect gate="G$1" pin="OSCO" pad="28" />
                <connect gate="G$1" pin="PWREN" pad="14" />
                <connect gate="G$1" pin="RESET" pad="19" />
                <connect gate="G$1" pin="RI" pad="6" />
                <connect gate="G$1" pin="RTS" pad="3" />
                <connect gate="G$1" pin="RXD" pad="5" />
                <connect gate="G$1" pin="RXLED" pad="22" />
                <connect gate="G$1" pin="SLEEP" pad="12" />
                <connect gate="G$1" pin="TEST" pad="26" />
                <connect gate="G$1" pin="TXD" pad="1" />
                <connect gate="G$1" pin="TXDEN" pad="13" />
                <connect gate="G$1" pin="TXLED" pad="23" />
                <connect gate="G$1" pin="USBDM" pad="16" />
                <connect gate="G$1" pin="USBDP" pad="15" />
                <connect gate="G$1" pin="VCC" pad="20" />
                <connect gate="G$1" pin="VCCIO" pad="4" />
              </connects>
              <technologies>
                <technology name="">
                  <attribute name="PROD_ID" value="IC-00870" />
                </technology>
              </technologies>
            </device>
          </devices>
        </deviceset>
      </devicesets>
    </library>
  </drawing>
</eagle>