{
  "boardWidth": 7.0,
  "boardHeight": 9.0,
  "numLayers": 2,
  "boardTemplate": null,
  "designRules": null,
  "omitBoundary": null,
  "packages": [
    {
      "name": "Luminosity Sensor (0x93)",
      "package": "__spaceClaim__",
      "pkg_idx": 0,
      "ComponentID": null,
      "RelComponentID": null,
      "width": 6.0,
      "height": 8.0,
      "koWidth": null,
      "koHeight": null,
      "originX": null,
      "originY": null,
      "x": 0.2,
      "y": 0.2,
      "rotation": 0,
      "layer": 0,
      "constraints": null,
      "multiLayer": null,
      "doNotPlace": null
    },
    {
      "name": "R4",
      "package": "R_0201",
      "pkg_idx": 1,
      "ComponentID": "{84842716-d1c2-4f14-99bb-e3dd94295d40}",
      "RelComponentID": "9c96f221-1476-4e17-8431-a9ee413c14ec",
      "width": 1.02,
      "height": 0.29,
      "koWidth": 1.02,
      "koHeight": 0.29,
      "originX": 0.0,
      "originY": 0.0,
      "x": 2.855,
      "y": 7.09,
      "rotation": 1,
      "layer": 0,
      "constraints": [],
      "multiLayer": null,
      "doNotPlace": true
    },
    {
      "name": "tp4",
      "package": "TP4",
      "pkg_idx": 2,
      "ComponentID": "{13a49cfc-db74-4b2b-b211-cacd121285e7}",
      "RelComponentID": "9c96f221-1476-4e17-8431-a9ee413c14ec",
      "width": 0.5,
      "height": 7.0,
      "koWidth": 0.5,
      "koHeight": 7.0,
      "originX": 0.0,
      "originY": -0.3,
      "x": 0.75,
      "y": 1.1,
      "rotation": 0,
      "layer": 0,
      "constraints": [],
      "multiLayer": null,
      "doNotPlace": true
    },
    {
      "name": "R1",
      "package": "R_0201",
      "pkg_idx": 3,
      "ComponentID": "{541f3f15-259a-482b-a17b-8c2d055e4b43}",
      "RelComponentID": "9c96f221-1476-4e17-8431-a9ee413c14ec",
      "width": 1.02,
      "height": 0.29,
      "koWidth": 1.02,
      "koHeight": 0.29,
      "originX": 0.0,
      "originY": 0.0,
      "x": 4.89,
      "y": 7.355,
      "rotation": 2,
      "layer": 0,
      "constraints": [],
      "multiLayer": null,
      "doNotPlace": true
    },
    {
      "name": "C1",
      "package": "C_0201",
      "pkg_idx": 4,
      "ComponentID": "{9678e255-1b60-460e-a1b0-d8624352b2e8}",
      "RelComponentID": "9c96f221-1476-4e17-8431-a9ee413c14ec",
      "width": 1.26,
      "height": 0.5,
      "koWidth": 1.26,
      "koHeight": 0.5,
      "originX": 0.0,
      "originY": 0.0,
      "x": 2.97,
      "y": 1.25,
      "rotation": 2,
      "layer": 0,
      "constraints": [],
      "multiLayer": null,
      "doNotPlace": true
    },
    {
      "name": "TSL2561",
      "package": "TSL_CB",
      "pkg_idx": 5,
      "ComponentID": "{cc854f3d-a9e4-460e-a3e4-b7b1892e35ca}",
      "RelComponentID": "9c96f221-1476-4e17-8431-a9ee413c14ec",
      "width": 1.5092,
      "height": 1.5592,
      "koWidth": 1.5992,
      "koHeight": 1.6492,
      "originX": -0.4,
      "originY": 0.1,
      "x": 3.0454,
      "y": 3.4204,
      "rotation": 0,
      "layer": 0,
      "constraints": [],
      "multiLayer": null,
      "doNotPlace": true
    }
  ],
  "signals": [
    {
      "name": "N$0",
      "length": 5.0321067811865481,
      "bends": 4,
      "RelComponentID": "9c96f221-1476-4e17-8431-a9ee413c14ec",
      "pins": [
        {
          "name": "1",
          "gate": "G$1",
          "pad": "P$1",
          "package": "R4"
        },
        {
          "name": "INT",
          "gate": "G$1",
          "pad": "P$5",
          "package": "TSL2561"
        }
      ],
      "wires": [
        {
          "x1": 4.8,
          "y1": 4.45,
          "x2": 4.45,
          "y2": 4.1,
          "width": 0.1524,
          "layer": 1,
          "curve": 0.0
        },
        {
          "x1": 4.8,
          "y1": 7.1,
          "x2": 4.8,
          "y2": 4.45,
          "width": 0.1524,
          "layer": 1,
          "curve": 0.0
        },
        {
          "x1": 3.15,
          "y1": 7.1,
          "x2": 4.8,
          "y2": 7.1,
          "width": 0.1524,
          "layer": 1,
          "curve": 0.0
        },
        {
          "x1": 3.0,
          "y1": 7.25,
          "x2": 3.15,
          "y2": 7.1,
          "width": 0.1524,
          "layer": 1,
          "curve": 0.0
        },
        {
          "x1": 3.0,
          "y1": 7.25,
          "x2": 3.0,
          "y2": 7.275,
          "width": 0.1524,
          "layer": 1,
          "curve": 0.0
        }
      ],
      "vias": [],
      "polygons": []
    },
    {
      "name": "N$1",
      "length": 15.060762696460509,
      "bends": 22,
      "RelComponentID": "9c96f221-1476-4e17-8431-a9ee413c14ec",
      "pins": [
        {
          "name": "2",
          "gate": "G$1",
          "pad": "P$2",
          "package": "R4"
        },
        {
          "name": "VDD",
          "gate": "G$1",
          "pad": "P$1",
          "package": "TSL2561"
        },
        {
          "name": "P$1",
          "gate": "G$1",
          "pad": "P$1",
          "package": "tp4"
        },
        {
          "name": "2",
          "gate": "G$1",
          "pad": "P$2",
          "package": "R1"
        },
        {
          "name": "P$1",
          "gate": "G$1",
          "pad": "1",
          "package": "C1"
        }
      ],
      "wires": [
        {
          "x1": 3.9,
          "y1": 4.65,
          "x2": 3.95,
          "y2": 4.6,
          "width": 0.1524,
          "layer": 1,
          "curve": 0.0
        },
        {
          "x1": 3.35,
          "y1": 4.65,
          "x2": 3.9,
          "y2": 4.65,
          "width": 0.1524,
          "layer": 1,
          "curve": 0.0
        },
        {
          "x1": 2.35,
          "y1": 5.65,
          "x2": 3.35,
          "y2": 4.65,
          "width": 0.1524,
          "layer": 16,
          "curve": 0.0
        },
        {
          "x1": 2.35,
          "y1": 7.3,
          "x2": 2.35,
          "y2": 5.65,
          "width": 0.1524,
          "layer": 16,
          "curve": 0.0
        },
        {
          "x1": 2.95,
          "y1": 7.9,
          "x2": 2.35,
          "y2": 7.3,
          "width": 0.1524,
          "layer": 1,
          "curve": 0.0
        },
        {
          "x1": 3.0,
          "y1": 7.9,
          "x2": 2.95,
          "y2": 7.9,
          "width": 0.1524,
          "layer": 1,
          "curve": 0.0
        },
        {
          "x1": 3.0,
          "y1": 7.9,
          "x2": 3.0,
          "y2": 7.925,
          "width": 0.1524,
          "layer": 1,
          "curve": 0.0
        },
        {
          "x1": 4.7,
          "y1": 7.85,
          "x2": 5.05,
          "y2": 7.5,
          "width": 0.1524,
          "layer": 1,
          "curve": 0.0
        },
        {
          "x1": 3.05,
          "y1": 7.85,
          "x2": 4.7,
          "y2": 7.85,
          "width": 0.1524,
          "layer": 1,
          "curve": 0.0
        },
        {
          "x1": 5.05,
          "y1": 7.5,
          "x2": 5.075,
          "y2": 7.5,
          "width": 0.1524,
          "layer": 1,
          "curve": 0.0
        },
        {
          "x1": 3.05,
          "y1": 7.85,
          "x2": 3.0,
          "y2": 7.925,
          "width": 0.1524,
          "layer": 1,
          "curve": 0.0
        },
        {
          "x1": 5.2,
          "y1": 2.7,
          "x2": 4.0,
          "y2": 1.5,
          "width": 0.1524,
          "layer": 1,
          "curve": 0.0
        },
        {
          "x1": 5.2,
          "y1": 6.55,
          "x2": 5.2,
          "y2": 2.7,
          "width": 0.1524,
          "layer": 1,
          "curve": 0.0
        },
        {
          "x1": 5.15,
          "y1": 6.6,
          "x2": 5.2,
          "y2": 6.55,
          "width": 0.1524,
          "layer": 1,
          "curve": 0.0
        },
        {
          "x1": 5.15,
          "y1": 7.45,
          "x2": 5.15,
          "y2": 6.6,
          "width": 0.1524,
          "layer": 1,
          "curve": 0.0
        },
        {
          "x1": 5.1,
          "y1": 7.45,
          "x2": 5.15,
          "y2": 7.45,
          "width": 0.1524,
          "layer": 1,
          "curve": 0.0
        },
        {
          "x1": 4.0,
          "y1": 1.5,
          "x2": 3.98,
          "y2": 1.5,
          "width": 0.1524,
          "layer": 1,
          "curve": 0.0
        },
        {
          "x1": 5.1,
          "y1": 7.45,
          "x2": 5.075,
          "y2": 7.5,
          "width": 0.1524,
          "layer": 1,
          "curve": 0.0
        },
        {
          "x1": 1.55,
          "y1": 7.35,
          "x2": 1.0,
          "y2": 7.9,
          "width": 0.1524,
          "layer": 1,
          "curve": 0.0
        },
        {
          "x1": 2.3,
          "y1": 7.35,
          "x2": 1.55,
          "y2": 7.35,
          "width": 0.1524,
          "layer": 1,
          "curve": 0.0
        },
        {
          "x1": 2.3,
          "y1": 7.35,
          "x2": 2.35,
          "y2": 7.3,
          "width": 0.1524,
          "layer": 1,
          "curve": 0.0
        }
      ],
      "vias": [
        {
          "x": 3.35,
          "y": 4.65,
          "drill": 0.3048,
          "layerBegin": 1,
          "layerEnd": 16
        },
        {
          "x": 2.35,
          "y": 7.3,
          "drill": 0.3048,
          "layerBegin": 1,
          "layerEnd": 16
        }
      ],
      "polygons": []
    },
    {
      "name": "N$2",
      "length": 5.56142135623731,
      "bends": 8,
      "RelComponentID": "9c96f221-1476-4e17-8431-a9ee413c14ec",
      "pins": [
        {
          "name": "P$4",
          "gate": "G$1",
          "pad": "P$4",
          "package": "tp4"
        },
        {
          "name": "P$2",
          "gate": "G$1",
          "pad": "2",
          "package": "C1"
        },
        {
          "name": "GND",
          "gate": "G$1",
          "pad": "P$3",
          "package": "TSL2561"
        }
      ],
      "wires": [
        {
          "x1": 2.75,
          "y1": 3.6,
          "x2": 3.95,
          "y2": 3.6,
          "width": 0.1524,
          "layer": 1,
          "curve": 0.0
        },
        {
          "x1": 2.75,
          "y1": 2.2,
          "x2": 2.75,
          "y2": 3.6,
          "width": 0.1524,
          "layer": 16,
          "curve": 0.0
        },
        {
          "x1": 2.75,
          "y1": 1.5,
          "x2": 2.75,
          "y2": 2.2,
          "width": 0.1524,
          "layer": 1,
          "curve": 0.0
        },
        {
          "x1": 3.22,
          "y1": 1.5,
          "x2": 2.75,
          "y2": 1.5,
          "width": 0.1524,
          "layer": 1,
          "curve": 0.0
        },
        {
          "x1": 1.05,
          "y1": 1.45,
          "x2": 1.0,
          "y2": 1.4,
          "width": 0.1524,
          "layer": 1,
          "curve": 0.0
        },
        {
          "x1": 2.7,
          "y1": 1.45,
          "x2": 1.05,
          "y2": 1.45,
          "width": 0.1524,
          "layer": 1,
          "curve": 0.0
        },
        {
          "x1": 2.7,
          "y1": 1.45,
          "x2": 2.75,
          "y2": 1.5,
          "width": 0.1524,
          "layer": 1,
          "curve": 0.0
        }
      ],
      "vias": [
        {
          "x": 2.75,
          "y": 3.6,
          "drill": 0.3048,
          "layerBegin": 1,
          "layerEnd": 16
        },
        {
          "x": 2.75,
          "y": 2.2,
          "drill": 0.3048,
          "layerBegin": 1,
          "layerEnd": 16
        }
      ],
      "polygons": []
    },
    {
      "name": "N$3",
      "length": 3.8227922061357855,
      "bends": 2,
      "RelComponentID": "9c96f221-1476-4e17-8431-a9ee413c14ec",
      "pins": [
        {
          "name": "P$3",
          "gate": "G$1",
          "pad": "P$3",
          "package": "tp4"
        },
        {
          "name": "SCL",
          "gate": "G$1",
          "pad": "P$4",
          "package": "TSL2561"
        }
      ],
      "wires": [
        {
          "x1": 3.9,
          "y1": 3.05,
          "x2": 4.45,
          "y2": 3.6,
          "width": 0.1524,
          "layer": 1,
          "curve": 0.0
        },
        {
          "x1": 1.35,
          "y1": 3.05,
          "x2": 3.9,
          "y2": 3.05,
          "width": 0.1524,
          "layer": 1,
          "curve": 0.0
        },
        {
          "x1": 1.0,
          "y1": 3.4,
          "x2": 1.35,
          "y2": 3.05,
          "width": 0.1524,
          "layer": 1,
          "curve": 0.0
        }
      ],
      "vias": [],
      "polygons": []
    },
    {
      "name": "N$4",
      "length": 4.7500000000000009,
      "bends": 1,
      "RelComponentID": "9c96f221-1476-4e17-8431-a9ee413c14ec",
      "pins": [
        {
          "name": "P$2",
          "gate": "G$1",
          "pad": "P$2",
          "package": "tp4"
        },
        {
          "name": "SDA",
          "gate": "G$1",
          "pad": "P$6",
          "package": "TSL2561"
        }
      ],
      "wires": [
        {
          "x1": 4.45,
          "y1": 5.9,
          "x2": 4.45,
          "y2": 4.6,
          "width": 0.1524,
          "layer": 1,
          "curve": 0.0
        },
        {
          "x1": 1.0,
          "y1": 5.9,
          "x2": 4.45,
          "y2": 5.9,
          "width": 0.1524,
          "layer": 1,
          "curve": 0.0
        }
      ],
      "vias": [],
      "polygons": []
    },
    {
      "name": "N$5",
      "length": 6.40342712474619,
      "bends": 10,
      "RelComponentID": "9c96f221-1476-4e17-8431-a9ee413c14ec",
      "pins": [
        {
          "name": "1",
          "gate": "G$1",
          "pad": "P$1",
          "package": "R1"
        },
        {
          "name": "ADDR",
          "gate": "G$1",
          "pad": "P$2",
          "package": "TSL2561"
        }
      ],
      "wires": [
        {
          "x1": 3.9,
          "y1": 4.05,
          "x2": 3.95,
          "y2": 4.1,
          "width": 0.1524,
          "layer": 1,
          "curve": 0.0
        },
        {
          "x1": 3.1,
          "y1": 4.05,
          "x2": 3.9,
          "y2": 4.05,
          "width": 0.1524,
          "layer": 1,
          "curve": 0.0
        },
        {
          "x1": 2.8,
          "y1": 4.35,
          "x2": 3.1,
          "y2": 4.05,
          "width": 0.1524,
          "layer": 1,
          "curve": 0.0
        },
        {
          "x1": 2.8,
          "y1": 5.2,
          "x2": 2.8,
          "y2": 4.35,
          "width": 0.1524,
          "layer": 1,
          "curve": 0.0
        },
        {
          "x1": 3.9,
          "y1": 5.2,
          "x2": 2.8,
          "y2": 5.2,
          "width": 0.1524,
          "layer": 1,
          "curve": 0.0
        },
        {
          "x1": 5.55,
          "y1": 6.85,
          "x2": 3.9,
          "y2": 5.2,
          "width": 0.1524,
          "layer": 16,
          "curve": 0.0
        },
        {
          "x1": 5.7,
          "y1": 6.85,
          "x2": 5.55,
          "y2": 6.85,
          "width": 0.1524,
          "layer": 16,
          "curve": 0.0
        },
        {
          "x1": 5.7,
          "y1": 7.5,
          "x2": 5.7,
          "y2": 6.85,
          "width": 0.1524,
          "layer": 1,
          "curve": 0.0
        },
        {
          "x1": 5.7,
          "y1": 7.5,
          "x2": 5.725,
          "y2": 7.5,
          "width": 0.1524,
          "layer": 1,
          "curve": 0.0
        }
      ],
      "vias": [
        {
          "x": 3.9,
          "y": 5.2,
          "drill": 0.3048,
          "layerBegin": 1,
          "layerEnd": 16
        },
        {
          "x": 5.7,
          "y": 6.85,
          "drill": 0.3048,
          "layerBegin": 1,
          "layerEnd": 16
        }
      ],
      "polygons": []
    }
  ],
  "constraints": null,
  "border": null
}