<?xml version="1.0" encoding="utf-8"?>
<!DOCTYPE eagle SYSTEM "eagle.dtd">
<eagle version="7.2.0">
<drawing>
<settings>
<setting alwaysvectorfont="no"/>
<setting verticaltext="up"/>
</settings>
<grid distance="0.1" unitdist="inch" unit="inch" style="lines" multiple="1" display="no" altdistance="0.01" altunitdist="inch" altunit="inch"/>
<layers>
<layer number="1" name="Top" color="4" fill="1" visible="yes" active="yes"/>
<layer number="16" name="Bottom" color="1" fill="1" visible="yes" active="yes"/>
<layer number="17" name="Pads" color="2" fill="1" visible="yes" active="yes"/>
<layer number="18" name="Vias" color="2" fill="1" visible="yes" active="yes"/>
<layer number="19" name="Unrouted" color="6" fill="1" visible="yes" active="yes"/>
<layer number="20" name="Dimension" color="15" fill="1" visible="yes" active="yes"/>
<layer number="21" name="tPlace" color="7" fill="1" visible="yes" active="yes"/>
<layer number="22" name="bPlace" color="7" fill="1" visible="yes" active="yes"/>
<layer number="23" name="tOrigins" color="15" fill="1" visible="yes" active="yes"/>
<layer number="24" name="bOrigins" color="15" fill="1" visible="yes" active="yes"/>
<layer number="25" name="tNames" color="7" fill="1" visible="yes" active="yes"/>
<layer number="26" name="bNames" color="7" fill="1" visible="yes" active="yes"/>
<layer number="27" name="tValues" color="7" fill="1" visible="yes" active="yes"/>
<layer number="28" name="bValues" color="7" fill="1" visible="yes" active="yes"/>
<layer number="29" name="tStop" color="7" fill="3" visible="yes" active="yes"/>
<layer number="30" name="bStop" color="7" fill="6" visible="yes" active="yes"/>
<layer number="31" name="tCream" color="7" fill="4" visible="yes" active="yes"/>
<layer number="32" name="bCream" color="7" fill="5" visible="yes" active="yes"/>
<layer number="33" name="tFinish" color="6" fill="3" visible="yes" active="yes"/>
<layer number="34" name="bFinish" color="6" fill="6" visible="yes" active="yes"/>
<layer number="35" name="tGlue" color="7" fill="4" visible="yes" active="yes"/>
<layer number="36" name="bGlue" color="7" fill="5" visible="yes" active="yes"/>
<layer number="37" name="tTest" color="7" fill="1" visible="yes" active="yes"/>
<layer number="38" name="bTest" color="7" fill="1" visible="yes" active="yes"/>
<layer number="39" name="tKeepout" color="4" fill="11" visible="yes" active="yes"/>
<layer number="40" name="bKeepout" color="1" fill="11" visible="yes" active="yes"/>
<layer number="41" name="tRestrict" color="4" fill="10" visible="yes" active="yes"/>
<layer number="42" name="bRestrict" color="1" fill="10" visible="yes" active="yes"/>
<layer number="43" name="vRestrict" color="2" fill="10" visible="yes" active="yes"/>
<layer number="44" name="Drills" color="7" fill="1" visible="yes" active="yes"/>
<layer number="45" name="Holes" color="7" fill="1" visible="yes" active="yes"/>
<layer number="46" name="Milling" color="3" fill="1" visible="yes" active="yes"/>
<layer number="47" name="Measures" color="7" fill="1" visible="yes" active="yes"/>
<layer number="48" name="Document" color="7" fill="1" visible="yes" active="yes"/>
<layer number="49" name="Reference" color="7" fill="1" visible="yes" active="yes"/>
<layer number="50" name="dxf" color="7" fill="1" visible="yes" active="yes"/>
<layer number="51" name="tDocu" color="7" fill="1" visible="yes" active="yes"/>
<layer number="52" name="bDocu" color="7" fill="1" visible="yes" active="yes"/>
<layer number="53" name="tGND_GNDA" color="7" fill="1" visible="yes" active="yes"/>
<layer number="54" name="bGND_GNDA" color="7" fill="1" visible="yes" active="yes"/>
<layer number="56" name="wert" color="7" fill="1" visible="yes" active="yes"/>
<layer number="57" name="tCAD" color="7" fill="1" visible="yes" active="yes"/>
<layer number="91" name="Nets" color="2" fill="1" visible="yes" active="yes"/>
<layer number="92" name="Busses" color="1" fill="1" visible="yes" active="yes"/>
<layer number="93" name="Pins" color="2" fill="1" visible="yes" active="yes"/>
<layer number="94" name="Symbols" color="4" fill="1" visible="yes" active="yes"/>
<layer number="95" name="Names" color="7" fill="1" visible="yes" active="yes"/>
<layer number="96" name="Values" color="7" fill="1" visible="yes" active="yes"/>
<layer number="97" name="Info" color="7" fill="1" visible="yes" active="yes"/>
<layer number="98" name="Guide" color="6" fill="1" visible="yes" active="yes"/>
<layer number="99" name="SpiceOrder" color="7" fill="1" visible="yes" active="yes"/>
</layers>
<library>
<packages>
<package name="MSOP-10-GNDPAD">
<description>10-lead MSOP w/ center GND pad</description>
<circle x="-2.1494" y="2.4188" radius="0.0567" width="0.127" layer="21"/>
<wire x1="1.5" y1="1.5" x2="-1.5" y2="1.5" width="0.127" layer="51"/>
<wire x1="-1.5" y1="1.5" x2="-1.5" y2="-1.5" width="0.127" layer="51"/>
<wire x1="-1.5" y1="-1.5" x2="1.5" y2="-1.5" width="0.127" layer="51"/>
<wire x1="1.5" y1="-1.5" x2="1.5" y2="1.5" width="0.127" layer="51"/>
<wire x1="-1.6508" y1="1.5" x2="-1.6508" y2="-1.5" width="0.127" layer="21"/>
<wire x1="1.6508" y1="1.5" x2="1.6508" y2="-1.5" width="0.127" layer="21"/>
<rectangle x1="-1.5" y1="1.6" x2="-1.3" y2="2.45" layer="51"/>
<rectangle x1="-0.8" y1="1.6" x2="-0.6" y2="2.45" layer="51"/>
<rectangle x1="-0.1" y1="1.6" x2="0.1" y2="2.45" layer="51"/>
<rectangle x1="0.6" y1="1.6" x2="0.8" y2="2.45" layer="51"/>
<rectangle x1="1.3" y1="1.6" x2="1.5" y2="2.45" layer="51"/>
<rectangle x1="-1.5" y1="-2.45" x2="-1.3" y2="-1.6" layer="51"/>
<rectangle x1="-0.8" y1="-2.45" x2="-0.6" y2="-1.6" layer="51"/>
<rectangle x1="-0.1" y1="-2.45" x2="0.1" y2="-1.6" layer="51"/>
<rectangle x1="0.6" y1="-2.45" x2="0.8" y2="-1.6" layer="51"/>
<rectangle x1="1.3" y1="-2.45" x2="1.5" y2="-1.6" layer="51"/>
<rectangle x1="-0.5" y1="-0.5" x2="0.5" y2="0.5" layer="31"/>
<smd name="1" x="-1.4" y="-2.1095" dx="0.305" dy="0.889" layer="1"/>
<smd name="2" x="-0.7" y="-2.1095" dx="0.305" dy="0.889" layer="1"/>
<smd name="3" x="0" y="-2.1095" dx="0.305" dy="0.889" layer="1"/>
<smd name="4" x="0.7" y="-2.1095" dx="0.305" dy="0.889" layer="1"/>
<smd name="5" x="1.4" y="-2.1095" dx="0.305" dy="0.889" layer="1"/>
<smd name="6" x="1.4" y="2.1095" dx="0.305" dy="0.889" layer="1"/>
<smd name="7" x="0.7" y="2.1095" dx="0.305" dy="0.889" layer="1"/>
<smd name="8" x="0" y="2.1095" dx="0.305" dy="0.889" layer="1"/>
<smd name="9" x="-0.7" y="2.1095" dx="0.305" dy="0.889" layer="1"/>
<smd name="10" x="-1.4" y="2.1095" dx="0.305" dy="0.889" layer="1"/>
<smd name="GND" x="0" y="0" dx="2" dy="1.8" layer="1" rot="R180" cream="no"/>
<text x="-1.785" y="3.24" size="1.016" layer="25" font="vector" ratio="15">&gt;NAME</text>
</package>
</packages>
<symbols>
<symbol name="LTC3588">
<wire x1="-10.16" y1="-8.89" x2="10.16" y2="-8.89" width="0.254" layer="94"/>
<wire x1="10.16" y1="-8.89" x2="10.16" y2="8.89" width="0.254" layer="94"/>
<wire x1="10.16" y1="8.89" x2="-10.16" y2="8.89" width="0.254" layer="94"/>
<wire x1="-10.16" y1="8.89" x2="-10.16" y2="-8.89" width="0.254" layer="94"/>
<pin name="CAP" x="-15.24" y="1.27" length="middle" direction="pas"/>
<pin name="D0" x="-15.24" y="-6.35" length="middle" direction="pas"/>
<pin name="D1" x="-15.24" y="-3.81" length="middle" direction="pas"/>
<pin name="GND" x="15.24" y="-6.35" length="middle" direction="pas" rot="R180"/>
<pin name="PGOOD" x="15.24" y="3.81" length="middle" direction="pas" rot="R180"/>
<pin name="PZ1" x="-15.24" y="6.35" length="middle" direction="pas"/>
<pin name="PZ2" x="15.24" y="6.35" length="middle" direction="pas" rot="R180"/>
<pin name="SW" x="15.24" y="1.27" length="middle" direction="pas" rot="R180"/>
<pin name="VIN" x="-15.24" y="3.81" length="middle" direction="pas"/>
<pin name="VIN2" x="-15.24" y="-1.27" length="middle" direction="pas"/>
<pin name="VOUT" x="15.24" y="-1.27" length="middle" direction="pas" rot="R180"/>
<text x="-10.16" y="12.7" size="1.778" layer="95">&gt;NAME</text>
<text x="-10.16" y="10.16" size="1.778" layer="96">&gt;VALUE</text>
</symbol>
</symbols>
<devicesets>
<deviceset name="LTC3588EMSE-1#PBF" prefix="U">
<gates>
<gate name="G$1" symbol="LTC3588" x="0" y="0"/>
</gates>
<devices>
<device name="_" package="MSOP-10-GNDPAD">
<connects>
<connect gate="G$1" pin="CAP" pad="3"/>
<connect gate="G$1" pin="D0" pad="9"/>
<connect gate="G$1" pin="D1" pad="8"/>
<connect gate="G$1" pin="GND" pad="GND"/>
<connect gate="G$1" pin="PGOOD" pad="10"/>
<connect gate="G$1" pin="PZ1" pad="1"/>
<connect gate="G$1" pin="PZ2" pad="2"/>
<connect gate="G$1" pin="SW" pad="5"/>
<connect gate="G$1" pin="VIN" pad="4"/>
<connect gate="G$1" pin="VIN2" pad="7"/>
<connect gate="G$1" pin="VOUT" pad="6"/>
</connects>
<technologies>
<technology name=""/>
</technologies>
</device>
</devices>
</deviceset>
</devicesets>
</library>
</drawing>
</eagle>
