<?xml version="1.0" encoding="utf-8"?>
<!DOCTYPE eagle SYSTEM "eagle.dtd">
<eagle version="6.5.0">
<drawing>
<settings>
<setting alwaysvectorfont="no"/>
<setting verticaltext="up"/>
</settings>
<grid distance="0.2" unitdist="mm" unit="mm" style="lines" multiple="1" display="yes" altdistance="0.025" altunitdist="inch" altunit="inch"/>
<layers>
<layer number="1" name="Top" color="4" fill="1" visible="yes" active="yes"/>
<layer number="16" name="Bottom" color="1" fill="1" visible="yes" active="yes"/>
<layer number="17" name="Pads" color="2" fill="1" visible="yes" active="yes"/>
<layer number="18" name="Vias" color="2" fill="1" visible="yes" active="yes"/>
<layer number="19" name="Unrouted" color="6" fill="1" visible="yes" active="yes"/>
<layer number="20" name="Dimension" color="15" fill="1" visible="yes" active="yes"/>
<layer number="21" name="tPlace" color="7" fill="1" visible="yes" active="yes"/>
<layer number="22" name="bPlace" color="7" fill="1" visible="yes" active="yes"/>
<layer number="23" name="tOrigins" color="15" fill="1" visible="yes" active="yes"/>
<layer number="24" name="bOrigins" color="15" fill="1" visible="yes" active="yes"/>
<layer number="25" name="tNames" color="7" fill="1" visible="yes" active="yes"/>
<layer number="26" name="bNames" color="7" fill="1" visible="yes" active="yes"/>
<layer number="27" name="tValues" color="7" fill="1" visible="yes" active="yes"/>
<layer number="28" name="bValues" color="7" fill="1" visible="yes" active="yes"/>
<layer number="29" name="tStop" color="7" fill="3" visible="yes" active="yes"/>
<layer number="30" name="bStop" color="7" fill="6" visible="yes" active="yes"/>
<layer number="31" name="tCream" color="7" fill="4" visible="yes" active="yes"/>
<layer number="32" name="bCream" color="7" fill="5" visible="yes" active="yes"/>
<layer number="33" name="tFinish" color="6" fill="3" visible="yes" active="yes"/>
<layer number="34" name="bFinish" color="6" fill="6" visible="yes" active="yes"/>
<layer number="35" name="tGlue" color="7" fill="4" visible="yes" active="yes"/>
<layer number="36" name="bGlue" color="7" fill="5" visible="yes" active="yes"/>
<layer number="37" name="tTest" color="7" fill="1" visible="yes" active="yes"/>
<layer number="38" name="bTest" color="7" fill="1" visible="yes" active="yes"/>
<layer number="39" name="tKeepout" color="4" fill="11" visible="yes" active="yes"/>
<layer number="40" name="bKeepout" color="1" fill="11" visible="yes" active="yes"/>
<layer number="41" name="tRestrict" color="4" fill="10" visible="yes" active="yes"/>
<layer number="42" name="bRestrict" color="1" fill="10" visible="yes" active="yes"/>
<layer number="43" name="vRestrict" color="2" fill="10" visible="yes" active="yes"/>
<layer number="44" name="Drills" color="7" fill="1" visible="yes" active="yes"/>
<layer number="45" name="Holes" color="7" fill="1" visible="yes" active="yes"/>
<layer number="46" name="Milling" color="3" fill="1" visible="yes" active="yes"/>
<layer number="47" name="Measures" color="7" fill="1" visible="yes" active="yes"/>
<layer number="48" name="Document" color="7" fill="1" visible="yes" active="yes"/>
<layer number="49" name="Reference" color="7" fill="1" visible="yes" active="yes"/>
<layer number="50" name="dxf" color="7" fill="1" visible="yes" active="yes"/>
<layer number="51" name="tDocu" color="7" fill="1" visible="yes" active="yes"/>
<layer number="52" name="bDocu" color="7" fill="1" visible="yes" active="yes"/>
<layer number="53" name="tGND_GNDA" color="7" fill="1" visible="yes" active="yes"/>
<layer number="54" name="bGND_GNDA" color="7" fill="1" visible="yes" active="yes"/>
<layer number="56" name="wert" color="7" fill="1" visible="yes" active="yes"/>
<layer number="57" name="tCAD" color="7" fill="1" visible="yes" active="yes"/>
<layer number="91" name="Nets" color="2" fill="1" visible="yes" active="yes"/>
<layer number="92" name="Busses" color="1" fill="1" visible="yes" active="yes"/>
<layer number="93" name="Pins" color="2" fill="1" visible="yes" active="yes"/>
<layer number="94" name="Symbols" color="4" fill="1" visible="yes" active="yes"/>
<layer number="95" name="Names" color="7" fill="1" visible="yes" active="yes"/>
<layer number="96" name="Values" color="7" fill="1" visible="yes" active="yes"/>
<layer number="97" name="Info" color="7" fill="1" visible="yes" active="yes"/>
<layer number="98" name="Guide" color="6" fill="1" visible="yes" active="yes"/>
<layer number="99" name="SpiceOrder" color="7" fill="1" visible="yes" active="yes"/>
</layers>
<library>
<packages>
<package name="SC70">
<smd name="2" x="-1.3" y="0" dx="0.4" dy="1.25" layer="1" rot="R270"/>
<smd name="3" x="-1.3" y="-0.65" dx="0.4" dy="1.25" layer="1" rot="R270"/>
<smd name="1" x="-1.3" y="0.65" dx="0.4" dy="1.25" layer="1" rot="R270"/>
<smd name="5" x="1.3" y="0" dx="0.4" dy="1.25" layer="1" rot="R270"/>
<smd name="4" x="1.3" y="-0.65" dx="0.4" dy="1.25" layer="1" rot="R270"/>
<smd name="6" x="1.3" y="0.65" dx="0.4" dy="1.25" layer="1" rot="R270"/>
<circle x="-2.4" y="1.2" radius="0.2" width="0.127" layer="21"/>
<text x="-3.4" y="1.53" size="1.27" layer="25">&gt;NAME</text>
<wire x1="0.7" y1="1.1" x2="-0.7" y2="1.1" width="0.127" layer="21"/>
<wire x1="0.7" y1="-1.1" x2="-0.7" y2="-1.1" width="0.127" layer="21"/>
</package>
</packages>
<symbols>
<symbol name="ADCMP601BKSZ-R2">
<pin name="GND" x="-15.24" y="0" length="middle"/>
<pin name="VP" x="-15.24" y="-5.08" length="middle"/>
<pin name="Q" x="-15.24" y="5.08" length="middle"/>
<pin name="VCCI/O" x="15.24" y="5.08" length="middle" rot="R180"/>
<pin name="LE/HYS" x="15.24" y="0" length="middle" rot="R180"/>
<pin name="VN" x="15.24" y="-5.08" length="middle" rot="R180"/>
<wire x1="-10.16" y1="7.62" x2="-10.16" y2="-7.62" width="0.254" layer="94"/>
<wire x1="-10.16" y1="-7.62" x2="10.16" y2="-7.62" width="0.254" layer="94"/>
<wire x1="10.16" y1="-7.62" x2="10.16" y2="7.62" width="0.254" layer="94"/>
<wire x1="10.16" y1="7.62" x2="-10.16" y2="7.62" width="0.254" layer="94"/>
</symbol>
</symbols>
<devicesets>
<deviceset name="ADCMP601BKSZ-R2">
<gates>
<gate name="G$1" symbol="ADCMP601BKSZ-R2" x="0" y="0"/>
</gates>
<devices>
<device name="" package="SC70">
<connects>
<connect gate="G$1" pin="GND" pad="2"/>
<connect gate="G$1" pin="LE/HYS" pad="5"/>
<connect gate="G$1" pin="Q" pad="1"/>
<connect gate="G$1" pin="VCCI/O" pad="6"/>
<connect gate="G$1" pin="VN" pad="4"/>
<connect gate="G$1" pin="VP" pad="3"/>
</connects>
<technologies>
<technology name=""/>
</technologies>
</device>
</devices>
</deviceset>
</devicesets>
</library>
</drawing>
</eagle>
