<eagle version="6.5.0" xmlns="eagle">
  <drawing>
    <library>
      <packages>
        <package name="QFN65P400X400X100-17N" xmlns="eagle">
          <smd name="1" x="-1.905" y="0.9652" dx="0.381" dy="0.9652" layer="1" rot="R270" />
          <smd name="2" x="-1.905" y="0.3302" dx="0.381" dy="0.9652" layer="1" rot="R270" />
          <smd name="3" x="-1.905" y="-0.3302" dx="0.381" dy="0.9652" layer="1" rot="R270" />
          <smd name="4" x="-1.905" y="-0.9652" dx="0.381" dy="0.9652" layer="1" rot="R270" />
          <smd name="5" x="-0.9652" y="-1.905" dx="0.381" dy="0.9652" layer="1" rot="R180" />
          <smd name="6" x="-0.3302" y="-1.905" dx="0.381" dy="0.9652" layer="1" rot="R180" />
          <smd name="7" x="0.3302" y="-1.905" dx="0.381" dy="0.9652" layer="1" rot="R180" />
          <smd name="8" x="0.9652" y="-1.905" dx="0.381" dy="0.9652" layer="1" rot="R180" />
          <smd name="9" x="1.905" y="-0.9652" dx="0.381" dy="0.9652" layer="1" rot="R270" />
          <smd name="10" x="1.905" y="-0.3302" dx="0.381" dy="0.9652" layer="1" rot="R270" />
          <smd name="11" x="1.905" y="0.3302" dx="0.381" dy="0.9652" layer="1" rot="R270" />
          <smd name="12" x="1.905" y="0.9652" dx="0.381" dy="0.9652" layer="1" rot="R270" />
          <smd name="13" x="0.9652" y="1.905" dx="0.381" dy="0.9652" layer="1" rot="R180" />
          <smd name="14" x="0.3302" y="1.905" dx="0.381" dy="0.9652" layer="1" rot="R180" />
          <smd name="15" x="-0.3302" y="1.905" dx="0.381" dy="0.9652" layer="1" rot="R180" />
          <smd name="16" x="-0.9652" y="1.905" dx="0.381" dy="0.9652" layer="1" rot="R180" />
          <smd name="17" x="0" y="0" dx="2.159" dy="2.159" layer="1" />
          <wire x1="2.6924" y1="-0.3302" x2="3.7084" y2="-0.3302" width="0.15239999999999998" layer="21" />
          <wire x1="2.0828" y1="1.4986" x2="2.0828" y2="2.0828" width="0.15239999999999998" layer="21" />
          <wire x1="1.4986" y1="-2.0828" x2="2.0828" y2="-2.0828" width="0.15239999999999998" layer="21" />
          <wire x1="-1.4986" y1="2.0828" x2="-2.0828" y2="2.0828" width="0.15239999999999998" layer="21" />
          <wire x1="-2.0828" y1="-2.0828" x2="-1.4986" y2="-2.0828" width="0.15239999999999998" layer="21" />
          <wire x1="2.0828" y1="-2.0828" x2="2.0828" y2="-1.4986" width="0.15239999999999998" layer="21" />
          <wire x1="2.0828" y1="2.0828" x2="1.4986" y2="2.0828" width="0.15239999999999998" layer="21" />
          <wire x1="-2.0828" y1="2.0828" x2="-2.0828" y2="1.4986" width="0.15239999999999998" layer="21" />
          <wire x1="-2.0828" y1="-1.4986" x2="-2.0828" y2="-2.0828" width="0.15239999999999998" layer="21" />
          <text x="-3.5814" y="1.0414" size="1.016" layer="21" ratio="15" rot="SR0" font="vector">*</text>
          <wire x1="-2.0828" y1="0.8128" x2="-0.8128" y2="2.0828" width="0.15239999999999998" layer="51" />
          <wire x1="1.1684" y1="2.0828" x2="0.7874" y2="2.0828" width="0.15239999999999998" layer="51" />
          <wire x1="0.508" y1="2.0828" x2="0.127" y2="2.0828" width="0.15239999999999998" layer="51" />
          <wire x1="-0.127" y1="2.0828" x2="-0.508" y2="2.0828" width="0.15239999999999998" layer="51" />
          <wire x1="-0.7874" y1="2.0828" x2="-1.1684" y2="2.0828" width="0.15239999999999998" layer="51" />
          <wire x1="-2.0828" y1="1.1684" x2="-2.0828" y2="0.7874" width="0.15239999999999998" layer="51" />
          <wire x1="-2.0828" y1="0.508" x2="-2.0828" y2="0.127" width="0.15239999999999998" layer="51" />
          <wire x1="-2.0828" y1="-0.127" x2="-2.0828" y2="-0.508" width="0.15239999999999998" layer="51" />
          <wire x1="-2.0828" y1="-0.7874" x2="-2.0828" y2="-1.1684" width="0.15239999999999998" layer="51" />
          <wire x1="-1.1684" y1="-2.0828" x2="-0.7874" y2="-2.0828" width="0.15239999999999998" layer="51" />
          <wire x1="-0.508" y1="-2.0828" x2="-0.127" y2="-2.0828" width="0.15239999999999998" layer="51" />
          <wire x1="0.127" y1="-2.0828" x2="0.508" y2="-2.0828" width="0.15239999999999998" layer="51" />
          <wire x1="0.7874" y1="-2.0828" x2="1.1684" y2="-2.0828" width="0.15239999999999998" layer="51" />
          <wire x1="2.0828" y1="-1.1684" x2="2.0828" y2="-0.7874" width="0.15239999999999998" layer="51" />
          <wire x1="2.0828" y1="-0.508" x2="2.0828" y2="-0.127" width="0.15239999999999998" layer="51" />
          <wire x1="2.0828" y1="0.127" x2="2.0828" y2="0.508" width="0.15239999999999998" layer="51" />
          <wire x1="2.0828" y1="0.7874" x2="2.0828" y2="1.1684" width="0.15239999999999998" layer="51" />
          <wire x1="-2.0828" y1="-2.0828" x2="2.0828" y2="-2.0828" width="0.15239999999999998" layer="51" />
          <wire x1="2.0828" y1="-2.0828" x2="2.0828" y2="2.0828" width="0.15239999999999998" layer="51" />
          <wire x1="2.0828" y1="2.0828" x2="-2.0828" y2="2.0828" width="0.15239999999999998" layer="51" />
          <wire x1="-2.0828" y1="2.0828" x2="-2.0828" y2="-2.0828" width="0.15239999999999998" layer="51" />
          <text x="-3.5814" y="1.0414" size="1.016" layer="51" ratio="15" rot="SR0" font="vector">*</text>
          <text x="-3.4544" y="5.08" size="1.016" layer="25" ratio="15" rot="SR0" font="vector">&gt;NAME</text>
        </package>
      </packages>
      <symbols>
        <symbol name="TPS61030RSAR">
          <pin name="VBAT" x="-17.78" y="15.24" length="middle" direction="pas" />
          <pin name="SYNC" x="-17.78" y="10.16" length="middle" direction="pas" />
          <pin name="SW_2" x="-17.78" y="7.62" length="middle" direction="pas" />
          <pin name="EP" x="-17.78" y="5.08" length="middle" direction="pas" />
          <pin name="LBI" x="-17.78" y="2.54" length="middle" direction="pas" />
          <pin name="EN" x="-17.78" y="0" length="middle" direction="pas" />
          <pin name="FB" x="-17.78" y="-2.54" length="middle" direction="pas" />
          <pin name="SW" x="-17.78" y="-5.08" length="middle" direction="pas" />
          <pin name="NC" x="-17.78" y="-10.16" length="middle" direction="pas" />
          <pin name="PGND_2" x="-17.78" y="-15.24" length="middle" direction="pas" />
          <pin name="PGND_3" x="-17.78" y="-17.78" length="middle" direction="pas" />
          <pin name="PGND" x="-17.78" y="-20.32" length="middle" direction="pas" />
          <pin name="GND" x="-17.78" y="-22.86" length="middle" direction="pas" />
          <pin name="VOUT_2" x="17.78" y="15.24" length="middle" direction="pas" rot="R180" />
          <pin name="VOUT_3" x="17.78" y="12.7" length="middle" direction="pas" rot="R180" />
          <pin name="VOUT" x="17.78" y="10.16" length="middle" direction="pas" rot="R180" />
          <pin name="LBO" x="17.78" y="5.08" length="middle" direction="pas" rot="R180" />
          <wire x1="-12.7" y1="20.32" x2="-12.7" y2="-27.94" width="0.4064" layer="94" />
          <wire x1="-12.7" y1="-27.94" x2="12.7" y2="-27.94" width="0.4064" layer="94" />
          <wire x1="12.7" y1="-27.94" x2="12.7" y2="20.32" width="0.4064" layer="94" />
          <wire x1="12.7" y1="20.32" x2="-12.7" y2="20.32" width="0.4064" layer="94" />
          <text x="-4.7498" y="22.6314" size="1.778" layer="95" ratio="10" rot="SR0">&gt;NAME</text>
          <text x="-4.0894" y="-31.877" size="1.778" layer="96" ratio="10" rot="SR0">&gt;VALUE</text>
        </symbol>
      </symbols>
      <devicesets>
        <deviceset name="TPS61030RSAR" prefix="U">
          <gates>
            <gate name="A" symbol="TPS61030RSAR" x="0" y="0" />
          </gates>
          <devices>
            <device name="" package="QFN65P400X400X100-17N" xmlns="eagle">
              <connects>
                <connect gate="A" pin="EN" pad="11" />
                <connect gate="A" pin="EP" pad="17" />
                <connect gate="A" pin="FB" pad="14" />
                <connect gate="A" pin="GND" pad="13" />
                <connect gate="A" pin="LBI" pad="9" />
                <connect gate="A" pin="LBO" pad="12" />
                <connect gate="A" pin="NC" pad="2" />
                <connect gate="A" pin="PGND" pad="6" />
                <connect gate="A" pin="PGND_2" pad="7" />
                <connect gate="A" pin="PGND_3" pad="5" />
                <connect gate="A" pin="SW" pad="3" />
                <connect gate="A" pin="SW_2" pad="4" />
                <connect gate="A" pin="SYNC" pad="10" />
                <connect gate="A" pin="VBAT" pad="8" />
                <connect gate="A" pin="VOUT" pad="16" />
                <connect gate="A" pin="VOUT_2" pad="1" />
                <connect gate="A" pin="VOUT_3" pad="15" />
              </connects>
              <technologies>
                <technology name="">
                  <attribute name="MPN" value="TPS61030RSAR" constant="no" />
                  <attribute name="OC_FARNELL" value="1813710" constant="no" />
                  <attribute name="OC_NEWARK" value="90H4859" constant="no" />
                  <attribute name="PACKAGE" value="QFN-16" constant="no" />
                  <attribute name="SUPPLIER" value="Texas Instruments" constant="no" />
                </technology>
              </technologies>
            </device>
          </devices>
        </deviceset>
      </devicesets>
    </library>
  </drawing>
</eagle>