<eagle version="6.5.0" xmlns="eagle">
  <drawing>
    <library>
      <packages>
        <package name="PTC-1206" xmlns="eagle">
          <wire x1="-1.5" y1="0.75" x2="1.5" y2="0.75" width="0.15239999999999998" layer="51" />
          <wire x1="1.5" y1="0.75" x2="1.5" y2="-0.75" width="0.15239999999999998" layer="51" />
          <wire x1="1.5" y1="-0.75" x2="-1.5" y2="-0.75" width="0.15239999999999998" layer="51" />
          <wire x1="-1.5" y1="-0.75" x2="-1.5" y2="0.75" width="0.15239999999999998" layer="51" />
          <wire x1="0.635" y1="-0.762" x2="-0.635" y2="-0.762" width="0.15239999999999998" layer="21" />
          <wire x1="-0.635" y1="0.762" x2="0.635" y2="0.762" width="0.15239999999999998" layer="21" />
          <wire x1="-1.143" y1="-1.016" x2="0.254" y2="1.016" width="0.15239999999999998" layer="51" />
          <wire x1="0.254" y1="1.016" x2="1.143" y2="1.016" width="0.15239999999999998" layer="51" />
          <smd name="1" x="-1.4" y="0" dx="1" dy="1.8" layer="1" />
          <smd name="2" x="1.4" y="0" dx="1" dy="1.8" layer="1" />
          <text x="-1.524" y="1.27" size="1.016" layer="25" ratio="15" font="vector">&gt;Name</text>
        </package>
      </packages>
      <symbols>
        <symbol name="PTC">
          <wire x1="5.08" y1="1.27" x2="5.08" y2="-1.27" width="0.254" layer="94" xmlns="eagle" />
          <wire x1="5.08" y1="-1.27" x2="-2.54" y2="-1.27" width="0.254" layer="94" xmlns="eagle" />
          <wire x1="-2.54" y1="-1.27" x2="-2.54" y2="1.27" width="0.254" layer="94" xmlns="eagle" />
          <wire x1="-2.54" y1="1.27" x2="5.08" y2="1.27" width="0.254" layer="94" xmlns="eagle" />
          <wire x1="-1.524" y1="-2.54" x2="3.81" y2="2.54" width="0.254" layer="94" xmlns="eagle" />
          <wire x1="3.81" y1="2.54" x2="5.08" y2="2.54" width="0.254" layer="94" xmlns="eagle" />
          <text x="-2.54" y="3.048" size="1.778" layer="95" xmlns="eagle">&gt;NAME</text>
          <text x="-3.302" y="-5.08" size="1.778" layer="96" xmlns="eagle">&gt;VALUE</text>
          <pin name="1" x="-5.08" y="0" visible="off" length="short" direction="pas" xmlns="eagle" />
          <pin name="2" x="7.62" y="0" visible="off" length="short" rot="R180" direction="pas" xmlns="eagle" />
        </symbol>
      </symbols>
      <devicesets>
        <deviceset name="PTC" prefix="F">
          <gates>
            <gate name="G$1" symbol="PTC" x="0" y="0" />
          </gates>
          <devices>
            <device name="THERMISTOR1206" package="PTC-1206" xmlns="eagle">
              <connects>
                <connect gate="G$1" pin="1" pad="1" />
                <connect gate="G$1" pin="2" pad="2" />
              </connects>
              <technologies>
                <technology name="">
                  <attribute name="PROD_ID" value="RES-08585" constant="no" />
                </technology>
              </technologies>
            </device>
          </devices>
        </deviceset>
      </devicesets>
    </library>
  </drawing>
</eagle>