{
  "boardWidth": 11.0,
  "boardHeight": 11.0,
  "numLayers": 2,
  "boardTemplate": null,
  "designRules": null,
  "omitBoundary": null,
  "packages": [
    {
      "name": "SUBCKT_Authenticator",
      "package": "__spaceClaim__",
      "pkg_idx": 0,
      "ComponentID": null,
      "RelComponentID": null,
      "width": 10.0,
      "height": 10.0,
      "koWidth": null,
      "koHeight": null,
      "originX": null,
      "originY": null,
      "x": 0.2,
      "y": 0.2,
      "rotation": 0,
      "layer": 0,
      "constraints": null,
      "multiLayer": null,
      "doNotPlace": null
    },
    {
      "name": "ATSHA204",
      "package": "SOT23-3",
      "pkg_idx": 1,
      "ComponentID": "{8df00f0a-65c2-4f9a-89bc-0d313c7d8e70}",
      "RelComponentID": null,
      "width": 3.6,
      "height": 3.15,
      "koWidth": 3.6,
      "koHeight": 3.15,
      "originX": -0.5,
      "originY": -0.1,
      "x": 3.8,
      "y": 4.5,
      "rotation": 0,
      "layer": 0,
      "constraints": [],
      "multiLayer": null,
      "doNotPlace": true
    },
    {
      "name": "C1",
      "package": "C_0402",
      "pkg_idx": 2,
      "ComponentID": "{5cd82a61-3e42-421c-8858-960931a4c7ef}",
      "RelComponentID": null,
      "width": 1.72,
      "height": 0.72,
      "koWidth": 1.72,
      "koHeight": 0.72,
      "originX": 0.0,
      "originY": 0.0,
      "x": 8.3,
      "y": 5.3,
      "rotation": 1,
      "layer": 0,
      "constraints": [],
      "multiLayer": null,
      "doNotPlace": true
    },
    {
      "name": "R1",
      "package": "R_0402",
      "pkg_idx": 3,
      "ComponentID": "{da8f5cf6-1541-4717-b599-ab5447fbd9ae}",
      "RelComponentID": null,
      "width": 1.7,
      "height": 0.5,
      "koWidth": 1.7,
      "koHeight": 0.5,
      "originX": 0.0,
      "originY": 0.0,
      "x": 5.5,
      "y": 3.8,
      "rotation": 2,
      "layer": 0,
      "constraints": [],
      "multiLayer": null,
      "doNotPlace": true
    }
  ],
  "signals": [
    {
      "name": "N$0",
      "length": 3.0571067811865471,
      "bends": 4,
      "RelComponentID": null,
      "pins": [
        {
          "name": "VCC",
          "gate": "G$1",
          "pad": "2",
          "package": "ATSHA204"
        },
        {
          "name": "P$1",
          "gate": "G$1",
          "pad": "1",
          "package": "C1"
        },
        {
          "name": "1",
          "gate": "G$1",
          "pad": "P$1",
          "package": "R1"
        }
      ],
      "wires": [
        {
          "x1": 6.85,
          "y1": 5.1,
          "x2": 6.85,
          "y2": 4.0,
          "width": 0.1524,
          "layer": 1,
          "curve": 0.0
        },
        {
          "x1": 7.05,
          "y1": 5.1,
          "x2": 6.85,
          "y2": 5.1,
          "width": 0.1524,
          "layer": 1,
          "curve": 0.0
        },
        {
          "x1": 8.15,
          "y1": 5.15,
          "x2": 8.6,
          "y2": 5.6,
          "width": 0.1524,
          "layer": 1,
          "curve": 0.0
        },
        {
          "x1": 7.1,
          "y1": 5.15,
          "x2": 8.15,
          "y2": 5.15,
          "width": 0.1524,
          "layer": 1,
          "curve": 0.0
        },
        {
          "x1": 7.1,
          "y1": 5.15,
          "x2": 7.05,
          "y2": 5.1,
          "width": 0.1524,
          "layer": 1,
          "curve": 0.0
        }
      ],
      "vias": [],
      "polygons": []
    },
    {
      "name": "N$1",
      "length": 2.7485281374238575,
      "bends": 1,
      "RelComponentID": null,
      "pins": [
        {
          "name": "GND",
          "gate": "G$1",
          "pad": "3",
          "package": "ATSHA204"
        },
        {
          "name": "P$2",
          "gate": "G$1",
          "pad": "2",
          "package": "C1"
        }
      ],
      "wires": [
        {
          "x1": 8.0,
          "y1": 7.2,
          "x2": 8.6,
          "y2": 6.6,
          "width": 0.1524,
          "layer": 1,
          "curve": 0.0
        },
        {
          "x1": 6.1,
          "y1": 7.2,
          "x2": 8.0,
          "y2": 7.2,
          "width": 0.1524,
          "layer": 1,
          "curve": 0.0
        }
      ],
      "vias": [],
      "polygons": []
    },
    {
      "name": "N$2",
      "length": 1.6999999999999993,
      "bends": 1,
      "RelComponentID": null,
      "pins": [
        {
          "name": "SDA",
          "gate": "G$1",
          "pad": "1",
          "package": "ATSHA204"
        },
        {
          "name": "2",
          "gate": "G$1",
          "pad": "P$2",
          "package": "R1"
        }
      ],
      "wires": [
        {
          "x1": 5.75,
          "y1": 5.1,
          "x2": 5.75,
          "y2": 4.0,
          "width": 0.1524,
          "layer": 1,
          "curve": 0.0
        },
        {
          "x1": 5.15,
          "y1": 5.1,
          "x2": 5.75,
          "y2": 5.1,
          "width": 0.1524,
          "layer": 1,
          "curve": 0.0
        }
      ],
      "vias": [],
      "polygons": []
    }
  ],
  "constraints": null,
  "border": null
}