<?xml version="1.0" encoding="utf-8"?>
<!DOCTYPE eagle SYSTEM "eagle.dtd">
<eagle version="6.5.0">
<drawing>
<settings>
<setting alwaysvectorfont="no"/>
<setting verticaltext="up"/>
</settings>
<grid distance="0.1" unitdist="inch" unit="inch" style="lines" multiple="1" display="no" altdistance="0.01" altunitdist="inch" altunit="inch"/>
<layers>
</layers>
<library>
<packages>
<package name="ADL5902">
<smd name="P$1" x="-1.44165" y="0.864984375" dx="0.775" dy="0.28" layer="1"/>
<smd name="P$2" x="-1.44165" y="0.288325" dx="0.775" dy="0.28" layer="1"/>
<smd name="P$3" x="-1.44165" y="-0.288334375" dx="0.775" dy="0.28" layer="1"/>
<smd name="P$4" x="-1.44165" y="-0.86499375" dx="0.775" dy="0.28" layer="1"/>
<smd name="P$5" x="-0.864990625" y="-1.441653125" dx="0.775" dy="0.28" layer="1" rot="R90"/>
<smd name="P$6" x="-0.28833125" y="-1.441653125" dx="0.775" dy="0.28" layer="1" rot="R90"/>
<smd name="P$7" x="0.288328125" y="-1.441653125" dx="0.775" dy="0.28" layer="1" rot="R90"/>
<smd name="P$8" x="0.8649875" y="-1.441653125" dx="0.775" dy="0.28" layer="1" rot="R90"/>
<smd name="P$9" x="1.44165" y="-0.86499375" dx="0.775" dy="0.28" layer="1" rot="R180"/>
<smd name="P$10" x="1.44165" y="-0.288334375" dx="0.775" dy="0.28" layer="1" rot="R180"/>
<smd name="P$11" x="1.44165" y="0.288325" dx="0.775" dy="0.28" layer="1" rot="R180"/>
<smd name="P$12" x="1.44165" y="0.864984375" dx="0.775" dy="0.28" layer="1" rot="R180"/>
<smd name="P$13" x="0.8649875" y="1.441646875" dx="0.775" dy="0.28" layer="1" rot="R270"/>
<smd name="P$14" x="0.288328125" y="1.441646875" dx="0.775" dy="0.28" layer="1" rot="R270"/>
<smd name="P$15" x="-0.28833125" y="1.441646875" dx="0.775" dy="0.28" layer="1" rot="R270"/>
<smd name="P$16" x="-0.864990625" y="1.441646875" dx="0.775" dy="0.28" layer="1" rot="R270"/>
<smd name="P$17" x="0" y="0" dx="1.6" dy="1.45" layer="1"/>
<circle x="-2" y="1.2" radius="0.1" width="0" layer="21"/>
<wire x1="1.6" y1="-1.2" x2="1.6" y2="-1.6" width="0.127" layer="21"/>
<wire x1="1.6" y1="-1.6" x2="1.2" y2="-1.6" width="0.127" layer="21"/>
<wire x1="1.6" y1="1.2" x2="1.6" y2="1.6" width="0.127" layer="21"/>
<wire x1="1.6" y1="1.6" x2="1.2" y2="1.6" width="0.127" layer="21"/>
<wire x1="-1.2" y1="1.6" x2="-1.6" y2="1.6" width="0.127" layer="21"/>
<wire x1="-1.6" y1="1.6" x2="-1.6" y2="1.2" width="0.127" layer="21"/>
<wire x1="-1.6" y1="-1.2" x2="-1.6" y2="-1.6" width="0.127" layer="21"/>
<wire x1="-1.6" y1="-1.6" x2="-1.2" y2="-1.6" width="0.127" layer="21"/>
<pad name="P$18" x="-0.4" y="0.4" drill="0.2" diameter="0.3048"/>
<pad name="P$19" x="0.4" y="0.4" drill="0.2" diameter="0.3048"/>
<pad name="P$20" x="0.4" y="-0.4" drill="0.2" diameter="0.3048"/>
<pad name="P$21" x="-0.4" y="-0.4" drill="0.2" diameter="0.3048"/>
<text x="-2.6" y="2.2" size="1.27" layer="25">&gt;NAME</text>
</package>
</packages>
<symbols>
<symbol name="ADL5902">
<pin name="TADJ/PWDN" x="-22.86" y="7.62" length="middle"/>
<pin name="NC" x="-22.86" y="2.54" length="middle"/>
<pin name="VPOS" x="-22.86" y="-2.54" length="middle"/>
<pin name="COMM" x="-22.86" y="-7.62" length="middle"/>
<pin name="CLPF" x="-7.62" y="-22.86" length="middle" rot="R90"/>
<pin name="VOUT" x="-2.54" y="-22.86" length="middle" rot="R90"/>
<pin name="VSET" x="2.54" y="-22.86" length="middle" rot="R90"/>
<pin name="TEMP" x="7.62" y="-22.86" length="middle" rot="R90"/>
<pin name="VREF" x="22.86" y="2.54" length="middle" rot="R180"/>
<pin name="VTGT" x="22.86" y="7.62" length="middle" rot="R180"/>
<pin name="INHI" x="2.54" y="22.86" length="middle" rot="R270"/>
<pin name="INLO" x="-2.54" y="22.86" length="middle" rot="R270"/>
<wire x1="-17.78" y1="15.24" x2="-17.78" y2="-15.24" width="0.254" layer="94"/>
<wire x1="-17.78" y1="-15.24" x2="-12.7" y2="-17.78" width="0.254" layer="94"/>
<wire x1="-12.7" y1="-17.78" x2="12.7" y2="-17.78" width="0.254" layer="94"/>
<wire x1="12.7" y1="-17.78" x2="17.78" y2="-15.24" width="0.254" layer="94"/>
<wire x1="17.78" y1="-15.24" x2="17.78" y2="15.24" width="0.254" layer="94"/>
<wire x1="17.78" y1="15.24" x2="12.7" y2="17.78" width="0.254" layer="94"/>
<wire x1="12.7" y1="17.78" x2="-12.7" y2="17.78" width="0.254" layer="94"/>
<wire x1="-12.7" y1="17.78" x2="-17.78" y2="15.24" width="0.254" layer="94"/>
<text x="-15.24" y="27.94" size="1.778" layer="95">&gt;NAME</text>
<text x="-15.24" y="30.48" size="1.778" layer="96">&gt;VALUE</text>
</symbol>
</symbols>
<devicesets>
<deviceset name="ADL5902ACPZ-R7">
<gates>
<gate name="G$1" symbol="ADL5902" x="0" y="0"/>
</gates>
<devices>
<device name="" package="ADL5902">
<connects>
<connect gate="G$1" pin="CLPF" pad="P$5"/>
<connect gate="G$1" pin="COMM" pad="P$4 P$9 P$17" route="any"/>
<connect gate="G$1" pin="INHI" pad="P$14"/>
<connect gate="G$1" pin="INLO" pad="P$15"/>
<connect gate="G$1" pin="NC" pad="P$2 P$13 P$16"/>
<connect gate="G$1" pin="TADJ/PWDN" pad="P$1"/>
<connect gate="G$1" pin="TEMP" pad="P$8"/>
<connect gate="G$1" pin="VOUT" pad="P$6"/>
<connect gate="G$1" pin="VPOS" pad="P$3 P$10"/>
<connect gate="G$1" pin="VREF" pad="P$11"/>
<connect gate="G$1" pin="VSET" pad="P$7"/>
<connect gate="G$1" pin="VTGT" pad="P$12"/>
</connects>
<technologies>
<technology name=""/>
</technologies>
</device>
</devices>
</deviceset>
</devicesets>
</library>
</drawing>
</eagle>
