{
  "boardWidth": 18.0,
  "boardHeight": 10.0,
  "numLayers": 2,
  "boardTemplate": null,
  "designRules": null,
  "omitBoundary": null,
  "packages": [
    {
      "name": "R1",
      "package": "R_0603",
      "pkg_idx": 0,
      "ComponentID": "{ddd589cc-f9a1-4b5d-8f39-8e48215befa9}",
      "RelComponentID": null,
      "width": 2.4,
      "height": 0.8,
      "koWidth": 2.4,
      "koHeight": 0.8,
      "originX": 0.0,
      "originY": 0.0,
      "x": 0.3,
      "y": 0.3,
      "rotation": 0,
      "layer": 0,
      "constraints": null,
      "multiLayer": null,
      "doNotPlace": null
    },
    {
      "name": "R2",
      "package": "R_0603",
      "pkg_idx": 1,
      "ComponentID": "{bc1fe975-be7d-4657-a048-b61d4cd6c294}",
      "RelComponentID": null,
      "width": 2.4,
      "height": 0.8,
      "koWidth": 2.4,
      "koHeight": 0.8,
      "originX": 0.0,
      "originY": 0.0,
      "x": 3.1,
      "y": 0.3,
      "rotation": 2,
      "layer": 0,
      "constraints": null,
      "multiLayer": null,
      "doNotPlace": null
    },
    {
      "name": "U1",
      "package": "LFCSP",
      "pkg_idx": 2,
      "ComponentID": "{3e5a5f7f-74f9-491f-b778-92886e32a3c6}",
      "RelComponentID": null,
      "width": 2.9042,
      "height": 2.1042,
      "koWidth": 2.9542,
      "koHeight": 2.1042,
      "originX": -0.4,
      "originY": 0.0,
      "x": 0.4479,
      "y": 1.4479,
      "rotation": 0,
      "layer": 1,
      "constraints": null,
      "multiLayer": null,
      "doNotPlace": null
    },
    {
      "name": "U2",
      "package": "MSOP",
      "pkg_idx": 3,
      "ComponentID": "{3e278708-f667-49a7-856a-0c4107461ffa}",
      "RelComponentID": null,
      "width": 5.8000000000000007,
      "height": 3.25,
      "koWidth": 5.8000000000000007,
      "koHeight": 3.5,
      "originX": -0.2,
      "originY": 0.0,
      "x": 1.8,
      "y": 1.375,
      "rotation": 0,
      "layer": 0,
      "constraints": null,
      "multiLayer": null,
      "doNotPlace": null
    }
  ],
  "signals": [
    {
      "name": "N$0",
      "length": 4.4906854249492376,
      "bends": 8,
      "RelComponentID": null,
      "pins": [
        {
          "name": "2",
          "gate": "G$1",
          "pad": "P$2",
          "package": "R1"
        },
        {
          "name": "VIN",
          "gate": "G$1",
          "pad": "P$3",
          "package": "U2"
        },
        {
          "name": "2",
          "gate": "G$1",
          "pad": "P$2",
          "package": "R2"
        }
      ],
      "wires": [
        {
          "x1": 3.5,
          "y1": 0.7,
          "x2": 2.3,
          "y2": 0.7,
          "width": 0.1524,
          "layer": 1,
          "curve": 0.0
        },
        {
          "x1": 2.25,
          "y1": 1.55,
          "x2": 2.25,
          "y2": 0.75,
          "width": 0.1524,
          "layer": 1,
          "curve": 0.0
        },
        {
          "x1": 2.15,
          "y1": 1.55,
          "x2": 2.25,
          "y2": 1.55,
          "width": 0.1524,
          "layer": 1,
          "curve": 0.0
        },
        {
          "x1": 1.95,
          "y1": 1.75,
          "x2": 2.15,
          "y2": 1.55,
          "width": 0.1524,
          "layer": 1,
          "curve": 0.0
        },
        {
          "x1": 1.95,
          "y1": 2.85,
          "x2": 1.95,
          "y2": 1.75,
          "width": 0.1524,
          "layer": 1,
          "curve": 0.0
        },
        {
          "x1": 2.05,
          "y1": 2.85,
          "x2": 1.95,
          "y2": 2.85,
          "width": 0.1524,
          "layer": 1,
          "curve": 0.0
        },
        {
          "x1": 2.2,
          "y1": 3.0,
          "x2": 2.05,
          "y2": 2.85,
          "width": 0.1524,
          "layer": 1,
          "curve": 0.0
        },
        {
          "x1": 2.825,
          "y1": 3.0,
          "x2": 2.2,
          "y2": 3.0,
          "width": 0.1524,
          "layer": 1,
          "curve": 0.0
        },
        {
          "x1": 2.25,
          "y1": 0.75,
          "x2": 2.3,
          "y2": 0.7,
          "width": 0.1524,
          "layer": 1,
          "curve": 0.0
        }
      ],
      "vias": [],
      "polygons": []
    },
    {
      "name": "N$1",
      "length": 6.3548989873223336,
      "bends": 7,
      "RelComponentID": null,
      "pins": [
        {
          "name": "1",
          "gate": "G$1",
          "pad": "P$1",
          "package": "R1"
        },
        {
          "name": "VOUT",
          "gate": "G$1",
          "pad": "2",
          "package": "U1"
        }
      ],
      "wires": [
        {
          "x1": 2.9,
          "y1": 2.5,
          "x2": 2.425,
          "y2": 2.5,
          "width": 0.1524,
          "layer": 16,
          "curve": 0.0
        },
        {
          "x1": 2.9,
          "y1": 3.45,
          "x2": 2.9,
          "y2": 2.5,
          "width": 0.1524,
          "layer": 16,
          "curve": 0.0
        },
        {
          "x1": 2.5,
          "y1": 3.85,
          "x2": 2.9,
          "y2": 3.45,
          "width": 0.1524,
          "layer": 16,
          "curve": 0.0
        },
        {
          "x1": 1.7,
          "y1": 3.85,
          "x2": 2.5,
          "y2": 3.85,
          "width": 0.1524,
          "layer": 16,
          "curve": 0.0
        },
        {
          "x1": 1.7,
          "y1": 3.05,
          "x2": 1.7,
          "y2": 3.85,
          "width": 0.1524,
          "layer": 1,
          "curve": 0.0
        },
        {
          "x1": 0.7,
          "y1": 2.05,
          "x2": 1.7,
          "y2": 3.05,
          "width": 0.1524,
          "layer": 1,
          "curve": 0.0
        },
        {
          "x1": 0.7,
          "y1": 0.7,
          "x2": 0.7,
          "y2": 2.05,
          "width": 0.1524,
          "layer": 1,
          "curve": 0.0
        }
      ],
      "vias": [
        {
          "x": 1.7,
          "y": 3.85,
          "drill": 0.3048,
          "layerBegin": 1,
          "layerEnd": 16
        }
      ],
      "polygons": []
    },
    {
      "name": "N$2",
      "length": 11.8698484809835,
      "bends": 21,
      "RelComponentID": null,
      "pins": [
        {
          "name": "1",
          "gate": "G$1",
          "pad": "P$1",
          "package": "R2"
        },
        {
          "name": "RFCM",
          "gate": "G$1",
          "pad": "4",
          "package": "U1"
        },
        {
          "name": "GND",
          "gate": "G$1",
          "pad": "P$5",
          "package": "U2"
        },
        {
          "name": "1",
          "gate": null,
          "pad": "1",
          "package": "U1"
        },
        {
          "name": "7",
          "gate": null,
          "pad": "7",
          "package": "U1"
        },
        {
          "name": "RFCM2",
          "gate": "G$1",
          "pad": "6",
          "package": "U1"
        }
      ],
      "wires": [
        {
          "x1": 0.55,
          "y1": 1.55,
          "x2": 0.55,
          "y2": 1.85,
          "width": 0.1524,
          "layer": 16,
          "curve": 0.0
        },
        {
          "x1": 0.7,
          "y1": 1.4,
          "x2": 0.55,
          "y2": 1.55,
          "width": 0.1524,
          "layer": 16,
          "curve": 0.0
        },
        {
          "x1": 1.5,
          "y1": 1.4,
          "x2": 0.7,
          "y2": 1.4,
          "width": 0.1524,
          "layer": 16,
          "curve": 0.0
        },
        {
          "x1": 1.5,
          "y1": 2.5,
          "x2": 1.5,
          "y2": 1.4,
          "width": 0.1524,
          "layer": 16,
          "curve": 0.0
        },
        {
          "x1": 0.55,
          "y1": 1.85,
          "x2": 0.575,
          "y2": 1.85,
          "width": 0.1524,
          "layer": 16,
          "curve": 0.0
        },
        {
          "x1": 0.55,
          "y1": 3.45,
          "x2": 0.55,
          "y2": 3.15,
          "width": 0.1524,
          "layer": 16,
          "curve": 0.0
        },
        {
          "x1": 0.7,
          "y1": 3.6,
          "x2": 0.55,
          "y2": 3.45,
          "width": 0.1524,
          "layer": 16,
          "curve": 0.0
        },
        {
          "x1": 1.15,
          "y1": 3.6,
          "x2": 0.7,
          "y2": 3.6,
          "width": 0.1524,
          "layer": 16,
          "curve": 0.0
        },
        {
          "x1": 1.15,
          "y1": 3.45,
          "x2": 1.15,
          "y2": 3.6,
          "width": 0.1524,
          "layer": 16,
          "curve": 0.0
        },
        {
          "x1": 1.45,
          "y1": 3.15,
          "x2": 1.15,
          "y2": 3.45,
          "width": 0.1524,
          "layer": 16,
          "curve": 0.0
        },
        {
          "x1": 1.45,
          "y1": 2.55,
          "x2": 1.45,
          "y2": 3.15,
          "width": 0.1524,
          "layer": 16,
          "curve": 0.0
        },
        {
          "x1": 0.55,
          "y1": 3.15,
          "x2": 0.575,
          "y2": 3.15,
          "width": 0.1524,
          "layer": 16,
          "curve": 0.0
        },
        {
          "x1": 1.45,
          "y1": 2.55,
          "x2": 1.5,
          "y2": 2.5,
          "width": 0.1524,
          "layer": 16,
          "curve": 0.0
        },
        {
          "x1": 1.5,
          "y1": 3.15,
          "x2": 2.425,
          "y2": 3.15,
          "width": 0.1524,
          "layer": 16,
          "curve": 0.0
        },
        {
          "x1": 1.5,
          "y1": 3.15,
          "x2": 1.5,
          "y2": 2.5,
          "width": 0.1524,
          "layer": 16,
          "curve": 0.0
        },
        {
          "x1": 3.8,
          "y1": 2.0,
          "x2": 4.05,
          "y2": 1.75,
          "width": 0.1524,
          "layer": 1,
          "curve": 0.0
        },
        {
          "x1": 4.05,
          "y1": 1.75,
          "x2": 5.1,
          "y2": 0.7,
          "width": 0.1524,
          "layer": 1,
          "curve": 0.0
        },
        {
          "x1": 2.825,
          "y1": 2.0,
          "x2": 3.8,
          "y2": 2.0,
          "width": 0.1524,
          "layer": 1,
          "curve": 0.0
        },
        {
          "x1": 3.9,
          "y1": 1.4,
          "x2": 1.5,
          "y2": 1.4,
          "width": 0.1524,
          "layer": 16,
          "curve": 0.0
        },
        {
          "x1": 3.9,
          "y1": 1.6,
          "x2": 3.9,
          "y2": 1.4,
          "width": 0.1524,
          "layer": 16,
          "curve": 0.0
        },
        {
          "x1": 4.05,
          "y1": 1.75,
          "x2": 3.9,
          "y2": 1.6,
          "width": 0.1524,
          "layer": 1,
          "curve": 0.0
        }
      ],
      "vias": [
        {
          "x": 3.9,
          "y": 1.6,
          "drill": 0.3048,
          "layerBegin": 1,
          "layerEnd": 16
        }
      ],
      "polygons": []
    },
    {
      "name": "N$3",
      "length": 4.1556349186104047,
      "bends": 5,
      "RelComponentID": null,
      "pins": [
        {
          "name": "VPOS",
          "gate": "G$1",
          "pad": "3",
          "package": "U1"
        },
        {
          "name": "VDD",
          "gate": "G$1",
          "pad": "P$1",
          "package": "U2"
        }
      ],
      "wires": [
        {
          "x1": 3.35,
          "y1": 1.85,
          "x2": 2.425,
          "y2": 1.85,
          "width": 0.1524,
          "layer": 16,
          "curve": 0.0
        },
        {
          "x1": 3.35,
          "y1": 2.9,
          "x2": 3.35,
          "y2": 1.85,
          "width": 0.1524,
          "layer": 16,
          "curve": 0.0
        },
        {
          "x1": 3.95,
          "y1": 3.5,
          "x2": 3.35,
          "y2": 2.9,
          "width": 0.1524,
          "layer": 16,
          "curve": 0.0
        },
        {
          "x1": 3.45,
          "y1": 4.0,
          "x2": 3.95,
          "y2": 3.5,
          "width": 0.1524,
          "layer": 1,
          "curve": 0.0
        },
        {
          "x1": 2.825,
          "y1": 4.0,
          "x2": 3.45,
          "y2": 4.0,
          "width": 0.1524,
          "layer": 1,
          "curve": 0.0
        }
      ],
      "vias": [
        {
          "x": 3.95,
          "y": 3.5,
          "drill": 0.3048,
          "layerBegin": 1,
          "layerEnd": 16
        }
      ],
      "polygons": []
    }
  ],
  "constraints": null,
  "border": null
}