<?xml version="1.0" encoding="utf-8"?>
<!DOCTYPE eagle SYSTEM "eagle.dtd">
<eagle version="6.5.0">
<drawing>
<settings>
<setting alwaysvectorfont="no"/>
<setting verticaltext="up"/>
</settings>
<grid distance="0.2" unitdist="mm" unit="mm" style="lines" multiple="1" display="yes" altdistance="0.025" altunitdist="inch" altunit="inch"/>
<layers>
</layers>
<library>
<packages>
<package name="SOT23-BEC">
<description>&lt;b&gt;TO-236&lt;/b&gt; ITT Intermetall</description>
<wire x1="1.4224" y1="0.6604" x2="1.4224" y2="-0.6604" width="0.127" layer="51"/>
<wire x1="1.4224" y1="-0.6604" x2="-1.4224" y2="-0.6604" width="0.127" layer="51"/>
<wire x1="-1.4224" y1="-0.6604" x2="-1.4224" y2="0.6604" width="0.127" layer="51"/>
<wire x1="-1.4224" y1="0.6604" x2="1.4224" y2="0.6604" width="0.127" layer="51"/>
<smd name="C" x="0" y="1.1" dx="1" dy="1.4" layer="1"/>
<smd name="E" x="0.95" y="-1.1" dx="1" dy="1.4" layer="1"/>
<smd name="B" x="-0.95" y="-1.1" dx="1" dy="1.4" layer="1"/>
<text x="-3.305" y="2.105" size="1.27" layer="25">&gt;NAME</text>
<rectangle x1="-0.2286" y1="0.7112" x2="0.2286" y2="1.2954" layer="51"/>
<rectangle x1="-1.1684" y1="-1.2954" x2="-0.7112" y2="-0.7112" layer="51"/>
</package>
</packages>
<symbols>
<symbol name="PNP">
<wire x1="2.086" y1="1.678" x2="1.578" y2="2.594" width="0.1524" layer="94"/>
<wire x1="1.578" y1="2.594" x2="0.516" y2="1.478" width="0.1524" layer="94"/>
<wire x1="0.516" y1="1.478" x2="2.086" y2="1.678" width="0.1524" layer="94"/>
<wire x1="2.54" y1="2.54" x2="1.808" y2="2.124" width="0.1524" layer="94"/>
<wire x1="2.54" y1="-2.54" x2="0.508" y2="-1.524" width="0.1524" layer="94"/>
<wire x1="1.905" y1="1.778" x2="1.524" y2="2.413" width="0.254" layer="94"/>
<wire x1="1.524" y1="2.413" x2="0.762" y2="1.651" width="0.254" layer="94"/>
<wire x1="0.762" y1="1.651" x2="1.778" y2="1.778" width="0.254" layer="94"/>
<wire x1="1.778" y1="1.778" x2="1.524" y2="2.159" width="0.254" layer="94"/>
<wire x1="1.524" y1="2.159" x2="1.143" y2="1.905" width="0.254" layer="94"/>
<wire x1="1.143" y1="1.905" x2="1.524" y2="1.905" width="0.254" layer="94"/>
<text x="-10.16" y="7.62" size="1.778" layer="95">&gt;NAME</text>
<text x="-10.16" y="5.08" size="1.778" layer="96">&gt;VALUE</text>
<rectangle x1="-0.254" y1="-2.54" x2="0.508" y2="2.54" layer="94"/>
<pin name="B" x="-2.54" y="0" visible="off" length="short" direction="pas"/>
<pin name="E" x="2.54" y="5.08" visible="off" length="short" direction="pas" rot="R270"/>
<pin name="C" x="2.54" y="-5.08" visible="off" length="short" direction="pas" rot="R90"/>
</symbol>
</symbols>
<devicesets>
<deviceset name="MMBT3906" prefix="Q">
<gates>
<gate name="G$1" symbol="PNP" x="0" y="0"/>
</gates>
<devices>
<device name="SMD" package="SOT23-BEC">
<connects>
<connect gate="G$1" pin="B" pad="B"/>
<connect gate="G$1" pin="C" pad="C"/>
<connect gate="G$1" pin="E" pad="E"/>
</connects>
<technologies>
<technology name="LT1"/>
</technologies>
</device>
</devices>
</deviceset>
</devicesets>
</library>
</drawing>
</eagle>
