<eagle version="6.5.0" xmlns="eagle">
  <drawing>
    <library>
      <packages>
        <package name="BLM18H" xmlns="eagle">
          <smd name="P$1" x="-0.55" y="0" dx="0.65" dy="0.8" layer="1" />
          <smd name="P$2" x="0.55" y="0" dx="0.65" dy="0.8" layer="1" />
          <text x="-3" y="0.8" size="1.27" layer="25">&gt;NAME</text>
        </package>
      </packages>
      <symbols>
        <symbol name="BLM18HE152SN1D">
          <pin name="P$1" x="-12.7" y="0" length="middle" />
          <pin name="P$2" x="12.7" y="0" length="middle" rot="R180" />
          <wire x1="-7.62" y1="2.54" x2="-7.62" y2="-2.54" width="0.254" layer="94" />
          <wire x1="-7.62" y1="-2.54" x2="7.62" y2="-2.54" width="0.254" layer="94" />
          <wire x1="7.62" y1="-2.54" x2="7.62" y2="2.54" width="0.254" layer="94" />
          <wire x1="7.62" y1="2.54" x2="-7.62" y2="2.54" width="0.254" layer="94" />
          <text x="-7.62" y="7.62" size="1.27" layer="95">&gt;NAME</text>
          <text x="-7.62" y="5.08" size="1.27" layer="96">&gt;VALUE</text>
        </symbol>
      </symbols>
      <devicesets>
        <deviceset name="BLM18HE152SN1D">
          <gates>
            <gate name="G$1" symbol="BLM18HE152SN1D" x="0" y="0" />
          </gates>
          <devices>
            <device name="" package="BLM18H" xmlns="eagle">
              <connects>
                <connect gate="G$1" pin="P$1" pad="P$1" />
                <connect gate="G$1" pin="P$2" pad="P$2" />
              </connects>
              <technologies>
                <technology name="" />
              </technologies>
            </device>
          </devices>
        </deviceset>
      </devicesets>
    </library>
  </drawing>
</eagle>