{
  "boardWidth": 13.0,
  "boardHeight": 13.0,
  "numLayers": 2,
  "boardTemplate": null,
  "designRules": null,
  "omitBoundary": null,
  "packages": [
    {
      "name": "C1",
      "package": "C_0402",
      "pkg_idx": 0,
      "ComponentID": "{14ce78ff-8936-4b3e-b4c9-bef1169f450e}",
      "RelComponentID": null,
      "width": 1.72,
      "height": 0.72,
      "koWidth": 1.72,
      "koHeight": 0.72,
      "originX": 0.0,
      "originY": 0.0,
      "x": 2.84,
      "y": 5.34,
      "rotation": 3,
      "layer": 0,
      "constraints": null,
      "multiLayer": null,
      "doNotPlace": null
    },
    {
      "name": "C1$1",
      "package": "C_0402",
      "pkg_idx": 1,
      "ComponentID": "{675aef83-8ecd-4b20-8e4e-3bef8c77b157}",
      "RelComponentID": null,
      "width": 1.72,
      "height": 0.72,
      "koWidth": 1.72,
      "koHeight": 0.72,
      "originX": 0.0,
      "originY": 0.0,
      "x": 0.64,
      "y": 5.24,
      "rotation": 2,
      "layer": 0,
      "constraints": null,
      "multiLayer": null,
      "doNotPlace": null
    },
    {
      "name": "C2",
      "package": "C_0402",
      "pkg_idx": 2,
      "ComponentID": "{5f7bb2b7-e2e9-4a81-8785-d10573d58517}",
      "RelComponentID": null,
      "width": 1.72,
      "height": 0.72,
      "koWidth": 1.72,
      "koHeight": 0.72,
      "originX": 0.0,
      "originY": 0.0,
      "x": 0.64,
      "y": 6.44,
      "rotation": 2,
      "layer": 0,
      "constraints": null,
      "multiLayer": null,
      "doNotPlace": null
    },
    {
      "name": "C3",
      "package": "C_0402",
      "pkg_idx": 3,
      "ComponentID": "{4909d272-a19e-49b7-aafd-48385049c712}",
      "RelComponentID": null,
      "width": 1.72,
      "height": 0.72,
      "koWidth": 1.72,
      "koHeight": 0.72,
      "originX": 0.0,
      "originY": 0.0,
      "x": 0.64,
      "y": 2.84,
      "rotation": 2,
      "layer": 0,
      "constraints": null,
      "multiLayer": null,
      "doNotPlace": null
    },
    {
      "name": "C4",
      "package": "C_0402",
      "pkg_idx": 4,
      "ComponentID": "{2953e4af-006a-4e5b-abf6-2faf59d3aa55}",
      "RelComponentID": null,
      "width": 1.72,
      "height": 0.72,
      "koWidth": 1.72,
      "koHeight": 0.72,
      "originX": 0.0,
      "originY": 0.0,
      "x": 0.64,
      "y": 4.04,
      "rotation": 0,
      "layer": 0,
      "constraints": null,
      "multiLayer": null,
      "doNotPlace": null
    },
    {
      "name": "C6",
      "package": "C_0402",
      "pkg_idx": 5,
      "ComponentID": "{745858b0-8f29-4113-a437-0dc17e680029}",
      "RelComponentID": null,
      "width": 1.72,
      "height": 0.72,
      "koWidth": 1.72,
      "koHeight": 0.72,
      "originX": 0.0,
      "originY": 0.0,
      "x": 7.14,
      "y": 0.64,
      "rotation": 3,
      "layer": 0,
      "constraints": null,
      "multiLayer": null,
      "doNotPlace": null
    },
    {
      "name": "C7",
      "package": "C_0402",
      "pkg_idx": 6,
      "ComponentID": "{27d4b341-ce06-4779-b569-9bec67ef0dd6}",
      "RelComponentID": null,
      "width": 1.72,
      "height": 0.72,
      "koWidth": 1.72,
      "koHeight": 0.72,
      "originX": 0.0,
      "originY": 0.0,
      "x": 8.34,
      "y": 0.64,
      "rotation": 3,
      "layer": 0,
      "constraints": null,
      "multiLayer": null,
      "doNotPlace": null
    },
    {
      "name": "L1",
      "package": "L0603",
      "pkg_idx": 7,
      "ComponentID": "{1db50121-5437-488d-bbb4-7cb5b1e9acf8}",
      "RelComponentID": null,
      "width": 2.9542,
      "height": 1.3,
      "koWidth": 2.9542,
      "koHeight": 1.3,
      "originX": -0.3,
      "originY": 0.0,
      "x": 0.0229,
      "y": 7.55,
      "rotation": 0,
      "layer": 0,
      "constraints": null,
      "multiLayer": null,
      "doNotPlace": null
    },
    {
      "name": "R1",
      "package": "R_0402",
      "pkg_idx": 8,
      "ComponentID": "{8f04d039-9a4b-40c2-85fb-36373eb23142}",
      "RelComponentID": null,
      "width": 1.7,
      "height": 0.5,
      "koWidth": 1.7,
      "koHeight": 0.5,
      "originX": 0.0,
      "originY": 0.0,
      "x": 2.75,
      "y": 2.95,
      "rotation": 2,
      "layer": 0,
      "constraints": null,
      "multiLayer": null,
      "doNotPlace": null
    },
    {
      "name": "R10",
      "package": "R_0402",
      "pkg_idx": 9,
      "ComponentID": "{133a000a-5bc1-4aca-97e2-1fbcdbc09f40}",
      "RelComponentID": null,
      "width": 1.7,
      "height": 0.5,
      "koWidth": 1.7,
      "koHeight": 0.5,
      "originX": 0.0,
      "originY": 0.0,
      "x": 4.35,
      "y": 0.65,
      "rotation": 1,
      "layer": 0,
      "constraints": null,
      "multiLayer": null,
      "doNotPlace": null
    },
    {
      "name": "R12",
      "package": "R_0402",
      "pkg_idx": 10,
      "ComponentID": "{37827e77-ff56-4bed-ae61-d52e7ab8f137}",
      "RelComponentID": null,
      "width": 1.7,
      "height": 0.5,
      "koWidth": 1.7,
      "koHeight": 0.5,
      "originX": 0.0,
      "originY": 0.0,
      "x": 3.35,
      "y": 0.65,
      "rotation": 1,
      "layer": 0,
      "constraints": null,
      "multiLayer": null,
      "doNotPlace": null
    },
    {
      "name": "R2",
      "package": "R_0402",
      "pkg_idx": 11,
      "ComponentID": "{d3cb9d9d-a49f-4c77-ab0d-154b12264071}",
      "RelComponentID": null,
      "width": 1.7,
      "height": 0.5,
      "koWidth": 1.7,
      "koHeight": 0.5,
      "originX": 0.0,
      "originY": 0.0,
      "x": 6.25,
      "y": 0.65,
      "rotation": 1,
      "layer": 0,
      "constraints": null,
      "multiLayer": null,
      "doNotPlace": null
    },
    {
      "name": "R9",
      "package": "R_0402",
      "pkg_idx": 12,
      "ComponentID": "{bd359086-c5e5-46b6-a604-0324d875562e}",
      "RelComponentID": null,
      "width": 1.7,
      "height": 0.5,
      "koWidth": 1.7,
      "koHeight": 0.5,
      "originX": 0.0,
      "originY": 0.0,
      "x": 5.25,
      "y": 0.65,
      "rotation": 1,
      "layer": 0,
      "constraints": null,
      "multiLayer": null,
      "doNotPlace": null
    },
    {
      "name": "U1",
      "package": "SI470X",
      "pkg_idx": 13,
      "ComponentID": "{0ddb2d4d-6a25-4044-b318-5eafa50ee902}",
      "RelComponentID": null,
      "width": 3.913328125,
      "height": 3.7,
      "koWidth": 3.913328125,
      "koHeight": 3.7,
      "originX": -0.2,
      "originY": 0.0,
      "x": 4.1433,
      "y": 4.85,
      "rotation": 0,
      "layer": 0,
      "constraints": null,
      "multiLayer": null,
      "doNotPlace": null
    },
    {
      "name": "Y1",
      "package": "9HT10",
      "pkg_idx": 14,
      "ComponentID": "{b9982381-a6cc-45b5-a831-5f0674a49c39}",
      "RelComponentID": null,
      "width": 2.1542,
      "height": 6.8542000000000014,
      "koWidth": 2.1542,
      "koHeight": 6.8542000000000014,
      "originX": -0.1,
      "originY": 0.3,
      "x": 8.6229,
      "y": 2.2729,
      "rotation": 2,
      "layer": 0,
      "constraints": null,
      "multiLayer": null,
      "doNotPlace": null
    }
  ],
  "signals": [
    {
      "name": "N$0",
      "length": 2.0749999999999993,
      "bends": 1,
      "RelComponentID": null,
      "pins": [
        {
          "name": "P$1",
          "gate": "G$1",
          "pad": "1",
          "package": "C1"
        },
        {
          "name": "2",
          "gate": "G$1",
          "pad": "2",
          "package": "L1"
        }
      ],
      "wires": [
        {
          "x1": 3.2,
          "y1": 8.2,
          "x2": 3.2,
          "y2": 6.7,
          "width": 0.1524,
          "layer": 1,
          "curve": 0.0
        },
        {
          "x1": 2.625,
          "y1": 8.2,
          "x2": 3.2,
          "y2": 8.2,
          "width": 0.1524,
          "layer": 1,
          "curve": 0.0
        }
      ],
      "vias": [],
      "polygons": []
    },
    {
      "name": "N$1",
      "length": 2.9585028842544396,
      "bends": 5,
      "RelComponentID": null,
      "pins": [
        {
          "name": "P$2",
          "gate": "G$1",
          "pad": "2",
          "package": "C1"
        },
        {
          "name": "FMIP",
          "gate": "G$1",
          "pad": "2",
          "package": "U1"
        }
      ],
      "wires": [
        {
          "x1": 4.85,
          "y1": 7.35,
          "x2": 4.95,
          "y2": 7.45,
          "width": 0.1524,
          "layer": 1,
          "curve": 0.0
        },
        {
          "x1": 4.65,
          "y1": 7.35,
          "x2": 4.85,
          "y2": 7.35,
          "width": 0.1524,
          "layer": 1,
          "curve": 0.0
        },
        {
          "x1": 3.8,
          "y1": 6.5,
          "x2": 4.65,
          "y2": 7.35,
          "width": 0.1524,
          "layer": 1,
          "curve": 0.0
        },
        {
          "x1": 3.8,
          "y1": 5.7,
          "x2": 3.8,
          "y2": 6.5,
          "width": 0.1524,
          "layer": 1,
          "curve": 0.0
        },
        {
          "x1": 3.2,
          "y1": 5.7,
          "x2": 3.8,
          "y2": 5.7,
          "width": 0.1524,
          "layer": 1,
          "curve": 0.0
        },
        {
          "x1": 4.95,
          "y1": 7.45,
          "x2": 4.965,
          "y2": 7.45,
          "width": 0.1524,
          "layer": 1,
          "curve": 0.0
        }
      ],
      "vias": [],
      "polygons": []
    },
    {
      "name": "N$2",
      "length": 15.691773523946004,
      "bends": 26,
      "RelComponentID": null,
      "pins": [
        {
          "name": "P$1",
          "gate": "G$1",
          "pad": "1",
          "package": "C1$1"
        },
        {
          "name": "P$1",
          "gate": "G$1",
          "pad": "1",
          "package": "C2"
        },
        {
          "name": "2",
          "gate": "G$1",
          "pad": "P$2",
          "package": "R2"
        },
        {
          "name": "VD",
          "gate": "G$1",
          "pad": "11",
          "package": "U1"
        },
        {
          "name": "VIO",
          "gate": "G$1",
          "pad": "10",
          "package": "U1"
        },
        {
          "name": "VA",
          "gate": "G$1",
          "pad": "16",
          "package": "U1"
        }
      ],
      "wires": [
        {
          "x1": 7.05,
          "y1": 5.4,
          "x2": 7.55,
          "y2": 5.4,
          "width": 0.1524,
          "layer": 1,
          "curve": 0.0
        },
        {
          "x1": 7.55,
          "y1": 5.4,
          "x2": 7.565,
          "y2": 5.435,
          "width": 0.1524,
          "layer": 1,
          "curve": 0.0
        },
        {
          "x1": 7.05,
          "y1": 5.4,
          "x2": 7.05,
          "y2": 5.365,
          "width": 0.1524,
          "layer": 1,
          "curve": 0.0
        },
        {
          "x1": 7.7,
          "y1": 7.85,
          "x2": 7.6,
          "y2": 7.95,
          "width": 0.1524,
          "layer": 1,
          "curve": 0.0
        },
        {
          "x1": 8.0,
          "y1": 7.85,
          "x2": 7.7,
          "y2": 7.85,
          "width": 0.1524,
          "layer": 1,
          "curve": 0.0
        },
        {
          "x1": 8.4,
          "y1": 7.45,
          "x2": 8.0,
          "y2": 7.85,
          "width": 0.1524,
          "layer": 1,
          "curve": 0.0
        },
        {
          "x1": 8.2,
          "y1": 7.25,
          "x2": 8.4,
          "y2": 7.45,
          "width": 0.1524,
          "layer": 16,
          "curve": 0.0
        },
        {
          "x1": 8.2,
          "y1": 5.4,
          "x2": 8.2,
          "y2": 7.25,
          "width": 0.1524,
          "layer": 16,
          "curve": 0.0
        },
        {
          "x1": 7.6,
          "y1": 5.4,
          "x2": 8.2,
          "y2": 5.4,
          "width": 0.1524,
          "layer": 1,
          "curve": 0.0
        },
        {
          "x1": 7.6,
          "y1": 7.95,
          "x2": 7.565,
          "y2": 7.965,
          "width": 0.1524,
          "layer": 1,
          "curve": 0.0
        },
        {
          "x1": 7.6,
          "y1": 5.4,
          "x2": 7.565,
          "y2": 5.435,
          "width": 0.1524,
          "layer": 1,
          "curve": 0.0
        },
        {
          "x1": 6.5,
          "y1": 3.15,
          "x2": 6.5,
          "y2": 2.95,
          "width": 0.1524,
          "layer": 1,
          "curve": 0.0
        },
        {
          "x1": 6.5,
          "y1": 2.95,
          "x2": 6.5,
          "y2": 2.05,
          "width": 0.1524,
          "layer": 1,
          "curve": 0.0
        },
        {
          "x1": 6.35,
          "y1": 3.15,
          "x2": 6.5,
          "y2": 3.15,
          "width": 0.1524,
          "layer": 1,
          "curve": 0.0
        },
        {
          "x1": 5.8,
          "y1": 3.7,
          "x2": 6.35,
          "y2": 3.15,
          "width": 0.1524,
          "layer": 1,
          "curve": 0.0
        },
        {
          "x1": 4.3,
          "y1": 3.7,
          "x2": 5.8,
          "y2": 3.7,
          "width": 0.1524,
          "layer": 1,
          "curve": 0.0
        },
        {
          "x1": 3.4,
          "y1": 4.6,
          "x2": 4.3,
          "y2": 3.7,
          "width": 0.1524,
          "layer": 1,
          "curve": 0.0
        },
        {
          "x1": 3.4,
          "y1": 5.1,
          "x2": 3.4,
          "y2": 4.6,
          "width": 0.1524,
          "layer": 1,
          "curve": 0.0
        },
        {
          "x1": 2.5,
          "y1": 5.1,
          "x2": 3.4,
          "y2": 5.1,
          "width": 0.1524,
          "layer": 1,
          "curve": 0.0
        },
        {
          "x1": 2.0,
          "y1": 5.6,
          "x2": 2.5,
          "y2": 5.1,
          "width": 0.1524,
          "layer": 1,
          "curve": 0.0
        },
        {
          "x1": 2.0,
          "y1": 5.6,
          "x2": 2.0,
          "y2": 6.8,
          "width": 0.1524,
          "layer": 1,
          "curve": 0.0
        },
        {
          "x1": 6.55,
          "y1": 3.75,
          "x2": 8.2,
          "y2": 5.4,
          "width": 0.1524,
          "layer": 16,
          "curve": 0.0
        },
        {
          "x1": 6.55,
          "y1": 2.95,
          "x2": 6.55,
          "y2": 3.75,
          "width": 0.1524,
          "layer": 16,
          "curve": 0.0
        },
        {
          "x1": 6.55,
          "y1": 2.95,
          "x2": 6.5,
          "y2": 2.95,
          "width": 0.1524,
          "layer": 1,
          "curve": 0.0
        }
      ],
      "vias": [
        {
          "x": 8.4,
          "y": 7.45,
          "drill": 0.3048,
          "layerBegin": 1,
          "layerEnd": 16
        },
        {
          "x": 8.2,
          "y": 5.4,
          "drill": 0.3048,
          "layerBegin": 1,
          "layerEnd": 16
        },
        {
          "x": 6.55,
          "y": 2.95,
          "drill": 0.3048,
          "layerBegin": 1,
          "layerEnd": 16
        }
      ],
      "polygons": []
    },
    {
      "name": "N$3",
      "length": 20.524064944174466,
      "bends": 35,
      "RelComponentID": null,
      "pins": [
        {
          "name": "P$2",
          "gate": "G$1",
          "pad": "2",
          "package": "C1$1"
        },
        {
          "name": "P$2",
          "gate": "G$1",
          "pad": "2",
          "package": "C2"
        },
        {
          "name": "P$1",
          "gate": "G$1",
          "pad": "1",
          "package": "C4"
        },
        {
          "name": "P$2",
          "gate": "G$1",
          "pad": "2",
          "package": "C3"
        },
        {
          "name": "2",
          "gate": "G$1",
          "pad": "P$2",
          "package": "R1"
        },
        {
          "name": "4",
          "gate": null,
          "pad": "4",
          "package": "U1"
        },
        {
          "name": "12",
          "gate": null,
          "pad": "12",
          "package": "U1"
        },
        {
          "name": "15",
          "gate": null,
          "pad": "15",
          "package": "U1"
        },
        {
          "name": "RFGND",
          "gate": "G$1",
          "pad": "3",
          "package": "U1"
        },
        {
          "name": "GND@PAD",
          "gate": "G$1",
          "pad": "21",
          "package": "U1"
        },
        {
          "name": "1",
          "gate": "G$1",
          "pad": "1",
          "package": "L1"
        }
      ],
      "wires": [
        {
          "x1": 5.0,
          "y1": 6.95,
          "x2": 5.0,
          "y2": 6.7,
          "width": 0.1524,
          "layer": 1,
          "curve": 0.0
        },
        {
          "x1": 5.0,
          "y1": 6.7,
          "x2": 5.0,
          "y2": 6.45,
          "width": 0.1524,
          "layer": 1,
          "curve": 0.0
        },
        {
          "x1": 5.0,
          "y1": 6.45,
          "x2": 4.965,
          "y2": 6.45,
          "width": 0.1524,
          "layer": 1,
          "curve": 0.0
        },
        {
          "x1": 5.0,
          "y1": 6.95,
          "x2": 4.965,
          "y2": 6.95,
          "width": 0.1524,
          "layer": 1,
          "curve": 0.0
        },
        {
          "x1": 7.5,
          "y1": 6.05,
          "x2": 7.6,
          "y2": 5.95,
          "width": 0.1524,
          "layer": 1,
          "curve": 0.0
        },
        {
          "x1": 6.95,
          "y1": 6.05,
          "x2": 7.5,
          "y2": 6.05,
          "width": 0.1524,
          "layer": 1,
          "curve": 0.0
        },
        {
          "x1": 6.3,
          "y1": 6.7,
          "x2": 6.95,
          "y2": 6.05,
          "width": 0.1524,
          "layer": 1,
          "curve": 0.0
        },
        {
          "x1": 7.6,
          "y1": 5.95,
          "x2": 7.635,
          "y2": 5.95,
          "width": 0.1524,
          "layer": 1,
          "curve": 0.0
        },
        {
          "x1": 7.5,
          "y1": 7.35,
          "x2": 7.6,
          "y2": 7.45,
          "width": 0.1524,
          "layer": 1,
          "curve": 0.0
        },
        {
          "x1": 7.25,
          "y1": 7.35,
          "x2": 7.5,
          "y2": 7.35,
          "width": 0.1524,
          "layer": 1,
          "curve": 0.0
        },
        {
          "x1": 6.5,
          "y1": 6.6,
          "x2": 7.25,
          "y2": 7.35,
          "width": 0.1524,
          "layer": 1,
          "curve": 0.0
        },
        {
          "x1": 7.6,
          "y1": 7.45,
          "x2": 7.635,
          "y2": 7.45,
          "width": 0.1524,
          "layer": 1,
          "curve": 0.0
        },
        {
          "x1": 6.5,
          "y1": 6.6,
          "x2": 6.3,
          "y2": 6.7,
          "width": 0.1524,
          "layer": 1,
          "curve": 0.0
        },
        {
          "x1": 6.3,
          "y1": 6.7,
          "x2": 5.0,
          "y2": 6.7,
          "width": 0.1524,
          "layer": 1,
          "curve": 0.0
        },
        {
          "x1": 2.45,
          "y1": 3.8,
          "x2": 2.7,
          "y2": 3.55,
          "width": 0.1524,
          "layer": 1,
          "curve": 0.0
        },
        {
          "x1": 2.7,
          "y1": 3.55,
          "x2": 3.05,
          "y2": 3.2,
          "width": 0.1524,
          "layer": 1,
          "curve": 0.0
        },
        {
          "x1": 1.55,
          "y1": 3.8,
          "x2": 2.45,
          "y2": 3.8,
          "width": 0.1524,
          "layer": 1,
          "curve": 0.0
        },
        {
          "x1": 1.0,
          "y1": 4.35,
          "x2": 1.55,
          "y2": 3.8,
          "width": 0.1524,
          "layer": 1,
          "curve": 0.0
        },
        {
          "x1": 1.0,
          "y1": 4.4,
          "x2": 1.0,
          "y2": 4.35,
          "width": 0.1524,
          "layer": 1,
          "curve": 0.0
        },
        {
          "x1": 1.0,
          "y1": 4.4,
          "x2": 1.0,
          "y2": 3.2,
          "width": 0.1524,
          "layer": 1,
          "curve": 0.0
        },
        {
          "x1": 1.0,
          "y1": 4.4,
          "x2": 1.0,
          "y2": 5.6,
          "width": 0.1524,
          "layer": 1,
          "curve": 0.0
        },
        {
          "x1": 1.0,
          "y1": 5.6,
          "x2": 1.0,
          "y2": 6.8,
          "width": 0.1524,
          "layer": 1,
          "curve": 0.0
        },
        {
          "x1": 1.0,
          "y1": 6.8,
          "x2": 1.0,
          "y2": 8.2,
          "width": 0.1524,
          "layer": 1,
          "curve": 0.0
        },
        {
          "x1": 1.0,
          "y1": 8.2,
          "x2": 0.975,
          "y2": 8.2,
          "width": 0.1524,
          "layer": 1,
          "curve": 0.0
        },
        {
          "x1": 4.8,
          "y1": 6.35,
          "x2": 4.9,
          "y2": 6.45,
          "width": 0.1524,
          "layer": 1,
          "curve": 0.0
        },
        {
          "x1": 4.65,
          "y1": 6.35,
          "x2": 4.8,
          "y2": 6.35,
          "width": 0.1524,
          "layer": 1,
          "curve": 0.0
        },
        {
          "x1": 4.35,
          "y1": 6.05,
          "x2": 4.65,
          "y2": 6.35,
          "width": 0.1524,
          "layer": 1,
          "curve": 0.0
        },
        {
          "x1": 4.35,
          "y1": 5.55,
          "x2": 4.35,
          "y2": 6.05,
          "width": 0.1524,
          "layer": 1,
          "curve": 0.0
        },
        {
          "x1": 2.3,
          "y1": 5.55,
          "x2": 4.35,
          "y2": 5.55,
          "width": 0.1524,
          "layer": 16,
          "curve": 0.0
        },
        {
          "x1": 2.3,
          "y1": 2.8,
          "x2": 2.3,
          "y2": 5.55,
          "width": 0.1524,
          "layer": 16,
          "curve": 0.0
        },
        {
          "x1": 2.65,
          "y1": 2.45,
          "x2": 2.3,
          "y2": 2.8,
          "width": 0.1524,
          "layer": 16,
          "curve": 0.0
        },
        {
          "x1": 2.65,
          "y1": 3.5,
          "x2": 2.65,
          "y2": 2.45,
          "width": 0.1524,
          "layer": 1,
          "curve": 0.0
        },
        {
          "x1": 4.9,
          "y1": 6.45,
          "x2": 4.965,
          "y2": 6.45,
          "width": 0.1524,
          "layer": 1,
          "curve": 0.0
        },
        {
          "x1": 2.65,
          "y1": 3.5,
          "x2": 2.7,
          "y2": 3.55,
          "width": 0.1524,
          "layer": 1,
          "curve": 0.0
        }
      ],
      "vias": [
        {
          "x": 4.35,
          "y": 5.55,
          "drill": 0.3048,
          "layerBegin": 1,
          "layerEnd": 16
        },
        {
          "x": 2.65,
          "y": 2.45,
          "drill": 0.3048,
          "layerBegin": 1,
          "layerEnd": 16
        }
      ],
      "polygons": []
    },
    {
      "name": "N$4",
      "length": 18.454949493661164,
      "bends": 7,
      "RelComponentID": null,
      "pins": [
        {
          "name": "P$1",
          "gate": "G$1",
          "pad": "1",
          "package": "C3"
        },
        {
          "name": "2",
          "gate": "G$1",
          "pad": "P$2",
          "package": "Y1"
        },
        {
          "name": "GPIO3",
          "gate": "G$1",
          "pad": "17",
          "package": "U1"
        }
      ],
      "wires": [
        {
          "x1": 7.05,
          "y1": 8.5,
          "x2": 7.05,
          "y2": 8.035,
          "width": 0.1524,
          "layer": 1,
          "curve": 0.0
        },
        {
          "x1": 9.6,
          "y1": 8.5,
          "x2": 7.05,
          "y2": 8.5,
          "width": 0.1524,
          "layer": 1,
          "curve": 0.0
        },
        {
          "x1": 2.0,
          "y1": 2.6,
          "x2": 2.0,
          "y2": 3.2,
          "width": 0.1524,
          "layer": 1,
          "curve": 0.0
        },
        {
          "x1": 0.55,
          "y1": 2.6,
          "x2": 2.0,
          "y2": 2.6,
          "width": 0.1524,
          "layer": 1,
          "curve": 0.0
        },
        {
          "x1": 0.35,
          "y1": 2.8,
          "x2": 0.55,
          "y2": 2.6,
          "width": 0.1524,
          "layer": 1,
          "curve": 0.0
        },
        {
          "x1": 0.35,
          "y1": 9.0,
          "x2": 0.35,
          "y2": 2.8,
          "width": 0.1524,
          "layer": 1,
          "curve": 0.0
        },
        {
          "x1": 6.55,
          "y1": 9.0,
          "x2": 0.35,
          "y2": 9.0,
          "width": 0.1524,
          "layer": 1,
          "curve": 0.0
        },
        {
          "x1": 7.05,
          "y1": 8.5,
          "x2": 6.55,
          "y2": 9.0,
          "width": 0.1524,
          "layer": 1,
          "curve": 0.0
        }
      ],
      "vias": [],
      "polygons": []
    },
    {
      "name": "N$5",
      "length": 9.6099747468305843,
      "bends": 8,
      "RelComponentID": null,
      "pins": [
        {
          "name": "P$2",
          "gate": "G$1",
          "pad": "2",
          "package": "C4"
        },
        {
          "name": "1",
          "gate": "G$1",
          "pad": "P$1",
          "package": "Y1"
        },
        {
          "name": "RCLK",
          "gate": "G$1",
          "pad": "9",
          "package": "U1"
        }
      ],
      "wires": [
        {
          "x1": 6.55,
          "y1": 3.5,
          "x2": 6.55,
          "y2": 4.05,
          "width": 0.1524,
          "layer": 1,
          "curve": 0.0
        },
        {
          "x1": 6.55,
          "y1": 4.05,
          "x2": 6.55,
          "y2": 5.365,
          "width": 0.1524,
          "layer": 1,
          "curve": 0.0
        },
        {
          "x1": 9.6,
          "y1": 3.5,
          "x2": 6.55,
          "y2": 3.5,
          "width": 0.1524,
          "layer": 1,
          "curve": 0.0
        },
        {
          "x1": 2.85,
          "y1": 4.4,
          "x2": 2.0,
          "y2": 4.4,
          "width": 0.1524,
          "layer": 1,
          "curve": 0.0
        },
        {
          "x1": 4.4,
          "y1": 4.4,
          "x2": 2.85,
          "y2": 4.4,
          "width": 0.1524,
          "layer": 16,
          "curve": 0.0
        },
        {
          "x1": 4.75,
          "y1": 4.05,
          "x2": 4.4,
          "y2": 4.4,
          "width": 0.1524,
          "layer": 1,
          "curve": 0.0
        },
        {
          "x1": 6.55,
          "y1": 4.05,
          "x2": 4.75,
          "y2": 4.05,
          "width": 0.1524,
          "layer": 1,
          "curve": 0.0
        }
      ],
      "vias": [
        {
          "x": 2.85,
          "y": 4.4,
          "drill": 0.3048,
          "layerBegin": 1,
          "layerEnd": 16
        },
        {
          "x": 4.4,
          "y": 4.4,
          "drill": 0.3048,
          "layerBegin": 1,
          "layerEnd": 16
        }
      ],
      "polygons": []
    },
    {
      "name": "N$6",
      "length": 8.23632034355964,
      "bends": 14,
      "RelComponentID": null,
      "pins": [
        {
          "name": "P$1",
          "gate": "G$1",
          "pad": "1",
          "package": "C6"
        },
        {
          "name": "LOUT",
          "gate": "G$1",
          "pad": "14",
          "package": "U1"
        }
      ],
      "wires": [
        {
          "x1": 7.7,
          "y1": 6.9,
          "x2": 7.65,
          "y2": 6.95,
          "width": 0.1524,
          "layer": 1,
          "curve": 0.0
        },
        {
          "x1": 8.95,
          "y1": 6.9,
          "x2": 7.7,
          "y2": 6.9,
          "width": 0.1524,
          "layer": 1,
          "curve": 0.0
        },
        {
          "x1": 9.2,
          "y1": 7.15,
          "x2": 8.95,
          "y2": 6.9,
          "width": 0.1524,
          "layer": 1,
          "curve": 0.0
        },
        {
          "x1": 8.9,
          "y1": 7.15,
          "x2": 9.2,
          "y2": 7.15,
          "width": 0.1524,
          "layer": 16,
          "curve": 0.0
        },
        {
          "x1": 8.9,
          "y1": 6.95,
          "x2": 8.9,
          "y2": 7.15,
          "width": 0.1524,
          "layer": 16,
          "curve": 0.0
        },
        {
          "x1": 8.55,
          "y1": 6.6,
          "x2": 8.9,
          "y2": 6.95,
          "width": 0.1524,
          "layer": 16,
          "curve": 0.0
        },
        {
          "x1": 8.55,
          "y1": 5.85,
          "x2": 8.55,
          "y2": 6.6,
          "width": 0.1524,
          "layer": 16,
          "curve": 0.0
        },
        {
          "x1": 8.75,
          "y1": 5.65,
          "x2": 8.55,
          "y2": 5.85,
          "width": 0.1524,
          "layer": 16,
          "curve": 0.0
        },
        {
          "x1": 8.75,
          "y1": 3.45,
          "x2": 8.75,
          "y2": 5.65,
          "width": 0.1524,
          "layer": 16,
          "curve": 0.0
        },
        {
          "x1": 8.1,
          "y1": 2.8,
          "x2": 8.75,
          "y2": 3.45,
          "width": 0.1524,
          "layer": 16,
          "curve": 0.0
        },
        {
          "x1": 8.1,
          "y1": 2.0,
          "x2": 8.1,
          "y2": 2.8,
          "width": 0.1524,
          "layer": 1,
          "curve": 0.0
        },
        {
          "x1": 7.5,
          "y1": 2.0,
          "x2": 8.1,
          "y2": 2.0,
          "width": 0.1524,
          "layer": 1,
          "curve": 0.0
        },
        {
          "x1": 7.65,
          "y1": 6.95,
          "x2": 7.635,
          "y2": 6.95,
          "width": 0.1524,
          "layer": 1,
          "curve": 0.0
        }
      ],
      "vias": [
        {
          "x": 9.2,
          "y": 7.15,
          "drill": 0.3048,
          "layerBegin": 1,
          "layerEnd": 16
        },
        {
          "x": 8.1,
          "y": 2.8,
          "drill": 0.3048,
          "layerBegin": 1,
          "layerEnd": 16
        }
      ],
      "polygons": []
    },
    {
      "name": "N$7",
      "length": 6.6585028842544416,
      "bends": 8,
      "RelComponentID": null,
      "pins": [
        {
          "name": "P$1",
          "gate": "G$1",
          "pad": "1",
          "package": "C7"
        },
        {
          "name": "ROUT",
          "gate": "G$1",
          "pad": "13",
          "package": "U1"
        }
      ],
      "wires": [
        {
          "x1": 7.75,
          "y1": 6.35,
          "x2": 7.65,
          "y2": 6.45,
          "width": 0.1524,
          "layer": 1,
          "curve": 0.0
        },
        {
          "x1": 9.1,
          "y1": 6.35,
          "x2": 7.75,
          "y2": 6.35,
          "width": 0.1524,
          "layer": 1,
          "curve": 0.0
        },
        {
          "x1": 9.55,
          "y1": 5.9,
          "x2": 9.1,
          "y2": 6.35,
          "width": 0.1524,
          "layer": 16,
          "curve": 0.0
        },
        {
          "x1": 9.55,
          "y1": 2.4,
          "x2": 9.55,
          "y2": 5.9,
          "width": 0.1524,
          "layer": 16,
          "curve": 0.0
        },
        {
          "x1": 9.15,
          "y1": 2.0,
          "x2": 9.55,
          "y2": 2.4,
          "width": 0.1524,
          "layer": 1,
          "curve": 0.0
        },
        {
          "x1": 8.7,
          "y1": 2.0,
          "x2": 9.15,
          "y2": 2.0,
          "width": 0.1524,
          "layer": 1,
          "curve": 0.0
        },
        {
          "x1": 7.65,
          "y1": 6.45,
          "x2": 7.635,
          "y2": 6.45,
          "width": 0.1524,
          "layer": 1,
          "curve": 0.0
        }
      ],
      "vias": [
        {
          "x": 9.1,
          "y": 6.35,
          "drill": 0.3048,
          "layerBegin": 1,
          "layerEnd": 16
        },
        {
          "x": 9.55,
          "y": 2.4,
          "drill": 0.3048,
          "layerBegin": 1,
          "layerEnd": 16
        }
      ],
      "polygons": []
    },
    {
      "name": "N$8",
      "length": 1.7000000000000006,
      "bends": 1,
      "RelComponentID": null,
      "pins": [
        {
          "name": "1",
          "gate": "G$1",
          "pad": "P$1",
          "package": "R1"
        },
        {
          "name": "2",
          "gate": "G$1",
          "pad": "P$2",
          "package": "R12"
        }
      ],
      "wires": [
        {
          "x1": 3.6,
          "y1": 3.2,
          "x2": 3.6,
          "y2": 2.05,
          "width": 0.1524,
          "layer": 1,
          "curve": 0.0
        },
        {
          "x1": 4.15,
          "y1": 3.2,
          "x2": 3.6,
          "y2": 3.2,
          "width": 0.1524,
          "layer": 1,
          "curve": 0.0
        }
      ],
      "vias": [],
      "polygons": []
    },
    {
      "name": "N$9",
      "length": 3.7085028842544405,
      "bends": 7,
      "RelComponentID": null,
      "pins": [
        {
          "name": "2",
          "gate": "G$1",
          "pad": "P$2",
          "package": "R10"
        },
        {
          "name": "SCLK",
          "gate": "G$1",
          "pad": "7",
          "package": "U1"
        }
      ],
      "wires": [
        {
          "x1": 4.6,
          "y1": 2.75,
          "x2": 4.6,
          "y2": 2.05,
          "width": 0.1524,
          "layer": 1,
          "curve": 0.0
        },
        {
          "x1": 4.95,
          "y1": 3.1,
          "x2": 4.6,
          "y2": 2.75,
          "width": 0.1524,
          "layer": 1,
          "curve": 0.0
        },
        {
          "x1": 5.1,
          "y1": 3.25,
          "x2": 4.95,
          "y2": 3.1,
          "width": 0.1524,
          "layer": 16,
          "curve": 0.0
        },
        {
          "x1": 5.1,
          "y1": 4.8,
          "x2": 5.1,
          "y2": 3.25,
          "width": 0.1524,
          "layer": 16,
          "curve": 0.0
        },
        {
          "x1": 5.55,
          "y1": 5.25,
          "x2": 5.1,
          "y2": 4.8,
          "width": 0.1524,
          "layer": 1,
          "curve": 0.0
        },
        {
          "x1": 5.55,
          "y1": 5.365,
          "x2": 5.55,
          "y2": 5.25,
          "width": 0.1524,
          "layer": 1,
          "curve": 0.0
        }
      ],
      "vias": [
        {
          "x": 4.95,
          "y": 3.1,
          "drill": 0.3048,
          "layerBegin": 1,
          "layerEnd": 16
        },
        {
          "x": 5.1,
          "y": 4.8,
          "drill": 0.3048,
          "layerBegin": 1,
          "layerEnd": 16
        }
      ],
      "polygons": []
    },
    {
      "name": "N$10",
      "length": 0.0,
      "bends": -1,
      "RelComponentID": null,
      "pins": [
        {
          "name": "1",
          "gate": "G$1",
          "pad": "P$1",
          "package": "R2"
        }
      ],
      "wires": [],
      "vias": [],
      "polygons": []
    },
    {
      "name": "N$11",
      "length": 3.7478427124746192,
      "bends": 8,
      "RelComponentID": null,
      "pins": [
        {
          "name": "2",
          "gate": "G$1",
          "pad": "P$2",
          "package": "R9"
        },
        {
          "name": "SDIO",
          "gate": "G$1",
          "pad": "8",
          "package": "U1"
        }
      ],
      "wires": [
        {
          "x1": 5.5,
          "y1": 2.95,
          "x2": 5.5,
          "y2": 2.05,
          "width": 0.1524,
          "layer": 1,
          "curve": 0.0
        },
        {
          "x1": 5.75,
          "y1": 2.95,
          "x2": 5.5,
          "y2": 2.95,
          "width": 0.1524,
          "layer": 1,
          "curve": 0.0
        },
        {
          "x1": 5.95,
          "y1": 3.15,
          "x2": 5.75,
          "y2": 2.95,
          "width": 0.1524,
          "layer": 16,
          "curve": 0.0
        },
        {
          "x1": 5.95,
          "y1": 4.6,
          "x2": 5.95,
          "y2": 3.15,
          "width": 0.1524,
          "layer": 16,
          "curve": 0.0
        },
        {
          "x1": 5.95,
          "y1": 5.35,
          "x2": 5.95,
          "y2": 4.6,
          "width": 0.1524,
          "layer": 1,
          "curve": 0.0
        },
        {
          "x1": 6.05,
          "y1": 5.35,
          "x2": 5.95,
          "y2": 5.35,
          "width": 0.1524,
          "layer": 1,
          "curve": 0.0
        },
        {
          "x1": 6.05,
          "y1": 5.35,
          "x2": 6.05,
          "y2": 5.365,
          "width": 0.1524,
          "layer": 1,
          "curve": 0.0
        }
      ],
      "vias": [
        {
          "x": 5.75,
          "y": 2.95,
          "drill": 0.3048,
          "layerBegin": 1,
          "layerEnd": 16
        },
        {
          "x": 5.95,
          "y": 4.6,
          "drill": 0.3048,
          "layerBegin": 1,
          "layerEnd": 16
        }
      ],
      "polygons": []
    }
  ],
  "constraints": null,
  "border": null
}