<!DOCTYPE eagle SYSTEM "eagle.dtd">
<eagle version="6.5.0">
<drawing>
<settings>
<setting alwaysvectorfont="no"/>
<setting verticaltext="up"/>
</settings>
<grid distance="0.1" unitdist="inch" unit="inch" style="lines" multiple="1" display="no" altdistance="0.01" altunitdist="inch" altunit="inch"/>
<layers>
<layer number="1" name="Top" color="4" fill="1" visible="yes" active="yes"/>
<layer number="16" name="Bottom" color="1" fill="1" visible="yes" active="yes"/>
<layer number="17" name="Pads" color="2" fill="1" visible="yes" active="yes"/>
<layer number="18" name="Vias" color="2" fill="1" visible="yes" active="yes"/>
<layer number="19" name="Unrouted" color="6" fill="1" visible="yes" active="yes"/>
<layer number="20" name="Dimension" color="15" fill="1" visible="yes" active="yes"/>
<layer number="21" name="tPlace" color="7" fill="1" visible="yes" active="yes"/>
<layer number="22" name="bPlace" color="7" fill="1" visible="yes" active="yes"/>
<layer number="23" name="tOrigins" color="15" fill="1" visible="yes" active="yes"/>
<layer number="24" name="bOrigins" color="15" fill="1" visible="yes" active="yes"/>
<layer number="25" name="tNames" color="7" fill="1" visible="yes" active="yes"/>
<layer number="26" name="bNames" color="7" fill="1" visible="yes" active="yes"/>
<layer number="27" name="tValues" color="7" fill="1" visible="yes" active="yes"/>
<layer number="28" name="bValues" color="7" fill="1" visible="yes" active="yes"/>
<layer number="29" name="tStop" color="7" fill="3" visible="yes" active="yes"/>
<layer number="30" name="bStop" color="7" fill="6" visible="yes" active="yes"/>
<layer number="31" name="tCream" color="7" fill="4" visible="yes" active="yes"/>
<layer number="32" name="bCream" color="7" fill="5" visible="yes" active="yes"/>
<layer number="33" name="tFinish" color="6" fill="3" visible="yes" active="yes"/>
<layer number="34" name="bFinish" color="6" fill="6" visible="yes" active="yes"/>
<layer number="35" name="tGlue" color="7" fill="4" visible="yes" active="yes"/>
<layer number="36" name="bGlue" color="7" fill="5" visible="yes" active="yes"/>
<layer number="37" name="tTest" color="7" fill="1" visible="yes" active="yes"/>
<layer number="38" name="bTest" color="7" fill="1" visible="yes" active="yes"/>
<layer number="39" name="tKeepout" color="4" fill="11" visible="yes" active="yes"/>
<layer number="40" name="bKeepout" color="1" fill="11" visible="yes" active="yes"/>
<layer number="41" name="tRestrict" color="4" fill="10" visible="yes" active="yes"/>
<layer number="42" name="bRestrict" color="1" fill="10" visible="yes" active="yes"/>
<layer number="43" name="vRestrict" color="2" fill="10" visible="yes" active="yes"/>
<layer number="44" name="Drills" color="7" fill="1" visible="yes" active="yes"/>
<layer number="45" name="Holes" color="7" fill="1" visible="yes" active="yes"/>
<layer number="46" name="Milling" color="3" fill="1" visible="yes" active="yes"/>
<layer number="47" name="Measures" color="7" fill="1" visible="yes" active="yes"/>
<layer number="48" name="Document" color="7" fill="1" visible="yes" active="yes"/>
<layer number="49" name="Reference" color="7" fill="1" visible="yes" active="yes"/>
<layer number="50" name="dxf" color="7" fill="1" visible="yes" active="yes"/>
<layer number="51" name="tDocu" color="7" fill="1" visible="yes" active="yes"/>
<layer number="52" name="bDocu" color="7" fill="1" visible="yes" active="yes"/>
<layer number="53" name="tGND_GNDA" color="7" fill="1" visible="yes" active="yes"/>
<layer number="54" name="bGND_GNDA" color="7" fill="1" visible="yes" active="yes"/>
<layer number="56" name="wert" color="7" fill="1" visible="yes" active="yes"/>
<layer number="57" name="tCAD" color="7" fill="1" visible="yes" active="yes"/>
<layer number="91" name="Nets" color="2" fill="1" visible="yes" active="yes"/>
<layer number="92" name="Busses" color="1" fill="1" visible="yes" active="yes"/>
<layer number="93" name="Pins" color="2" fill="1" visible="yes" active="yes"/>
<layer number="94" name="Symbols" color="4" fill="1" visible="yes" active="yes"/>
<layer number="95" name="Names" color="7" fill="1" visible="yes" active="yes"/>
<layer number="96" name="Values" color="7" fill="1" visible="yes" active="yes"/>
<layer number="97" name="Info" color="7" fill="1" visible="yes" active="yes"/>
<layer number="98" name="Guide" color="6" fill="1" visible="yes" active="yes"/>
<layer number="99" name="SpiceOrder" color="7" fill="1" visible="yes" active="yes"/>
</layers>
<library>
<packages>
<package name="16-LEADTSSOP">
<circle x="-3.7" y="2.6" radius="0.15239999999999998" width="0" layer="21"/>
<text x="-4.15" y="3.35" size="1.016" layer="25" ratio="15" font="vector">&gt;NAME</text>
<smd name="P$1" x="-2.725" y="2.275" dx="0.3" dy="0.95" layer="1" rot="R270"/>
<smd name="P$2" x="-2.725" y="1.625" dx="0.3" dy="0.95" layer="1" rot="R270"/>
<smd name="P$3" x="-2.725" y="0.975" dx="0.3" dy="0.95" layer="1" rot="R270"/>
<smd name="P$4" x="-2.725" y="0.325" dx="0.3" dy="0.95" layer="1" rot="R270"/>
<smd name="P$5" x="-2.725" y="-0.325" dx="0.3" dy="0.95" layer="1" rot="R270"/>
<smd name="P$6" x="-2.725" y="-0.975" dx="0.3" dy="0.95" layer="1" rot="R270"/>
<smd name="P$7" x="-2.725" y="-1.625" dx="0.3" dy="0.95" layer="1" rot="R270"/>
<smd name="P$8" x="-2.725" y="-2.275" dx="0.3" dy="0.95" layer="1" rot="R270"/>
<smd name="P$9" x="2.725" y="-2.275" dx="0.3" dy="0.95" layer="1" rot="R270"/>
<smd name="P$10" x="2.725" y="-1.625" dx="0.3" dy="0.95" layer="1" rot="R270"/>
<smd name="P$11" x="2.725" y="-0.975" dx="0.3" dy="0.95" layer="1" rot="R270"/>
<smd name="P$12" x="2.725" y="-0.325" dx="0.3" dy="0.95" layer="1" rot="R270"/>
<smd name="P$13" x="2.725" y="0.325" dx="0.3" dy="0.95" layer="1" rot="R270"/>
<smd name="P$14" x="2.725" y="0.975" dx="0.3" dy="0.95" layer="1" rot="R270"/>
<smd name="P$15" x="2.725" y="1.625" dx="0.3" dy="0.95" layer="1" rot="R270"/>
<smd name="P$16" x="2.725" y="2.275" dx="0.3" dy="0.95" layer="1" rot="R270"/>
<wire x1="-2.2" y1="2.8" x2="2.2" y2="2.8" width="0.15239999999999998" layer="21"/>
<wire x1="-2.2" y1="-2.8" x2="2.2" y2="-2.8" width="0.15239999999999998" layer="21"/>
</package>
</packages>
<symbols>
<symbol name="ADC">
<wire x1="-22.86" y1="12.7" x2="22.86" y2="12.7" width="0.254" layer="94"/>
<wire x1="22.86" y1="12.7" x2="22.86" y2="-12.7" width="0.254" layer="94"/>
<wire x1="22.86" y1="-12.7" x2="-22.86" y2="-12.7" width="0.254" layer="94"/>
<wire x1="-22.86" y1="-12.7" x2="-22.86" y2="12.7" width="0.254" layer="94"/>
<pin name="GND" x="-12.7" y="17.78" length="middle" rot="R270" direction="pas"/>
<pin name="AVDD" x="-7.62" y="17.78" length="middle" rot="R270" direction="pas"/>
<pin name="REFIN+/AIN3+" x="0" y="17.78" length="middle" rot="R270" direction="pas"/>
<pin name="REFIN-/AIN3-" x="5.08" y="17.78" length="middle" rot="R270" direction="pas"/>
<pin name="DIN" x="27.94" y="5.08" length="middle" rot="R180" direction="pas"/>
<pin name="SCLK" x="27.94" y="0" length="middle" rot="R180" direction="pas"/>
<pin name="!CS" x="27.94" y="-5.08" length="middle" rot="R180" direction="pas"/>
<pin name="DVDD" x="27.94" y="-10.16" length="middle" rot="R180" direction="pas"/>
<pin name="DOUT/!RDY" x="27.94" y="10.16" length="middle" rot="R180" direction="pas"/>
<pin name="CLK" x="10.16" y="-17.78" length="middle" rot="R90" direction="pas"/>
<pin name="AIN1+" x="-27.94" y="10.16" length="middle" direction="pas"/>
<pin name="AIN1-" x="-27.94" y="7.62" length="middle" direction="pas"/>
<pin name="AIN2+" x="-27.94" y="5.08" length="middle" direction="pas"/>
<pin name="AIN2-" x="-27.94" y="2.54" length="middle" direction="pas"/>
<pin name="IOUT2" x="-27.94" y="-10.16" length="middle" direction="pas"/>
<pin name="IOUT1" x="-27.94" y="-5.08" length="middle" direction="pas"/>
<text x="-20.32" y="25.4" size="1.778" layer="95">&gt;NAME</text>
<text x="-20.32" y="27.94" size="1.778" layer="96">&gt;VALUE</text>
</symbol>
</symbols>
<devicesets>
<deviceset name="AD7793">
<gates>
<gate name="G$1" symbol="ADC" x="0" y="0"/>
</gates>
<devices>
<device name="" package="16-LEADTSSOP">
<connects>
<connect gate="G$1" pin="!CS" pad="P$3"/>
<connect gate="G$1" pin="AIN1+" pad="P$5"/>
<connect gate="G$1" pin="AIN1-" pad="P$6"/>
<connect gate="G$1" pin="AIN2+" pad="P$7"/>
<connect gate="G$1" pin="AIN2-" pad="P$8"/>
<connect gate="G$1" pin="AVDD" pad="P$13"/>
<connect gate="G$1" pin="CLK" pad="P$2"/>
<connect gate="G$1" pin="DIN" pad="P$16"/>
<connect gate="G$1" pin="DOUT/!RDY" pad="P$15"/>
<connect gate="G$1" pin="DVDD" pad="P$14"/>
<connect gate="G$1" pin="GND" pad="P$12"/>
<connect gate="G$1" pin="IOUT1" pad="P$4"/>
<connect gate="G$1" pin="IOUT2" pad="P$11"/>
<connect gate="G$1" pin="REFIN+/AIN3+" pad="P$9"/>
<connect gate="G$1" pin="REFIN-/AIN3-" pad="P$10"/>
<connect gate="G$1" pin="SCLK" pad="P$1"/>
</connects>
<technologies>
<technology name=""/>
</technologies>
</device>
</devices>
</deviceset>
</devicesets>
</library>
</drawing>
</eagle>