{
  "boardWidth": 19.0,
  "boardHeight": 19.0,
  "numLayers": 2,
  "boardTemplate": null,
  "designRules": null,
  "omitBoundary": null,
  "packages": [
    {
      "name": "DCDC Converter to_5v",
      "package": "__spaceClaim__",
      "pkg_idx": 0,
      "ComponentID": "221d75a1-c30a-4529-99cb-415622b8f449",
      "RelComponentID": null,
      "width": 18.0,
      "height": 18.0,
      "koWidth": null,
      "koHeight": null,
      "originX": null,
      "originY": null,
      "x": 0.2,
      "y": 0.2,
      "rotation": 0,
      "layer": 0,
      "constraints": null,
      "multiLayer": null,
      "doNotPlace": null
    },
    {
      "name": "C1",
      "package": "TANT_3216-METRIC",
      "pkg_idx": 1,
      "ComponentID": "{b36a8169-8bf1-43fe-99b0-f116c0c27d21}",
      "RelComponentID": "221d75a1-c30a-4529-99cb-415622b8f449",
      "width": 5.3892,
      "height": 1.6,
      "koWidth": 5.3892,
      "koHeight": 1.6,
      "originX": -0.3,
      "originY": 0.0,
      "x": 14.2,
      "y": 0.6054,
      "rotation": 3,
      "layer": 0,
      "constraints": [],
      "multiLayer": null,
      "doNotPlace": true
    },
    {
      "name": "C2",
      "package": "TANT_3216-METRIC",
      "pkg_idx": 2,
      "ComponentID": "{6ca83ca8-9591-497d-b4a2-ad627a1ec98b}",
      "RelComponentID": "221d75a1-c30a-4529-99cb-415622b8f449",
      "width": 5.3892,
      "height": 1.6,
      "koWidth": 5.3892,
      "koHeight": 1.6,
      "originX": -0.3,
      "originY": 0.0,
      "x": 0.6054,
      "y": 1.0,
      "rotation": 0,
      "layer": 0,
      "constraints": [],
      "multiLayer": null,
      "doNotPlace": true
    },
    {
      "name": "C3",
      "package": "C_0402",
      "pkg_idx": 3,
      "ComponentID": "{66c958c4-385b-48cc-8126-6b53ad8ee3e2}",
      "RelComponentID": "221d75a1-c30a-4529-99cb-415622b8f449",
      "width": 1.72,
      "height": 0.72,
      "koWidth": 1.72,
      "koHeight": 0.72,
      "originX": 0.0,
      "originY": 0.0,
      "x": 6.74,
      "y": 5.74,
      "rotation": 0,
      "layer": 0,
      "constraints": [],
      "multiLayer": null,
      "doNotPlace": true
    },
    {
      "name": "C4",
      "package": "TANT_3216-METRIC",
      "pkg_idx": 4,
      "ComponentID": "{19dbdde2-95fb-4ca6-973b-8a0ae0ea8eb1}",
      "RelComponentID": "221d75a1-c30a-4529-99cb-415622b8f449",
      "width": 5.3892,
      "height": 1.6,
      "koWidth": 5.3892,
      "koHeight": 1.6,
      "originX": -0.3,
      "originY": 0.0,
      "x": 1.3054,
      "y": 4.0,
      "rotation": 0,
      "layer": 0,
      "constraints": [],
      "multiLayer": null,
      "doNotPlace": true
    },
    {
      "name": "D1",
      "package": "SMA-DIODE",
      "pkg_idx": 5,
      "ComponentID": "{1b4d0908-70a7-42c6-a80c-483b16fc5b78}",
      "RelComponentID": "221d75a1-c30a-4529-99cb-415622b8f449",
      "width": 6.8437,
      "height": 3.8742,
      "koWidth": 6.8437,
      "koHeight": 3.8742,
      "originX": 0.1,
      "originY": 0.0,
      "x": 6.715,
      "y": 1.45,
      "rotation": 2,
      "layer": 0,
      "constraints": [],
      "multiLayer": null,
      "doNotPlace": true
    },
    {
      "name": "L1",
      "package": "CR54",
      "pkg_idx": 6,
      "ComponentID": "{0f8fe6b5-80d1-4ccc-94e9-76d978e65f8b}",
      "RelComponentID": "221d75a1-c30a-4529-99cb-415622b8f449",
      "width": 5.74,
      "height": 5.74,
      "koWidth": 5.74,
      "koHeight": 5.74,
      "originX": 0.0,
      "originY": 0.0,
      "x": 13.43,
      "y": 7.83,
      "rotation": 2,
      "layer": 0,
      "constraints": [],
      "multiLayer": null,
      "doNotPlace": true
    },
    {
      "name": "U1",
      "package": "MAX710",
      "pkg_idx": 7,
      "ComponentID": "{c5a00687-b55d-465d-8aac-317e73457d2f}",
      "RelComponentID": "221d75a1-c30a-4529-99cb-415622b8f449",
      "width": 6.2924000000000007,
      "height": 10.3224,
      "koWidth": 6.2924000000000007,
      "koHeight": 10.3224,
      "originX": -0.1,
      "originY": 0.1,
      "x": 0.6388,
      "y": 7.2538,
      "rotation": 3,
      "layer": 0,
      "constraints": [],
      "multiLayer": null,
      "doNotPlace": true
    }
  ],
  "signals": [
    {
      "name": "N$0",
      "length": 28.565321166306124,
      "bends": 24,
      "RelComponentID": "221d75a1-c30a-4529-99cb-415622b8f449",
      "pins": [
        {
          "name": "-",
          "gate": "G$1",
          "pad": "P$2",
          "package": "C1"
        },
        {
          "name": "P$2",
          "gate": "G$1",
          "pad": "2",
          "package": "C3"
        },
        {
          "name": "PGND2",
          "gate": "G$1",
          "pad": "15",
          "package": "U1"
        },
        {
          "name": "PGND",
          "gate": "G$1",
          "pad": "2",
          "package": "U1"
        },
        {
          "name": "GND",
          "gate": "G$1",
          "pad": "14",
          "package": "U1"
        },
        {
          "name": "ILIM",
          "gate": "G$1",
          "pad": "3",
          "package": "U1"
        },
        {
          "name": "-",
          "gate": "G$1",
          "pad": "P$2",
          "package": "C2"
        },
        {
          "name": "-",
          "gate": "G$1",
          "pad": "P$2",
          "package": "C4"
        }
      ],
      "wires": [
        {
          "x1": 5.45,
          "y1": 1.5,
          "x2": 5.15,
          "y2": 1.8,
          "width": 0.1524,
          "layer": 1,
          "curve": 0.0
        },
        {
          "x1": 15.0,
          "y1": 1.5,
          "x2": 9.35,
          "y2": 1.5,
          "width": 0.1524,
          "layer": 1,
          "curve": 0.0
        },
        {
          "x1": 9.35,
          "y1": 1.5,
          "x2": 5.45,
          "y2": 1.5,
          "width": 0.1524,
          "layer": 1,
          "curve": 0.0
        },
        {
          "x1": 5.15,
          "y1": 1.8,
          "x2": 5.125,
          "y2": 1.8,
          "width": 0.1524,
          "layer": 1,
          "curve": 0.0
        },
        {
          "x1": 15.0,
          "y1": 1.5,
          "x2": 15.0,
          "y2": 1.475,
          "width": 0.1524,
          "layer": 1,
          "curve": 0.0
        },
        {
          "x1": 8.85,
          "y1": 12.85,
          "x2": 7.65,
          "y2": 12.85,
          "width": 0.1524,
          "layer": 1,
          "curve": 0.0
        },
        {
          "x1": 7.65,
          "y1": 12.85,
          "x2": 7.605,
          "y2": 12.84,
          "width": 0.1524,
          "layer": 1,
          "curve": 0.0
        },
        {
          "x1": 8.85,
          "y1": 12.85,
          "x2": 8.875,
          "y2": 12.84,
          "width": 0.1524,
          "layer": 1,
          "curve": 0.0
        },
        {
          "x1": 8.1,
          "y1": 7.75,
          "x2": 8.1,
          "y2": 6.1,
          "width": 0.1524,
          "layer": 1,
          "curve": 0.0
        },
        {
          "x1": 7.65,
          "y1": 7.75,
          "x2": 8.1,
          "y2": 7.75,
          "width": 0.1524,
          "layer": 1,
          "curve": 0.0
        },
        {
          "x1": 7.65,
          "y1": 7.75,
          "x2": 7.605,
          "y2": 7.76,
          "width": 0.1524,
          "layer": 1,
          "curve": 0.0
        },
        {
          "x1": 8.15,
          "y1": 7.8,
          "x2": 8.85,
          "y2": 7.8,
          "width": 0.1524,
          "layer": 1,
          "curve": 0.0
        },
        {
          "x1": 8.85,
          "y1": 7.8,
          "x2": 8.875,
          "y2": 7.76,
          "width": 0.1524,
          "layer": 1,
          "curve": 0.0
        },
        {
          "x1": 8.15,
          "y1": 7.8,
          "x2": 8.1,
          "y2": 7.75,
          "width": 0.1524,
          "layer": 1,
          "curve": 0.0
        },
        {
          "x1": 8.9,
          "y1": 7.85,
          "x2": 8.9,
          "y2": 12.8,
          "width": 0.1524,
          "layer": 1,
          "curve": 0.0
        },
        {
          "x1": 8.9,
          "y1": 12.8,
          "x2": 8.875,
          "y2": 12.84,
          "width": 0.1524,
          "layer": 1,
          "curve": 0.0
        },
        {
          "x1": 8.9,
          "y1": 7.85,
          "x2": 8.875,
          "y2": 7.76,
          "width": 0.1524,
          "layer": 1,
          "curve": 0.0
        },
        {
          "x1": 5.95,
          "y1": 5.5,
          "x2": 5.25,
          "y2": 4.8,
          "width": 0.1524,
          "layer": 1,
          "curve": 0.0
        },
        {
          "x1": 7.55,
          "y1": 5.5,
          "x2": 5.95,
          "y2": 5.5,
          "width": 0.1524,
          "layer": 1,
          "curve": 0.0
        },
        {
          "x1": 8.1,
          "y1": 6.05,
          "x2": 7.55,
          "y2": 5.5,
          "width": 0.1524,
          "layer": 1,
          "curve": 0.0
        },
        {
          "x1": 5.25,
          "y1": 4.8,
          "x2": 5.225,
          "y2": 4.8,
          "width": 0.1524,
          "layer": 1,
          "curve": 0.0
        },
        {
          "x1": 8.1,
          "y1": 6.05,
          "x2": 8.1,
          "y2": 6.1,
          "width": 0.1524,
          "layer": 1,
          "curve": 0.0
        },
        {
          "x1": 9.35,
          "y1": 5.45,
          "x2": 9.35,
          "y2": 1.5,
          "width": 0.1524,
          "layer": 1,
          "curve": 0.0
        },
        {
          "x1": 7.6,
          "y1": 5.45,
          "x2": 9.35,
          "y2": 5.45,
          "width": 0.1524,
          "layer": 1,
          "curve": 0.0
        },
        {
          "x1": 7.6,
          "y1": 5.45,
          "x2": 7.55,
          "y2": 5.5,
          "width": 0.1524,
          "layer": 1,
          "curve": 0.0
        }
      ],
      "vias": [],
      "polygons": []
    },
    {
      "name": "N$1",
      "length": 41.38883667283735,
      "bends": 15,
      "RelComponentID": "221d75a1-c30a-4529-99cb-415622b8f449",
      "pins": [
        {
          "name": "+",
          "gate": "G$1",
          "pad": "P$1",
          "package": "C1"
        },
        {
          "name": "3/5(FB)",
          "gate": "G$1",
          "pad": "6",
          "package": "U1"
        },
        {
          "name": "1",
          "gate": "G$1",
          "pad": "P$1",
          "package": "L1"
        },
        {
          "name": "LBI+",
          "gate": "G$1",
          "pad": "11",
          "package": "U1"
        }
      ],
      "wires": [
        {
          "x1": 3.8,
          "y1": 12.8,
          "x2": 3.8,
          "y2": 7.8,
          "width": 0.1524,
          "layer": 1,
          "curve": 0.0
        },
        {
          "x1": 3.8,
          "y1": 7.8,
          "x2": 3.795,
          "y2": 7.76,
          "width": 0.1524,
          "layer": 1,
          "curve": 0.0
        },
        {
          "x1": 3.8,
          "y1": 12.8,
          "x2": 3.795,
          "y2": 12.84,
          "width": 0.1524,
          "layer": 1,
          "curve": 0.0
        },
        {
          "x1": 18.0,
          "y1": 7.55,
          "x2": 15.0,
          "y2": 4.55,
          "width": 0.1524,
          "layer": 1,
          "curve": 0.0
        },
        {
          "x1": 18.6,
          "y1": 7.55,
          "x2": 18.0,
          "y2": 7.55,
          "width": 0.1524,
          "layer": 1,
          "curve": 0.0
        },
        {
          "x1": 19.0,
          "y1": 7.95,
          "x2": 18.6,
          "y2": 7.55,
          "width": 0.1524,
          "layer": 1,
          "curve": 0.0
        },
        {
          "x1": 19.0,
          "y1": 13.7,
          "x2": 19.0,
          "y2": 7.95,
          "width": 0.1524,
          "layer": 1,
          "curve": 0.0
        },
        {
          "x1": 4.7,
          "y1": 13.7,
          "x2": 9.65,
          "y2": 13.7,
          "width": 0.1524,
          "layer": 1,
          "curve": 0.0
        },
        {
          "x1": 9.65,
          "y1": 13.7,
          "x2": 19.0,
          "y2": 13.7,
          "width": 0.1524,
          "layer": 1,
          "curve": 0.0
        },
        {
          "x1": 3.85,
          "y1": 12.85,
          "x2": 4.7,
          "y2": 13.7,
          "width": 0.1524,
          "layer": 1,
          "curve": 0.0
        },
        {
          "x1": 15.0,
          "y1": 4.55,
          "x2": 15.0,
          "y2": 4.525,
          "width": 0.1524,
          "layer": 1,
          "curve": 0.0
        },
        {
          "x1": 3.85,
          "y1": 12.85,
          "x2": 3.795,
          "y2": 12.84,
          "width": 0.1524,
          "layer": 1,
          "curve": 0.0
        },
        {
          "x1": 13.15,
          "y1": 12.0,
          "x2": 16.3,
          "y2": 8.85,
          "width": 0.1524,
          "layer": 1,
          "curve": 0.0
        },
        {
          "x1": 9.8,
          "y1": 12.0,
          "x2": 13.15,
          "y2": 12.0,
          "width": 0.1524,
          "layer": 1,
          "curve": 0.0
        },
        {
          "x1": 9.65,
          "y1": 12.15,
          "x2": 9.8,
          "y2": 12.0,
          "width": 0.1524,
          "layer": 1,
          "curve": 0.0
        },
        {
          "x1": 9.65,
          "y1": 13.7,
          "x2": 9.65,
          "y2": 12.15,
          "width": 0.1524,
          "layer": 1,
          "curve": 0.0
        }
      ],
      "vias": [],
      "polygons": []
    },
    {
      "name": "N$2",
      "length": 12.647644556949151,
      "bends": 6,
      "RelComponentID": "221d75a1-c30a-4529-99cb-415622b8f449",
      "pins": [
        {
          "name": "+",
          "gate": "G$1",
          "pad": "P$1",
          "package": "C2"
        },
        {
          "name": "PS",
          "gate": "G$1",
          "pad": "12",
          "package": "U1"
        },
        {
          "name": "C",
          "gate": "G$1",
          "pad": "C",
          "package": "D1"
        }
      ],
      "wires": [
        {
          "x1": 3.3,
          "y1": 6.0,
          "x2": 5.05,
          "y2": 7.75,
          "width": 0.1524,
          "layer": 1,
          "curve": 0.0
        },
        {
          "x1": 3.3,
          "y1": 1.8,
          "x2": 3.3,
          "y2": 3.4,
          "width": 0.1524,
          "layer": 1,
          "curve": 0.0
        },
        {
          "x1": 3.3,
          "y1": 3.4,
          "x2": 3.3,
          "y2": 6.0,
          "width": 0.1524,
          "layer": 1,
          "curve": 0.0
        },
        {
          "x1": 2.075,
          "y1": 1.8,
          "x2": 3.3,
          "y2": 1.8,
          "width": 0.1524,
          "layer": 1,
          "curve": 0.0
        },
        {
          "x1": 5.05,
          "y1": 7.75,
          "x2": 5.065,
          "y2": 7.76,
          "width": 0.1524,
          "layer": 1,
          "curve": 0.0
        },
        {
          "x1": 3.3,
          "y1": 3.4,
          "x2": 8.0,
          "y2": 3.4,
          "width": 0.1524,
          "layer": 1,
          "curve": 0.0
        },
        {
          "x1": 8.0,
          "y1": 3.4,
          "x2": 8.0268,
          "y2": 3.3871,
          "width": 0.1524,
          "layer": 1,
          "curve": 0.0
        }
      ],
      "vias": [],
      "polygons": []
    },
    {
      "name": "N$3",
      "length": 2.41802775637732,
      "bends": 2,
      "RelComponentID": "221d75a1-c30a-4529-99cb-415622b8f449",
      "pins": [
        {
          "name": "P$1",
          "gate": "G$1",
          "pad": "1",
          "package": "C3"
        },
        {
          "name": "REF",
          "gate": "G$1",
          "pad": "13",
          "package": "U1"
        }
      ],
      "wires": [
        {
          "x1": 7.1,
          "y1": 7.75,
          "x2": 7.1,
          "y2": 6.1,
          "width": 0.1524,
          "layer": 1,
          "curve": 0.0
        },
        {
          "x1": 6.35,
          "y1": 7.75,
          "x2": 7.1,
          "y2": 7.75,
          "width": 0.1524,
          "layer": 1,
          "curve": 0.0
        },
        {
          "x1": 6.35,
          "y1": 7.75,
          "x2": 6.335,
          "y2": 7.76,
          "width": 0.1524,
          "layer": 1,
          "curve": 0.0
        }
      ],
      "vias": [],
      "polygons": []
    },
    {
      "name": "N$4",
      "length": 4.3323778785542437,
      "bends": 5,
      "RelComponentID": "221d75a1-c30a-4529-99cb-415622b8f449",
      "pins": [
        {
          "name": "+",
          "gate": "G$1",
          "pad": "P$1",
          "package": "C4"
        },
        {
          "name": "LBI-",
          "gate": "G$1",
          "pad": "10",
          "package": "U1"
        },
        {
          "name": "OUT",
          "gate": "G$1",
          "pad": "9",
          "package": "U1"
        }
      ],
      "wires": [
        {
          "x1": 2.5,
          "y1": 7.8,
          "x2": 2.15,
          "y2": 7.8,
          "width": 0.1524,
          "layer": 1,
          "curve": 0.0
        },
        {
          "x1": 2.15,
          "y1": 7.8,
          "x2": 1.3,
          "y2": 7.8,
          "width": 0.1524,
          "layer": 1,
          "curve": 0.0
        },
        {
          "x1": 1.3,
          "y1": 7.8,
          "x2": 1.255,
          "y2": 7.76,
          "width": 0.1524,
          "layer": 1,
          "curve": 0.0
        },
        {
          "x1": 2.5,
          "y1": 7.8,
          "x2": 2.525,
          "y2": 7.76,
          "width": 0.1524,
          "layer": 1,
          "curve": 0.0
        },
        {
          "x1": 2.15,
          "y1": 4.8,
          "x2": 2.15,
          "y2": 7.8,
          "width": 0.1524,
          "layer": 1,
          "curve": 0.0
        },
        {
          "x1": 2.15,
          "y1": 4.8,
          "x2": 2.175,
          "y2": 4.8,
          "width": 0.1524,
          "layer": 1,
          "curve": 0.0
        }
      ],
      "vias": [],
      "polygons": []
    },
    {
      "name": "N$5",
      "length": 25.762526136363913,
      "bends": 12,
      "RelComponentID": "221d75a1-c30a-4529-99cb-415622b8f449",
      "pins": [
        {
          "name": "A",
          "gate": "G$1",
          "pad": "A",
          "package": "D1"
        },
        {
          "name": "LX",
          "gate": "G$1",
          "pad": "1",
          "package": "U1"
        },
        {
          "name": "LX2",
          "gate": "G$1",
          "pad": "16",
          "package": "U1"
        },
        {
          "name": "2",
          "gate": "G$1",
          "pad": "P$2",
          "package": "L1"
        }
      ],
      "wires": [
        {
          "x1": 12.4,
          "y1": 5.5,
          "x2": 10.15,
          "y2": 7.75,
          "width": 0.1524,
          "layer": 1,
          "curve": 0.0
        },
        {
          "x1": 12.4,
          "y1": 3.4,
          "x2": 12.4,
          "y2": 5.5,
          "width": 0.1524,
          "layer": 1,
          "curve": 0.0
        },
        {
          "x1": 10.15,
          "y1": 7.75,
          "x2": 10.145,
          "y2": 7.76,
          "width": 0.1524,
          "layer": 1,
          "curve": 0.0
        },
        {
          "x1": 12.4,
          "y1": 3.4,
          "x2": 12.4468,
          "y2": 3.3871,
          "width": 0.1524,
          "layer": 1,
          "curve": 0.0
        },
        {
          "x1": 10.4,
          "y1": 12.55,
          "x2": 10.15,
          "y2": 12.8,
          "width": 0.1524,
          "layer": 1,
          "curve": 0.0
        },
        {
          "x1": 16.3,
          "y1": 12.55,
          "x2": 10.4,
          "y2": 12.55,
          "width": 0.1524,
          "layer": 1,
          "curve": 0.0
        },
        {
          "x1": 10.15,
          "y1": 12.8,
          "x2": 10.145,
          "y2": 12.84,
          "width": 0.1524,
          "layer": 1,
          "curve": 0.0
        },
        {
          "x1": 14.8,
          "y1": 7.9,
          "x2": 12.4,
          "y2": 5.5,
          "width": 0.1524,
          "layer": 1,
          "curve": 0.0
        },
        {
          "x1": 18.5,
          "y1": 7.9,
          "x2": 14.8,
          "y2": 7.9,
          "width": 0.1524,
          "layer": 1,
          "curve": 0.0
        },
        {
          "x1": 18.65,
          "y1": 8.05,
          "x2": 18.5,
          "y2": 7.9,
          "width": 0.1524,
          "layer": 1,
          "curve": 0.0
        },
        {
          "x1": 18.65,
          "y1": 12.5,
          "x2": 18.65,
          "y2": 8.05,
          "width": 0.1524,
          "layer": 1,
          "curve": 0.0
        },
        {
          "x1": 16.35,
          "y1": 12.5,
          "x2": 18.65,
          "y2": 12.5,
          "width": 0.1524,
          "layer": 1,
          "curve": 0.0
        },
        {
          "x1": 16.35,
          "y1": 12.5,
          "x2": 16.3,
          "y2": 12.55,
          "width": 0.1524,
          "layer": 1,
          "curve": 0.0
        }
      ],
      "vias": [],
      "polygons": []
    },
    {
      "name": "N$6",
      "length": 1.2730235463221369,
      "bends": 2,
      "RelComponentID": "221d75a1-c30a-4529-99cb-415622b8f449",
      "pins": [
        {
          "name": "N/E",
          "gate": "G$1",
          "pad": "7",
          "package": "U1"
        },
        {
          "name": "LBO",
          "gate": "G$1",
          "pad": "8",
          "package": "U1"
        }
      ],
      "wires": [
        {
          "x1": 2.5,
          "y1": 12.85,
          "x2": 1.3,
          "y2": 12.85,
          "width": 0.1524,
          "layer": 1,
          "curve": 0.0
        },
        {
          "x1": 1.3,
          "y1": 12.85,
          "x2": 1.255,
          "y2": 12.84,
          "width": 0.1524,
          "layer": 1,
          "curve": 0.0
        },
        {
          "x1": 2.5,
          "y1": 12.85,
          "x2": 2.525,
          "y2": 12.84,
          "width": 0.1524,
          "layer": 1,
          "curve": 0.0
        }
      ],
      "vias": [],
      "polygons": []
    }
  ],
  "constraints": null,
  "border": null
}