{
  "boardWidth": 21.0,
  "boardHeight": 21.0,
  "numLayers": 2,
  "boardTemplate": null,
  "designRules": null,
  "omitBoundary": null,
  "packages": [
    {
      "name": "SUBCKT_OLED",
      "package": "__spaceClaim__",
      "pkg_idx": 0,
      "ComponentID": null,
      "RelComponentID": null,
      "width": 20.0,
      "height": 20.0,
      "koWidth": null,
      "koHeight": null,
      "originX": null,
      "originY": null,
      "x": 0.2,
      "y": 0.2,
      "rotation": 0,
      "layer": 0,
      "constraints": null,
      "multiLayer": null,
      "doNotPlace": null
    },
    {
      "name": "C1",
      "package": "C_0805",
      "pkg_idx": 1,
      "ComponentID": "{2a7054a3-15ed-466e-8c7e-4982a5720461}",
      "RelComponentID": null,
      "width": 3.35,
      "height": 1.55,
      "koWidth": 3.35,
      "koHeight": 1.55,
      "originX": 0.0,
      "originY": 0.0,
      "x": 15.5,
      "y": 3.7,
      "rotation": 3,
      "layer": 0,
      "constraints": [],
      "multiLayer": null,
      "doNotPlace": true
    },
    {
      "name": "C2",
      "package": "C_0805",
      "pkg_idx": 2,
      "ComponentID": "{e7cdc82b-c622-4ca3-8c14-4d13878b2930}",
      "RelComponentID": null,
      "width": 3.35,
      "height": 1.55,
      "koWidth": 3.35,
      "koHeight": 1.55,
      "originX": 0.0,
      "originY": 0.0,
      "x": 4.8,
      "y": 16.6,
      "rotation": 0,
      "layer": 0,
      "constraints": [],
      "multiLayer": null,
      "doNotPlace": true
    },
    {
      "name": "C3",
      "package": "C_0805",
      "pkg_idx": 3,
      "ComponentID": "{5cb869f7-faee-4e8b-b652-ad3be35a760e}",
      "RelComponentID": null,
      "width": 3.35,
      "height": 1.55,
      "koWidth": 3.35,
      "koHeight": 1.55,
      "originX": 0.0,
      "originY": 0.0,
      "x": 0.9,
      "y": 15.7,
      "rotation": 0,
      "layer": 0,
      "constraints": [],
      "multiLayer": null,
      "doNotPlace": true
    },
    {
      "name": "C4",
      "package": "C_0603",
      "pkg_idx": 4,
      "ComponentID": "{a67956f8-db3c-4ccb-aae8-14942dbda6ec}",
      "RelComponentID": null,
      "width": 2.95,
      "height": 1.1,
      "koWidth": 2.95,
      "koHeight": 1.1,
      "originX": 0.0,
      "originY": 0.0,
      "x": 5.5,
      "y": 2.8,
      "rotation": 0,
      "layer": 0,
      "constraints": [],
      "multiLayer": null,
      "doNotPlace": true
    },
    {
      "name": "C5",
      "package": "C_1206",
      "pkg_idx": 5,
      "ComponentID": "{9f160b53-42c0-4a7f-9e0c-16800782799c}",
      "RelComponentID": null,
      "width": 4.5500000000000007,
      "height": 1.9,
      "koWidth": 4.5500000000000007,
      "koHeight": 1.9,
      "originX": 0.0,
      "originY": 0.0,
      "x": 9.7,
      "y": 2.7,
      "rotation": 2,
      "layer": 0,
      "constraints": [],
      "multiLayer": null,
      "doNotPlace": true
    },
    {
      "name": "C6",
      "package": "C_0603",
      "pkg_idx": 6,
      "ComponentID": "{63c0ffef-6c7d-414d-be5d-3ef292bef059}",
      "RelComponentID": null,
      "width": 2.95,
      "height": 1.1,
      "koWidth": 2.95,
      "koHeight": 1.1,
      "originX": 0.0,
      "originY": 0.0,
      "x": 5.6,
      "y": 5.4,
      "rotation": 0,
      "layer": 0,
      "constraints": [],
      "multiLayer": null,
      "doNotPlace": true
    },
    {
      "name": "OLED_66",
      "package": "OLED-0.66-64X48",
      "pkg_idx": 7,
      "ComponentID": "{96e8261d-8227-46aa-8f94-9c9ea32e00b0}",
      "RelComponentID": null,
      "width": 17.9,
      "height": 4.8,
      "koWidth": 17.9,
      "koHeight": 4.8,
      "originX": 8.7,
      "originY": -1.4,
      "x": 0.99999999999999911,
      "y": 7.6,
      "rotation": 0,
      "layer": 0,
      "constraints": [],
      "multiLayer": null,
      "doNotPlace": true
    },
    {
      "name": "R1",
      "package": "R_0603",
      "pkg_idx": 8,
      "ComponentID": "{3127c1b0-8d3d-4b2b-8027-4fff4e087620}",
      "RelComponentID": null,
      "width": 2.4,
      "height": 0.8,
      "koWidth": 2.4,
      "koHeight": 0.8,
      "originX": 0.0,
      "originY": 0.0,
      "x": 10.4,
      "y": 7.8,
      "rotation": 2,
      "layer": 0,
      "constraints": [],
      "multiLayer": null,
      "doNotPlace": true
    },
    {
      "name": "R2",
      "package": "R_0603",
      "pkg_idx": 9,
      "ComponentID": "{be53c13b-df0e-4925-bf98-4a895947b217}",
      "RelComponentID": null,
      "width": 2.4,
      "height": 0.8,
      "koWidth": 2.4,
      "koHeight": 0.8,
      "originX": 0.0,
      "originY": 0.0,
      "x": 4.9,
      "y": 8.4,
      "rotation": 0,
      "layer": 0,
      "constraints": [],
      "multiLayer": null,
      "doNotPlace": true
    }
  ],
  "signals": [
    {
      "name": "N$0",
      "length": 5.6763455967290586,
      "bends": 5,
      "RelComponentID": null,
      "pins": [
        {
          "name": "P$1",
          "gate": "G$1",
          "pad": "1",
          "package": "C1"
        },
        {
          "name": "VCC",
          "gate": "G1",
          "pad": "26",
          "package": "OLED_66"
        }
      ],
      "wires": [
        {
          "x1": 16.2,
          "y1": 8.75,
          "x2": 16.2,
          "y2": 6.3,
          "width": 0.1524,
          "layer": 1,
          "curve": 0.0
        },
        {
          "x1": 17.35,
          "y1": 9.9,
          "x2": 16.2,
          "y2": 8.75,
          "width": 0.1524,
          "layer": 16,
          "curve": 0.0
        },
        {
          "x1": 17.35,
          "y1": 11.4,
          "x2": 17.35,
          "y2": 9.9,
          "width": 0.1524,
          "layer": 1,
          "curve": 0.0
        },
        {
          "x1": 17.45,
          "y1": 11.4,
          "x2": 17.35,
          "y2": 11.4,
          "width": 0.1524,
          "layer": 1,
          "curve": 0.0
        }
      ],
      "vias": [
        {
          "x": 16.2,
          "y": 8.75,
          "drill": 0.3048,
          "layerBegin": 1,
          "layerEnd": 16
        },
        {
          "x": 17.35,
          "y": 9.9,
          "drill": 0.3048,
          "layerBegin": 1,
          "layerEnd": 16
        }
      ],
      "polygons": []
    },
    {
      "name": "N$1",
      "length": 43.80452018978108,
      "bends": 27,
      "RelComponentID": null,
      "pins": [
        {
          "name": "P$2",
          "gate": "G$1",
          "pad": "2",
          "package": "C1"
        },
        {
          "name": "VSS",
          "gate": "G1",
          "pad": "7",
          "package": "OLED_66"
        },
        {
          "name": "GND@1",
          "gate": "G1",
          "pad": "1",
          "package": "OLED_66"
        },
        {
          "name": "VLSS",
          "gate": "G1",
          "pad": "27",
          "package": "OLED_66"
        },
        {
          "name": "GND@2",
          "gate": "G1",
          "pad": "28",
          "package": "OLED_66"
        },
        {
          "name": "P$2",
          "gate": "G$1",
          "pad": "2",
          "package": "C6"
        },
        {
          "name": "D/!C!",
          "gate": "G1",
          "pad": "13",
          "package": "OLED_66"
        },
        {
          "name": "BS2",
          "gate": "G1",
          "pad": "10",
          "package": "OLED_66"
        },
        {
          "name": "P$2",
          "gate": "G$1",
          "pad": "2",
          "package": "C5"
        },
        {
          "name": "2",
          "gate": "G$1",
          "pad": "P$2",
          "package": "R1"
        },
        {
          "name": "P$2",
          "gate": "G$1",
          "pad": "2",
          "package": "C4"
        }
      ],
      "wires": [
        {
          "x1": 8.5,
          "y1": 5.9,
          "x2": 10.8,
          "y2": 8.2,
          "width": 0.1524,
          "layer": 1,
          "curve": 0.0
        },
        {
          "x1": 7.9,
          "y1": 5.9,
          "x2": 8.5,
          "y2": 5.9,
          "width": 0.1524,
          "layer": 1,
          "curve": 0.0
        },
        {
          "x1": 7.8,
          "y1": 5.85,
          "x2": 7.8,
          "y2": 3.3,
          "width": 0.1524,
          "layer": 1,
          "curve": 0.0
        },
        {
          "x1": 7.85,
          "y1": 5.85,
          "x2": 7.8,
          "y2": 5.85,
          "width": 0.1524,
          "layer": 1,
          "curve": 0.0
        },
        {
          "x1": 7.85,
          "y1": 5.85,
          "x2": 7.9,
          "y2": 5.9,
          "width": 0.1524,
          "layer": 1,
          "curve": 0.0
        },
        {
          "x1": 15.7,
          "y1": 4.8,
          "x2": 16.2,
          "y2": 4.3,
          "width": 0.1524,
          "layer": 1,
          "curve": 0.0
        },
        {
          "x1": 11.5,
          "y1": 4.8,
          "x2": 15.7,
          "y2": 4.8,
          "width": 0.1524,
          "layer": 1,
          "curve": 0.0
        },
        {
          "x1": 10.3,
          "y1": 3.6,
          "x2": 11.5,
          "y2": 4.8,
          "width": 0.1524,
          "layer": 1,
          "curve": 0.0
        },
        {
          "x1": 10.25,
          "y1": 3.65,
          "x2": 7.85,
          "y2": 3.65,
          "width": 0.1524,
          "layer": 1,
          "curve": 0.0
        },
        {
          "x1": 7.85,
          "y1": 3.65,
          "x2": 7.8,
          "y2": 3.3,
          "width": 0.1524,
          "layer": 1,
          "curve": 0.0
        },
        {
          "x1": 10.25,
          "y1": 3.65,
          "x2": 10.3,
          "y2": 3.6,
          "width": 0.1524,
          "layer": 1,
          "curve": 0.0
        },
        {
          "x1": 18.75,
          "y1": 11.4,
          "x2": 18.1,
          "y2": 11.4,
          "width": 0.1524,
          "layer": 1,
          "curve": 0.0
        },
        {
          "x1": 1.2,
          "y1": 12.65,
          "x2": 1.2,
          "y2": 11.4,
          "width": 0.1524,
          "layer": 1,
          "curve": 0.0
        },
        {
          "x1": 4.7,
          "y1": 12.65,
          "x2": 1.2,
          "y2": 12.65,
          "width": 0.1524,
          "layer": 1,
          "curve": 0.0
        },
        {
          "x1": 5.1,
          "y1": 12.25,
          "x2": 4.75,
          "y2": 12.6,
          "width": 0.1524,
          "layer": 1,
          "curve": 0.0
        },
        {
          "x1": 4.75,
          "y1": 12.6,
          "x2": 4.7,
          "y2": 12.65,
          "width": 0.1524,
          "layer": 1,
          "curve": 0.0
        },
        {
          "x1": 5.1,
          "y1": 11.4,
          "x2": 5.1,
          "y2": 12.25,
          "width": 0.1524,
          "layer": 1,
          "curve": 0.0
        },
        {
          "x1": 7.05,
          "y1": 12.65,
          "x2": 7.05,
          "y2": 11.4,
          "width": 0.1524,
          "layer": 1,
          "curve": 0.0
        },
        {
          "x1": 4.8,
          "y1": 12.65,
          "x2": 7.05,
          "y2": 12.65,
          "width": 0.1524,
          "layer": 1,
          "curve": 0.0
        },
        {
          "x1": 4.8,
          "y1": 12.65,
          "x2": 4.75,
          "y2": 12.6,
          "width": 0.1524,
          "layer": 1,
          "curve": 0.0
        },
        {
          "x1": 9.0,
          "y1": 12.65,
          "x2": 9.0,
          "y2": 11.4,
          "width": 0.1524,
          "layer": 1,
          "curve": 0.0
        },
        {
          "x1": 7.05,
          "y1": 12.65,
          "x2": 9.0,
          "y2": 12.65,
          "width": 0.1524,
          "layer": 1,
          "curve": 0.0
        },
        {
          "x1": 18.05,
          "y1": 12.65,
          "x2": 18.05,
          "y2": 11.45,
          "width": 0.1524,
          "layer": 1,
          "curve": 0.0
        },
        {
          "x1": 9.0,
          "y1": 12.65,
          "x2": 18.05,
          "y2": 12.65,
          "width": 0.1524,
          "layer": 1,
          "curve": 0.0
        },
        {
          "x1": 18.05,
          "y1": 11.45,
          "x2": 18.1,
          "y2": 11.4,
          "width": 0.1524,
          "layer": 1,
          "curve": 0.0
        },
        {
          "x1": 9.05,
          "y1": 9.95,
          "x2": 10.8,
          "y2": 8.2,
          "width": 0.1524,
          "layer": 1,
          "curve": 0.0
        },
        {
          "x1": 9.05,
          "y1": 11.35,
          "x2": 9.05,
          "y2": 9.95,
          "width": 0.1524,
          "layer": 1,
          "curve": 0.0
        },
        {
          "x1": 9.05,
          "y1": 11.35,
          "x2": 9.0,
          "y2": 11.4,
          "width": 0.1524,
          "layer": 1,
          "curve": 0.0
        }
      ],
      "vias": [],
      "polygons": []
    },
    {
      "name": "N$2",
      "length": 9.831980515339465,
      "bends": 7,
      "RelComponentID": null,
      "pins": [
        {
          "name": "P$1",
          "gate": "G$1",
          "pad": "1",
          "package": "C2"
        },
        {
          "name": "C1P",
          "gate": "G1",
          "pad": "4",
          "package": "OLED_66"
        }
      ],
      "wires": [
        {
          "x1": 5.4,
          "y1": 13.2,
          "x2": 5.4,
          "y2": 17.3,
          "width": 0.1524,
          "layer": 1,
          "curve": 0.0
        },
        {
          "x1": 3.55,
          "y1": 11.35,
          "x2": 5.4,
          "y2": 13.2,
          "width": 0.1524,
          "layer": 16,
          "curve": 0.0
        },
        {
          "x1": 3.55,
          "y1": 9.9,
          "x2": 3.55,
          "y2": 11.35,
          "width": 0.1524,
          "layer": 16,
          "curve": 0.0
        },
        {
          "x1": 3.55,
          "y1": 10.15,
          "x2": 3.55,
          "y2": 9.9,
          "width": 0.1524,
          "layer": 1,
          "curve": 0.0
        },
        {
          "x1": 3.15,
          "y1": 10.55,
          "x2": 3.55,
          "y2": 10.15,
          "width": 0.1524,
          "layer": 1,
          "curve": 0.0
        },
        {
          "x1": 3.15,
          "y1": 11.4,
          "x2": 3.15,
          "y2": 10.55,
          "width": 0.1524,
          "layer": 1,
          "curve": 0.0
        }
      ],
      "vias": [
        {
          "x": 5.4,
          "y": 13.2,
          "drill": 0.3048,
          "layerBegin": 1,
          "layerEnd": 16
        },
        {
          "x": 3.55,
          "y": 9.9,
          "drill": 0.3048,
          "layerBegin": 1,
          "layerEnd": 16
        }
      ],
      "polygons": []
    },
    {
      "name": "N$3",
      "length": 10.991168824543143,
      "bends": 8,
      "RelComponentID": null,
      "pins": [
        {
          "name": "P$2",
          "gate": "G$1",
          "pad": "2",
          "package": "C2"
        },
        {
          "name": "C1N",
          "gate": "G1",
          "pad": "5",
          "package": "OLED_66"
        }
      ],
      "wires": [
        {
          "x1": 7.4,
          "y1": 13.2,
          "x2": 7.4,
          "y2": 17.3,
          "width": 0.1524,
          "layer": 1,
          "curve": 0.0
        },
        {
          "x1": 4.55,
          "y1": 10.35,
          "x2": 7.4,
          "y2": 13.2,
          "width": 0.1524,
          "layer": 16,
          "curve": 0.0
        },
        {
          "x1": 4.55,
          "y1": 9.6,
          "x2": 4.55,
          "y2": 10.35,
          "width": 0.1524,
          "layer": 16,
          "curve": 0.0
        },
        {
          "x1": 4.1,
          "y1": 10.05,
          "x2": 4.55,
          "y2": 9.6,
          "width": 0.1524,
          "layer": 1,
          "curve": 0.0
        },
        {
          "x1": 4.1,
          "y1": 10.25,
          "x2": 4.1,
          "y2": 10.05,
          "width": 0.1524,
          "layer": 1,
          "curve": 0.0
        },
        {
          "x1": 3.8,
          "y1": 10.55,
          "x2": 4.1,
          "y2": 10.25,
          "width": 0.1524,
          "layer": 1,
          "curve": 0.0
        },
        {
          "x1": 3.8,
          "y1": 11.4,
          "x2": 3.8,
          "y2": 10.55,
          "width": 0.1524,
          "layer": 1,
          "curve": 0.0
        }
      ],
      "vias": [
        {
          "x": 7.4,
          "y": 13.2,
          "drill": 0.3048,
          "layerBegin": 1,
          "layerEnd": 16
        },
        {
          "x": 4.55,
          "y": 9.6,
          "drill": 0.3048,
          "layerBegin": 1,
          "layerEnd": 16
        }
      ],
      "polygons": []
    },
    {
      "name": "N$4",
      "length": 14.240559159102153,
      "bends": 6,
      "RelComponentID": null,
      "pins": [
        {
          "name": "P$2",
          "gate": "G$1",
          "pad": "2",
          "package": "C3"
        },
        {
          "name": "C2N",
          "gate": "G1",
          "pad": "3",
          "package": "OLED_66"
        }
      ],
      "wires": [
        {
          "x1": 2.45,
          "y1": 17.45,
          "x2": 3.5,
          "y2": 16.4,
          "width": 0.1524,
          "layer": 1,
          "curve": 0.0
        },
        {
          "x1": 0.75,
          "y1": 17.45,
          "x2": 2.45,
          "y2": 17.45,
          "width": 0.1524,
          "layer": 1,
          "curve": 0.0
        },
        {
          "x1": 0.4,
          "y1": 17.1,
          "x2": 0.75,
          "y2": 17.45,
          "width": 0.1524,
          "layer": 1,
          "curve": 0.0
        },
        {
          "x1": 0.4,
          "y1": 9.8,
          "x2": 0.4,
          "y2": 17.1,
          "width": 0.1524,
          "layer": 1,
          "curve": 0.0
        },
        {
          "x1": 1.75,
          "y1": 9.8,
          "x2": 0.4,
          "y2": 9.8,
          "width": 0.1524,
          "layer": 1,
          "curve": 0.0
        },
        {
          "x1": 2.5,
          "y1": 10.55,
          "x2": 1.75,
          "y2": 9.8,
          "width": 0.1524,
          "layer": 1,
          "curve": 0.0
        },
        {
          "x1": 2.5,
          "y1": 11.4,
          "x2": 2.5,
          "y2": 10.55,
          "width": 0.1524,
          "layer": 1,
          "curve": 0.0
        }
      ],
      "vias": [],
      "polygons": []
    },
    {
      "name": "N$5",
      "length": 8.9106601717798188,
      "bends": 6,
      "RelComponentID": null,
      "pins": [
        {
          "name": "P$1",
          "gate": "G$1",
          "pad": "1",
          "package": "C3"
        },
        {
          "name": "C2P",
          "gate": "G1",
          "pad": "2",
          "package": "OLED_66"
        }
      ],
      "wires": [
        {
          "x1": 1.5,
          "y1": 13.0,
          "x2": 1.5,
          "y2": 16.4,
          "width": 0.1524,
          "layer": 1,
          "curve": 0.0
        },
        {
          "x1": 1.1,
          "y1": 13.0,
          "x2": 1.5,
          "y2": 13.0,
          "width": 0.1524,
          "layer": 1,
          "curve": 0.0
        },
        {
          "x1": 0.75,
          "y1": 12.65,
          "x2": 1.1,
          "y2": 13.0,
          "width": 0.1524,
          "layer": 1,
          "curve": 0.0
        },
        {
          "x1": 0.75,
          "y1": 10.15,
          "x2": 0.75,
          "y2": 12.65,
          "width": 0.1524,
          "layer": 1,
          "curve": 0.0
        },
        {
          "x1": 1.45,
          "y1": 10.15,
          "x2": 0.75,
          "y2": 10.15,
          "width": 0.1524,
          "layer": 1,
          "curve": 0.0
        },
        {
          "x1": 1.85,
          "y1": 10.55,
          "x2": 1.45,
          "y2": 10.15,
          "width": 0.1524,
          "layer": 1,
          "curve": 0.0
        },
        {
          "x1": 1.85,
          "y1": 11.4,
          "x2": 1.85,
          "y2": 10.55,
          "width": 0.1524,
          "layer": 1,
          "curve": 0.0
        }
      ],
      "vias": [],
      "polygons": []
    },
    {
      "name": "N$6",
      "length": 11.689620858180192,
      "bends": 12,
      "RelComponentID": null,
      "pins": [
        {
          "name": "P$1",
          "gate": "G$1",
          "pad": "1",
          "package": "C4"
        },
        {
          "name": "1",
          "gate": "G$1",
          "pad": "P$1",
          "package": "R2"
        },
        {
          "name": "P$1",
          "gate": "G$1",
          "pad": "1",
          "package": "C6"
        },
        {
          "name": "VBAT",
          "gate": "G1",
          "pad": "6",
          "package": "OLED_66"
        },
        {
          "name": "VDD",
          "gate": "G1",
          "pad": "8",
          "package": "OLED_66"
        }
      ],
      "wires": [
        {
          "x1": 5.3,
          "y1": 5.9,
          "x2": 5.3,
          "y2": 8.8,
          "width": 0.1524,
          "layer": 1,
          "curve": 0.0
        },
        {
          "x1": 6.1,
          "y1": 5.9,
          "x2": 5.3,
          "y2": 5.9,
          "width": 0.1524,
          "layer": 1,
          "curve": 0.0
        },
        {
          "x1": 6.0,
          "y1": 5.85,
          "x2": 6.0,
          "y2": 3.3,
          "width": 0.1524,
          "layer": 1,
          "curve": 0.0
        },
        {
          "x1": 6.0,
          "y1": 5.85,
          "x2": 6.1,
          "y2": 5.9,
          "width": 0.1524,
          "layer": 1,
          "curve": 0.0
        },
        {
          "x1": 4.45,
          "y1": 10.15,
          "x2": 4.45,
          "y2": 11.4,
          "width": 0.1524,
          "layer": 1,
          "curve": 0.0
        },
        {
          "x1": 4.8,
          "y1": 10.15,
          "x2": 4.45,
          "y2": 10.15,
          "width": 0.1524,
          "layer": 1,
          "curve": 0.0
        },
        {
          "x1": 5.25,
          "y1": 9.7,
          "x2": 4.85,
          "y2": 10.1,
          "width": 0.1524,
          "layer": 1,
          "curve": 0.0
        },
        {
          "x1": 4.85,
          "y1": 10.1,
          "x2": 4.8,
          "y2": 10.15,
          "width": 0.1524,
          "layer": 1,
          "curve": 0.0
        },
        {
          "x1": 5.25,
          "y1": 8.85,
          "x2": 5.25,
          "y2": 9.7,
          "width": 0.1524,
          "layer": 1,
          "curve": 0.0
        },
        {
          "x1": 5.25,
          "y1": 8.85,
          "x2": 5.3,
          "y2": 8.8,
          "width": 0.1524,
          "layer": 1,
          "curve": 0.0
        },
        {
          "x1": 5.75,
          "y1": 10.15,
          "x2": 5.75,
          "y2": 11.4,
          "width": 0.1524,
          "layer": 1,
          "curve": 0.0
        },
        {
          "x1": 4.9,
          "y1": 10.15,
          "x2": 5.75,
          "y2": 10.15,
          "width": 0.1524,
          "layer": 1,
          "curve": 0.0
        },
        {
          "x1": 4.9,
          "y1": 10.15,
          "x2": 4.85,
          "y2": 10.1,
          "width": 0.1524,
          "layer": 1,
          "curve": 0.0
        }
      ],
      "vias": [],
      "polygons": []
    },
    {
      "name": "N$7",
      "length": 12.060660171779821,
      "bends": 6,
      "RelComponentID": null,
      "pins": [
        {
          "name": "P$1",
          "gate": "G$1",
          "pad": "1",
          "package": "C5"
        },
        {
          "name": "VCOMH",
          "gate": "G1",
          "pad": "25",
          "package": "OLED_66"
        }
      ],
      "wires": [
        {
          "x1": 13.75,
          "y1": 3.35,
          "x2": 13.5,
          "y2": 3.6,
          "width": 0.1524,
          "layer": 1,
          "curve": 0.0
        },
        {
          "x1": 17.05,
          "y1": 3.35,
          "x2": 13.75,
          "y2": 3.35,
          "width": 0.1524,
          "layer": 1,
          "curve": 0.0
        },
        {
          "x1": 17.25,
          "y1": 3.55,
          "x2": 17.05,
          "y2": 3.35,
          "width": 0.1524,
          "layer": 1,
          "curve": 0.0
        },
        {
          "x1": 17.25,
          "y1": 9.35,
          "x2": 17.25,
          "y2": 3.55,
          "width": 0.1524,
          "layer": 1,
          "curve": 0.0
        },
        {
          "x1": 17.1,
          "y1": 9.35,
          "x2": 17.25,
          "y2": 9.35,
          "width": 0.1524,
          "layer": 1,
          "curve": 0.0
        },
        {
          "x1": 16.8,
          "y1": 9.65,
          "x2": 17.1,
          "y2": 9.35,
          "width": 0.1524,
          "layer": 1,
          "curve": 0.0
        },
        {
          "x1": 16.8,
          "y1": 11.4,
          "x2": 16.8,
          "y2": 9.65,
          "width": 0.1524,
          "layer": 1,
          "curve": 0.0
        }
      ],
      "vias": [],
      "polygons": []
    },
    {
      "name": "N$8",
      "length": 0.65000000000000036,
      "bends": 0,
      "RelComponentID": null,
      "pins": [
        {
          "name": "D2",
          "gate": "G1",
          "pad": "18",
          "package": "OLED_66"
        },
        {
          "name": "D1/MOSI",
          "gate": "G1",
          "pad": "17",
          "package": "OLED_66"
        }
      ],
      "wires": [
        {
          "x1": 12.25,
          "y1": 11.4,
          "x2": 11.6,
          "y2": 11.4,
          "width": 0.1524,
          "layer": 1,
          "curve": 0.0
        }
      ],
      "vias": [],
      "polygons": []
    },
    {
      "name": "N$9",
      "length": 2.8656854249492376,
      "bends": 3,
      "RelComponentID": null,
      "pins": [
        {
          "name": "BS1",
          "gate": "G1",
          "pad": "9",
          "package": "OLED_66"
        },
        {
          "name": "2",
          "gate": "G$1",
          "pad": "P$2",
          "package": "R2"
        }
      ],
      "wires": [
        {
          "x1": 6.9,
          "y1": 10.15,
          "x2": 6.9,
          "y2": 8.8,
          "width": 0.1524,
          "layer": 1,
          "curve": 0.0
        },
        {
          "x1": 6.8,
          "y1": 10.15,
          "x2": 6.9,
          "y2": 10.15,
          "width": 0.1524,
          "layer": 1,
          "curve": 0.0
        },
        {
          "x1": 6.4,
          "y1": 10.55,
          "x2": 6.8,
          "y2": 10.15,
          "width": 0.1524,
          "layer": 1,
          "curve": 0.0
        },
        {
          "x1": 6.4,
          "y1": 11.4,
          "x2": 6.4,
          "y2": 10.55,
          "width": 0.1524,
          "layer": 1,
          "curve": 0.0
        }
      ],
      "vias": [],
      "polygons": []
    },
    {
      "name": "N$10",
      "length": 5.5734018715767721,
      "bends": 3,
      "RelComponentID": null,
      "pins": [
        {
          "name": "IREF",
          "gate": "G1",
          "pad": "24",
          "package": "OLED_66"
        },
        {
          "name": "1",
          "gate": "G$1",
          "pad": "P$1",
          "package": "R1"
        }
      ],
      "wires": [
        {
          "x1": 14.35,
          "y1": 10.15,
          "x2": 12.4,
          "y2": 8.2,
          "width": 0.1524,
          "layer": 1,
          "curve": 0.0
        },
        {
          "x1": 15.75,
          "y1": 10.15,
          "x2": 14.35,
          "y2": 10.15,
          "width": 0.1524,
          "layer": 1,
          "curve": 0.0
        },
        {
          "x1": 16.15,
          "y1": 10.55,
          "x2": 15.75,
          "y2": 10.15,
          "width": 0.1524,
          "layer": 1,
          "curve": 0.0
        },
        {
          "x1": 16.15,
          "y1": 11.4,
          "x2": 16.15,
          "y2": 10.55,
          "width": 0.1524,
          "layer": 1,
          "curve": 0.0
        }
      ],
      "vias": [],
      "polygons": []
    }
  ],
  "constraints": null,
  "border": null
}