<eagle version="6.5.0" xmlns="eagle">
  <drawing>
    <library>
      <packages>
        <package name="TSW-S-06" xmlns="eagle">
          <description>&lt;b&gt;HEADER&lt;/b&gt;</description>
          <wire x1="-7.62" y1="1.27" x2="-5.08" y2="1.27" width="0.2032" layer="21" />
          <wire x1="-5.08" y1="1.27" x2="7.62" y2="1.27" width="0.2032" layer="21" />
          <wire x1="7.62" y1="1.27" x2="7.62" y2="-1.27" width="0.2032" layer="21" />
          <wire x1="7.62" y1="-1.27" x2="-5.08" y2="-1.27" width="0.2032" layer="21" />
          <wire x1="-5.08" y1="-1.27" x2="-7.62" y2="-1.27" width="0.2032" layer="21" />
          <wire x1="-7.62" y1="-1.27" x2="-7.62" y2="1.27" width="0.2032" layer="21" />
          <wire x1="-5.08" y1="1.27" x2="-5.08" y2="-1.27" width="0.2032" layer="21" />
          <pad name="1" x="-6.35" y="0" drill="0.9144" diameter="1.6764" shape="square" rot="R90" />
          <pad name="2" x="-3.81" y="0" drill="0.9144" diameter="1.6764" shape="octagon" rot="R90" />
          <pad name="3" x="-1.27" y="0" drill="0.9144" diameter="1.6764" shape="octagon" rot="R90" />
          <pad name="4" x="1.27" y="0" drill="0.9144" diameter="1.6764" shape="octagon" rot="R90" />
          <pad name="5" x="3.81" y="0" drill="0.9144" diameter="1.6764" shape="octagon" rot="R90" />
          <pad name="6" x="6.35" y="0" drill="0.9144" diameter="1.6764" shape="octagon" rot="R90" />
          <text x="-7.62" y="1.905" size="1.016" layer="25" ratio="18">&gt;NAME</text>
          <text x="-7.62" y="-2.54" size="1.016" layer="27" ratio="10">&gt;VALUE</text>
        </package>
      </packages>
      <symbols>
        <symbol name="MA06-1">
          <wire x1="1.27" y1="7.62" x2="0" y2="7.62" width="0.6096" layer="94" />
          <wire x1="1.27" y1="5.08" x2="0" y2="5.08" width="0.6096" layer="94" />
          <wire x1="1.27" y1="2.54" x2="0" y2="2.54" width="0.6096" layer="94" />
          <wire x1="1.27" y1="0" x2="0" y2="0" width="0.6096" layer="94" />
          <wire x1="1.27" y1="-2.54" x2="0" y2="-2.54" width="0.6096" layer="94" />
          <wire x1="1.27" y1="-5.08" x2="0" y2="-5.08" width="0.6096" layer="94" />
          <wire x1="-1.27" y1="10.16" x2="3.81" y2="10.16" width="0.4064" layer="94" />
          <wire x1="-1.27" y1="10.16" x2="-1.27" y2="-7.62" width="0.4064" layer="94" />
          <wire x1="3.81" y1="10.16" x2="3.81" y2="-7.62" width="0.4064" layer="94" />
          <wire x1="-1.27" y1="-7.62" x2="3.81" y2="-7.62" width="0.4064" layer="94" />
          <text x="-1.27" y="10.795" size="1.778" layer="95">&gt;NAME</text>
          <text x="-1.27" y="-10.16" size="1.778" layer="95">&gt;VALUE</text>
          <pin name="1" x="-5.08" y="7.62" visible="pad" length="middle" direction="pas" swaplevel="1" />
          <pin name="2" x="-5.08" y="5.08" visible="pad" length="middle" direction="pas" swaplevel="1" />
          <pin name="3" x="-5.08" y="2.54" visible="pad" length="middle" direction="pas" swaplevel="1" />
          <pin name="4" x="-5.08" y="0" visible="pad" length="middle" direction="pas" swaplevel="1" />
          <pin name="5" x="-5.08" y="-2.54" visible="pad" length="middle" direction="pas" swaplevel="1" />
          <pin name="6" x="-5.08" y="-5.08" visible="pad" length="middle" direction="pas" swaplevel="1" />
        </symbol>
      </symbols>
      <devicesets>
        <deviceset name="TSW-S-06" prefix="P">
          <gates>
            <gate name="G$1" symbol="MA06-1" x="0" y="0" swaplevel="1" />
          </gates>
          <devices>
            <device name="" package="TSW-S-06" xmlns="eagle">
              <connects>
                <connect gate="G$1" pin="1" pad="1" />
                <connect gate="G$1" pin="2" pad="2" />
                <connect gate="G$1" pin="3" pad="3" />
                <connect gate="G$1" pin="4" pad="4" />
                <connect gate="G$1" pin="5" pad="5" />
                <connect gate="G$1" pin="6" pad="6" />
              </connects>
              <technologies>
                <technology name="" />
              </technologies>
            </device>
          </devices>
        </deviceset>
      </devicesets>
    </library>
  </drawing>
</eagle>