{
  "boardWidth": 12.0,
  "boardHeight": 12.0,
  "numLayers": 2,
  "boardTemplate": null,
  "designRules": "MacroFab_2_Layer.dru",
  "omitBoundary": null,
  "packages": [
    {
      "name": "C1",
      "package": "C_0402",
      "pkg_idx": 0,
      "ComponentID": "6f879c38-02ad-4d85-8b64-cb1509507153",
      "RelComponentID": null,
      "width": 1.72,
      "height": 0.72,
      "koWidth": 1.72,
      "koHeight": 0.72,
      "originX": 0.0,
      "originY": 0.0,
      "x": 9.44,
      "y": 0.44,
      "rotation": 0,
      "layer": 0,
      "constraints": null,
      "multiLayer": null,
      "doNotPlace": null
    },
    {
      "name": "C2",
      "package": "C_0603",
      "pkg_idx": 1,
      "ComponentID": "f63a2057-e7fc-4fb9-b7b4-b7cd156c2d7a",
      "RelComponentID": null,
      "width": 2.95,
      "height": 1.1,
      "koWidth": 2.95,
      "koHeight": 1.1,
      "originX": 0.0,
      "originY": 0.0,
      "x": 0.825,
      "y": 6.65,
      "rotation": 0,
      "layer": 0,
      "constraints": null,
      "multiLayer": null,
      "doNotPlace": null
    },
    {
      "name": "C3",
      "package": "TANT_3216-METRIC",
      "pkg_idx": 2,
      "ComponentID": "1a1e5019-ab0e-4409-b7fb-c17cde6ec8f0",
      "RelComponentID": null,
      "width": 5.3892,
      "height": 1.6,
      "koWidth": 5.3892,
      "koHeight": 1.6,
      "originX": -0.3,
      "originY": 0.0,
      "x": 0.2054,
      "y": 8.0,
      "rotation": 0,
      "layer": 0,
      "constraints": null,
      "multiLayer": null,
      "doNotPlace": null
    },
    {
      "name": "CBYP",
      "package": "C_0603",
      "pkg_idx": 3,
      "ComponentID": "ed76fa65-6c02-4b84-bb14-698041235e1b",
      "RelComponentID": null,
      "width": 2.95,
      "height": 1.1,
      "koWidth": 2.95,
      "koHeight": 1.1,
      "originX": 0.0,
      "originY": 0.0,
      "x": 6.55,
      "y": 7.025,
      "rotation": 3,
      "layer": 0,
      "constraints": null,
      "multiLayer": null,
      "doNotPlace": null
    },
    {
      "name": "CBYP$1",
      "package": "C_0603",
      "pkg_idx": 4,
      "ComponentID": "7fca098e-85a7-44ee-a58d-00e7e8ec7464",
      "RelComponentID": null,
      "width": 2.95,
      "height": 1.1,
      "koWidth": 2.95,
      "koHeight": 1.1,
      "originX": 0.0,
      "originY": 0.0,
      "x": 6.95,
      "y": 2.125,
      "rotation": 3,
      "layer": 0,
      "constraints": null,
      "multiLayer": null,
      "doNotPlace": null
    },
    {
      "name": "CompLED",
      "package": "LED",
      "pkg_idx": 5,
      "ComponentID": "cf584d1f-d38c-45a6-9dbd-5e20912706c3",
      "RelComponentID": null,
      "width": 3.0,
      "height": 1.9042,
      "koWidth": 3.0,
      "koHeight": 1.9042,
      "originX": 0.0,
      "originY": -0.3,
      "x": 6.5,
      "y": 7.9479,
      "rotation": 0,
      "layer": 1,
      "constraints": null,
      "multiLayer": null,
      "doNotPlace": null
    },
    {
      "name": "D1",
      "package": "SOD123",
      "pkg_idx": 6,
      "ComponentID": "9f658cb3-51a7-4cc4-b717-11580d2d9dc1",
      "RelComponentID": null,
      "width": 1.9324,
      "height": 4.15,
      "koWidth": 1.9324,
      "koHeight": 4.15,
      "originX": -0.1,
      "originY": 0.0,
      "x": 1.125,
      "y": 9.7338,
      "rotation": 1,
      "layer": 0,
      "constraints": null,
      "multiLayer": null,
      "doNotPlace": null
    },
    {
      "name": "J1",
      "package": "TO-18",
      "pkg_idx": 7,
      "ComponentID": "2c5ae9cd-9e44-4baa-9dfc-d09023e1a084",
      "RelComponentID": null,
      "width": 6.2474,
      "height": 5.84,
      "koWidth": 6.2474,
      "koHeight": 5.84,
      "originX": -0.3,
      "originY": 0.0,
      "x": 0.1763,
      "y": 0.48,
      "rotation": 0,
      "layer": 0,
      "constraints": null,
      "multiLayer": null,
      "doNotPlace": null
    },
    {
      "name": "OPA344",
      "package": "SOT23-5",
      "pkg_idx": 8,
      "ComponentID": "7b60b9e5-b618-4f8b-8b8a-7d8826d253fc",
      "RelComponentID": null,
      "width": 3.2024,
      "height": 3.8274,
      "koWidth": 3.3424,
      "koHeight": 3.9674,
      "originX": -0.4,
      "originY": -0.1,
      "x": 7.2988,
      "y": 6.0863,
      "rotation": 0,
      "layer": 0,
      "constraints": null,
      "multiLayer": null,
      "doNotPlace": null
    },
    {
      "name": "R1",
      "package": "R_0603",
      "pkg_idx": 9,
      "ComponentID": "49bfb3c4-c270-4caf-8ad7-2098cc558dda",
      "RelComponentID": null,
      "width": 2.4,
      "height": 0.8,
      "koWidth": 2.4,
      "koHeight": 0.8,
      "originX": 0.0,
      "originY": 0.0,
      "x": 0.4,
      "y": 4.5,
      "rotation": 0,
      "layer": 1,
      "constraints": null,
      "multiLayer": null,
      "doNotPlace": null
    },
    {
      "name": "R10",
      "package": "R_0603",
      "pkg_idx": 10,
      "ComponentID": "c803677c-4ae2-4f88-b152-55e834bf40d0",
      "RelComponentID": null,
      "width": 2.4,
      "height": 0.8,
      "koWidth": 2.4,
      "koHeight": 0.8,
      "originX": 0.0,
      "originY": 0.0,
      "x": 6.8,
      "y": 10.2,
      "rotation": 0,
      "layer": 1,
      "constraints": null,
      "multiLayer": null,
      "doNotPlace": null
    },
    {
      "name": "R2",
      "package": "R_0603",
      "pkg_idx": 11,
      "ComponentID": "0774d7b2-9ad3-4b21-869f-d205d3f6e805",
      "RelComponentID": null,
      "width": 2.4,
      "height": 0.8,
      "koWidth": 2.4,
      "koHeight": 0.8,
      "originX": 0.0,
      "originY": 0.0,
      "x": 9.0,
      "y": 6.2,
      "rotation": 0,
      "layer": 1,
      "constraints": null,
      "multiLayer": null,
      "doNotPlace": null
    },
    {
      "name": "R3",
      "package": "R_0603",
      "pkg_idx": 12,
      "ComponentID": "41328d1b-27ac-4441-ba05-a7ad0a53c8d5",
      "RelComponentID": null,
      "width": 2.4,
      "height": 0.8,
      "koWidth": 2.4,
      "koHeight": 0.8,
      "originX": 0.0,
      "originY": 0.0,
      "x": 6.4,
      "y": 6.2,
      "rotation": 0,
      "layer": 1,
      "constraints": null,
      "multiLayer": null,
      "doNotPlace": null
    },
    {
      "name": "R4",
      "package": "R_0603",
      "pkg_idx": 13,
      "ComponentID": "7f76b37d-ee78-4238-a2d0-148e330e4a6d",
      "RelComponentID": null,
      "width": 2.4,
      "height": 0.8,
      "koWidth": 2.4,
      "koHeight": 0.8,
      "originX": 0.0,
      "originY": 0.0,
      "x": 2.0,
      "y": 6.8,
      "rotation": 2,
      "layer": 1,
      "constraints": null,
      "multiLayer": null,
      "doNotPlace": null
    },
    {
      "name": "R5",
      "package": "R_0603",
      "pkg_idx": 14,
      "ComponentID": "2493bd81-1852-4f03-ab4d-617ce8d5f042",
      "RelComponentID": null,
      "width": 2.4,
      "height": 0.8,
      "koWidth": 2.4,
      "koHeight": 0.8,
      "originX": 0.0,
      "originY": 0.0,
      "x": 3.2,
      "y": 1.4,
      "rotation": 3,
      "layer": 1,
      "constraints": null,
      "multiLayer": null,
      "doNotPlace": null
    },
    {
      "name": "R6",
      "package": "R_0603",
      "pkg_idx": 15,
      "ComponentID": "bb129ed4-187b-4825-8d29-5d2db7f58ca6",
      "RelComponentID": null,
      "width": 2.4,
      "height": 0.8,
      "koWidth": 2.4,
      "koHeight": 0.8,
      "originX": 0.0,
      "originY": 0.0,
      "x": 0.4,
      "y": 1.3,
      "rotation": 2,
      "layer": 1,
      "constraints": null,
      "multiLayer": null,
      "doNotPlace": null
    },
    {
      "name": "R7",
      "package": "R_0603",
      "pkg_idx": 16,
      "ComponentID": "38137b76-b8bc-479e-b0f3-4402cf325ea0",
      "RelComponentID": null,
      "width": 2.4,
      "height": 0.8,
      "koWidth": 2.4,
      "koHeight": 0.8,
      "originX": 0.0,
      "originY": 0.0,
      "x": 4.4,
      "y": 1.3,
      "rotation": 2,
      "layer": 1,
      "constraints": null,
      "multiLayer": null,
      "doNotPlace": null
    },
    {
      "name": "R8",
      "package": "R_0603",
      "pkg_idx": 17,
      "ComponentID": "4ebd2dd8-15c2-4559-becd-fa70c334ab9c",
      "RelComponentID": null,
      "width": 2.4,
      "height": 0.8,
      "koWidth": 2.4,
      "koHeight": 0.8,
      "originX": 0.0,
      "originY": 0.0,
      "x": 2.1,
      "y": 8.4,
      "rotation": 0,
      "layer": 1,
      "constraints": null,
      "multiLayer": null,
      "doNotPlace": null
    },
    {
      "name": "R9",
      "package": "R_0603",
      "pkg_idx": 18,
      "ComponentID": "78117ee2-53d5-419c-9316-fd01a28228eb",
      "RelComponentID": null,
      "width": 2.4,
      "height": 0.8,
      "koWidth": 2.4,
      "koHeight": 0.8,
      "originX": 0.0,
      "originY": 0.0,
      "x": 2.1,
      "y": 9.6,
      "rotation": 2,
      "layer": 1,
      "constraints": null,
      "multiLayer": null,
      "doNotPlace": null
    },
    {
      "name": "U1",
      "package": "SOT23-5",
      "pkg_idx": 19,
      "ComponentID": "ebe1a9ee-1a4b-47d3-959b-acf506001036",
      "RelComponentID": null,
      "width": 3.2024,
      "height": 3.8274,
      "koWidth": 3.3424,
      "koHeight": 3.9674,
      "originX": -0.4,
      "originY": -0.1,
      "x": 7.7988,
      "y": 1.3863,
      "rotation": 0,
      "layer": 0,
      "constraints": null,
      "multiLayer": null,
      "doNotPlace": null
    }
  ],
  "signals": [
    {
      "name": "N$0",
      "length": 16.038344934804616,
      "bends": 13,
      "RelComponentID": null,
      "pins": [
        {
          "name": "P$2",
          "gate": "G$1",
          "pad": "2",
          "package": "C1"
        },
        {
          "name": "+IN",
          "gate": "G$1",
          "pad": "3",
          "package": "U1"
        },
        {
          "name": "2",
          "gate": "G$1",
          "pad": "P$2",
          "package": "R1"
        }
      ],
      "wires": [
        {
          "x1": 10.8204,
          "y1": 1.9812,
          "x2": 10.8204,
          "y2": 0.9144,
          "width": 0.1524,
          "layer": 1,
          "curve": 0.0
        },
        {
          "x1": 10.8204,
          "y1": 0.9144,
          "x2": 10.8,
          "y2": 0.8,
          "width": 0.1524,
          "layer": 1,
          "curve": 0.0
        },
        {
          "x1": 10.8204,
          "y1": 1.9812,
          "x2": 10.75,
          "y2": 2.05,
          "width": 0.1524,
          "layer": 1,
          "curve": 0.0
        },
        {
          "x1": 0.762,
          "y1": 2.8956,
          "x2": 0.762,
          "y2": 4.8768,
          "width": 0.1524,
          "layer": 16,
          "curve": 0.0
        },
        {
          "x1": 1.6764,
          "y1": 1.9812,
          "x2": 0.762,
          "y2": 2.8956,
          "width": 0.1524,
          "layer": 16,
          "curve": 0.0
        },
        {
          "x1": 1.6764,
          "y1": 1.2192,
          "x2": 1.6764,
          "y2": 1.9812,
          "width": 0.1524,
          "layer": 16,
          "curve": 0.0
        },
        {
          "x1": 1.9812,
          "y1": 0.9144,
          "x2": 1.6764,
          "y2": 1.2192,
          "width": 0.1524,
          "layer": 16,
          "curve": 0.0
        },
        {
          "x1": 7.9248,
          "y1": 0.9144,
          "x2": 1.9812,
          "y2": 0.9144,
          "width": 0.1524,
          "layer": 16,
          "curve": 0.0
        },
        {
          "x1": 10.0584,
          "y1": 3.048,
          "x2": 7.9248,
          "y2": 0.9144,
          "width": 0.1524,
          "layer": 16,
          "curve": 0.0
        },
        {
          "x1": 10.668,
          "y1": 2.4384,
          "x2": 10.0584,
          "y2": 3.048,
          "width": 0.1524,
          "layer": 1,
          "curve": 0.0
        },
        {
          "x1": 10.668,
          "y1": 2.1336,
          "x2": 10.668,
          "y2": 2.4384,
          "width": 0.1524,
          "layer": 1,
          "curve": 0.0
        },
        {
          "x1": 0.762,
          "y1": 4.8768,
          "x2": 0.8,
          "y2": 4.9,
          "width": 0.1524,
          "layer": 16,
          "curve": 0.0
        },
        {
          "x1": 10.668,
          "y1": 2.1336,
          "x2": 10.75,
          "y2": 2.05,
          "width": 0.1524,
          "layer": 1,
          "curve": 0.0
        }
      ],
      "vias": [
        {
          "x": 10.0584,
          "y": 3.048,
          "drill": 0.3048,
          "layerBegin": 1,
          "layerEnd": 16
        }
      ],
      "polygons": []
    },
    {
      "name": "N$1",
      "length": 18.164655262194223,
      "bends": 28,
      "RelComponentID": null,
      "pins": [
        {
          "name": "P$1",
          "gate": "G$1",
          "pad": "1",
          "package": "C2"
        },
        {
          "name": "2",
          "gate": "G$1",
          "pad": "P$2",
          "package": "R5"
        },
        {
          "name": "2",
          "gate": "G$1",
          "pad": "P$2",
          "package": "R6"
        },
        {
          "name": "1",
          "gate": "G$1",
          "pad": "P$1",
          "package": "R7"
        },
        {
          "name": "+",
          "gate": "G$1",
          "pad": "P$1",
          "package": "C3"
        },
        {
          "name": "D",
          "gate": "G$1",
          "pad": "P$2",
          "package": "J1"
        },
        {
          "name": "1",
          "gate": "G$1",
          "pad": "P$1",
          "package": "R1"
        },
        {
          "name": "1",
          "gate": "G$1",
          "pad": "P$1",
          "package": "R8"
        }
      ],
      "wires": [
        {
          "x1": 1.524,
          "y1": 8.6868,
          "x2": 1.524,
          "y2": 7.3152,
          "width": 0.1524,
          "layer": 1,
          "curve": 0.0
        },
        {
          "x1": 1.524,
          "y1": 7.3152,
          "x2": 1.4,
          "y2": 7.2,
          "width": 0.1524,
          "layer": 1,
          "curve": 0.0
        },
        {
          "x1": 1.524,
          "y1": 8.6868,
          "x2": 1.675,
          "y2": 8.8,
          "width": 0.1524,
          "layer": 1,
          "curve": 0.0
        },
        {
          "x1": 3.5052,
          "y1": 1.6764,
          "x2": 2.4384,
          "y2": 1.6764,
          "width": 0.1524,
          "layer": 16,
          "curve": 0.0
        },
        {
          "x1": 2.4384,
          "y1": 1.6764,
          "x2": 2.4,
          "y2": 1.7,
          "width": 0.1524,
          "layer": 16,
          "curve": 0.0
        },
        {
          "x1": 3.5052,
          "y1": 1.6764,
          "x2": 3.6,
          "y2": 1.8,
          "width": 0.1524,
          "layer": 16,
          "curve": 0.0
        },
        {
          "x1": 3.6576,
          "y1": 1.6764,
          "x2": 4.7244,
          "y2": 1.6764,
          "width": 0.1524,
          "layer": 16,
          "curve": 0.0
        },
        {
          "x1": 4.7244,
          "y1": 1.6764,
          "x2": 4.8,
          "y2": 1.7,
          "width": 0.1524,
          "layer": 16,
          "curve": 0.0
        },
        {
          "x1": 3.6576,
          "y1": 1.6764,
          "x2": 3.6,
          "y2": 1.8,
          "width": 0.1524,
          "layer": 16,
          "curve": 0.0
        },
        {
          "x1": 3.3528,
          "y1": 4.8768,
          "x2": 2.4384,
          "y2": 4.8768,
          "width": 0.1524,
          "layer": 16,
          "curve": 0.0
        },
        {
          "x1": 3.5052,
          "y1": 4.7244,
          "x2": 3.3528,
          "y2": 4.8768,
          "width": 0.1524,
          "layer": 16,
          "curve": 0.0
        },
        {
          "x1": 2.4384,
          "y1": 4.8768,
          "x2": 2.4,
          "y2": 4.9,
          "width": 0.1524,
          "layer": 16,
          "curve": 0.0
        },
        {
          "x1": 3.5052,
          "y1": 4.7244,
          "x2": 3.6,
          "y2": 4.67,
          "width": 0.1524,
          "layer": 16,
          "curve": 0.0
        },
        {
          "x1": 3.9624,
          "y1": 8.382,
          "x2": 3.9624,
          "y2": 8.6868,
          "width": 0.1524,
          "layer": 16,
          "curve": 0.0
        },
        {
          "x1": 3.3528,
          "y1": 7.7724,
          "x2": 3.9624,
          "y2": 8.382,
          "width": 0.1524,
          "layer": 16,
          "curve": 0.0
        },
        {
          "x1": 3.3528,
          "y1": 4.8768,
          "x2": 3.3528,
          "y2": 7.7724,
          "width": 0.1524,
          "layer": 16,
          "curve": 0.0
        },
        {
          "x1": 3.9624,
          "y1": 8.6868,
          "x2": 4.1,
          "y2": 8.8,
          "width": 0.1524,
          "layer": 16,
          "curve": 0.0
        },
        {
          "x1": 3.3528,
          "y1": 4.8768,
          "x2": 3.6,
          "y2": 4.67,
          "width": 0.1524,
          "layer": 16,
          "curve": 0.0
        },
        {
          "x1": 2.286,
          "y1": 2.286,
          "x2": 2.286,
          "y2": 1.8288,
          "width": 0.1524,
          "layer": 16,
          "curve": 0.0
        },
        {
          "x1": 1.3716,
          "y1": 3.2004,
          "x2": 2.286,
          "y2": 2.286,
          "width": 0.1524,
          "layer": 16,
          "curve": 0.0
        },
        {
          "x1": 1.3716,
          "y1": 3.5052,
          "x2": 1.3716,
          "y2": 3.2004,
          "width": 0.1524,
          "layer": 1,
          "curve": 0.0
        },
        {
          "x1": 2.4384,
          "y1": 4.572,
          "x2": 1.3716,
          "y2": 3.5052,
          "width": 0.1524,
          "layer": 1,
          "curve": 0.0
        },
        {
          "x1": 3.5052,
          "y1": 4.572,
          "x2": 2.4384,
          "y2": 4.572,
          "width": 0.1524,
          "layer": 1,
          "curve": 0.0
        },
        {
          "x1": 2.286,
          "y1": 1.8288,
          "x2": 2.4,
          "y2": 1.7,
          "width": 0.1524,
          "layer": 16,
          "curve": 0.0
        },
        {
          "x1": 3.5052,
          "y1": 4.572,
          "x2": 3.6,
          "y2": 4.67,
          "width": 0.1524,
          "layer": 1,
          "curve": 0.0
        },
        {
          "x1": 1.524,
          "y1": 5.4864,
          "x2": 1.524,
          "y2": 7.1628,
          "width": 0.1524,
          "layer": 1,
          "curve": 0.0
        },
        {
          "x1": 2.4384,
          "y1": 4.572,
          "x2": 1.524,
          "y2": 5.4864,
          "width": 0.1524,
          "layer": 1,
          "curve": 0.0
        },
        {
          "x1": 1.524,
          "y1": 7.1628,
          "x2": 1.4,
          "y2": 7.2,
          "width": 0.1524,
          "layer": 1,
          "curve": 0.0
        }
      ],
      "vias": [
        {
          "x": 1.3716,
          "y": 3.2004,
          "drill": 0.3048,
          "layerBegin": 1,
          "layerEnd": 16
        }
      ],
      "polygons": []
    },
    {
      "name": "N$2",
      "length": 12.707450297073558,
      "bends": 13,
      "RelComponentID": null,
      "pins": [
        {
          "name": "P$2",
          "gate": "G$1",
          "pad": "2",
          "package": "C2"
        },
        {
          "name": "-IN",
          "gate": "G$1",
          "pad": "4",
          "package": "OPA344"
        },
        {
          "name": "2",
          "gate": "G$1",
          "pad": "P$2",
          "package": "R4"
        },
        {
          "name": "A",
          "gate": "G$1",
          "pad": "P$2",
          "package": "D1"
        }
      ],
      "wires": [
        {
          "x1": 4.1148,
          "y1": 6.2484,
          "x2": 4.1148,
          "y2": 7.1628,
          "width": 0.1524,
          "layer": 16,
          "curve": 0.0
        },
        {
          "x1": 3.2004,
          "y1": 7.1628,
          "x2": 4.1148,
          "y2": 6.2484,
          "width": 0.1524,
          "layer": 1,
          "curve": 0.0
        },
        {
          "x1": 4.1148,
          "y1": 7.1628,
          "x2": 4.0,
          "y2": 7.2,
          "width": 0.1524,
          "layer": 16,
          "curve": 0.0
        },
        {
          "x1": 3.2004,
          "y1": 7.1628,
          "x2": 3.2,
          "y2": 7.2,
          "width": 0.1524,
          "layer": 1,
          "curve": 0.0
        },
        {
          "x1": 3.2004,
          "y1": 9.144,
          "x2": 4.7244,
          "y2": 10.668,
          "width": 0.1524,
          "layer": 1,
          "curve": 0.0
        },
        {
          "x1": 3.2004,
          "y1": 7.3152,
          "x2": 3.2004,
          "y2": 9.144,
          "width": 0.1524,
          "layer": 1,
          "curve": 0.0
        },
        {
          "x1": 4.7244,
          "y1": 10.668,
          "x2": 4.835,
          "y2": 10.8,
          "width": 0.1524,
          "layer": 1,
          "curve": 0.0
        },
        {
          "x1": 3.2004,
          "y1": 7.3152,
          "x2": 3.2,
          "y2": 7.2,
          "width": 0.1524,
          "layer": 1,
          "curve": 0.0
        },
        {
          "x1": 9.4488,
          "y1": 9.6012,
          "x2": 10.2108,
          "y2": 9.6012,
          "width": 0.1524,
          "layer": 1,
          "curve": 0.0
        },
        {
          "x1": 8.382,
          "y1": 10.668,
          "x2": 9.4488,
          "y2": 9.6012,
          "width": 0.1524,
          "layer": 1,
          "curve": 0.0
        },
        {
          "x1": 4.8768,
          "y1": 10.668,
          "x2": 8.382,
          "y2": 10.668,
          "width": 0.1524,
          "layer": 1,
          "curve": 0.0
        },
        {
          "x1": 10.2108,
          "y1": 9.6012,
          "x2": 10.25,
          "y2": 9.45,
          "width": 0.1524,
          "layer": 1,
          "curve": 0.0
        },
        {
          "x1": 4.8768,
          "y1": 10.668,
          "x2": 4.835,
          "y2": 10.8,
          "width": 0.1524,
          "layer": 1,
          "curve": 0.0
        }
      ],
      "vias": [
        {
          "x": 4.1148,
          "y": 6.2484,
          "drill": 0.3048,
          "layerBegin": 1,
          "layerEnd": 16
        }
      ],
      "polygons": []
    },
    {
      "name": "N$3",
      "length": 20.87625428789859,
      "bends": 36,
      "RelComponentID": null,
      "pins": [
        {
          "name": "-",
          "gate": "G$1",
          "pad": "P$2",
          "package": "C3"
        },
        {
          "name": "2",
          "gate": "G$1",
          "pad": "P$2",
          "package": "R7"
        },
        {
          "name": "P$2",
          "gate": "G$1",
          "pad": "2",
          "package": "CBYP"
        },
        {
          "name": "V-",
          "gate": "G$1",
          "pad": "2",
          "package": "U1"
        },
        {
          "name": "P$2",
          "gate": "G$1",
          "pad": "2",
          "package": "CBYP$1"
        },
        {
          "name": "V-",
          "gate": "G$1",
          "pad": "2",
          "package": "OPA344"
        },
        {
          "name": "2",
          "gate": "G$1",
          "pad": "P$2",
          "package": "R9"
        },
        {
          "name": "CATHODE",
          "gate": "G$1",
          "pad": "CATHODE",
          "package": "CompLED"
        }
      ],
      "wires": [
        {
          "x1": 8.382,
          "y1": 9.144,
          "x2": 8.6868,
          "y2": 9.144,
          "width": 0.1524,
          "layer": 16,
          "curve": 0.0
        },
        {
          "x1": 7.7724,
          "y1": 8.5344,
          "x2": 8.382,
          "y2": 9.144,
          "width": 0.1524,
          "layer": 16,
          "curve": 0.0
        },
        {
          "x1": 5.6388,
          "y1": 8.5344,
          "x2": 6.096,
          "y2": 8.5344,
          "width": 0.1524,
          "layer": 16,
          "curve": 0.0
        },
        {
          "x1": 6.096,
          "y1": 8.5344,
          "x2": 7.7724,
          "y2": 8.5344,
          "width": 0.1524,
          "layer": 16,
          "curve": 0.0
        },
        {
          "x1": 4.1148,
          "y1": 10.0584,
          "x2": 5.6388,
          "y2": 8.5344,
          "width": 0.1524,
          "layer": 16,
          "curve": 0.0
        },
        {
          "x1": 8.6868,
          "y1": 9.144,
          "x2": 8.75,
          "y2": 9.2,
          "width": 0.1524,
          "layer": 16,
          "curve": 0.0
        },
        {
          "x1": 4.1148,
          "y1": 10.0584,
          "x2": 4.1,
          "y2": 10.0,
          "width": 0.1524,
          "layer": 16,
          "curve": 0.0
        },
        {
          "x1": 7.1628,
          "y1": 1.6764,
          "x2": 6.4008,
          "y2": 1.6764,
          "width": 0.1524,
          "layer": 16,
          "curve": 0.0
        },
        {
          "x1": 7.3152,
          "y1": 1.524,
          "x2": 7.1628,
          "y2": 1.6764,
          "width": 0.1524,
          "layer": 16,
          "curve": 0.0
        },
        {
          "x1": 7.3152,
          "y1": 2.4384,
          "x2": 7.3152,
          "y2": 1.524,
          "width": 0.1524,
          "layer": 1,
          "curve": 0.0
        },
        {
          "x1": 7.4676,
          "y1": 2.5908,
          "x2": 7.3152,
          "y2": 2.4384,
          "width": 0.1524,
          "layer": 1,
          "curve": 0.0
        },
        {
          "x1": 6.4008,
          "y1": 1.6764,
          "x2": 6.4,
          "y2": 1.7,
          "width": 0.1524,
          "layer": 16,
          "curve": 0.0
        },
        {
          "x1": 7.4676,
          "y1": 2.5908,
          "x2": 7.5,
          "y2": 2.7,
          "width": 0.1524,
          "layer": 1,
          "curve": 0.0
        },
        {
          "x1": 9.7536,
          "y1": 2.4384,
          "x2": 9.7536,
          "y2": 2.1336,
          "width": 0.1524,
          "layer": 1,
          "curve": 0.0
        },
        {
          "x1": 9.2964,
          "y1": 2.8956,
          "x2": 9.7536,
          "y2": 2.4384,
          "width": 0.1524,
          "layer": 1,
          "curve": 0.0
        },
        {
          "x1": 7.7724,
          "y1": 2.8956,
          "x2": 9.2964,
          "y2": 2.8956,
          "width": 0.1524,
          "layer": 1,
          "curve": 0.0
        },
        {
          "x1": 7.62,
          "y1": 2.7432,
          "x2": 7.7724,
          "y2": 2.8956,
          "width": 0.1524,
          "layer": 1,
          "curve": 0.0
        },
        {
          "x1": 9.7536,
          "y1": 2.1336,
          "x2": 9.8,
          "y2": 2.05,
          "width": 0.1524,
          "layer": 1,
          "curve": 0.0
        },
        {
          "x1": 7.62,
          "y1": 2.7432,
          "x2": 7.5,
          "y2": 2.7,
          "width": 0.1524,
          "layer": 1,
          "curve": 0.0
        },
        {
          "x1": 9.2964,
          "y1": 6.4008,
          "x2": 9.2964,
          "y2": 6.7056,
          "width": 0.1524,
          "layer": 1,
          "curve": 0.0
        },
        {
          "x1": 8.8392,
          "y1": 5.9436,
          "x2": 9.2964,
          "y2": 6.4008,
          "width": 0.1524,
          "layer": 1,
          "curve": 0.0
        },
        {
          "x1": 7.9248,
          "y1": 5.9436,
          "x2": 8.8392,
          "y2": 5.9436,
          "width": 0.1524,
          "layer": 1,
          "curve": 0.0
        },
        {
          "x1": 7.1628,
          "y1": 6.7056,
          "x2": 7.9248,
          "y2": 5.9436,
          "width": 0.1524,
          "layer": 1,
          "curve": 0.0
        },
        {
          "x1": 7.1628,
          "y1": 7.4676,
          "x2": 7.1628,
          "y2": 6.7056,
          "width": 0.1524,
          "layer": 1,
          "curve": 0.0
        },
        {
          "x1": 9.2964,
          "y1": 6.7056,
          "x2": 9.3,
          "y2": 6.75,
          "width": 0.1524,
          "layer": 1,
          "curve": 0.0
        },
        {
          "x1": 7.1628,
          "y1": 7.4676,
          "x2": 7.1,
          "y2": 7.6,
          "width": 0.1524,
          "layer": 1,
          "curve": 0.0
        },
        {
          "x1": 5.9436,
          "y1": 8.6868,
          "x2": 4.8768,
          "y2": 8.6868,
          "width": 0.1524,
          "layer": 1,
          "curve": 0.0
        },
        {
          "x1": 7.0104,
          "y1": 7.62,
          "x2": 6.096,
          "y2": 8.5344,
          "width": 0.1524,
          "layer": 1,
          "curve": 0.0
        },
        {
          "x1": 6.096,
          "y1": 8.5344,
          "x2": 5.9436,
          "y2": 8.6868,
          "width": 0.1524,
          "layer": 1,
          "curve": 0.0
        },
        {
          "x1": 4.8768,
          "y1": 8.6868,
          "x2": 4.725,
          "y2": 8.8,
          "width": 0.1524,
          "layer": 1,
          "curve": 0.0
        },
        {
          "x1": 7.0104,
          "y1": 7.62,
          "x2": 7.1,
          "y2": 7.6,
          "width": 0.1524,
          "layer": 1,
          "curve": 0.0
        },
        {
          "x1": 9.2964,
          "y1": 3.9624,
          "x2": 9.2964,
          "y2": 2.8956,
          "width": 0.1524,
          "layer": 1,
          "curve": 0.0
        },
        {
          "x1": 9.4488,
          "y1": 4.1148,
          "x2": 9.2964,
          "y2": 3.9624,
          "width": 0.1524,
          "layer": 1,
          "curve": 0.0
        },
        {
          "x1": 9.4488,
          "y1": 5.334,
          "x2": 9.4488,
          "y2": 4.1148,
          "width": 0.1524,
          "layer": 1,
          "curve": 0.0
        },
        {
          "x1": 8.8392,
          "y1": 5.9436,
          "x2": 9.4488,
          "y2": 5.334,
          "width": 0.1524,
          "layer": 1,
          "curve": 0.0
        }
      ],
      "vias": [
        {
          "x": 7.3152,
          "y": 1.524,
          "drill": 0.3048,
          "layerBegin": 1,
          "layerEnd": 16
        },
        {
          "x": 6.096,
          "y": 8.5344,
          "drill": 0.3048,
          "layerBegin": 1,
          "layerEnd": 16
        }
      ],
      "polygons": []
    },
    {
      "name": "N$4",
      "length": 16.90647412815667,
      "bends": 20,
      "RelComponentID": null,
      "pins": [
        {
          "name": "P$1",
          "gate": "G$1",
          "pad": "1",
          "package": "CBYP"
        },
        {
          "name": "V+",
          "gate": "G$1",
          "pad": "5",
          "package": "U1"
        },
        {
          "name": "V+",
          "gate": "G$1",
          "pad": "5",
          "package": "OPA344"
        },
        {
          "name": "P$1",
          "gate": "G$1",
          "pad": "1",
          "package": "CBYP$1"
        },
        {
          "name": "1",
          "gate": "G$1",
          "pad": "P$1",
          "package": "R6"
        }
      ],
      "wires": [
        {
          "x1": 7.1628,
          "y1": 9.4488,
          "x2": 8.2296,
          "y2": 9.4488,
          "width": 0.1524,
          "layer": 1,
          "curve": 0.0
        },
        {
          "x1": 7.1628,
          "y1": 9.4488,
          "x2": 7.1,
          "y2": 9.4,
          "width": 0.1524,
          "layer": 1,
          "curve": 0.0
        },
        {
          "x1": 0.9144,
          "y1": 1.2192,
          "x2": 0.9144,
          "y2": 1.6764,
          "width": 0.1524,
          "layer": 16,
          "curve": 0.0
        },
        {
          "x1": 1.3716,
          "y1": 0.762,
          "x2": 0.9144,
          "y2": 1.2192,
          "width": 0.1524,
          "layer": 16,
          "curve": 0.0
        },
        {
          "x1": 3.81,
          "y1": 0.762,
          "x2": 1.3716,
          "y2": 0.762,
          "width": 0.1524,
          "layer": 1,
          "curve": 0.0
        },
        {
          "x1": 7.4676,
          "y1": 4.4196,
          "x2": 3.81,
          "y2": 0.762,
          "width": 0.1524,
          "layer": 1,
          "curve": 0.0
        },
        {
          "x1": 0.9144,
          "y1": 1.6764,
          "x2": 0.8,
          "y2": 1.7,
          "width": 0.1524,
          "layer": 16,
          "curve": 0.0
        },
        {
          "x1": 7.4676,
          "y1": 4.4196,
          "x2": 7.5,
          "y2": 4.5,
          "width": 0.1524,
          "layer": 1,
          "curve": 0.0
        },
        {
          "x1": 7.7724,
          "y1": 4.7244,
          "x2": 8.8392,
          "y2": 4.7244,
          "width": 0.1524,
          "layer": 1,
          "curve": 0.0
        },
        {
          "x1": 7.62,
          "y1": 4.572,
          "x2": 7.7724,
          "y2": 4.7244,
          "width": 0.1524,
          "layer": 1,
          "curve": 0.0
        },
        {
          "x1": 8.8392,
          "y1": 4.7244,
          "x2": 8.85,
          "y2": 4.75,
          "width": 0.1524,
          "layer": 1,
          "curve": 0.0
        },
        {
          "x1": 7.62,
          "y1": 4.572,
          "x2": 7.5,
          "y2": 4.5,
          "width": 0.1524,
          "layer": 1,
          "curve": 0.0
        },
        {
          "x1": 8.2296,
          "y1": 7.7724,
          "x2": 8.2296,
          "y2": 9.4488,
          "width": 0.1524,
          "layer": 1,
          "curve": 0.0
        },
        {
          "x1": 7.4676,
          "y1": 7.0104,
          "x2": 8.2296,
          "y2": 7.7724,
          "width": 0.1524,
          "layer": 16,
          "curve": 0.0
        },
        {
          "x1": 7.4676,
          "y1": 5.6388,
          "x2": 7.4676,
          "y2": 7.0104,
          "width": 0.1524,
          "layer": 16,
          "curve": 0.0
        },
        {
          "x1": 7.4676,
          "y1": 4.572,
          "x2": 7.4676,
          "y2": 5.6388,
          "width": 0.1524,
          "layer": 1,
          "curve": 0.0
        },
        {
          "x1": 8.2296,
          "y1": 9.4488,
          "x2": 8.35,
          "y2": 9.45,
          "width": 0.1524,
          "layer": 1,
          "curve": 0.0
        },
        {
          "x1": 7.4676,
          "y1": 4.572,
          "x2": 7.5,
          "y2": 4.5,
          "width": 0.1524,
          "layer": 1,
          "curve": 0.0
        }
      ],
      "vias": [
        {
          "x": 1.3716,
          "y": 0.762,
          "drill": 0.3048,
          "layerBegin": 1,
          "layerEnd": 16
        },
        {
          "x": 8.2296,
          "y": 7.7724,
          "drill": 0.3048,
          "layerBegin": 1,
          "layerEnd": 16
        },
        {
          "x": 7.4676,
          "y": 5.6388,
          "drill": 0.3048,
          "layerBegin": 1,
          "layerEnd": 16
        }
      ],
      "polygons": []
    },
    {
      "name": "N$5",
      "length": 1.4414221755149828,
      "bends": 2,
      "RelComponentID": null,
      "pins": [
        {
          "name": "ANODE",
          "gate": "G$1",
          "pad": "ANODE",
          "package": "CompLED"
        },
        {
          "name": "2",
          "gate": "G$1",
          "pad": "P$2",
          "package": "R10"
        }
      ],
      "wires": [
        {
          "x1": 7.1628,
          "y1": 9.2964,
          "x2": 7.1628,
          "y2": 10.5156,
          "width": 0.1524,
          "layer": 16,
          "curve": 0.0
        },
        {
          "x1": 7.1628,
          "y1": 10.5156,
          "x2": 7.2,
          "y2": 10.6,
          "width": 0.1524,
          "layer": 16,
          "curve": 0.0
        },
        {
          "x1": 7.1628,
          "y1": 9.2964,
          "x2": 7.25,
          "y2": 9.2,
          "width": 0.1524,
          "layer": 16,
          "curve": 0.0
        }
      ],
      "vias": [],
      "polygons": []
    },
    {
      "name": "N$6",
      "length": 37.711414816421964,
      "bends": 18,
      "RelComponentID": null,
      "pins": [
        {
          "name": "C",
          "gate": "G$1",
          "pad": "P$1",
          "package": "D1"
        },
        {
          "name": "2",
          "gate": "G$1",
          "pad": "P$2",
          "package": "R3"
        },
        {
          "name": "OUT",
          "gate": "G$1",
          "pad": "1",
          "package": "U1"
        }
      ],
      "wires": [
        {
          "x1": 4.572,
          "y1": 4.4196,
          "x2": 6.7056,
          "y2": 6.5532,
          "width": 0.1524,
          "layer": 16,
          "curve": 0.0
        },
        {
          "x1": 2.7432,
          "y1": 2.5908,
          "x2": 4.572,
          "y2": 4.4196,
          "width": 0.1524,
          "layer": 1,
          "curve": 0.0
        },
        {
          "x1": 1.2192,
          "y1": 2.5908,
          "x2": 2.7432,
          "y2": 2.5908,
          "width": 0.1524,
          "layer": 1,
          "curve": 0.0
        },
        {
          "x1": 0.4572,
          "y1": 3.3528,
          "x2": 1.2192,
          "y2": 2.5908,
          "width": 0.1524,
          "layer": 1,
          "curve": 0.0
        },
        {
          "x1": 0.4572,
          "y1": 9.6012,
          "x2": 0.4572,
          "y2": 3.3528,
          "width": 0.1524,
          "layer": 1,
          "curve": 0.0
        },
        {
          "x1": 1.524,
          "y1": 10.668,
          "x2": 0.4572,
          "y2": 9.6012,
          "width": 0.1524,
          "layer": 1,
          "curve": 0.0
        },
        {
          "x1": 6.7056,
          "y1": 6.5532,
          "x2": 6.8,
          "y2": 6.6,
          "width": 0.1524,
          "layer": 16,
          "curve": 0.0
        },
        {
          "x1": 1.524,
          "y1": 10.668,
          "x2": 1.565,
          "y2": 10.8,
          "width": 0.1524,
          "layer": 1,
          "curve": 0.0
        },
        {
          "x1": 8.8392,
          "y1": 1.0668,
          "x2": 8.8392,
          "y2": 1.9812,
          "width": 0.1524,
          "layer": 1,
          "curve": 0.0
        },
        {
          "x1": 11.43,
          "y1": 3.6576,
          "x2": 8.8392,
          "y2": 1.0668,
          "width": 0.1524,
          "layer": 16,
          "curve": 0.0
        },
        {
          "x1": 11.43,
          "y1": 9.4488,
          "x2": 11.43,
          "y2": 3.6576,
          "width": 0.1524,
          "layer": 1,
          "curve": 0.0
        },
        {
          "x1": 9.2964,
          "y1": 11.5824,
          "x2": 11.43,
          "y2": 9.4488,
          "width": 0.1524,
          "layer": 1,
          "curve": 0.0
        },
        {
          "x1": 2.4384,
          "y1": 11.5824,
          "x2": 9.2964,
          "y2": 11.5824,
          "width": 0.1524,
          "layer": 1,
          "curve": 0.0
        },
        {
          "x1": 1.6764,
          "y1": 10.8204,
          "x2": 2.4384,
          "y2": 11.5824,
          "width": 0.1524,
          "layer": 1,
          "curve": 0.0
        },
        {
          "x1": 8.8392,
          "y1": 1.9812,
          "x2": 8.85,
          "y2": 2.05,
          "width": 0.1524,
          "layer": 1,
          "curve": 0.0
        },
        {
          "x1": 1.6764,
          "y1": 10.8204,
          "x2": 1.565,
          "y2": 10.8,
          "width": 0.1524,
          "layer": 1,
          "curve": 0.0
        }
      ],
      "vias": [
        {
          "x": 4.572,
          "y": 4.4196,
          "drill": 0.3048,
          "layerBegin": 1,
          "layerEnd": 16
        },
        {
          "x": 8.8392,
          "y": 1.0668,
          "drill": 0.3048,
          "layerBegin": 1,
          "layerEnd": 16
        },
        {
          "x": 11.43,
          "y": 3.6576,
          "drill": 0.3048,
          "layerBegin": 1,
          "layerEnd": 16
        }
      ],
      "polygons": []
    },
    {
      "name": "N$7",
      "length": 11.020766463596184,
      "bends": 5,
      "RelComponentID": null,
      "pins": [
        {
          "name": "S",
          "gate": "G$1",
          "pad": "P$1",
          "package": "J1"
        },
        {
          "name": "1",
          "gate": "G$1",
          "pad": "P$1",
          "package": "R2"
        }
      ],
      "wires": [
        {
          "x1": 10.9728,
          "y1": 5.9436,
          "x2": 10.9728,
          "y2": 6.5532,
          "width": 0.1524,
          "layer": 16,
          "curve": 0.0
        },
        {
          "x1": 7.62,
          "y1": 2.5908,
          "x2": 10.9728,
          "y2": 5.9436,
          "width": 0.1524,
          "layer": 16,
          "curve": 0.0
        },
        {
          "x1": 3.2004,
          "y1": 2.5908,
          "x2": 7.62,
          "y2": 2.5908,
          "width": 0.1524,
          "layer": 16,
          "curve": 0.0
        },
        {
          "x1": 2.4384,
          "y1": 3.3528,
          "x2": 3.2004,
          "y2": 2.5908,
          "width": 0.1524,
          "layer": 16,
          "curve": 0.0
        },
        {
          "x1": 10.9728,
          "y1": 6.5532,
          "x2": 11.0,
          "y2": 6.6,
          "width": 0.1524,
          "layer": 16,
          "curve": 0.0
        },
        {
          "x1": 2.4384,
          "y1": 3.3528,
          "x2": 2.33,
          "y2": 3.4,
          "width": 0.1524,
          "layer": 16,
          "curve": 0.0
        }
      ],
      "vias": [],
      "polygons": []
    },
    {
      "name": "N$8",
      "length": 6.7591181194442305,
      "bends": 10,
      "RelComponentID": null,
      "pins": [
        {
          "name": "G",
          "gate": "G$1",
          "pad": "P$3",
          "package": "J1"
        },
        {
          "name": "1",
          "gate": "G$1",
          "pad": "P$1",
          "package": "R4"
        },
        {
          "name": "1",
          "gate": "G$1",
          "pad": "P$1",
          "package": "R5"
        }
      ],
      "wires": [
        {
          "x1": 4.7244,
          "y1": 3.3528,
          "x2": 3.6576,
          "y2": 3.3528,
          "width": 0.1524,
          "layer": 16,
          "curve": 0.0
        },
        {
          "x1": 3.6576,
          "y1": 3.3528,
          "x2": 3.6,
          "y2": 3.4,
          "width": 0.1524,
          "layer": 16,
          "curve": 0.0
        },
        {
          "x1": 4.7244,
          "y1": 3.3528,
          "x2": 4.87,
          "y2": 3.4,
          "width": 0.1524,
          "layer": 16,
          "curve": 0.0
        },
        {
          "x1": 2.286,
          "y1": 5.9436,
          "x2": 2.286,
          "y2": 7.1628,
          "width": 0.1524,
          "layer": 16,
          "curve": 0.0
        },
        {
          "x1": 1.6764,
          "y1": 5.334,
          "x2": 2.286,
          "y2": 5.9436,
          "width": 0.1524,
          "layer": 16,
          "curve": 0.0
        },
        {
          "x1": 1.6764,
          "y1": 4.4196,
          "x2": 1.6764,
          "y2": 5.334,
          "width": 0.1524,
          "layer": 16,
          "curve": 0.0
        },
        {
          "x1": 1.8288,
          "y1": 4.2672,
          "x2": 1.6764,
          "y2": 4.4196,
          "width": 0.1524,
          "layer": 16,
          "curve": 0.0
        },
        {
          "x1": 2.7432,
          "y1": 4.2672,
          "x2": 1.8288,
          "y2": 4.2672,
          "width": 0.1524,
          "layer": 16,
          "curve": 0.0
        },
        {
          "x1": 3.5052,
          "y1": 3.5052,
          "x2": 2.7432,
          "y2": 4.2672,
          "width": 0.1524,
          "layer": 16,
          "curve": 0.0
        },
        {
          "x1": 2.286,
          "y1": 7.1628,
          "x2": 2.4,
          "y2": 7.2,
          "width": 0.1524,
          "layer": 16,
          "curve": 0.0
        },
        {
          "x1": 3.5052,
          "y1": 3.5052,
          "x2": 3.6,
          "y2": 3.4,
          "width": 0.1524,
          "layer": 16,
          "curve": 0.0
        }
      ],
      "vias": [],
      "polygons": []
    },
    {
      "name": "N$9",
      "length": 4.5576877596779415,
      "bends": 6,
      "RelComponentID": null,
      "pins": [
        {
          "name": "OUT",
          "gate": "G$1",
          "pad": "1",
          "package": "OPA344"
        },
        {
          "name": "1",
          "gate": "G$1",
          "pad": "P$1",
          "package": "R10"
        }
      ],
      "wires": [
        {
          "x1": 9.4488,
          "y1": 9.906,
          "x2": 8.8392,
          "y2": 10.5156,
          "width": 0.1524,
          "layer": 16,
          "curve": 0.0
        },
        {
          "x1": 9.4488,
          "y1": 8.2296,
          "x2": 9.4488,
          "y2": 9.906,
          "width": 0.1524,
          "layer": 16,
          "curve": 0.0
        },
        {
          "x1": 8.382,
          "y1": 7.1628,
          "x2": 9.4488,
          "y2": 8.2296,
          "width": 0.1524,
          "layer": 1,
          "curve": 0.0
        },
        {
          "x1": 8.382,
          "y1": 6.858,
          "x2": 8.382,
          "y2": 7.1628,
          "width": 0.1524,
          "layer": 1,
          "curve": 0.0
        },
        {
          "x1": 8.8392,
          "y1": 10.5156,
          "x2": 8.8,
          "y2": 10.6,
          "width": 0.1524,
          "layer": 16,
          "curve": 0.0
        },
        {
          "x1": 8.382,
          "y1": 6.858,
          "x2": 8.35,
          "y2": 6.75,
          "width": 0.1524,
          "layer": 1,
          "curve": 0.0
        }
      ],
      "vias": [
        {
          "x": 9.4488,
          "y": 8.2296,
          "drill": 0.3048,
          "layerBegin": 1,
          "layerEnd": 16
        }
      ],
      "polygons": []
    },
    {
      "name": "N$10",
      "length": 13.657536349513176,
      "bends": 10,
      "RelComponentID": null,
      "pins": [
        {
          "name": "+IN",
          "gate": "G$1",
          "pad": "3",
          "package": "OPA344"
        },
        {
          "name": "2",
          "gate": "G$1",
          "pad": "P$2",
          "package": "R8"
        },
        {
          "name": "1",
          "gate": "G$1",
          "pad": "P$1",
          "package": "R9"
        }
      ],
      "wires": [
        {
          "x1": 2.5908,
          "y1": 9.906,
          "x2": 2.5908,
          "y2": 8.8392,
          "width": 0.1524,
          "layer": 16,
          "curve": 0.0
        },
        {
          "x1": 2.5908,
          "y1": 8.8392,
          "x2": 2.5,
          "y2": 8.8,
          "width": 0.1524,
          "layer": 16,
          "curve": 0.0
        },
        {
          "x1": 2.5908,
          "y1": 9.906,
          "x2": 2.5,
          "y2": 10.0,
          "width": 0.1524,
          "layer": 16,
          "curve": 0.0
        },
        {
          "x1": 10.2108,
          "y1": 8.382,
          "x2": 10.2108,
          "y2": 6.858,
          "width": 0.1524,
          "layer": 1,
          "curve": 0.0
        },
        {
          "x1": 10.2108,
          "y1": 10.3632,
          "x2": 10.2108,
          "y2": 8.382,
          "width": 0.1524,
          "layer": 16,
          "curve": 0.0
        },
        {
          "x1": 9.2964,
          "y1": 11.2776,
          "x2": 10.2108,
          "y2": 10.3632,
          "width": 0.1524,
          "layer": 16,
          "curve": 0.0
        },
        {
          "x1": 3.6576,
          "y1": 11.2776,
          "x2": 9.2964,
          "y2": 11.2776,
          "width": 0.1524,
          "layer": 16,
          "curve": 0.0
        },
        {
          "x1": 2.4384,
          "y1": 10.0584,
          "x2": 3.6576,
          "y2": 11.2776,
          "width": 0.1524,
          "layer": 16,
          "curve": 0.0
        },
        {
          "x1": 10.2108,
          "y1": 6.858,
          "x2": 10.25,
          "y2": 6.75,
          "width": 0.1524,
          "layer": 1,
          "curve": 0.0
        },
        {
          "x1": 2.4384,
          "y1": 10.0584,
          "x2": 2.5,
          "y2": 10.0,
          "width": 0.1524,
          "layer": 16,
          "curve": 0.0
        }
      ],
      "vias": [
        {
          "x": 10.2108,
          "y": 8.382,
          "drill": 0.3048,
          "layerBegin": 1,
          "layerEnd": 16
        }
      ],
      "polygons": []
    },
    {
      "name": "N$11",
      "length": 3.4180228774403147,
      "bends": 8,
      "RelComponentID": null,
      "pins": [
        {
          "name": "2",
          "gate": "G$1",
          "pad": "P$2",
          "package": "R2"
        },
        {
          "name": "1",
          "gate": "G$1",
          "pad": "P$1",
          "package": "R3"
        },
        {
          "name": "-IN",
          "gate": "G$1",
          "pad": "4",
          "package": "U1"
        }
      ],
      "wires": [
        {
          "x1": 9.2964,
          "y1": 6.5532,
          "x2": 8.5344,
          "y2": 6.5532,
          "width": 0.1524,
          "layer": 16,
          "curve": 0.0
        },
        {
          "x1": 8.5344,
          "y1": 6.5532,
          "x2": 8.4,
          "y2": 6.6,
          "width": 0.1524,
          "layer": 16,
          "curve": 0.0
        },
        {
          "x1": 9.2964,
          "y1": 6.5532,
          "x2": 9.4,
          "y2": 6.6,
          "width": 0.1524,
          "layer": 16,
          "curve": 0.0
        },
        {
          "x1": 9.906,
          "y1": 5.6388,
          "x2": 10.668,
          "y2": 4.8768,
          "width": 0.1524,
          "layer": 1,
          "curve": 0.0
        },
        {
          "x1": 9.906,
          "y1": 6.096,
          "x2": 9.906,
          "y2": 5.6388,
          "width": 0.1524,
          "layer": 16,
          "curve": 0.0
        },
        {
          "x1": 9.4488,
          "y1": 6.5532,
          "x2": 9.906,
          "y2": 6.096,
          "width": 0.1524,
          "layer": 16,
          "curve": 0.0
        },
        {
          "x1": 10.668,
          "y1": 4.8768,
          "x2": 10.75,
          "y2": 4.75,
          "width": 0.1524,
          "layer": 1,
          "curve": 0.0
        },
        {
          "x1": 9.4488,
          "y1": 6.5532,
          "x2": 9.4,
          "y2": 6.6,
          "width": 0.1524,
          "layer": 16,
          "curve": 0.0
        }
      ],
      "vias": [
        {
          "x": 9.906,
          "y": 5.6388,
          "drill": 0.3048,
          "layerBegin": 1,
          "layerEnd": 16
        }
      ],
      "polygons": []
    }
  ],
  "constraints": null,
  "border": null
}