<?xml version="1.0" encoding="utf-8"?>
<!DOCTYPE eagle SYSTEM "eagle.dtd">
<eagle version="6.6.0">
<drawing>
<settings>
<setting alwaysvectorfont="no"/>
<setting verticaltext="up"/>
</settings>
<grid distance="0.1" unitdist="inch" unit="inch" style="lines" multiple="1" display="no" altdistance="0.01" altunitdist="inch" altunit="inch"/>
<layers>
</layers>
<library>
<packages>
<package name="USB-B-MICRO-SMD_V03">
<text x="-4.66" y="5.96" size="1.016" layer="51" font="vector" ratio="15">PCB Front</text>
<wire x1="-3" y1="5.6" x2="-2.3" y2="5.3" width="0.1524" layer="51"/>
<wire x1="-2.3" y1="5.3" x2="-2.4" y2="5.5" width="0.1524" layer="51"/>
<wire x1="-2.3" y1="5.3" x2="-2.5" y2="5.2" width="0.1524" layer="51"/>
<text x="-1.27" y="5.969" size="1.016" layer="25" font="vector" ratio="15">&gt;NAME</text>
<smd name="D+1" x="2.725" y="0" dx="0.4" dy="1.45" layer="1" rot="R90"/>
<smd name="D-1" x="2.725" y="0.65" dx="0.4" dy="1.45" layer="1" rot="R90"/>
<smd name="VBUS1" x="2.725" y="1.3" dx="0.4" dy="1.45" layer="1" rot="R90"/>
<smd name="ID1" x="2.725" y="-0.65" dx="0.4" dy="1.45" layer="1" rot="R90"/>
<smd name="GND1" x="2.725" y="-1.3" dx="0.4" dy="1.45" layer="1" rot="R90"/>
<hole x="2.2" y="1.9" drill="0.85"/>
<hole x="2.2" y="-1.9" drill="0.85"/>
<rectangle x1="-0.75" y1="2.784" x2="0.75" y2="4.584" layer="31"/>
<rectangle x1="-0.35" y1="-0.75" x2="0.35" y2="0.75" layer="31"/>
<rectangle x1="-0.75" y1="-4.584" x2="0.75" y2="-2.784" layer="31"/>
<wire x1="-2.15" y1="3.9" x2="-2.15" y2="-3.9" width="0.1524" layer="49"/>
<wire x1="2.85" y1="3.9" x2="2.85" y2="-3.9" width="0.1524" layer="49"/>
<wire x1="2.85" y1="3.9" x2="-2.15" y2="3.9" width="0.1524" layer="49"/>
<wire x1="2.85" y1="-3.9" x2="-2.15" y2="-3.9" width="0.1524" layer="49"/>
<wire x1="2.981959375" y1="3.99288125" x2="2" y2="3.99288125" width="0.1524" layer="21"/>
<wire x1="2" y1="3.99288125" x2="2" y2="4" width="0.1524" layer="21"/>
<wire x1="3" y1="4" x2="3" y2="3" width="0.1524" layer="21"/>
<wire x1="2" y1="-4" x2="3" y2="-4" width="0.1524" layer="21"/>
<wire x1="3" y1="-4" x2="3" y2="-3" width="0.1524" layer="21"/>
<wire x1="-1" y1="4" x2="-2" y2="4" width="0.1524" layer="21"/>
<wire x1="-1" y1="-4" x2="-2" y2="-4" width="0.1524" layer="21"/>
<rectangle x1="-0.85" y1="2.684" x2="0.85" y2="4.684" layer="29"/>
<rectangle x1="-0.85" y1="-4.684" x2="0.85" y2="-2.684" layer="29"/>
<rectangle x1="-0.85" y1="-1.35" x2="0.85" y2="1.35" layer="29"/>
<smd name="SHIELD1" x="0" y="3.685" dx="1.8" dy="1.5" layer="1" rot="R90" stop="no" cream="no"/>
<smd name="SHIELD3" x="0" y="0" dx="2.5" dy="1.5" layer="1" rot="R90" stop="no" cream="no"/>
<smd name="SHIELD2" x="0" y="-3.685" dx="1.8" dy="1.5" layer="1" rot="R90" stop="no" cream="no"/>
<wire x1="-2" y1="7" x2="-2" y2="0" width="0.1524" layer="51"/>
</package>
</packages>
<symbols>
<symbol name="MICROB-PLUG">
<wire x1="-5.08" y1="7.62" x2="-5.08" y2="-7.62" width="0.508" layer="94"/>
<wire x1="-5.08" y1="-7.62" x2="5.08" y2="-7.62" width="0.508" layer="94"/>
<wire x1="5.08" y1="-7.62" x2="5.08" y2="7.62" width="0.508" layer="94"/>
<wire x1="5.08" y1="7.62" x2="-5.08" y2="7.62" width="0.508" layer="94"/>
<text x="-4.826" y="8.128" size="1.778" layer="95">&gt;NAME</text>
<text x="-5.08" y="-9.906" size="1.778" layer="96">&gt;VALUE</text>
<pin name="VCC" x="-7.62" y="5.08" length="short" direction="pas"/>
<pin name="D-" x="-7.62" y="2.54" length="short" direction="pas"/>
<pin name="D+" x="-7.62" y="0" length="short" direction="pas"/>
<pin name="ID" x="-7.62" y="-2.54" length="short" direction="pas"/>
<pin name="GND" x="-7.62" y="-5.08" length="short" direction="pas"/>
<pin name="SHIELD" x="7.62" y="0" visible="off" length="short" direction="pas" rot="R180"/>
<text x="4.064" y="0" size="1.778" layer="95" rot="R90" align="bottom-center">SHIELD</text>
</symbol>
</symbols>
<devicesets>
<deviceset name="HRS_ZX62R-B-5P" prefix="JP" uservalue="yes">
<gates>
<gate name="G$1" symbol="MICROB-PLUG" x="0" y="0"/>
</gates>
<devices>
<device name="CONN-11752" package="USB-B-MICRO-SMD_V03">
<connects>
<connect gate="G$1" pin="D+" pad="D+1"/>
<connect gate="G$1" pin="D-" pad="D-1"/>
<connect gate="G$1" pin="GND" pad="GND1"/>
<connect gate="G$1" pin="ID" pad="ID1"/>
<connect gate="G$1" pin="SHIELD" pad="SHIELD1 SHIELD2 SHIELD3"/>
<connect gate="G$1" pin="VCC" pad="VBUS1"/>
</connects>
<technologies>
<technology name="">
<attribute name="PROD_ID" value="CONN-11752" constant="no"/>
</technology>
</technologies>
</device>
</devices>
</deviceset>
</devicesets>
</library>
</drawing>
</eagle>
