<eagle version="6.5.0" xmlns="eagle">
  <drawing>
    <library>
      <packages>
        <package name="SOP-16L" xmlns="eagle">
          <smd name="P$1" x="-2.675" y="4.445" dx="0.68" dy="1.25" layer="1" rot="R270" />
          <smd name="P$2" x="-2.675" y="3.175" dx="0.68" dy="1.25" layer="1" rot="R270" />
          <smd name="P$3" x="-2.675" y="1.905" dx="0.68" dy="1.25" layer="1" rot="R270" />
          <smd name="P$4" x="-2.675" y="0.635" dx="0.68" dy="1.25" layer="1" rot="R270" />
          <smd name="P$5" x="-2.675" y="-0.635" dx="0.68" dy="1.25" layer="1" rot="R270" />
          <smd name="P$6" x="-2.675" y="-1.905" dx="0.68" dy="1.25" layer="1" rot="R270" />
          <smd name="P$7" x="-2.675" y="-3.175" dx="0.68" dy="1.25" layer="1" rot="R270" />
          <smd name="P$8" x="-2.675" y="-4.445" dx="0.68" dy="1.25" layer="1" rot="R270" />
          <smd name="P$9" x="2.675" y="-4.445" dx="0.68" dy="1.25" layer="1" rot="R270" />
          <smd name="P$10" x="2.675" y="-3.175" dx="0.68" dy="1.25" layer="1" rot="R270" />
          <smd name="P$11" x="2.675" y="-1.905" dx="0.68" dy="1.25" layer="1" rot="R270" />
          <smd name="P$12" x="2.675" y="-0.635" dx="0.68" dy="1.25" layer="1" rot="R270" />
          <smd name="P$13" x="2.675" y="0.635" dx="0.68" dy="1.25" layer="1" rot="R270" />
          <smd name="P$14" x="2.675" y="1.905" dx="0.68" dy="1.25" layer="1" rot="R270" />
          <smd name="P$15" x="2.675" y="3.175" dx="0.68" dy="1.25" layer="1" rot="R270" />
          <smd name="P$16" x="2.675" y="4.445" dx="0.68" dy="1.25" layer="1" rot="R270" />
          <wire x1="1.8" y1="5" x2="-1.8" y2="5" width="0.127" layer="21" />
          <wire x1="1.8" y1="-5" x2="-1.8" y2="-5" width="0.127" layer="21" />
          <circle x="-3.4" y="5.4" radius="0.152" width="0" layer="21" />
          <text x="-4.2" y="6.2" size="1.27" layer="25">&gt;NAME</text>
        </package>
      </packages>
      <symbols>
        <symbol name="HX711">
          <wire x1="-17.78" y1="10.16" x2="-17.78" y2="-10.16" width="0.254" layer="94" />
          <wire x1="-17.78" y1="-10.16" x2="17.78" y2="-10.16" width="0.254" layer="94" />
          <wire x1="17.78" y1="-10.16" x2="17.78" y2="10.16" width="0.254" layer="94" />
          <wire x1="17.78" y1="10.16" x2="-17.78" y2="10.16" width="0.254" layer="94" />
          <pin name="AVDD" x="-22.86" y="7.62" length="middle" />
          <pin name="INPA" x="-22.86" y="5.08" length="middle" />
          <pin name="INNA" x="-22.86" y="2.54" length="middle" />
          <pin name="INPB" x="-22.86" y="0" length="middle" />
          <pin name="INNB" x="-22.86" y="-2.54" length="middle" />
          <pin name="VBG" x="-22.86" y="-5.08" length="middle" />
          <pin name="VFB" x="-7.62" y="15.24" length="middle" rot="R270" />
          <pin name="BASE" x="-2.54" y="15.24" length="middle" rot="R270" />
          <pin name="VSUP" x="2.54" y="15.24" length="middle" rot="R270" />
          <pin name="DVDD" x="7.62" y="15.24" length="middle" rot="R270" />
          <pin name="DOUT" x="22.86" y="5.08" length="middle" rot="R180" />
          <pin name="PD_SCK" x="22.86" y="-2.54" length="middle" rot="R180" />
          <pin name="RATE" x="22.86" y="-7.62" length="middle" rot="R180" />
          <pin name="AGND" x="-7.62" y="-15.24" length="middle" rot="R90" />
          <pin name="XI" x="0" y="-15.24" length="middle" rot="R90" />
          <pin name="XO" x="5.08" y="-15.24" length="middle" rot="R90" />
        </symbol>
      </symbols>
      <devicesets>
        <deviceset name="HX711HX711">
          <gates>
            <gate name="G$1" symbol="HX711" x="0" y="0" />
          </gates>
          <devices>
            <device name="" package="SOP-16L" xmlns="eagle">
              <connects>
                <connect gate="G$1" pin="AGND" pad="P$5" />
                <connect gate="G$1" pin="AVDD" pad="P$3" />
                <connect gate="G$1" pin="BASE" pad="P$2" />
                <connect gate="G$1" pin="DOUT" pad="P$12" />
                <connect gate="G$1" pin="DVDD" pad="P$16" />
                <connect gate="G$1" pin="INNA" pad="P$7" />
                <connect gate="G$1" pin="INNB" pad="P$9" />
                <connect gate="G$1" pin="INPA" pad="P$8" />
                <connect gate="G$1" pin="INPB" pad="P$10" />
                <connect gate="G$1" pin="PD_SCK" pad="P$11" />
                <connect gate="G$1" pin="RATE" pad="P$15" />
                <connect gate="G$1" pin="VBG" pad="P$6" />
                <connect gate="G$1" pin="VFB" pad="P$4" />
                <connect gate="G$1" pin="VSUP" pad="P$1" />
                <connect gate="G$1" pin="XI" pad="P$14" />
                <connect gate="G$1" pin="XO" pad="P$13" />
              </connects>
              <technologies>
                <technology name="" />
              </technologies>
            </device>
          </devices>
        </deviceset>
      </devicesets>
    </library>
  </drawing>
</eagle>