{
  "boardWidth": 20.0,
  "boardHeight": 20.0,
  "numLayers": 2,
  "boardTemplate": null,
  "designRules": null,
  "omitBoundary": null,
  "packages": [
    {
      "name": "C1",
      "package": "C_0603",
      "pkg_idx": 0,
      "ComponentID": "{7eb4a624-fd5b-423a-9c5b-f3ca023d2d3c}",
      "RelComponentID": null,
      "width": 2.95,
      "height": 1.1,
      "koWidth": 2.95,
      "koHeight": 1.1,
      "originX": 0.0,
      "originY": 0.0,
      "x": 13.925,
      "y": 10.25,
      "rotation": 0,
      "layer": 0,
      "constraints": null,
      "multiLayer": null,
      "doNotPlace": null
    },
    {
      "name": "C10",
      "package": "C_0603",
      "pkg_idx": 1,
      "ComponentID": "{209e0a0c-6f8e-4f86-a8ce-af99af6ee2eb}",
      "RelComponentID": null,
      "width": 2.95,
      "height": 1.1,
      "koWidth": 2.95,
      "koHeight": 1.1,
      "originX": 0.0,
      "originY": 0.0,
      "x": 0.625,
      "y": 8.65,
      "rotation": 0,
      "layer": 0,
      "constraints": null,
      "multiLayer": null,
      "doNotPlace": null
    },
    {
      "name": "C11",
      "package": "C_0603",
      "pkg_idx": 2,
      "ComponentID": "{a082d5c1-fc48-4e9b-96ab-6c028a75238f}",
      "RelComponentID": null,
      "width": 2.95,
      "height": 1.1,
      "koWidth": 2.95,
      "koHeight": 1.1,
      "originX": 0.0,
      "originY": 0.0,
      "x": 6.125,
      "y": 6.45,
      "rotation": 0,
      "layer": 0,
      "constraints": null,
      "multiLayer": null,
      "doNotPlace": null
    },
    {
      "name": "C12",
      "package": "C_0603",
      "pkg_idx": 3,
      "ComponentID": "{6f56981c-d6a2-442d-a15d-24f3bf2f9c7e}",
      "RelComponentID": null,
      "width": 2.95,
      "height": 1.1,
      "koWidth": 2.95,
      "koHeight": 1.1,
      "originX": 0.0,
      "originY": 0.0,
      "x": 4.65,
      "y": 3.825,
      "rotation": 1,
      "layer": 0,
      "constraints": null,
      "multiLayer": null,
      "doNotPlace": null
    },
    {
      "name": "C13",
      "package": "C_0603",
      "pkg_idx": 4,
      "ComponentID": "{ee17acc1-de7d-454c-b48d-70487dd052c4}",
      "RelComponentID": null,
      "width": 2.95,
      "height": 1.1,
      "koWidth": 2.95,
      "koHeight": 1.1,
      "originX": 0.0,
      "originY": 0.0,
      "x": 6.125,
      "y": 3.85,
      "rotation": 0,
      "layer": 0,
      "constraints": null,
      "multiLayer": null,
      "doNotPlace": null
    },
    {
      "name": "C14",
      "package": "C_0603",
      "pkg_idx": 5,
      "ComponentID": "{0be2af70-0502-4c8a-b939-6fecaa0cf921}",
      "RelComponentID": null,
      "width": 2.95,
      "height": 1.1,
      "koWidth": 2.95,
      "koHeight": 1.1,
      "originX": 0.0,
      "originY": 0.0,
      "x": 5.65,
      "y": 0.525,
      "rotation": 1,
      "layer": 0,
      "constraints": null,
      "multiLayer": null,
      "doNotPlace": null
    },
    {
      "name": "C15",
      "package": "C_0603",
      "pkg_idx": 6,
      "ComponentID": "{d7ca9f46-622c-48b6-9f66-0e48f4e73128}",
      "RelComponentID": null,
      "width": 2.95,
      "height": 1.1,
      "koWidth": 2.95,
      "koHeight": 1.1,
      "originX": 0.0,
      "originY": 0.0,
      "x": 10.125,
      "y": 1.85,
      "rotation": 0,
      "layer": 0,
      "constraints": null,
      "multiLayer": null,
      "doNotPlace": null
    },
    {
      "name": "C16",
      "package": "TANT_2012-METRIC",
      "pkg_idx": 7,
      "ComponentID": "{8964d806-92f9-4686-b370-6e190fda64a1}",
      "RelComponentID": null,
      "width": 3.6392,
      "height": 1.6,
      "koWidth": 3.6392,
      "koHeight": 1.6,
      "originX": -0.3,
      "originY": 0.0,
      "x": 13.2,
      "y": 5.5804,
      "rotation": 3,
      "layer": 1,
      "constraints": null,
      "multiLayer": null,
      "doNotPlace": null
    },
    {
      "name": "C2",
      "package": "C_0603",
      "pkg_idx": 8,
      "ComponentID": "{52c9e251-1c27-4125-8d37-9c270794eb72}",
      "RelComponentID": null,
      "width": 2.95,
      "height": 1.1,
      "koWidth": 2.95,
      "koHeight": 1.1,
      "originX": 0.0,
      "originY": 0.0,
      "x": 1.25,
      "y": 0.625,
      "rotation": 3,
      "layer": 0,
      "constraints": null,
      "multiLayer": null,
      "doNotPlace": null
    },
    {
      "name": "C3",
      "package": "C_0805",
      "pkg_idx": 9,
      "ComponentID": "{82c97e75-223a-44e0-acfa-de33fc94754f}",
      "RelComponentID": null,
      "width": 3.35,
      "height": 1.55,
      "koWidth": 3.35,
      "koHeight": 1.55,
      "originX": 0.0,
      "originY": 0.0,
      "x": 14.925,
      "y": 6.025,
      "rotation": 1,
      "layer": 1,
      "constraints": null,
      "multiLayer": null,
      "doNotPlace": null
    },
    {
      "name": "C4",
      "package": "C_0603",
      "pkg_idx": 10,
      "ComponentID": "{a2552b61-bbdd-4095-a2ad-395a6373326f}",
      "RelComponentID": null,
      "width": 2.95,
      "height": 1.1,
      "koWidth": 2.95,
      "koHeight": 1.1,
      "originX": 0.0,
      "originY": 0.0,
      "x": 10.125,
      "y": 0.45,
      "rotation": 2,
      "layer": 0,
      "constraints": null,
      "multiLayer": null,
      "doNotPlace": null
    },
    {
      "name": "C5",
      "package": "C_0603",
      "pkg_idx": 11,
      "ComponentID": "{9039efdd-c550-40eb-b7c0-0c2d3a27568d}",
      "RelComponentID": null,
      "width": 2.95,
      "height": 1.1,
      "koWidth": 2.95,
      "koHeight": 1.1,
      "originX": 0.0,
      "originY": 0.0,
      "x": 7.75,
      "y": 0.525,
      "rotation": 1,
      "layer": 0,
      "constraints": null,
      "multiLayer": null,
      "doNotPlace": null
    },
    {
      "name": "C6",
      "package": "C_0805",
      "pkg_idx": 12,
      "ComponentID": "{cc820899-3966-48ae-a686-e6b0b5e36b97}",
      "RelComponentID": null,
      "width": 3.35,
      "height": 1.55,
      "koWidth": 3.35,
      "koHeight": 1.55,
      "originX": 0.0,
      "originY": 0.0,
      "x": 1.325,
      "y": 4.825,
      "rotation": 1,
      "layer": 0,
      "constraints": null,
      "multiLayer": null,
      "doNotPlace": null
    },
    {
      "name": "C7",
      "package": "C_0603",
      "pkg_idx": 13,
      "ComponentID": "{ed264b4a-8a98-43b5-8bbf-82702c02d30c}",
      "RelComponentID": null,
      "width": 2.95,
      "height": 1.1,
      "koWidth": 2.95,
      "koHeight": 1.1,
      "originX": 0.0,
      "originY": 0.0,
      "x": 9.425,
      "y": 6.45,
      "rotation": 0,
      "layer": 0,
      "constraints": null,
      "multiLayer": null,
      "doNotPlace": null
    },
    {
      "name": "C8",
      "package": "C_0603",
      "pkg_idx": 14,
      "ComponentID": "{925fa6d7-257d-468a-98a1-51d2e4bff8ab}",
      "RelComponentID": null,
      "width": 2.95,
      "height": 1.1,
      "koWidth": 2.95,
      "koHeight": 1.1,
      "originX": 0.0,
      "originY": 0.0,
      "x": 9.425,
      "y": 3.85,
      "rotation": 0,
      "layer": 0,
      "constraints": null,
      "multiLayer": null,
      "doNotPlace": null
    },
    {
      "name": "C9",
      "package": "C_0603",
      "pkg_idx": 15,
      "ComponentID": "{048e3e36-ceff-43ac-8899-fbb802e6fd15}",
      "RelComponentID": null,
      "width": 2.95,
      "height": 1.1,
      "koWidth": 2.95,
      "koHeight": 1.1,
      "originX": 0.0,
      "originY": 0.0,
      "x": 13.55,
      "y": 2.725,
      "rotation": 3,
      "layer": 1,
      "constraints": null,
      "multiLayer": null,
      "doNotPlace": null
    },
    {
      "name": "R1",
      "package": "R_0402",
      "pkg_idx": 16,
      "ComponentID": "{6fc38c2e-c665-4299-a407-0ad5fdf9d0fc}",
      "RelComponentID": null,
      "width": 1.7,
      "height": 0.5,
      "koWidth": 1.7,
      "koHeight": 0.5,
      "originX": 0.0,
      "originY": 0.0,
      "x": 0.95,
      "y": 4.15,
      "rotation": 0,
      "layer": 0,
      "constraints": null,
      "multiLayer": null,
      "doNotPlace": null
    },
    {
      "name": "R2",
      "package": "R_0402",
      "pkg_idx": 17,
      "ComponentID": "{a847e89d-7bea-4d7d-a61c-a175b69c387b}",
      "RelComponentID": null,
      "width": 1.7,
      "height": 0.5,
      "koWidth": 1.7,
      "koHeight": 0.5,
      "originX": 0.0,
      "originY": 0.0,
      "x": 13.85,
      "y": 3.45,
      "rotation": 3,
      "layer": 0,
      "constraints": null,
      "multiLayer": null,
      "doNotPlace": null
    },
    {
      "name": "U1",
      "package": "SOIC-16",
      "pkg_idx": 18,
      "ComponentID": "{530ef01f-e41c-4831-a098-03075471a199}",
      "RelComponentID": null,
      "width": 10.775,
      "height": 10.85,
      "koWidth": 10.775,
      "koHeight": 10.85,
      "originX": -0.1,
      "originY": 0.1,
      "x": 0.9125,
      "y": 0.475,
      "rotation": 0,
      "layer": 1,
      "constraints": null,
      "multiLayer": null,
      "doNotPlace": null
    },
    {
      "name": "U2",
      "package": "SOIC-16",
      "pkg_idx": 19,
      "ComponentID": "{005a1266-e6c0-41ca-abd0-27ccddc107a5}",
      "RelComponentID": null,
      "width": 10.775,
      "height": 10.85,
      "koWidth": 10.775,
      "koHeight": 10.85,
      "originX": -0.1,
      "originY": 0.1,
      "x": 18.1125,
      "y": 0.375,
      "rotation": 0,
      "layer": 1,
      "constraints": null,
      "multiLayer": null,
      "doNotPlace": null
    },
    {
      "name": "U3",
      "package": "SOIC-8",
      "pkg_idx": 20,
      "ComponentID": "{af2aff93-3a2d-447b-a5f5-e4064009f9a8}",
      "RelComponentID": null,
      "width": 6.65,
      "height": 5.2,
      "koWidth": 6.65,
      "koHeight": 5.2,
      "originX": -0.2,
      "originY": 0.1,
      "x": 21.475,
      "y": 0.4,
      "rotation": 0,
      "layer": 0,
      "constraints": null,
      "multiLayer": null,
      "doNotPlace": null
    },
    {
      "name": "U4",
      "package": "SOIC-8",
      "pkg_idx": 21,
      "ComponentID": "{4fb81907-4970-48cb-8e57-2ea2470a391a}",
      "RelComponentID": null,
      "width": 6.65,
      "height": 5.2,
      "koWidth": 6.65,
      "koHeight": 5.2,
      "originX": -0.2,
      "originY": 0.1,
      "x": 14.575,
      "y": 0.4,
      "rotation": 0,
      "layer": 0,
      "constraints": null,
      "multiLayer": null,
      "doNotPlace": null
    }
  ],
  "signals": [
    {
      "name": "N$0",
      "length": 51.318707789508835,
      "bends": 40,
      "RelComponentID": null,
      "pins": [
        {
          "name": "P$1",
          "gate": "G$1",
          "pad": "1",
          "package": "C1"
        },
        {
          "name": "GND1",
          "gate": "G$1",
          "pad": "P$2",
          "package": "U2"
        },
        {
          "name": "P$1",
          "gate": "G$1",
          "pad": "1",
          "package": "C2"
        },
        {
          "name": "P$1",
          "gate": "G$1",
          "pad": "1",
          "package": "C4"
        },
        {
          "name": "P$2",
          "gate": "G$1",
          "pad": "2",
          "package": "C9"
        },
        {
          "name": "P$1",
          "gate": "G$1",
          "pad": "1",
          "package": "C3"
        },
        {
          "name": "-",
          "gate": "G$1",
          "pad": "P$2",
          "package": "C16"
        },
        {
          "name": "GND1*",
          "gate": "G$1",
          "pad": "P$8",
          "package": "U1"
        },
        {
          "name": "GND1",
          "gate": "G$1",
          "pad": "P$2",
          "package": "U1"
        },
        {
          "name": "P$2",
          "gate": "G$1",
          "pad": "2",
          "package": "C15"
        }
      ],
      "wires": [
        {
          "x1": 12.5,
          "y1": 2.4,
          "x2": 12.5,
          "y2": 1.0,
          "width": 0.1524,
          "layer": 1,
          "curve": 0.0
        },
        {
          "x1": 15.7,
          "y1": 4.9,
          "x2": 14.1,
          "y2": 3.3,
          "width": 0.1524,
          "layer": 16,
          "curve": 0.0
        },
        {
          "x1": 15.7,
          "y1": 6.7,
          "x2": 15.7,
          "y2": 4.9,
          "width": 0.1524,
          "layer": 16,
          "curve": 0.0
        },
        {
          "x1": 15.65,
          "y1": 6.75,
          "x2": 14.0,
          "y2": 6.75,
          "width": 0.1524,
          "layer": 16,
          "curve": 0.0
        },
        {
          "x1": 14.0,
          "y1": 6.75,
          "x2": 14.0,
          "y2": 6.745,
          "width": 0.1524,
          "layer": 16,
          "curve": 0.0
        },
        {
          "x1": 15.65,
          "y1": 6.75,
          "x2": 15.7,
          "y2": 6.7,
          "width": 0.1524,
          "layer": 16,
          "curve": 0.0
        },
        {
          "x1": 13.55,
          "y1": 2.25,
          "x2": 12.55,
          "y2": 2.25,
          "width": 0.1524,
          "layer": 1,
          "curve": 0.0
        },
        {
          "x1": 14.05,
          "y1": 2.75,
          "x2": 13.55,
          "y2": 2.25,
          "width": 0.1524,
          "layer": 16,
          "curve": 0.0
        },
        {
          "x1": 14.05,
          "y1": 3.25,
          "x2": 14.05,
          "y2": 2.75,
          "width": 0.1524,
          "layer": 16,
          "curve": 0.0
        },
        {
          "x1": 12.55,
          "y1": 2.25,
          "x2": 12.5,
          "y2": 2.4,
          "width": 0.1524,
          "layer": 1,
          "curve": 0.0
        },
        {
          "x1": 14.05,
          "y1": 3.25,
          "x2": 14.1,
          "y2": 3.3,
          "width": 0.1524,
          "layer": 16,
          "curve": 0.0
        },
        {
          "x1": 1.95,
          "y1": 3.15,
          "x2": 1.8,
          "y2": 3.0,
          "width": 0.1524,
          "layer": 1,
          "curve": 0.0
        },
        {
          "x1": 5.15,
          "y1": 3.15,
          "x2": 1.95,
          "y2": 3.15,
          "width": 0.1524,
          "layer": 1,
          "curve": 0.0
        },
        {
          "x1": 6.9,
          "y1": 1.4,
          "x2": 5.15,
          "y2": 3.15,
          "width": 0.1524,
          "layer": 16,
          "curve": 0.0
        },
        {
          "x1": 10.7,
          "y1": 1.4,
          "x2": 9.65,
          "y2": 1.4,
          "width": 0.1524,
          "layer": 16,
          "curve": 0.0
        },
        {
          "x1": 9.65,
          "y1": 1.4,
          "x2": 6.9,
          "y2": 1.4,
          "width": 0.1524,
          "layer": 16,
          "curve": 0.0
        },
        {
          "x1": 10.7,
          "y1": 1.4,
          "x2": 10.7375,
          "y2": 1.355,
          "width": 0.1524,
          "layer": 16,
          "curve": 0.0
        },
        {
          "x1": 11.75,
          "y1": 2.2,
          "x2": 13.5,
          "y2": 2.2,
          "width": 0.1524,
          "layer": 16,
          "curve": 0.0
        },
        {
          "x1": 10.9,
          "y1": 1.35,
          "x2": 11.75,
          "y2": 2.2,
          "width": 0.1524,
          "layer": 16,
          "curve": 0.0
        },
        {
          "x1": 10.8,
          "y1": 1.35,
          "x2": 10.9,
          "y2": 1.35,
          "width": 0.1524,
          "layer": 16,
          "curve": 0.0
        },
        {
          "x1": 13.5,
          "y1": 2.2,
          "x2": 13.55,
          "y2": 2.25,
          "width": 0.1524,
          "layer": 16,
          "curve": 0.0
        },
        {
          "x1": 10.8,
          "y1": 1.35,
          "x2": 10.7375,
          "y2": 1.355,
          "width": 0.1524,
          "layer": 16,
          "curve": 0.0
        },
        {
          "x1": 13.3,
          "y1": 9.6,
          "x2": 14.5,
          "y2": 10.8,
          "width": 0.1524,
          "layer": 1,
          "curve": 0.0
        },
        {
          "x1": 11.9,
          "y1": 9.6,
          "x2": 13.3,
          "y2": 9.6,
          "width": 0.1524,
          "layer": 1,
          "curve": 0.0
        },
        {
          "x1": 10.75,
          "y1": 9.6,
          "x2": 11.9,
          "y2": 9.6,
          "width": 0.1524,
          "layer": 16,
          "curve": 0.0
        },
        {
          "x1": 10.75,
          "y1": 9.0,
          "x2": 10.75,
          "y2": 9.6,
          "width": 0.1524,
          "layer": 16,
          "curve": 0.0
        },
        {
          "x1": 10.75,
          "y1": 9.0,
          "x2": 10.7375,
          "y2": 8.975,
          "width": 0.1524,
          "layer": 16,
          "curve": 0.0
        },
        {
          "x1": 26.8,
          "y1": 8.9,
          "x2": 27.9,
          "y2": 8.9,
          "width": 0.1524,
          "layer": 16,
          "curve": 0.0
        },
        {
          "x1": 26.8,
          "y1": 9.5,
          "x2": 26.8,
          "y2": 8.9,
          "width": 0.1524,
          "layer": 16,
          "curve": 0.0
        },
        {
          "x1": 26.55,
          "y1": 9.25,
          "x2": 26.8,
          "y2": 9.5,
          "width": 0.1524,
          "layer": 1,
          "curve": 0.0
        },
        {
          "x1": 15.25,
          "y1": 9.25,
          "x2": 26.55,
          "y2": 9.25,
          "width": 0.1524,
          "layer": 1,
          "curve": 0.0
        },
        {
          "x1": 14.15,
          "y1": 10.35,
          "x2": 15.25,
          "y2": 9.25,
          "width": 0.1524,
          "layer": 1,
          "curve": 0.0
        },
        {
          "x1": 27.9,
          "y1": 8.9,
          "x2": 27.9375,
          "y2": 8.875,
          "width": 0.1524,
          "layer": 16,
          "curve": 0.0
        },
        {
          "x1": 14.15,
          "y1": 10.35,
          "x2": 14.5,
          "y2": 10.8,
          "width": 0.1524,
          "layer": 1,
          "curve": 0.0
        },
        {
          "x1": 9.65,
          "y1": 8.1,
          "x2": 9.65,
          "y2": 1.4,
          "width": 0.1524,
          "layer": 16,
          "curve": 0.0
        },
        {
          "x1": 10.7,
          "y1": 9.15,
          "x2": 9.65,
          "y2": 8.1,
          "width": 0.1524,
          "layer": 16,
          "curve": 0.0
        },
        {
          "x1": 10.7,
          "y1": 9.15,
          "x2": 10.7375,
          "y2": 8.975,
          "width": 0.1524,
          "layer": 16,
          "curve": 0.0
        }
      ],
      "vias": [
        {
          "x": 13.55,
          "y": 2.25,
          "drill": 0.3048,
          "layerBegin": 1,
          "layerEnd": 16
        },
        {
          "x": 5.15,
          "y": 3.15,
          "drill": 0.3048,
          "layerBegin": 1,
          "layerEnd": 16
        },
        {
          "x": 11.9,
          "y": 9.6,
          "drill": 0.3048,
          "layerBegin": 1,
          "layerEnd": 16
        },
        {
          "x": 26.8,
          "y": 9.5,
          "drill": 0.3048,
          "layerBegin": 1,
          "layerEnd": 16
        }
      ],
      "polygons": []
    },
    {
      "name": "N$1",
      "length": 53.781130624133077,
      "bends": 43,
      "RelComponentID": null,
      "pins": [
        {
          "name": "P$2",
          "gate": "G$1",
          "pad": "2",
          "package": "C1"
        },
        {
          "name": "+",
          "gate": "G$1",
          "pad": "P$1",
          "package": "C16"
        },
        {
          "name": "P$1",
          "gate": "G$1",
          "pad": "1",
          "package": "C15"
        },
        {
          "name": "VDD1",
          "gate": "G$1",
          "pad": "P$1",
          "package": "U1"
        },
        {
          "name": "VDD1*",
          "gate": "G$1",
          "pad": "P$7",
          "package": "U1"
        },
        {
          "name": "RCSEL",
          "gate": "G$1",
          "pad": "P$6",
          "package": "U1"
        },
        {
          "name": "VDD1",
          "gate": "G$1",
          "pad": "P$1",
          "package": "U2"
        },
        {
          "name": "VDD1*",
          "gate": "G$1",
          "pad": "P$7",
          "package": "U2"
        },
        {
          "name": "P$1",
          "gate": "G$1",
          "pad": "1",
          "package": "C9"
        },
        {
          "name": "P$2",
          "gate": "G$1",
          "pad": "2",
          "package": "C3"
        },
        {
          "name": "P$2",
          "gate": "G$1",
          "pad": "2",
          "package": "C4"
        },
        {
          "name": "P$2",
          "gate": "G$1",
          "pad": "2",
          "package": "C2"
        }
      ],
      "wires": [
        {
          "x1": 2.65,
          "y1": 2.05,
          "x2": 1.8,
          "y2": 1.2,
          "width": 0.1524,
          "layer": 1,
          "curve": 0.0
        },
        {
          "x1": 10.35,
          "y1": 2.05,
          "x2": 2.65,
          "y2": 2.05,
          "width": 0.1524,
          "layer": 1,
          "curve": 0.0
        },
        {
          "x1": 10.7,
          "y1": 2.4,
          "x2": 10.35,
          "y2": 2.05,
          "width": 0.1524,
          "layer": 1,
          "curve": 0.0
        },
        {
          "x1": 10.7,
          "y1": 2.0,
          "x2": 10.7,
          "y2": 1.0,
          "width": 0.1524,
          "layer": 1,
          "curve": 0.0
        },
        {
          "x1": 10.4,
          "y1": 2.0,
          "x2": 10.7,
          "y2": 2.0,
          "width": 0.1524,
          "layer": 1,
          "curve": 0.0
        },
        {
          "x1": 10.4,
          "y1": 2.0,
          "x2": 10.7,
          "y2": 2.4,
          "width": 0.1524,
          "layer": 1,
          "curve": 0.0
        },
        {
          "x1": 26.25,
          "y1": 2.55,
          "x2": 27.9,
          "y2": 2.55,
          "width": 0.1524,
          "layer": 16,
          "curve": 0.0
        },
        {
          "x1": 26.25,
          "y1": 9.75,
          "x2": 26.25,
          "y2": 2.55,
          "width": 0.1524,
          "layer": 16,
          "curve": 0.0
        },
        {
          "x1": 26.6,
          "y1": 10.1,
          "x2": 26.25,
          "y2": 9.75,
          "width": 0.1524,
          "layer": 16,
          "curve": 0.0
        },
        {
          "x1": 27.9,
          "y1": 10.1,
          "x2": 26.6,
          "y2": 10.1,
          "width": 0.1524,
          "layer": 16,
          "curve": 0.0
        },
        {
          "x1": 27.9,
          "y1": 2.55,
          "x2": 27.9375,
          "y2": 2.525,
          "width": 0.1524,
          "layer": 16,
          "curve": 0.0
        },
        {
          "x1": 27.9,
          "y1": 10.1,
          "x2": 27.9375,
          "y2": 10.145,
          "width": 0.1524,
          "layer": 16,
          "curve": 0.0
        },
        {
          "x1": 12.85,
          "y1": 3.85,
          "x2": 14.1,
          "y2": 5.1,
          "width": 0.1524,
          "layer": 16,
          "curve": 0.0
        },
        {
          "x1": 10.75,
          "y1": 3.85,
          "x2": 12.65,
          "y2": 3.85,
          "width": 0.1524,
          "layer": 16,
          "curve": 0.0
        },
        {
          "x1": 12.65,
          "y1": 3.85,
          "x2": 12.85,
          "y2": 3.85,
          "width": 0.1524,
          "layer": 16,
          "curve": 0.0
        },
        {
          "x1": 10.75,
          "y1": 3.85,
          "x2": 10.7375,
          "y2": 3.895,
          "width": 0.1524,
          "layer": 16,
          "curve": 0.0
        },
        {
          "x1": 10.75,
          "y1": 3.8,
          "x2": 10.75,
          "y2": 2.65,
          "width": 0.1524,
          "layer": 16,
          "curve": 0.0
        },
        {
          "x1": 10.75,
          "y1": 2.65,
          "x2": 10.7375,
          "y2": 2.625,
          "width": 0.1524,
          "layer": 16,
          "curve": 0.0
        },
        {
          "x1": 10.75,
          "y1": 3.8,
          "x2": 10.7375,
          "y2": 3.895,
          "width": 0.1524,
          "layer": 16,
          "curve": 0.0
        },
        {
          "x1": 15.4,
          "y1": 9.9,
          "x2": 16.3,
          "y2": 10.8,
          "width": 0.1524,
          "layer": 1,
          "curve": 0.0
        },
        {
          "x1": 15.7,
          "y1": 9.6,
          "x2": 15.4,
          "y2": 9.9,
          "width": 0.1524,
          "layer": 16,
          "curve": 0.0
        },
        {
          "x1": 15.7,
          "y1": 8.7,
          "x2": 15.7,
          "y2": 9.6,
          "width": 0.1524,
          "layer": 16,
          "curve": 0.0
        },
        {
          "x1": 15.65,
          "y1": 8.65,
          "x2": 14.0,
          "y2": 8.65,
          "width": 0.1524,
          "layer": 16,
          "curve": 0.0
        },
        {
          "x1": 14.0,
          "y1": 8.65,
          "x2": 14.0,
          "y2": 8.655,
          "width": 0.1524,
          "layer": 16,
          "curve": 0.0
        },
        {
          "x1": 15.65,
          "y1": 8.65,
          "x2": 15.7,
          "y2": 8.7,
          "width": 0.1524,
          "layer": 16,
          "curve": 0.0
        },
        {
          "x1": 13.95,
          "y1": 10.2,
          "x2": 10.75,
          "y2": 10.2,
          "width": 0.1524,
          "layer": 16,
          "curve": 0.0
        },
        {
          "x1": 13.95,
          "y1": 8.7,
          "x2": 13.95,
          "y2": 10.2,
          "width": 0.1524,
          "layer": 16,
          "curve": 0.0
        },
        {
          "x1": 10.75,
          "y1": 10.2,
          "x2": 10.7375,
          "y2": 10.245,
          "width": 0.1524,
          "layer": 16,
          "curve": 0.0
        },
        {
          "x1": 13.95,
          "y1": 8.7,
          "x2": 14.0,
          "y2": 8.655,
          "width": 0.1524,
          "layer": 16,
          "curve": 0.0
        },
        {
          "x1": 13.1,
          "y1": 6.1,
          "x2": 14.1,
          "y2": 5.1,
          "width": 0.1524,
          "layer": 16,
          "curve": 0.0
        },
        {
          "x1": 13.1,
          "y1": 7.75,
          "x2": 13.1,
          "y2": 6.1,
          "width": 0.1524,
          "layer": 16,
          "curve": 0.0
        },
        {
          "x1": 13.95,
          "y1": 8.6,
          "x2": 13.1,
          "y2": 7.75,
          "width": 0.1524,
          "layer": 16,
          "curve": 0.0
        },
        {
          "x1": 13.95,
          "y1": 8.6,
          "x2": 14.0,
          "y2": 8.655,
          "width": 0.1524,
          "layer": 16,
          "curve": 0.0
        },
        {
          "x1": 20.2,
          "y1": 9.8,
          "x2": 26.2,
          "y2": 9.8,
          "width": 0.1524,
          "layer": 16,
          "curve": 0.0
        },
        {
          "x1": 19.25,
          "y1": 10.75,
          "x2": 20.2,
          "y2": 9.8,
          "width": 0.1524,
          "layer": 1,
          "curve": 0.0
        },
        {
          "x1": 16.35,
          "y1": 10.75,
          "x2": 19.25,
          "y2": 10.75,
          "width": 0.1524,
          "layer": 1,
          "curve": 0.0
        },
        {
          "x1": 26.2,
          "y1": 9.8,
          "x2": 26.25,
          "y2": 9.75,
          "width": 0.1524,
          "layer": 16,
          "curve": 0.0
        },
        {
          "x1": 16.35,
          "y1": 10.75,
          "x2": 16.3,
          "y2": 10.8,
          "width": 0.1524,
          "layer": 1,
          "curve": 0.0
        },
        {
          "x1": 11.75,
          "y1": 3.45,
          "x2": 10.7,
          "y2": 2.4,
          "width": 0.1524,
          "layer": 1,
          "curve": 0.0
        },
        {
          "x1": 12.65,
          "y1": 3.45,
          "x2": 11.75,
          "y2": 3.45,
          "width": 0.1524,
          "layer": 1,
          "curve": 0.0
        },
        {
          "x1": 12.65,
          "y1": 3.85,
          "x2": 12.65,
          "y2": 3.45,
          "width": 0.1524,
          "layer": 16,
          "curve": 0.0
        }
      ],
      "vias": [
        {
          "x": 15.4,
          "y": 9.9,
          "drill": 0.3048,
          "layerBegin": 1,
          "layerEnd": 16
        },
        {
          "x": 20.2,
          "y": 9.8,
          "drill": 0.3048,
          "layerBegin": 1,
          "layerEnd": 16
        },
        {
          "x": 12.65,
          "y": 3.45,
          "drill": 0.3048,
          "layerBegin": 1,
          "layerEnd": 16
        }
      ],
      "polygons": []
    },
    {
      "name": "N$2",
      "length": 76.628191851753456,
      "bends": 53,
      "RelComponentID": null,
      "pins": [
        {
          "name": "P$1",
          "gate": "G$1",
          "pad": "1",
          "package": "C10"
        },
        {
          "name": "P$1",
          "gate": "G$1",
          "pad": "1",
          "package": "C8"
        },
        {
          "name": "P$1",
          "gate": "G$1",
          "pad": "1",
          "package": "C7"
        },
        {
          "name": "P$1",
          "gate": "G$1",
          "pad": "1",
          "package": "C12"
        },
        {
          "name": "P$1",
          "gate": "G$1",
          "pad": "1",
          "package": "C11"
        },
        {
          "name": "P$1",
          "gate": "G$1",
          "pad": "1",
          "package": "C6"
        },
        {
          "name": "P$1",
          "gate": "G$1",
          "pad": "1",
          "package": "C5"
        },
        {
          "name": "VISO",
          "gate": "G$1",
          "pad": "P$10",
          "package": "U1"
        },
        {
          "name": "VISO*",
          "gate": "G$1",
          "pad": "P$16",
          "package": "U1"
        },
        {
          "name": "P$1",
          "gate": "G$1",
          "pad": "1",
          "package": "C14"
        },
        {
          "name": "P$1",
          "gate": "G$1",
          "pad": "1",
          "package": "C13"
        },
        {
          "name": "DOUT1-",
          "gate": "G$1",
          "pad": "P$8",
          "package": "U4"
        },
        {
          "name": "VCC",
          "gate": "G$1",
          "pad": "P$1",
          "package": "U3"
        },
        {
          "name": "VISO*",
          "gate": "G$1",
          "pad": "P$16",
          "package": "U2"
        },
        {
          "name": "VISO",
          "gate": "G$1",
          "pad": "P$10",
          "package": "U2"
        }
      ],
      "wires": [
        {
          "x1": 8.3,
          "y1": 1.1,
          "x2": 6.2,
          "y2": 1.1,
          "width": 0.1524,
          "layer": 1,
          "curve": 0.0
        },
        {
          "x1": 6.7,
          "y1": 4.4,
          "x2": 5.2,
          "y2": 4.4,
          "width": 0.1524,
          "layer": 1,
          "curve": 0.0
        },
        {
          "x1": 9.2,
          "y1": 5.2,
          "x2": 10.0,
          "y2": 4.4,
          "width": 0.1524,
          "layer": 1,
          "curve": 0.0
        },
        {
          "x1": 7.5,
          "y1": 5.2,
          "x2": 9.2,
          "y2": 5.2,
          "width": 0.1524,
          "layer": 1,
          "curve": 0.0
        },
        {
          "x1": 6.7,
          "y1": 4.4,
          "x2": 7.5,
          "y2": 5.2,
          "width": 0.1524,
          "layer": 1,
          "curve": 0.0
        },
        {
          "x1": 6.7,
          "y1": 5.25,
          "x2": 6.7,
          "y2": 7.0,
          "width": 0.1524,
          "layer": 1,
          "curve": 0.0
        },
        {
          "x1": 7.45,
          "y1": 5.25,
          "x2": 6.7,
          "y2": 5.25,
          "width": 0.1524,
          "layer": 1,
          "curve": 0.0
        },
        {
          "x1": 7.45,
          "y1": 5.25,
          "x2": 7.5,
          "y2": 5.2,
          "width": 0.1524,
          "layer": 1,
          "curve": 0.0
        },
        {
          "x1": 2.5,
          "y1": 5.1,
          "x2": 2.1,
          "y2": 5.5,
          "width": 0.1524,
          "layer": 1,
          "curve": 0.0
        },
        {
          "x1": 4.5,
          "y1": 5.1,
          "x2": 2.5,
          "y2": 5.1,
          "width": 0.1524,
          "layer": 1,
          "curve": 0.0
        },
        {
          "x1": 5.2,
          "y1": 4.4,
          "x2": 4.5,
          "y2": 5.1,
          "width": 0.1524,
          "layer": 1,
          "curve": 0.0
        },
        {
          "x1": 5.45,
          "y1": 0.35,
          "x2": 6.2,
          "y2": 1.1,
          "width": 0.1524,
          "layer": 1,
          "curve": 0.0
        },
        {
          "x1": 1.2,
          "y1": 0.35,
          "x2": 5.45,
          "y2": 0.35,
          "width": 0.1524,
          "layer": 1,
          "curve": 0.0
        },
        {
          "x1": 0.7,
          "y1": 0.85,
          "x2": 1.2,
          "y2": 0.35,
          "width": 0.1524,
          "layer": 1,
          "curve": 0.0
        },
        {
          "x1": 0.7,
          "y1": 5.45,
          "x2": 0.7,
          "y2": 0.85,
          "width": 0.1524,
          "layer": 1,
          "curve": 0.0
        },
        {
          "x1": 2.05,
          "y1": 5.45,
          "x2": 1.05,
          "y2": 5.45,
          "width": 0.1524,
          "layer": 1,
          "curve": 0.0
        },
        {
          "x1": 1.05,
          "y1": 5.45,
          "x2": 0.7,
          "y2": 5.45,
          "width": 0.1524,
          "layer": 1,
          "curve": 0.0
        },
        {
          "x1": 2.05,
          "y1": 5.45,
          "x2": 2.1,
          "y2": 5.5,
          "width": 0.1524,
          "layer": 1,
          "curve": 0.0
        },
        {
          "x1": 0.55,
          "y1": 2.65,
          "x2": 1.65,
          "y2": 2.65,
          "width": 0.1524,
          "layer": 16,
          "curve": 0.0
        },
        {
          "x1": 0.55,
          "y1": 9.3,
          "x2": 0.55,
          "y2": 2.65,
          "width": 0.1524,
          "layer": 16,
          "curve": 0.0
        },
        {
          "x1": 1.45,
          "y1": 10.2,
          "x2": 0.55,
          "y2": 9.3,
          "width": 0.1524,
          "layer": 16,
          "curve": 0.0
        },
        {
          "x1": 1.65,
          "y1": 10.2,
          "x2": 1.45,
          "y2": 10.2,
          "width": 0.1524,
          "layer": 16,
          "curve": 0.0
        },
        {
          "x1": 1.65,
          "y1": 2.65,
          "x2": 1.6625,
          "y2": 2.625,
          "width": 0.1524,
          "layer": 16,
          "curve": 0.0
        },
        {
          "x1": 1.65,
          "y1": 10.2,
          "x2": 1.6625,
          "y2": 10.245,
          "width": 0.1524,
          "layer": 16,
          "curve": 0.0
        },
        {
          "x1": 17.75,
          "y1": 2.55,
          "x2": 18.85,
          "y2": 2.55,
          "width": 0.1524,
          "layer": 16,
          "curve": 0.0
        },
        {
          "x1": 17.75,
          "y1": 9.2,
          "x2": 17.75,
          "y2": 7.75,
          "width": 0.1524,
          "layer": 16,
          "curve": 0.0
        },
        {
          "x1": 17.75,
          "y1": 7.75,
          "x2": 17.75,
          "y2": 2.55,
          "width": 0.1524,
          "layer": 16,
          "curve": 0.0
        },
        {
          "x1": 18.65,
          "y1": 10.1,
          "x2": 17.75,
          "y2": 9.2,
          "width": 0.1524,
          "layer": 16,
          "curve": 0.0
        },
        {
          "x1": 18.85,
          "y1": 10.1,
          "x2": 18.65,
          "y2": 10.1,
          "width": 0.1524,
          "layer": 16,
          "curve": 0.0
        },
        {
          "x1": 18.85,
          "y1": 2.55,
          "x2": 18.8625,
          "y2": 2.525,
          "width": 0.1524,
          "layer": 16,
          "curve": 0.0
        },
        {
          "x1": 18.85,
          "y1": 10.1,
          "x2": 18.8625,
          "y2": 10.145,
          "width": 0.1524,
          "layer": 16,
          "curve": 0.0
        },
        {
          "x1": 22.45,
          "y1": 4.8,
          "x2": 20.65,
          "y2": 4.8,
          "width": 0.1524,
          "layer": 1,
          "curve": 0.0
        },
        {
          "x1": 20.65,
          "y1": 4.8,
          "x2": 20.625,
          "y2": 4.805,
          "width": 0.1524,
          "layer": 1,
          "curve": 0.0
        },
        {
          "x1": 22.45,
          "y1": 4.8,
          "x2": 22.475,
          "y2": 4.805,
          "width": 0.1524,
          "layer": 1,
          "curve": 0.0
        },
        {
          "x1": 7.0,
          "y1": 10.0,
          "x2": 9.25,
          "y2": 7.75,
          "width": 0.1524,
          "layer": 1,
          "curve": 0.0
        },
        {
          "x1": 9.25,
          "y1": 7.75,
          "x2": 10.0,
          "y2": 7.0,
          "width": 0.1524,
          "layer": 1,
          "curve": 0.0
        },
        {
          "x1": 2.0,
          "y1": 10.0,
          "x2": 3.0,
          "y2": 10.0,
          "width": 0.1524,
          "layer": 1,
          "curve": 0.0
        },
        {
          "x1": 3.0,
          "y1": 10.0,
          "x2": 7.0,
          "y2": 10.0,
          "width": 0.1524,
          "layer": 1,
          "curve": 0.0
        },
        {
          "x1": 1.2,
          "y1": 9.2,
          "x2": 2.0,
          "y2": 10.0,
          "width": 0.1524,
          "layer": 1,
          "curve": 0.0
        },
        {
          "x1": 20.6,
          "y1": 7.8,
          "x2": 20.6,
          "y2": 4.85,
          "width": 0.1524,
          "layer": 1,
          "curve": 0.0
        },
        {
          "x1": 9.3,
          "y1": 7.8,
          "x2": 17.55,
          "y2": 7.8,
          "width": 0.1524,
          "layer": 1,
          "curve": 0.0
        },
        {
          "x1": 17.55,
          "y1": 7.8,
          "x2": 20.6,
          "y2": 7.8,
          "width": 0.1524,
          "layer": 1,
          "curve": 0.0
        },
        {
          "x1": 20.6,
          "y1": 4.85,
          "x2": 20.625,
          "y2": 4.805,
          "width": 0.1524,
          "layer": 1,
          "curve": 0.0
        },
        {
          "x1": 9.3,
          "y1": 7.8,
          "x2": 9.25,
          "y2": 7.75,
          "width": 0.1524,
          "layer": 1,
          "curve": 0.0
        },
        {
          "x1": 17.55,
          "y1": 7.75,
          "x2": 17.75,
          "y2": 7.75,
          "width": 0.1524,
          "layer": 16,
          "curve": 0.0
        },
        {
          "x1": 17.55,
          "y1": 7.75,
          "x2": 17.55,
          "y2": 7.8,
          "width": 0.1524,
          "layer": 1,
          "curve": 0.0
        },
        {
          "x1": 3.0,
          "y1": 10.25,
          "x2": 1.7,
          "y2": 10.25,
          "width": 0.1524,
          "layer": 16,
          "curve": 0.0
        },
        {
          "x1": 3.0,
          "y1": 10.0,
          "x2": 3.0,
          "y2": 10.25,
          "width": 0.1524,
          "layer": 1,
          "curve": 0.0
        },
        {
          "x1": 1.7,
          "y1": 10.25,
          "x2": 1.6625,
          "y2": 10.245,
          "width": 0.1524,
          "layer": 16,
          "curve": 0.0
        },
        {
          "x1": 1.05,
          "y1": 9.15,
          "x2": 1.05,
          "y2": 5.45,
          "width": 0.1524,
          "layer": 1,
          "curve": 0.0
        },
        {
          "x1": 1.15,
          "y1": 9.15,
          "x2": 1.05,
          "y2": 9.15,
          "width": 0.1524,
          "layer": 1,
          "curve": 0.0
        },
        {
          "x1": 1.15,
          "y1": 9.15,
          "x2": 1.2,
          "y2": 9.2,
          "width": 0.1524,
          "layer": 1,
          "curve": 0.0
        }
      ],
      "vias": [
        {
          "x": 17.55,
          "y": 7.75,
          "drill": 0.3048,
          "layerBegin": 1,
          "layerEnd": 16
        },
        {
          "x": 3.0,
          "y": 10.25,
          "drill": 0.3048,
          "layerBegin": 1,
          "layerEnd": 16
        }
      ],
      "polygons": []
    },
    {
      "name": "N$3",
      "length": 51.041352006905385,
      "bends": 47,
      "RelComponentID": null,
      "pins": [
        {
          "name": "P$2",
          "gate": "G$1",
          "pad": "2",
          "package": "C10"
        },
        {
          "name": "P$2",
          "gate": "G$1",
          "pad": "2",
          "package": "C6"
        },
        {
          "name": "P$2",
          "gate": "G$1",
          "pad": "2",
          "package": "C5"
        },
        {
          "name": "P$2",
          "gate": "G$1",
          "pad": "2",
          "package": "C12"
        },
        {
          "name": "P$2",
          "gate": "G$1",
          "pad": "2",
          "package": "C11"
        },
        {
          "name": "DOUT2-",
          "gate": "G$1",
          "pad": "P$5",
          "package": "U4"
        },
        {
          "name": "P$2",
          "gate": "G$1",
          "pad": "2",
          "package": "C13"
        },
        {
          "name": "P$2",
          "gate": "G$1",
          "pad": "2",
          "package": "C14"
        },
        {
          "name": "GNDISO",
          "gate": "G$1",
          "pad": "P$9",
          "package": "U2"
        },
        {
          "name": "VSEL",
          "gate": "G$1",
          "pad": "P$13",
          "package": "U1"
        },
        {
          "name": "P$2",
          "gate": "G$1",
          "pad": "2",
          "package": "C8"
        },
        {
          "name": "P$2",
          "gate": "G$1",
          "pad": "2",
          "package": "C7"
        },
        {
          "name": "GNDISO",
          "gate": "G$1",
          "pad": "P$9",
          "package": "U1"
        },
        {
          "name": "GNDISO*",
          "gate": "G$1",
          "pad": "P$15",
          "package": "U1"
        },
        {
          "name": "GND",
          "gate": "G$1",
          "pad": "P$4",
          "package": "U3"
        }
      ],
      "wires": [
        {
          "x1": 2.75,
          "y1": 1.4,
          "x2": 1.7,
          "y2": 1.4,
          "width": 0.1524,
          "layer": 16,
          "curve": 0.0
        },
        {
          "x1": 2.75,
          "y1": 5.55,
          "x2": 2.75,
          "y2": 1.4,
          "width": 0.1524,
          "layer": 16,
          "curve": 0.0
        },
        {
          "x1": 1.9,
          "y1": 6.4,
          "x2": 2.7,
          "y2": 5.6,
          "width": 0.1524,
          "layer": 16,
          "curve": 0.0
        },
        {
          "x1": 2.7,
          "y1": 5.6,
          "x2": 2.75,
          "y2": 5.55,
          "width": 0.1524,
          "layer": 16,
          "curve": 0.0
        },
        {
          "x1": 1.7,
          "y1": 6.4,
          "x2": 1.9,
          "y2": 6.4,
          "width": 0.1524,
          "layer": 16,
          "curve": 0.0
        },
        {
          "x1": 1.7,
          "y1": 1.4,
          "x2": 1.6625,
          "y2": 1.355,
          "width": 0.1524,
          "layer": 16,
          "curve": 0.0
        },
        {
          "x1": 1.7,
          "y1": 6.4,
          "x2": 1.6625,
          "y2": 6.435,
          "width": 0.1524,
          "layer": 16,
          "curve": 0.0
        },
        {
          "x1": 2.75,
          "y1": 8.95,
          "x2": 1.7,
          "y2": 8.95,
          "width": 0.1524,
          "layer": 16,
          "curve": 0.0
        },
        {
          "x1": 2.75,
          "y1": 5.65,
          "x2": 2.75,
          "y2": 7.45,
          "width": 0.1524,
          "layer": 16,
          "curve": 0.0
        },
        {
          "x1": 2.75,
          "y1": 7.45,
          "x2": 2.75,
          "y2": 8.95,
          "width": 0.1524,
          "layer": 16,
          "curve": 0.0
        },
        {
          "x1": 1.7,
          "y1": 8.95,
          "x2": 1.6625,
          "y2": 8.975,
          "width": 0.1524,
          "layer": 16,
          "curve": 0.0
        },
        {
          "x1": 2.75,
          "y1": 5.65,
          "x2": 2.7,
          "y2": 5.6,
          "width": 0.1524,
          "layer": 16,
          "curve": 0.0
        },
        {
          "x1": 3.9,
          "y1": 7.5,
          "x2": 5.2,
          "y2": 6.2,
          "width": 0.1524,
          "layer": 1,
          "curve": 0.0
        },
        {
          "x1": 2.1,
          "y1": 7.5,
          "x2": 3.0,
          "y2": 7.5,
          "width": 0.1524,
          "layer": 1,
          "curve": 0.0
        },
        {
          "x1": 3.0,
          "y1": 7.5,
          "x2": 3.35,
          "y2": 7.5,
          "width": 0.1524,
          "layer": 1,
          "curve": 0.0
        },
        {
          "x1": 3.35,
          "y1": 7.5,
          "x2": 3.9,
          "y2": 7.5,
          "width": 0.1524,
          "layer": 1,
          "curve": 0.0
        },
        {
          "x1": 3.0,
          "y1": 7.5,
          "x2": 3.0,
          "y2": 9.2,
          "width": 0.1524,
          "layer": 1,
          "curve": 0.0
        },
        {
          "x1": 22.45,
          "y1": 1.0,
          "x2": 20.65,
          "y2": 1.0,
          "width": 0.1524,
          "layer": 1,
          "curve": 0.0
        },
        {
          "x1": 20.65,
          "y1": 1.0,
          "x2": 20.625,
          "y2": 0.995,
          "width": 0.1524,
          "layer": 1,
          "curve": 0.0
        },
        {
          "x1": 22.45,
          "y1": 1.0,
          "x2": 22.475,
          "y2": 0.995,
          "width": 0.1524,
          "layer": 1,
          "curve": 0.0
        },
        {
          "x1": 17.55,
          "y1": 1.25,
          "x2": 18.85,
          "y2": 1.25,
          "width": 0.1524,
          "layer": 16,
          "curve": 0.0
        },
        {
          "x1": 17.8,
          "y1": 1.0,
          "x2": 17.55,
          "y2": 1.25,
          "width": 0.1524,
          "layer": 1,
          "curve": 0.0
        },
        {
          "x1": 20.55,
          "y1": 1.0,
          "x2": 17.8,
          "y2": 1.0,
          "width": 0.1524,
          "layer": 1,
          "curve": 0.0
        },
        {
          "x1": 18.85,
          "y1": 1.25,
          "x2": 18.8625,
          "y2": 1.255,
          "width": 0.1524,
          "layer": 16,
          "curve": 0.0
        },
        {
          "x1": 20.55,
          "y1": 1.0,
          "x2": 20.625,
          "y2": 0.995,
          "width": 0.1524,
          "layer": 1,
          "curve": 0.0
        },
        {
          "x1": 8.3,
          "y1": 2.9,
          "x2": 6.2,
          "y2": 2.9,
          "width": 0.1524,
          "layer": 1,
          "curve": 0.0
        },
        {
          "x1": 8.5,
          "y1": 2.95,
          "x2": 8.5,
          "y2": 3.6,
          "width": 0.1524,
          "layer": 1,
          "curve": 0.0
        },
        {
          "x1": 8.5,
          "y1": 3.6,
          "x2": 8.5,
          "y2": 4.4,
          "width": 0.1524,
          "layer": 1,
          "curve": 0.0
        },
        {
          "x1": 8.35,
          "y1": 2.95,
          "x2": 8.5,
          "y2": 2.95,
          "width": 0.1524,
          "layer": 1,
          "curve": 0.0
        },
        {
          "x1": 8.35,
          "y1": 2.95,
          "x2": 8.3,
          "y2": 2.9,
          "width": 0.1524,
          "layer": 1,
          "curve": 0.0
        },
        {
          "x1": 11.8,
          "y1": 7.0,
          "x2": 11.8,
          "y2": 6.2,
          "width": 0.1524,
          "layer": 1,
          "curve": 0.0
        },
        {
          "x1": 11.8,
          "y1": 6.2,
          "x2": 11.8,
          "y2": 4.4,
          "width": 0.1524,
          "layer": 1,
          "curve": 0.0
        },
        {
          "x1": 9.3,
          "y1": 6.2,
          "x2": 8.5,
          "y2": 7.0,
          "width": 0.1524,
          "layer": 1,
          "curve": 0.0
        },
        {
          "x1": 11.8,
          "y1": 6.2,
          "x2": 9.3,
          "y2": 6.2,
          "width": 0.1524,
          "layer": 1,
          "curve": 0.0
        },
        {
          "x1": 11.0,
          "y1": 3.6,
          "x2": 8.5,
          "y2": 3.6,
          "width": 0.1524,
          "layer": 1,
          "curve": 0.0
        },
        {
          "x1": 11.8,
          "y1": 4.4,
          "x2": 11.0,
          "y2": 3.6,
          "width": 0.1524,
          "layer": 1,
          "curve": 0.0
        },
        {
          "x1": 17.5,
          "y1": 4.3,
          "x2": 17.5,
          "y2": 1.3,
          "width": 0.1524,
          "layer": 1,
          "curve": 0.0
        },
        {
          "x1": 11.8,
          "y1": 4.3,
          "x2": 17.5,
          "y2": 4.3,
          "width": 0.1524,
          "layer": 1,
          "curve": 0.0
        },
        {
          "x1": 17.5,
          "y1": 1.3,
          "x2": 17.55,
          "y2": 1.25,
          "width": 0.1524,
          "layer": 1,
          "curve": 0.0
        },
        {
          "x1": 11.8,
          "y1": 4.3,
          "x2": 11.8,
          "y2": 4.4,
          "width": 0.1524,
          "layer": 1,
          "curve": 0.0
        },
        {
          "x1": 6.0,
          "y1": 7.8,
          "x2": 4.85,
          "y2": 6.65,
          "width": 0.1524,
          "layer": 1,
          "curve": 0.0
        },
        {
          "x1": 7.7,
          "y1": 7.8,
          "x2": 6.0,
          "y2": 7.8,
          "width": 0.1524,
          "layer": 1,
          "curve": 0.0
        },
        {
          "x1": 8.5,
          "y1": 7.0,
          "x2": 7.7,
          "y2": 7.8,
          "width": 0.1524,
          "layer": 1,
          "curve": 0.0
        },
        {
          "x1": 4.85,
          "y1": 6.65,
          "x2": 5.2,
          "y2": 6.2,
          "width": 0.1524,
          "layer": 1,
          "curve": 0.0
        },
        {
          "x1": 3.35,
          "y1": 7.45,
          "x2": 2.75,
          "y2": 7.45,
          "width": 0.1524,
          "layer": 16,
          "curve": 0.0
        },
        {
          "x1": 3.35,
          "y1": 7.45,
          "x2": 3.35,
          "y2": 7.5,
          "width": 0.1524,
          "layer": 1,
          "curve": 0.0
        }
      ],
      "vias": [
        {
          "x": 17.55,
          "y": 1.25,
          "drill": 0.3048,
          "layerBegin": 1,
          "layerEnd": 16
        },
        {
          "x": 3.35,
          "y": 7.45,
          "drill": 0.3048,
          "layerBegin": 1,
          "layerEnd": 16
        }
      ],
      "polygons": []
    },
    {
      "name": "N$4",
      "length": 16.068382906536147,
      "bends": 10,
      "RelComponentID": null,
      "pins": [
        {
          "name": "1",
          "gate": "G$1",
          "pad": "P$1",
          "package": "R1"
        },
        {
          "name": "GND",
          "gate": "G$1",
          "pad": "P$4",
          "package": "U4"
        }
      ],
      "wires": [
        {
          "x1": 1.8,
          "y1": 3.85,
          "x2": 1.25,
          "y2": 4.4,
          "width": 0.1524,
          "layer": 1,
          "curve": 0.0
        },
        {
          "x1": 4.0,
          "y1": 3.85,
          "x2": 1.8,
          "y2": 3.85,
          "width": 0.1524,
          "layer": 1,
          "curve": 0.0
        },
        {
          "x1": 4.6,
          "y1": 3.25,
          "x2": 4.0,
          "y2": 3.85,
          "width": 0.1524,
          "layer": 16,
          "curve": 0.0
        },
        {
          "x1": 4.6,
          "y1": 2.9,
          "x2": 4.6,
          "y2": 3.25,
          "width": 0.1524,
          "layer": 16,
          "curve": 0.0
        },
        {
          "x1": 6.65,
          "y1": 0.85,
          "x2": 4.6,
          "y2": 2.9,
          "width": 0.1524,
          "layer": 16,
          "curve": 0.0
        },
        {
          "x1": 14.45,
          "y1": 0.85,
          "x2": 6.65,
          "y2": 0.85,
          "width": 0.1524,
          "layer": 16,
          "curve": 0.0
        },
        {
          "x1": 14.55,
          "y1": 0.95,
          "x2": 14.45,
          "y2": 0.85,
          "width": 0.1524,
          "layer": 1,
          "curve": 0.0
        },
        {
          "x1": 15.55,
          "y1": 0.95,
          "x2": 14.55,
          "y2": 0.95,
          "width": 0.1524,
          "layer": 1,
          "curve": 0.0
        },
        {
          "x1": 15.55,
          "y1": 0.95,
          "x2": 15.575,
          "y2": 0.995,
          "width": 0.1524,
          "layer": 1,
          "curve": 0.0
        }
      ],
      "vias": [
        {
          "x": 4.0,
          "y": 3.85,
          "drill": 0.3048,
          "layerBegin": 1,
          "layerEnd": 16
        },
        {
          "x": 14.45,
          "y": 0.85,
          "drill": 0.3048,
          "layerBegin": 1,
          "layerEnd": 16
        }
      ],
      "polygons": []
    },
    {
      "name": "N$5",
      "length": 25.999613344133429,
      "bends": 8,
      "RelComponentID": null,
      "pins": [
        {
          "name": "2",
          "gate": "G$1",
          "pad": "P$2",
          "package": "R1"
        },
        {
          "name": "DIN2",
          "gate": "G$1",
          "pad": "P$3",
          "package": "U4"
        }
      ],
      "wires": [
        {
          "x1": 2.5,
          "y1": 4.55,
          "x2": 2.35,
          "y2": 4.4,
          "width": 0.1524,
          "layer": 1,
          "curve": 0.0
        },
        {
          "x1": 3.6,
          "y1": 4.55,
          "x2": 2.5,
          "y2": 4.55,
          "width": 0.1524,
          "layer": 1,
          "curve": 0.0
        },
        {
          "x1": 9.8,
          "y1": 10.75,
          "x2": 3.6,
          "y2": 4.55,
          "width": 0.1524,
          "layer": 16,
          "curve": 0.0
        },
        {
          "x1": 16.75,
          "y1": 10.75,
          "x2": 9.8,
          "y2": 10.75,
          "width": 0.1524,
          "layer": 16,
          "curve": 0.0
        },
        {
          "x1": 16.75,
          "y1": 3.45,
          "x2": 16.75,
          "y2": 10.75,
          "width": 0.1524,
          "layer": 16,
          "curve": 0.0
        },
        {
          "x1": 15.6,
          "y1": 2.3,
          "x2": 16.75,
          "y2": 3.45,
          "width": 0.1524,
          "layer": 1,
          "curve": 0.0
        },
        {
          "x1": 15.6,
          "y1": 2.3,
          "x2": 15.575,
          "y2": 2.265,
          "width": 0.1524,
          "layer": 1,
          "curve": 0.0
        }
      ],
      "vias": [
        {
          "x": 3.6,
          "y": 4.55,
          "drill": 0.3048,
          "layerBegin": 1,
          "layerEnd": 16
        },
        {
          "x": 16.75,
          "y": 3.45,
          "drill": 0.3048,
          "layerBegin": 1,
          "layerEnd": 16
        }
      ],
      "polygons": []
    },
    {
      "name": "N$6",
      "length": 1.5014781507049353,
      "bends": 1,
      "RelComponentID": null,
      "pins": [
        {
          "name": "1",
          "gate": "G$1",
          "pad": "P$1",
          "package": "R2"
        },
        {
          "name": "VCC",
          "gate": "G$1",
          "pad": "P$1",
          "package": "U4"
        }
      ],
      "wires": [
        {
          "x1": 15.55,
          "y1": 4.85,
          "x2": 14.1,
          "y2": 4.85,
          "width": 0.1524,
          "layer": 1,
          "curve": 0.0
        },
        {
          "x1": 15.55,
          "y1": 4.85,
          "x2": 15.575,
          "y2": 4.805,
          "width": 0.1524,
          "layer": 1,
          "curve": 0.0
        }
      ],
      "vias": [],
      "polygons": []
    },
    {
      "name": "N$7",
      "length": 1.561997471948845,
      "bends": 2,
      "RelComponentID": null,
      "pins": [
        {
          "name": "2",
          "gate": "G$1",
          "pad": "P$2",
          "package": "R2"
        },
        {
          "name": "DIN1",
          "gate": "G$1",
          "pad": "P$2",
          "package": "U4"
        }
      ],
      "wires": [
        {
          "x1": 14.3,
          "y1": 3.55,
          "x2": 14.1,
          "y2": 3.75,
          "width": 0.1524,
          "layer": 1,
          "curve": 0.0
        },
        {
          "x1": 15.55,
          "y1": 3.55,
          "x2": 14.3,
          "y2": 3.55,
          "width": 0.1524,
          "layer": 1,
          "curve": 0.0
        },
        {
          "x1": 15.55,
          "y1": 3.55,
          "x2": 15.575,
          "y2": 3.535,
          "width": 0.1524,
          "layer": 1,
          "curve": 0.0
        }
      ],
      "vias": [],
      "polygons": []
    },
    {
      "name": "N$8",
      "length": 7.2683188746746783,
      "bends": 8,
      "RelComponentID": null,
      "pins": [
        {
          "name": "VSEL",
          "gate": "G$1",
          "pad": "P$13",
          "package": "U2"
        },
        {
          "name": "DIN2",
          "gate": "G$1",
          "pad": "P$3",
          "package": "U3"
        }
      ],
      "wires": [
        {
          "x1": 23.1,
          "y1": 2.9,
          "x2": 22.5,
          "y2": 2.3,
          "width": 0.1524,
          "layer": 1,
          "curve": 0.0
        },
        {
          "x1": 23.4,
          "y1": 2.9,
          "x2": 23.1,
          "y2": 2.9,
          "width": 0.1524,
          "layer": 1,
          "curve": 0.0
        },
        {
          "x1": 20.55,
          "y1": 5.75,
          "x2": 23.4,
          "y2": 2.9,
          "width": 0.1524,
          "layer": 16,
          "curve": 0.0
        },
        {
          "x1": 20.55,
          "y1": 5.95,
          "x2": 20.55,
          "y2": 5.75,
          "width": 0.1524,
          "layer": 16,
          "curve": 0.0
        },
        {
          "x1": 20.2,
          "y1": 6.3,
          "x2": 20.55,
          "y2": 5.95,
          "width": 0.1524,
          "layer": 16,
          "curve": 0.0
        },
        {
          "x1": 18.9,
          "y1": 6.3,
          "x2": 20.2,
          "y2": 6.3,
          "width": 0.1524,
          "layer": 16,
          "curve": 0.0
        },
        {
          "x1": 22.5,
          "y1": 2.3,
          "x2": 22.475,
          "y2": 2.265,
          "width": 0.1524,
          "layer": 1,
          "curve": 0.0
        },
        {
          "x1": 18.9,
          "y1": 6.3,
          "x2": 18.8625,
          "y2": 6.335,
          "width": 0.1524,
          "layer": 16,
          "curve": 0.0
        }
      ],
      "vias": [
        {
          "x": 23.4,
          "y": 2.9,
          "drill": 0.3048,
          "layerBegin": 1,
          "layerEnd": 16
        }
      ],
      "polygons": []
    },
    {
      "name": "N$9",
      "length": 4.2521981643455025,
      "bends": 7,
      "RelComponentID": null,
      "pins": [
        {
          "name": "NC2",
          "gate": "G$1",
          "pad": "P$11",
          "package": "U2"
        },
        {
          "name": "DOUT2+",
          "gate": "G$1",
          "pad": "P$6",
          "package": "U4"
        }
      ],
      "wires": [
        {
          "x1": 21.25,
          "y1": 2.9,
          "x2": 20.65,
          "y2": 2.3,
          "width": 0.1524,
          "layer": 1,
          "curve": 0.0
        },
        {
          "x1": 21.55,
          "y1": 2.9,
          "x2": 21.25,
          "y2": 2.9,
          "width": 0.1524,
          "layer": 1,
          "curve": 0.0
        },
        {
          "x1": 19.95,
          "y1": 2.9,
          "x2": 21.55,
          "y2": 2.9,
          "width": 0.1524,
          "layer": 16,
          "curve": 0.0
        },
        {
          "x1": 19.1,
          "y1": 3.75,
          "x2": 19.95,
          "y2": 2.9,
          "width": 0.1524,
          "layer": 16,
          "curve": 0.0
        },
        {
          "x1": 18.9,
          "y1": 3.75,
          "x2": 19.1,
          "y2": 3.75,
          "width": 0.1524,
          "layer": 16,
          "curve": 0.0
        },
        {
          "x1": 20.65,
          "y1": 2.3,
          "x2": 20.625,
          "y2": 2.265,
          "width": 0.1524,
          "layer": 1,
          "curve": 0.0
        },
        {
          "x1": 18.9,
          "y1": 3.75,
          "x2": 18.8625,
          "y2": 3.795,
          "width": 0.1524,
          "layer": 16,
          "curve": 0.0
        }
      ],
      "vias": [
        {
          "x": 21.55,
          "y": 2.9,
          "drill": 0.3048,
          "layerBegin": 1,
          "layerEnd": 16
        }
      ],
      "polygons": []
    },
    {
      "name": "N$10",
      "length": 7.2445515519613126,
      "bends": 6,
      "RelComponentID": null,
      "pins": [
        {
          "name": "NC4",
          "gate": "G$1",
          "pad": "P$14",
          "package": "U2"
        },
        {
          "name": "DIN1",
          "gate": "G$1",
          "pad": "P$2",
          "package": "U3"
        }
      ],
      "wires": [
        {
          "x1": 23.1,
          "y1": 4.15,
          "x2": 22.5,
          "y2": 3.55,
          "width": 0.1524,
          "layer": 1,
          "curve": 0.0
        },
        {
          "x1": 23.45,
          "y1": 4.15,
          "x2": 23.1,
          "y2": 4.15,
          "width": 0.1524,
          "layer": 1,
          "curve": 0.0
        },
        {
          "x1": 20.0,
          "y1": 7.6,
          "x2": 23.45,
          "y2": 4.15,
          "width": 0.1524,
          "layer": 16,
          "curve": 0.0
        },
        {
          "x1": 18.9,
          "y1": 7.6,
          "x2": 20.0,
          "y2": 7.6,
          "width": 0.1524,
          "layer": 16,
          "curve": 0.0
        },
        {
          "x1": 22.5,
          "y1": 3.55,
          "x2": 22.475,
          "y2": 3.535,
          "width": 0.1524,
          "layer": 1,
          "curve": 0.0
        },
        {
          "x1": 18.9,
          "y1": 7.6,
          "x2": 18.8625,
          "y2": 7.605,
          "width": 0.1524,
          "layer": 16,
          "curve": 0.0
        }
      ],
      "vias": [
        {
          "x": 23.45,
          "y": 4.15,
          "drill": 0.3048,
          "layerBegin": 1,
          "layerEnd": 16
        }
      ],
      "polygons": []
    },
    {
      "name": "N$11",
      "length": 4.5325319988130648,
      "bends": 7,
      "RelComponentID": null,
      "pins": [
        {
          "name": "NC3",
          "gate": "G$1",
          "pad": "P$12",
          "package": "U2"
        },
        {
          "name": "DOUT1+",
          "gate": "G$1",
          "pad": "P$7",
          "package": "U4"
        }
      ],
      "wires": [
        {
          "x1": 19.75,
          "y1": 4.4,
          "x2": 20.6,
          "y2": 3.55,
          "width": 0.1524,
          "layer": 1,
          "curve": 0.0
        },
        {
          "x1": 19.75,
          "y1": 5.7,
          "x2": 19.75,
          "y2": 4.4,
          "width": 0.1524,
          "layer": 1,
          "curve": 0.0
        },
        {
          "x1": 20.0,
          "y1": 5.7,
          "x2": 19.75,
          "y2": 5.7,
          "width": 0.1524,
          "layer": 1,
          "curve": 0.0
        },
        {
          "x1": 18.9,
          "y1": 5.7,
          "x2": 20.0,
          "y2": 5.7,
          "width": 0.1524,
          "layer": 16,
          "curve": 0.0
        },
        {
          "x1": 18.9,
          "y1": 5.1,
          "x2": 18.9,
          "y2": 5.7,
          "width": 0.1524,
          "layer": 16,
          "curve": 0.0
        },
        {
          "x1": 20.6,
          "y1": 3.55,
          "x2": 20.625,
          "y2": 3.535,
          "width": 0.1524,
          "layer": 1,
          "curve": 0.0
        },
        {
          "x1": 18.9,
          "y1": 5.1,
          "x2": 18.8625,
          "y2": 5.065,
          "width": 0.1524,
          "layer": 16,
          "curve": 0.0
        }
      ],
      "vias": [
        {
          "x": 20.0,
          "y": 5.7,
          "drill": 0.3048,
          "layerBegin": 1,
          "layerEnd": 16
        }
      ],
      "polygons": []
    }
  ],
  "constraints": null,
  "border": null
}