<eagle version="6.5.0" xmlns="eagle">
  <drawing>
    <library>
      <packages>
        <package name="SOT-23" xmlns="eagle">
          <smd name="P$1" x="-1.175" y="0.95" dx="0.6" dy="0.85" layer="1" rot="R270" />
          <smd name="P$2" x="-1.175" y="0" dx="0.6" dy="0.85" layer="1" rot="R270" />
          <smd name="P$3" x="-1.175" y="-0.95" dx="0.6" dy="0.85" layer="1" rot="R270" />
          <smd name="P$4" x="1.175" y="-0.95" dx="0.6" dy="0.85" layer="1" rot="R90" />
          <smd name="P$5" x="1.175" y="0" dx="0.6" dy="0.85" layer="1" rot="R90" />
          <smd name="P$6" x="1.175" y="0.95" dx="0.6" dy="0.85" layer="1" rot="R90" />
          <wire x1="0.5" y1="1.5" x2="-0.5" y2="1.5" width="0.127" layer="21" />
          <wire x1="0.5" y1="-1.5" x2="-0.6" y2="-1.5" width="0.127" layer="21" />
          <circle x="-2.2" y="1.3" radius="0.14141875" width="0.127" layer="21" />
          <text x="-3.6" y="1.7" size="1.27" layer="25">&gt;NAME</text>
        </package>
      </packages>
      <symbols>
        <symbol name="ARD3412">
          <pin name="GND_SENSE" x="-22.86" y="0" length="middle" />
          <pin name="GND_FORCE" x="-22.86" y="5.08" length="middle" />
          <pin name="ENABLE" x="-22.86" y="-5.08" length="middle" />
          <pin name="VOUT_SENSE" x="22.86" y="0" length="middle" rot="R180" />
          <pin name="VOUT_FORCE" x="22.86" y="5.08" length="middle" rot="R180" />
          <pin name="VIN" x="22.86" y="-5.08" length="middle" rot="R180" />
          <wire x1="-17.78" y1="7.62" x2="-17.78" y2="-7.62" width="0.254" layer="94" />
          <wire x1="-17.78" y1="-7.62" x2="17.78" y2="-7.62" width="0.254" layer="94" />
          <wire x1="17.78" y1="-7.62" x2="17.78" y2="7.62" width="0.254" layer="94" />
          <wire x1="17.78" y1="7.62" x2="-17.78" y2="7.62" width="0.254" layer="94" />
          <text x="-17.78" y="12.7" size="1.27" layer="95">&gt;NAME</text>
          <text x="-17.78" y="10.16" size="1.27" layer="96">&gt;VALUE</text>
        </symbol>
      </symbols>
      <devicesets>
        <deviceset name="AD3412ARJZ">
          <gates>
            <gate name="G$1" symbol="ARD3412" x="0" y="0" />
          </gates>
          <devices>
            <device name="" package="SOT-23" xmlns="eagle">
              <connects>
                <connect gate="G$1" pin="ENABLE" pad="P$3" />
                <connect gate="G$1" pin="GND_FORCE" pad="P$1" />
                <connect gate="G$1" pin="GND_SENSE" pad="P$2" />
                <connect gate="G$1" pin="VIN" pad="P$4" />
                <connect gate="G$1" pin="VOUT_FORCE" pad="P$6" />
                <connect gate="G$1" pin="VOUT_SENSE" pad="P$5" />
              </connects>
              <technologies>
                <technology name="" />
              </technologies>
            </device>
          </devices>
        </deviceset>
      </devicesets>
    </library>
  </drawing>
</eagle>