{
  "boardWidth": 10.0,
  "boardHeight": 10.0,
  "numLayers": 2,
  "boardTemplate": null,
  "designRules": null,
  "omitBoundary": null,
  "packages": [
    {
      "name": "C1",
      "package": "C_0603",
      "pkg_idx": 0,
      "ComponentID": "{f41cba36-776b-464c-ae14-e48012b2772a}",
      "RelComponentID": null,
      "width": 2.95,
      "height": 1.1,
      "koWidth": 2.95,
      "koHeight": 1.1,
      "originX": 0.0,
      "originY": 0.0,
      "x": 3.125,
      "y": 5.25,
      "rotation": 2,
      "layer": 0,
      "constraints": null,
      "multiLayer": null,
      "doNotPlace": null
    },
    {
      "name": "R1",
      "package": "R_0603",
      "pkg_idx": 1,
      "ComponentID": "{5aa0f375-d0c7-4a0d-b537-11f110e7c45b}",
      "RelComponentID": null,
      "width": 2.4,
      "height": 0.8,
      "koWidth": 2.4,
      "koHeight": 0.8,
      "originX": 0.0,
      "originY": 0.0,
      "x": 4.8,
      "y": 1.0,
      "rotation": 3,
      "layer": 0,
      "constraints": null,
      "multiLayer": null,
      "doNotPlace": null
    },
    {
      "name": "U1",
      "package": "SOT-23",
      "pkg_idx": 2,
      "ComponentID": "{60e67546-37e8-4e83-b07b-3519bdb11c1a}",
      "RelComponentID": null,
      "width": 3.7,
      "height": 3.2,
      "koWidth": 3.7,
      "koHeight": 3.2,
      "originX": -0.3,
      "originY": 0.0,
      "x": 0.55,
      "y": 0.5,
      "rotation": 0,
      "layer": 0,
      "constraints": null,
      "multiLayer": null,
      "doNotPlace": null
    }
  ],
  "signals": [
    {
      "name": "N$0",
      "length": 5.62017828418894,
      "bends": 8,
      "RelComponentID": null,
      "pins": [
        {
          "name": "P$2",
          "gate": "G$1",
          "pad": "2",
          "package": "C1"
        },
        {
          "name": "HYST",
          "gate": "G$1",
          "pad": "P$3",
          "package": "U1"
        },
        {
          "name": "P$1",
          "gate": null,
          "pad": "P$1",
          "package": "U1"
        },
        {
          "name": "P$2",
          "gate": null,
          "pad": "P$2",
          "package": "U1"
        }
      ],
      "wires": [
        {
          "x1": 1.6,
          "y1": 2.1,
          "x2": 1.6,
          "y2": 1.15,
          "width": 0.1524,
          "layer": 1,
          "curve": 0.0
        },
        {
          "x1": 1.6,
          "y1": 1.15,
          "x2": 1.575,
          "y2": 1.15,
          "width": 0.1524,
          "layer": 1,
          "curve": 0.0
        },
        {
          "x1": 1.6,
          "y1": 2.1,
          "x2": 1.575,
          "y2": 2.1,
          "width": 0.1524,
          "layer": 1,
          "curve": 0.0
        },
        {
          "x1": 1.6,
          "y1": 2.15,
          "x2": 1.6,
          "y2": 3.05,
          "width": 0.1524,
          "layer": 1,
          "curve": 0.0
        },
        {
          "x1": 1.6,
          "y1": 3.05,
          "x2": 1.575,
          "y2": 3.05,
          "width": 0.1524,
          "layer": 1,
          "curve": 0.0
        },
        {
          "x1": 1.6,
          "y1": 2.15,
          "x2": 1.575,
          "y2": 2.1,
          "width": 0.1524,
          "layer": 1,
          "curve": 0.0
        },
        {
          "x1": 1.65,
          "y1": 3.75,
          "x2": 3.7,
          "y2": 5.8,
          "width": 0.1524,
          "layer": 1,
          "curve": 0.0
        },
        {
          "x1": 1.65,
          "y1": 3.1,
          "x2": 1.65,
          "y2": 3.75,
          "width": 0.1524,
          "layer": 1,
          "curve": 0.0
        },
        {
          "x1": 1.65,
          "y1": 3.1,
          "x2": 1.575,
          "y2": 3.05,
          "width": 0.1524,
          "layer": 1,
          "curve": 0.0
        }
      ],
      "vias": [],
      "polygons": []
    },
    {
      "name": "N$1",
      "length": 6.7613961030678915,
      "bends": 7,
      "RelComponentID": null,
      "pins": [
        {
          "name": "P$1",
          "gate": "G$1",
          "pad": "1",
          "package": "C1"
        },
        {
          "name": "2",
          "gate": "G$1",
          "pad": "P$2",
          "package": "R1"
        },
        {
          "name": "VCC",
          "gate": "G$1",
          "pad": "P$4",
          "package": "U1"
        }
      ],
      "wires": [
        {
          "x1": 4.95,
          "y1": 1.15,
          "x2": 5.2,
          "y2": 1.4,
          "width": 0.1524,
          "layer": 1,
          "curve": 0.0
        },
        {
          "x1": 3.825,
          "y1": 1.15,
          "x2": 4.95,
          "y2": 1.15,
          "width": 0.1524,
          "layer": 1,
          "curve": 0.0
        },
        {
          "x1": 5.5,
          "y1": 3.65,
          "x2": 5.5,
          "y2": 5.8,
          "width": 0.1524,
          "layer": 1,
          "curve": 0.0
        },
        {
          "x1": 5.7,
          "y1": 3.65,
          "x2": 5.5,
          "y2": 3.65,
          "width": 0.1524,
          "layer": 1,
          "curve": 0.0
        },
        {
          "x1": 5.85,
          "y1": 3.5,
          "x2": 5.7,
          "y2": 3.65,
          "width": 0.1524,
          "layer": 1,
          "curve": 0.0
        },
        {
          "x1": 5.85,
          "y1": 1.45,
          "x2": 5.85,
          "y2": 3.5,
          "width": 0.1524,
          "layer": 1,
          "curve": 0.0
        },
        {
          "x1": 5.25,
          "y1": 1.45,
          "x2": 5.85,
          "y2": 1.45,
          "width": 0.1524,
          "layer": 1,
          "curve": 0.0
        },
        {
          "x1": 5.25,
          "y1": 1.45,
          "x2": 5.2,
          "y2": 1.4,
          "width": 0.1524,
          "layer": 1,
          "curve": 0.0
        }
      ],
      "vias": [],
      "polygons": []
    },
    {
      "name": "N$2",
      "length": 1.3957106781186548,
      "bends": 1,
      "RelComponentID": null,
      "pins": [
        {
          "name": "1",
          "gate": "G$1",
          "pad": "P$1",
          "package": "R1"
        },
        {
          "name": "/TOVER",
          "gate": "G$1",
          "pad": "P$5",
          "package": "U1"
        }
      ],
      "wires": [
        {
          "x1": 5.15,
          "y1": 3.05,
          "x2": 5.2,
          "y2": 3.0,
          "width": 0.1524,
          "layer": 1,
          "curve": 0.0
        },
        {
          "x1": 3.825,
          "y1": 3.05,
          "x2": 5.15,
          "y2": 3.05,
          "width": 0.1524,
          "layer": 1,
          "curve": 0.0
        }
      ],
      "vias": [],
      "polygons": []
    }
  ],
  "constraints": null,
  "border": null
}