<?xml version="1.0" encoding="utf-8"?>
<!DOCTYPE eagle SYSTEM "eagle.dtd">
<eagle version="6.5.0">
<drawing>
<settings>
<setting alwaysvectorfont="no"/>
<setting verticaltext="up"/>
</settings>
<grid distance="0.2" unitdist="mm" unit="mm" style="lines" multiple="1" display="yes" altdistance="0.025" altunitdist="inch" altunit="inch"/>
<layers>
</layers>
<library>
<packages>
<package name="MM74HC595">
<smd name="13" x="2.8" y="0.635" dx="0.75" dy="2" layer="1" rot="R270"/>
<smd name="12" x="2.8" y="-0.635" dx="0.75" dy="2" layer="1" rot="R270"/>
<smd name="11" x="2.8" y="-1.905" dx="0.75" dy="2" layer="1" rot="R270"/>
<smd name="10" x="2.8" y="-3.175" dx="0.75" dy="2" layer="1" rot="R270"/>
<smd name="9" x="2.8" y="-4.445" dx="0.75" dy="2" layer="1" rot="R270"/>
<smd name="14" x="2.8" y="1.905" dx="0.75" dy="2" layer="1" rot="R270"/>
<smd name="15" x="2.8" y="3.175" dx="0.75" dy="2" layer="1" rot="R270"/>
<smd name="16" x="2.8" y="4.445" dx="0.75" dy="2" layer="1" rot="R270"/>
<smd name="1" x="-2.8" y="4.445" dx="0.75" dy="2" layer="1" rot="R270"/>
<smd name="2" x="-2.8" y="3.175" dx="0.75" dy="2" layer="1" rot="R270"/>
<smd name="3" x="-2.8" y="1.905" dx="0.75" dy="2" layer="1" rot="R270"/>
<smd name="4" x="-2.8" y="0.635" dx="0.75" dy="2" layer="1" rot="R270"/>
<smd name="5" x="-2.8" y="-0.635" dx="0.75" dy="2" layer="1" rot="R270"/>
<smd name="6" x="-2.8" y="-1.905" dx="0.75" dy="2" layer="1" rot="R270"/>
<smd name="7" x="-2.8" y="-3.175" dx="0.75" dy="2" layer="1" rot="R270"/>
<smd name="8" x="-2.8" y="-4.445" dx="0.75" dy="2" layer="1" rot="R270"/>
<wire x1="1.6" y1="5" x2="-1.6" y2="5" width="0.127" layer="21"/>
<wire x1="1.6" y1="-5" x2="-1.6" y2="-5" width="0.127" layer="21"/>
<circle x="-4.4" y="4.8" radius="0.2" width="0.127" layer="21"/>
<text x="-4" y="5.2" size="1.27" layer="21">&gt;NAME</text>
</package>
</packages>
<symbols>
<symbol name="MM74HC595">
<pin name="QE" x="-17.78" y="2.54" length="middle"/>
<pin name="QD" x="-17.78" y="7.62" length="middle"/>
<pin name="QC" x="-17.78" y="12.7" length="middle"/>
<pin name="QB" x="-17.78" y="17.78" length="middle"/>
<pin name="QF" x="-17.78" y="-2.54" length="middle"/>
<pin name="QG" x="-17.78" y="-7.62" length="middle"/>
<pin name="QH" x="-17.78" y="-12.7" length="middle"/>
<pin name="GND" x="-17.78" y="-17.78" length="middle"/>
<pin name="Q'H" x="17.78" y="-17.78" length="middle" rot="R180"/>
<pin name="SCLR" x="17.78" y="-12.7" length="middle" rot="R180"/>
<pin name="SCK" x="17.78" y="-7.62" length="middle" rot="R180"/>
<pin name="RCK" x="17.78" y="-2.54" length="middle" rot="R180"/>
<pin name="G" x="17.78" y="2.54" length="middle" rot="R180"/>
<pin name="SER" x="17.78" y="7.62" length="middle" rot="R180"/>
<pin name="QA" x="17.78" y="12.7" length="middle" rot="R180"/>
<pin name="VCC" x="17.78" y="17.78" length="middle" rot="R180"/>
<wire x1="-12.7" y1="20.32" x2="-12.7" y2="-20.32" width="0.254" layer="94"/>
<wire x1="-12.7" y1="-20.32" x2="12.7" y2="-20.32" width="0.254" layer="94"/>
<wire x1="12.7" y1="-20.32" x2="12.7" y2="20.32" width="0.254" layer="94"/>
<wire x1="12.7" y1="20.32" x2="-12.7" y2="20.32" width="0.254" layer="94"/>
<text x="-12.7" y="25.4" size="1.778" layer="95">&gt;NAME</text>
<text x="-12.7" y="22.86" size="1.778" layer="96">&gt;VALUE</text>
</symbol>
</symbols>
<devicesets>
<deviceset name="MM74HC595M">
<gates>
<gate name="G$1" symbol="MM74HC595" x="0" y="0"/>
</gates>
<devices>
<device name="" package="MM74HC595">
<connects>
<connect gate="G$1" pin="G" pad="13"/>
<connect gate="G$1" pin="GND" pad="8"/>
<connect gate="G$1" pin="Q'H" pad="9"/>
<connect gate="G$1" pin="QA" pad="15"/>
<connect gate="G$1" pin="QB" pad="1"/>
<connect gate="G$1" pin="QC" pad="2"/>
<connect gate="G$1" pin="QD" pad="3"/>
<connect gate="G$1" pin="QE" pad="4"/>
<connect gate="G$1" pin="QF" pad="5"/>
<connect gate="G$1" pin="QG" pad="6"/>
<connect gate="G$1" pin="QH" pad="7"/>
<connect gate="G$1" pin="RCK" pad="12"/>
<connect gate="G$1" pin="SCK" pad="11"/>
<connect gate="G$1" pin="SCLR" pad="10"/>
<connect gate="G$1" pin="SER" pad="14"/>
<connect gate="G$1" pin="VCC" pad="16"/>
</connects>
<technologies>
<technology name=""/>
</technologies>
</device>
</devices>
</deviceset>
</devicesets>
</library>
</drawing>
</eagle>
