<eagle version="6.5.0" xmlns="eagle">
  <drawing>
<layers>
<layer number="1" name="Top" color="4" fill="1" visible="yes" active="yes"/>
<layer number="16" name="Bottom" color="1" fill="1" visible="yes" active="yes"/>
<layer number="17" name="Pads" color="2" fill="1" visible="yes" active="yes"/>
<layer number="18" name="Vias" color="2" fill="1" visible="yes" active="yes"/>
<layer number="19" name="Unrouted" color="6" fill="1" visible="yes" active="yes"/>
<layer number="20" name="Dimension" color="15" fill="1" visible="yes" active="yes"/>
<layer number="21" name="tPlace" color="7" fill="1" visible="yes" active="yes"/>
<layer number="22" name="bPlace" color="7" fill="1" visible="yes" active="yes"/>
<layer number="23" name="tOrigins" color="15" fill="1" visible="yes" active="yes"/>
<layer number="24" name="bOrigins" color="15" fill="1" visible="yes" active="yes"/>
<layer number="25" name="tNames" color="7" fill="1" visible="yes" active="yes"/>
<layer number="26" name="bNames" color="7" fill="1" visible="yes" active="yes"/>
<layer number="27" name="tValues" color="7" fill="1" visible="yes" active="yes"/>
<layer number="28" name="bValues" color="7" fill="1" visible="yes" active="yes"/>
<layer number="29" name="tStop" color="7" fill="3" visible="yes" active="yes"/>
<layer number="30" name="bStop" color="7" fill="6" visible="yes" active="yes"/>
<layer number="31" name="tCream" color="7" fill="4" visible="yes" active="yes"/>
<layer number="32" name="bCream" color="7" fill="5" visible="yes" active="yes"/>
<layer number="33" name="tFinish" color="6" fill="3" visible="yes" active="yes"/>
<layer number="34" name="bFinish" color="6" fill="6" visible="yes" active="yes"/>
<layer number="35" name="tGlue" color="7" fill="4" visible="yes" active="yes"/>
<layer number="36" name="bGlue" color="7" fill="5" visible="yes" active="yes"/>
<layer number="37" name="tTest" color="7" fill="1" visible="yes" active="yes"/>
<layer number="38" name="bTest" color="7" fill="1" visible="yes" active="yes"/>
<layer number="39" name="tKeepout" color="4" fill="11" visible="yes" active="yes"/>
<layer number="40" name="bKeepout" color="1" fill="11" visible="yes" active="yes"/>
<layer number="41" name="tRestrict" color="4" fill="10" visible="yes" active="yes"/>
<layer number="42" name="bRestrict" color="1" fill="10" visible="yes" active="yes"/>
<layer number="43" name="vRestrict" color="2" fill="10" visible="yes" active="yes"/>
<layer number="44" name="Drills" color="7" fill="1" visible="yes" active="yes"/>
<layer number="45" name="Holes" color="7" fill="1" visible="yes" active="yes"/>
<layer number="46" name="Milling" color="3" fill="1" visible="yes" active="yes"/>
<layer number="47" name="Measures" color="7" fill="1" visible="yes" active="yes"/>
<layer number="48" name="Document" color="7" fill="1" visible="yes" active="yes"/>
<layer number="49" name="Reference" color="7" fill="1" visible="yes" active="yes"/>
<layer number="50" name="dxf" color="7" fill="1" visible="yes" active="yes"/>
<layer number="51" name="tDocu" color="7" fill="1" visible="yes" active="yes"/>
<layer number="52" name="bDocu" color="7" fill="1" visible="yes" active="yes"/>
<layer number="53" name="tGND_GNDA" color="7" fill="1" visible="yes" active="yes"/>
<layer number="54" name="bGND_GNDA" color="7" fill="1" visible="yes" active="yes"/>
<layer number="56" name="wert" color="7" fill="1" visible="yes" active="yes"/>
<layer number="57" name="tCAD" color="7" fill="1" visible="yes" active="yes"/>
<layer number="91" name="Nets" color="2" fill="1" visible="yes" active="yes"/>
<layer number="92" name="Busses" color="1" fill="1" visible="yes" active="yes"/>
<layer number="93" name="Pins" color="2" fill="1" visible="yes" active="yes"/>
<layer number="94" name="Symbols" color="4" fill="1" visible="yes" active="yes"/>
<layer number="95" name="Names" color="7" fill="1" visible="yes" active="yes"/>
<layer number="96" name="Values" color="7" fill="1" visible="yes" active="yes"/>
<layer number="97" name="Info" color="7" fill="1" visible="yes" active="yes"/>
<layer number="98" name="Guide" color="6" fill="1" visible="yes" active="yes"/>
<layer number="99" name="SpiceOrder" color="7" fill="1" visible="yes" active="yes"/>
</layers>
    <library>
      <packages>
        <package name="EIA3216" xmlns="eagle">
          <wire x1="-1" y1="-1.2" x2="-2.5" y2="-1.2" width="0.2032" layer="21" />
          <wire x1="-2.5" y1="-1.2" x2="-2.5" y2="1.2" width="0.2032" layer="21" />
          <wire x1="-2.5" y1="1.2" x2="-1" y2="1.2" width="0.2032" layer="21" />
          <wire x1="1" y1="-1.2" x2="2.1" y2="-1.2" width="0.2032" layer="21" />
          <wire x1="2.1" y1="-1.2" x2="2.5" y2="-0.8" width="0.2032" layer="21" />
          <wire x1="2.5" y1="-0.8" x2="2.5" y2="0.8" width="0.2032" layer="21" />
          <wire x1="2.5" y1="0.8" x2="2.1" y2="1.2" width="0.2032" layer="21" />
          <wire x1="2.1" y1="1.2" x2="1" y2="1.2" width="0.2032" layer="21" />
          <wire x1="0.381" y1="1.016" x2="0.381" y2="-1.016" width="0.127" layer="21" />
          <smd name="C" x="-1.4" y="0" dx="1.6" dy="1.4" layer="1" rot="R90" />
          <smd name="A" x="1.4" y="0" dx="1.6" dy="1.4" layer="1" rot="R90" />
          <text x="-2.54" y="1.381" size="1.016" layer="25" font="vector" ratio="15">&gt;NAME</text>
        </package>
      </packages>
      <symbols>
        <symbol name="CAP_POL">
          <wire x1="-2.54" y1="0" x2="2.54" y2="0" width="0.254" layer="94" />
          <wire x1="0" y1="-1.016" x2="0" y2="-2.54" width="0.1524" layer="94" />
          <wire x1="0" y1="-1" x2="2.4892" y2="-1.8542" width="0.254" layer="94" curve="-37.878202" cap="flat" />
          <wire x1="-2.4669" y1="-1.8504" x2="0" y2="-1.0161" width="0.254" layer="94" curve="-37.376341" cap="flat" />
          <text x="1.016" y="0.635" size="1.778" layer="95">&gt;NAME</text>
          <text x="1.016" y="-4.191" size="1.778" layer="96">&gt;VALUE</text>
          <rectangle x1="-2.253" y1="0.668" x2="-1.364" y2="0.795" layer="94" />
          <rectangle x1="-1.872" y1="0.287" x2="-1.745" y2="1.176" layer="94" />
          <pin name="+" x="0" y="2.54" visible="off" length="short" direction="pas" swaplevel="1" rot="R270" />
          <pin name="-" x="0" y="-5.08" visible="off" length="short" direction="pas" swaplevel="1" rot="R90" />
        </symbol>
      </symbols>
      <devicesets>
        <deviceset name="CAP_POL" prefix="C" uservalue="yes">
          <gates>
            <gate name="G$1" symbol="CAP_POL" x="0" y="0" />
          </gates>
          <devices>
            <device name="1206" package="EIA3216" xmlns="eagle">
              <connects>
                <connect gate="G$1" pin="+" pad="A" />
                <connect gate="G$1" pin="-" pad="C" />
              </connects>
              <technologies>
                <technology name="" />
              </technologies>
            </device>
          </devices>
        </deviceset>
      </devicesets>
    </library>
  </drawing>
</eagle>