<eagle version="6.5.0" xmlns="eagle">
  <drawing>
<layers>
<layer number="1" name="Top" color="4" fill="1" visible="yes" active="yes"/>
<layer number="16" name="Bottom" color="1" fill="1" visible="yes" active="yes"/>
<layer number="17" name="Pads" color="2" fill="1" visible="yes" active="yes"/>
<layer number="18" name="Vias" color="2" fill="1" visible="yes" active="yes"/>
<layer number="19" name="Unrouted" color="6" fill="1" visible="yes" active="yes"/>
<layer number="20" name="Dimension" color="15" fill="1" visible="yes" active="yes"/>
<layer number="21" name="tPlace" color="7" fill="1" visible="yes" active="yes"/>
<layer number="22" name="bPlace" color="7" fill="1" visible="yes" active="yes"/>
<layer number="23" name="tOrigins" color="15" fill="1" visible="yes" active="yes"/>
<layer number="24" name="bOrigins" color="15" fill="1" visible="yes" active="yes"/>
<layer number="25" name="tNames" color="7" fill="1" visible="yes" active="yes"/>
<layer number="26" name="bNames" color="7" fill="1" visible="yes" active="yes"/>
<layer number="27" name="tValues" color="7" fill="1" visible="yes" active="yes"/>
<layer number="28" name="bValues" color="7" fill="1" visible="yes" active="yes"/>
<layer number="29" name="tStop" color="7" fill="3" visible="yes" active="yes"/>
<layer number="30" name="bStop" color="7" fill="6" visible="yes" active="yes"/>
<layer number="31" name="tCream" color="7" fill="4" visible="yes" active="yes"/>
<layer number="32" name="bCream" color="7" fill="5" visible="yes" active="yes"/>
<layer number="33" name="tFinish" color="6" fill="3" visible="yes" active="yes"/>
<layer number="34" name="bFinish" color="6" fill="6" visible="yes" active="yes"/>
<layer number="35" name="tGlue" color="7" fill="4" visible="yes" active="yes"/>
<layer number="36" name="bGlue" color="7" fill="5" visible="yes" active="yes"/>
<layer number="37" name="tTest" color="7" fill="1" visible="yes" active="yes"/>
<layer number="38" name="bTest" color="7" fill="1" visible="yes" active="yes"/>
<layer number="39" name="tKeepout" color="4" fill="11" visible="yes" active="yes"/>
<layer number="40" name="bKeepout" color="1" fill="11" visible="yes" active="yes"/>
<layer number="41" name="tRestrict" color="4" fill="10" visible="yes" active="yes"/>
<layer number="42" name="bRestrict" color="1" fill="10" visible="yes" active="yes"/>
<layer number="43" name="vRestrict" color="2" fill="10" visible="yes" active="yes"/>
<layer number="44" name="Drills" color="7" fill="1" visible="yes" active="yes"/>
<layer number="45" name="Holes" color="7" fill="1" visible="yes" active="yes"/>
<layer number="46" name="Milling" color="3" fill="1" visible="yes" active="yes"/>
<layer number="47" name="Measures" color="7" fill="1" visible="yes" active="yes"/>
<layer number="48" name="Document" color="7" fill="1" visible="yes" active="yes"/>
<layer number="49" name="Reference" color="7" fill="1" visible="yes" active="yes"/>
<layer number="50" name="dxf" color="7" fill="1" visible="yes" active="yes"/>
<layer number="51" name="tDocu" color="7" fill="1" visible="yes" active="yes"/>
<layer number="52" name="bDocu" color="7" fill="1" visible="yes" active="yes"/>
<layer number="53" name="tGND_GNDA" color="7" fill="1" visible="yes" active="yes"/>
<layer number="54" name="bGND_GNDA" color="7" fill="1" visible="yes" active="yes"/>
<layer number="56" name="wert" color="7" fill="1" visible="yes" active="yes"/>
<layer number="57" name="tCAD" color="7" fill="1" visible="yes" active="yes"/>
<layer number="91" name="Nets" color="2" fill="1" visible="yes" active="yes"/>
<layer number="92" name="Busses" color="1" fill="1" visible="yes" active="yes"/>
<layer number="93" name="Pins" color="2" fill="1" visible="yes" active="yes"/>
<layer number="94" name="Symbols" color="4" fill="1" visible="yes" active="yes"/>
<layer number="95" name="Names" color="7" fill="1" visible="yes" active="yes"/>
<layer number="96" name="Values" color="7" fill="1" visible="yes" active="yes"/>
<layer number="97" name="Info" color="7" fill="1" visible="yes" active="yes"/>
<layer number="98" name="Guide" color="6" fill="1" visible="yes" active="yes"/>
<layer number="99" name="SpiceOrder" color="7" fill="1" visible="yes" active="yes"/>
</layers>
    <library>
      <packages>
        <package name="R_0603" xmlns="eagle">
          <description>&lt;B&gt;
0603
&lt;/B&gt; SMT inch-code chip resistor package&lt;P&gt;
Derived from dimensions and tolerances
in the &lt;B&gt; &lt;A HREF="http://www.samsungsem.com/global/support/library/product-catalog/__icsFiles/afieldfile/2015/01/12/CHIP_RESISTOR_150112_1.pdf"&gt;Samsung Thick Film Chip Resistor Catalog&lt;/A&gt;&lt;/B&gt;
dated December 2014,
for 
general-purpose chip resistor
reflow soldering.</description>
          <wire x1="-0.1" y1="0.3" x2="0.1" y2="0.3" width="0.1524" layer="21" />
          <wire x1="-0.1" y1="-0.3" x2="0.1" y2="-0.3" width="0.1524" layer="21" />
          <smd name="P$1" x="-0.8" y="0" dx="0.8" dy="0.8" layer="1" />
          <smd name="P$2" x="0.8" y="0" dx="0.8" dy="0.8" layer="1" />
          <text x="-1.3" y="0.8" size="1.016" layer="25" font="vector" ratio="15">&gt;NAME</text>
          <wire x1="-0.8" y1="0.4" x2="0.8" y2="0.4" width="0.0762" layer="51" />
          <wire x1="0.8" y1="0.4" x2="0.8" y2="-0.4" width="0.0762" layer="51" />
          <wire x1="0.8" y1="-0.4" x2="-0.8" y2="-0.4" width="0.0762" layer="51" />
          <wire x1="-0.8" y1="-0.4" x2="-0.8" y2="0.4" width="0.0762" layer="51" />
        </package>
      </packages>
      <symbols>
        <symbol name="R">
          <description>&lt;B&gt;Resistor&lt;/B&gt;</description>
          <wire x1="-2.54" y1="0" x2="-2.159" y2="1.016" width="0.2032" layer="94" />
          <wire x1="-2.159" y1="1.016" x2="-1.524" y2="-1.016" width="0.2032" layer="94" />
          <wire x1="-1.524" y1="-1.016" x2="-0.889" y2="1.016" width="0.2032" layer="94" />
          <wire x1="-0.889" y1="1.016" x2="-0.254" y2="-1.016" width="0.2032" layer="94" />
          <wire x1="-0.254" y1="-1.016" x2="0.381" y2="1.016" width="0.2032" layer="94" />
          <wire x1="0.381" y1="1.016" x2="1.016" y2="-1.016" width="0.2032" layer="94" />
          <wire x1="1.016" y1="-1.016" x2="1.651" y2="1.016" width="0.2032" layer="94" />
          <wire x1="1.651" y1="1.016" x2="2.286" y2="-1.016" width="0.2032" layer="94" />
          <wire x1="2.286" y1="-1.016" x2="2.54" y2="0" width="0.2032" layer="94" />
          <pin name="1" x="-5.08" y="0" visible="off" length="short" direction="pas" swaplevel="1" />
          <pin name="2" x="5.08" y="0" visible="off" length="short" direction="pas" swaplevel="1" rot="R180" />
          <text x="-3.81" y="1.4986" size="1.778" layer="95">&gt;NAME</text>
          <text x="-3.81" y="-3.302" size="1.778" layer="96">&gt;VALUE</text>
        </symbol>
      </symbols>
      <devicesets>
        <deviceset name="RESISTOR_0603" prefix="R">
          <gates>
            <gate name="G$1" symbol="R" x="0" y="0" />
          </gates>
          <devices>
            <device name="" package="R_0603" xmlns="eagle">
              <connects>
                <connect gate="G$1" pin="1" pad="P$1" />
                <connect gate="G$1" pin="2" pad="P$2" />
              </connects>
              <technologies>
                <technology name="" />
              </technologies>
            </device>
          </devices>
        </deviceset>
      </devicesets>
    </library>
  </drawing>
</eagle>