{
  "boardWidth": 10.0,
  "boardHeight": 10.0,
  "numLayers": 2,
  "boardTemplate": null,
  "designRules": null,
  "omitBoundary": null,
  "packages": [
    {
      "name": "Opto-isolator",
      "package": "__spaceClaim__",
      "pkg_idx": 0,
      "ComponentID": "157ac30c-82e3-4c62-ab9a-0f89bcbb077f",
      "RelComponentID": null,
      "width": 10.0,
      "height": 10.0,
      "koWidth": null,
      "koHeight": null,
      "originX": null,
      "originY": null,
      "x": 0.2,
      "y": 0.2,
      "rotation": 0,
      "layer": 0,
      "constraints": null,
      "multiLayer": null,
      "doNotPlace": null
    },
    {
      "name": "Q2",
      "package": "SOT-23",
      "pkg_idx": 1,
      "ComponentID": "{6a9ce293-30dd-4f9b-ac5a-ce0c11e5c6f8}",
      "RelComponentID": "157ac30c-82e3-4c62-ab9a-0f89bcbb077f",
      "width": 2.8,
      "height": 2.9,
      "koWidth": 2.8,
      "koHeight": 2.9,
      "originX": 0.0,
      "originY": 0.0,
      "x": 5.95,
      "y": 6.5,
      "rotation": 1,
      "layer": 0,
      "constraints": [],
      "multiLayer": null,
      "doNotPlace": true
    },
    {
      "name": "R4",
      "package": "R_0402",
      "pkg_idx": 2,
      "ComponentID": "{591b107f-a837-4963-ab7f-2379027c398b}",
      "RelComponentID": "157ac30c-82e3-4c62-ab9a-0f89bcbb077f",
      "width": 1.7,
      "height": 0.5,
      "koWidth": 1.7,
      "koHeight": 0.5,
      "originX": 0.0,
      "originY": 0.0,
      "x": 9.05,
      "y": 4.75,
      "rotation": 3,
      "layer": 0,
      "constraints": [],
      "multiLayer": null,
      "doNotPlace": true
    },
    {
      "name": "R6",
      "package": "R_0402",
      "pkg_idx": 3,
      "ComponentID": "{30e02a9f-c359-4223-a123-21db3f1001cb}",
      "RelComponentID": "157ac30c-82e3-4c62-ab9a-0f89bcbb077f",
      "width": 1.7,
      "height": 0.5,
      "koWidth": 1.7,
      "koHeight": 0.5,
      "originX": 0.0,
      "originY": 0.0,
      "x": 9.25,
      "y": 7.65,
      "rotation": 3,
      "layer": 0,
      "constraints": [],
      "multiLayer": null,
      "doNotPlace": true
    },
    {
      "name": "Q1",
      "package": "SOT-23",
      "pkg_idx": 4,
      "ComponentID": "{2b1fd204-dd1b-4d08-aa0e-0411fe513e9c}",
      "RelComponentID": "157ac30c-82e3-4c62-ab9a-0f89bcbb077f",
      "width": 2.8,
      "height": 2.9,
      "koWidth": 2.8,
      "koHeight": 2.9,
      "originX": 0.0,
      "originY": 0.0,
      "x": 0.85,
      "y": 7.1,
      "rotation": 1,
      "layer": 0,
      "constraints": [],
      "multiLayer": null,
      "doNotPlace": true
    },
    {
      "name": "R3",
      "package": "R_0402",
      "pkg_idx": 5,
      "ComponentID": "{41cf38a7-ed3d-4ceb-94bb-bbcd5822bb37}",
      "RelComponentID": "157ac30c-82e3-4c62-ab9a-0f89bcbb077f",
      "width": 1.7,
      "height": 0.5,
      "koWidth": 1.7,
      "koHeight": 0.5,
      "originX": 0.0,
      "originY": 0.0,
      "x": 9.15,
      "y": 2.25,
      "rotation": 1,
      "layer": 0,
      "constraints": [],
      "multiLayer": null,
      "doNotPlace": true
    },
    {
      "name": "R2",
      "package": "R_0402",
      "pkg_idx": 6,
      "ComponentID": "{b3bd80be-740e-4017-8221-cbf961d8b623}",
      "RelComponentID": "157ac30c-82e3-4c62-ab9a-0f89bcbb077f",
      "width": 1.7,
      "height": 0.5,
      "koWidth": 1.7,
      "koHeight": 0.5,
      "originX": 0.0,
      "originY": 0.0,
      "x": 8.25,
      "y": 3.55,
      "rotation": 1,
      "layer": 0,
      "constraints": [],
      "multiLayer": null,
      "doNotPlace": true
    },
    {
      "name": "R5",
      "package": "R_0402",
      "pkg_idx": 7,
      "ComponentID": "{39d3cce1-dbff-430e-bc19-980fad6f9145}",
      "RelComponentID": "157ac30c-82e3-4c62-ab9a-0f89bcbb077f",
      "width": 1.7,
      "height": 0.5,
      "koWidth": 1.7,
      "koHeight": 0.5,
      "originX": 0.0,
      "originY": 0.0,
      "x": 4.45,
      "y": 9.35,
      "rotation": 0,
      "layer": 0,
      "constraints": [],
      "multiLayer": null,
      "doNotPlace": true
    },
    {
      "name": "R1",
      "package": "R_0402",
      "pkg_idx": 8,
      "ComponentID": "{5642fd95-e942-4b1b-9d79-5ca7f2b65995}",
      "RelComponentID": "157ac30c-82e3-4c62-ab9a-0f89bcbb077f",
      "width": 1.7,
      "height": 0.5,
      "koWidth": 1.7,
      "koHeight": 0.5,
      "originX": 0.0,
      "originY": 0.0,
      "x": 7.85,
      "y": 1.15,
      "rotation": 3,
      "layer": 0,
      "constraints": [],
      "multiLayer": null,
      "doNotPlace": true
    },
    {
      "name": "U1",
      "package": "SO08NEW",
      "pkg_idx": 9,
      "ComponentID": "{0b6ba7ea-8123-48a4-a168-2cd5284d6213}",
      "RelComponentID": "157ac30c-82e3-4c62-ab9a-0f89bcbb077f",
      "width": 7.9795875,
      "height": 6.27,
      "koWidth": 7.9795875,
      "koHeight": 6.27,
      "originX": -0.7,
      "originY": 0.0,
      "x": 0.8102,
      "y": 0.365,
      "rotation": 2,
      "layer": 0,
      "constraints": [],
      "multiLayer": null,
      "doNotPlace": true
    }
  ],
  "signals": [
    {
      "name": "N$0",
      "length": 16.02185022209833,
      "bends": 11,
      "RelComponentID": "157ac30c-82e3-4c62-ab9a-0f89bcbb077f",
      "pins": [
        {
          "name": "B",
          "gate": "G$1",
          "pad": "1",
          "package": "Q2"
        },
        {
          "name": "1",
          "gate": "G$1",
          "pad": "P$1",
          "package": "R3"
        },
        {
          "name": "CT1",
          "gate": "G$1",
          "pad": "P$8",
          "package": "U1"
        }
      ],
      "wires": [
        {
          "x1": 9.4,
          "y1": 0.9,
          "x2": 9.4,
          "y2": 2.55,
          "width": 0.1524,
          "layer": 1,
          "curve": 0.0
        },
        {
          "x1": 2.05,
          "y1": 0.9,
          "x2": 9.4,
          "y2": 0.9,
          "width": 0.1524,
          "layer": 1,
          "curve": 0.0
        },
        {
          "x1": 1.4,
          "y1": 1.55,
          "x2": 2.05,
          "y2": 0.9,
          "width": 0.1524,
          "layer": 1,
          "curve": 0.0
        },
        {
          "x1": 1.4,
          "y1": 1.55,
          "x2": 1.37,
          "y2": 1.595,
          "width": 0.1524,
          "layer": 1,
          "curve": 0.0
        },
        {
          "x1": 9.35,
          "y1": 6.95,
          "x2": 8.4,
          "y2": 6.95,
          "width": 0.1524,
          "layer": 1,
          "curve": 0.0
        },
        {
          "x1": 9.9,
          "y1": 6.4,
          "x2": 9.35,
          "y2": 6.95,
          "width": 0.1524,
          "layer": 16,
          "curve": 0.0
        },
        {
          "x1": 9.9,
          "y1": 4.35,
          "x2": 9.9,
          "y2": 6.4,
          "width": 0.1524,
          "layer": 16,
          "curve": 0.0
        },
        {
          "x1": 9.9,
          "y1": 2.6,
          "x2": 9.9,
          "y2": 4.35,
          "width": 0.1524,
          "layer": 1,
          "curve": 0.0
        },
        {
          "x1": 9.45,
          "y1": 2.6,
          "x2": 9.9,
          "y2": 2.6,
          "width": 0.1524,
          "layer": 1,
          "curve": 0.0
        },
        {
          "x1": 9.45,
          "y1": 2.6,
          "x2": 9.4,
          "y2": 2.55,
          "width": 0.1524,
          "layer": 1,
          "curve": 0.0
        }
      ],
      "vias": [
        {
          "x": 9.35,
          "y": 6.95,
          "drill": 0.3048,
          "layerBegin": 1,
          "layerEnd": 16
        },
        {
          "x": 9.9,
          "y": 4.35,
          "drill": 0.3048,
          "layerBegin": 1,
          "layerEnd": 16
        }
      ],
      "polygons": []
    },
    {
      "name": "N$1",
      "length": 12.378011388133121,
      "bends": 12,
      "RelComponentID": "157ac30c-82e3-4c62-ab9a-0f89bcbb077f",
      "pins": [
        {
          "name": "E",
          "gate": "G$1",
          "pad": "3",
          "package": "Q2"
        },
        {
          "name": "ET1",
          "gate": "G$1",
          "pad": "P$7",
          "package": "U1"
        },
        {
          "name": "E",
          "gate": "G$1",
          "pad": "3",
          "package": "Q1"
        },
        {
          "name": "ET2",
          "gate": "G$1",
          "pad": "P$5",
          "package": "U1"
        }
      ],
      "wires": [
        {
          "x1": 1.3,
          "y1": 5.45,
          "x2": 1.3,
          "y2": 8.5,
          "width": 0.1524,
          "layer": 1,
          "curve": 0.0
        },
        {
          "x1": 1.35,
          "y1": 5.45,
          "x2": 1.3,
          "y2": 5.45,
          "width": 0.1524,
          "layer": 1,
          "curve": 0.0
        },
        {
          "x1": 1.35,
          "y1": 5.45,
          "x2": 1.37,
          "y2": 5.405,
          "width": 0.1524,
          "layer": 1,
          "curve": 0.0
        },
        {
          "x1": 6.1,
          "y1": 8.2,
          "x2": 6.4,
          "y2": 7.9,
          "width": 0.1524,
          "layer": 1,
          "curve": 0.0
        },
        {
          "x1": 1.35,
          "y1": 8.2,
          "x2": 6.1,
          "y2": 8.2,
          "width": 0.1524,
          "layer": 1,
          "curve": 0.0
        },
        {
          "x1": 1.35,
          "y1": 8.2,
          "x2": 1.3,
          "y2": 8.5,
          "width": 0.1524,
          "layer": 1,
          "curve": 0.0
        },
        {
          "x1": 0.8,
          "y1": 3.45,
          "x2": 1.35,
          "y2": 2.9,
          "width": 0.1524,
          "layer": 1,
          "curve": 0.0
        },
        {
          "x1": 0.7,
          "y1": 3.45,
          "x2": 0.8,
          "y2": 3.45,
          "width": 0.1524,
          "layer": 1,
          "curve": 0.0
        },
        {
          "x1": 0.55,
          "y1": 3.6,
          "x2": 0.7,
          "y2": 3.45,
          "width": 0.1524,
          "layer": 1,
          "curve": 0.0
        },
        {
          "x1": 0.55,
          "y1": 5.4,
          "x2": 0.55,
          "y2": 3.6,
          "width": 0.1524,
          "layer": 1,
          "curve": 0.0
        },
        {
          "x1": 1.25,
          "y1": 5.4,
          "x2": 0.55,
          "y2": 5.4,
          "width": 0.1524,
          "layer": 1,
          "curve": 0.0
        },
        {
          "x1": 1.35,
          "y1": 2.9,
          "x2": 1.37,
          "y2": 2.865,
          "width": 0.1524,
          "layer": 1,
          "curve": 0.0
        },
        {
          "x1": 1.25,
          "y1": 5.4,
          "x2": 1.37,
          "y2": 5.405,
          "width": 0.1524,
          "layer": 1,
          "curve": 0.0
        }
      ],
      "vias": [],
      "polygons": []
    },
    {
      "name": "N$2",
      "length": 1.1828427124746197,
      "bends": 1,
      "RelComponentID": "157ac30c-82e3-4c62-ab9a-0f89bcbb077f",
      "pins": [
        {
          "name": "C",
          "gate": "G$1",
          "pad": "2",
          "package": "Q2"
        },
        {
          "name": "1",
          "gate": "G$1",
          "pad": "P$1",
          "package": "R6"
        }
      ],
      "wires": [
        {
          "x1": 9.3,
          "y1": 8.85,
          "x2": 9.5,
          "y2": 9.05,
          "width": 0.1524,
          "layer": 1,
          "curve": 0.0
        },
        {
          "x1": 8.4,
          "y1": 8.85,
          "x2": 9.3,
          "y2": 8.85,
          "width": 0.1524,
          "layer": 1,
          "curve": 0.0
        }
      ],
      "vias": [],
      "polygons": []
    },
    {
      "name": "N$3",
      "length": 9.2941125496954271,
      "bends": 10,
      "RelComponentID": "157ac30c-82e3-4c62-ab9a-0f89bcbb077f",
      "pins": [
        {
          "name": "2",
          "gate": "G$1",
          "pad": "P$2",
          "package": "R4"
        },
        {
          "name": "2",
          "gate": "G$1",
          "pad": "P$2",
          "package": "R6"
        },
        {
          "name": "2",
          "gate": "G$1",
          "pad": "P$2",
          "package": "R5"
        },
        {
          "name": "2",
          "gate": "G$1",
          "pad": "P$2",
          "package": "R3"
        }
      ],
      "wires": [
        {
          "x1": 9.4,
          "y1": 4.05,
          "x2": 9.4,
          "y2": 3.65,
          "width": 0.1524,
          "layer": 1,
          "curve": 0.0
        },
        {
          "x1": 9.3,
          "y1": 4.15,
          "x2": 9.4,
          "y2": 4.05,
          "width": 0.1524,
          "layer": 1,
          "curve": 0.0
        },
        {
          "x1": 9.3,
          "y1": 5.05,
          "x2": 9.3,
          "y2": 4.15,
          "width": 0.1524,
          "layer": 1,
          "curve": 0.0
        },
        {
          "x1": 6.9,
          "y1": 8.55,
          "x2": 5.85,
          "y2": 9.6,
          "width": 0.1524,
          "layer": 1,
          "curve": 0.0
        },
        {
          "x1": 7.5,
          "y1": 8.55,
          "x2": 6.9,
          "y2": 8.55,
          "width": 0.1524,
          "layer": 1,
          "curve": 0.0
        },
        {
          "x1": 8.1,
          "y1": 7.95,
          "x2": 7.5,
          "y2": 8.55,
          "width": 0.1524,
          "layer": 1,
          "curve": 0.0
        },
        {
          "x1": 9.5,
          "y1": 7.95,
          "x2": 8.1,
          "y2": 7.95,
          "width": 0.1524,
          "layer": 1,
          "curve": 0.0
        },
        {
          "x1": 9.9,
          "y1": 5.65,
          "x2": 9.3,
          "y2": 5.05,
          "width": 0.1524,
          "layer": 1,
          "curve": 0.0
        },
        {
          "x1": 9.9,
          "y1": 7.9,
          "x2": 9.9,
          "y2": 5.65,
          "width": 0.1524,
          "layer": 1,
          "curve": 0.0
        },
        {
          "x1": 9.55,
          "y1": 7.9,
          "x2": 9.9,
          "y2": 7.9,
          "width": 0.1524,
          "layer": 1,
          "curve": 0.0
        },
        {
          "x1": 9.55,
          "y1": 7.9,
          "x2": 9.5,
          "y2": 7.95,
          "width": 0.1524,
          "layer": 1,
          "curve": 0.0
        }
      ],
      "vias": [],
      "polygons": []
    },
    {
      "name": "N$4",
      "length": 10.390395269154878,
      "bends": 7,
      "RelComponentID": "157ac30c-82e3-4c62-ab9a-0f89bcbb077f",
      "pins": [
        {
          "name": "1",
          "gate": "G$1",
          "pad": "P$1",
          "package": "R4"
        },
        {
          "name": "B",
          "gate": "G$1",
          "pad": "1",
          "package": "Q1"
        },
        {
          "name": "CT2",
          "gate": "G$1",
          "pad": "P$6",
          "package": "U1"
        }
      ],
      "wires": [
        {
          "x1": 9.15,
          "y1": 6.3,
          "x2": 9.3,
          "y2": 6.15,
          "width": 0.1524,
          "layer": 1,
          "curve": 0.0
        },
        {
          "x1": 4.55,
          "y1": 6.3,
          "x2": 9.15,
          "y2": 6.3,
          "width": 0.1524,
          "layer": 1,
          "curve": 0.0
        },
        {
          "x1": 3.3,
          "y1": 7.55,
          "x2": 4.1,
          "y2": 6.75,
          "width": 0.1524,
          "layer": 1,
          "curve": 0.0
        },
        {
          "x1": 4.1,
          "y1": 6.75,
          "x2": 4.55,
          "y2": 6.3,
          "width": 0.1524,
          "layer": 1,
          "curve": 0.0
        },
        {
          "x1": 1.95,
          "y1": 4.7,
          "x2": 1.4,
          "y2": 4.15,
          "width": 0.1524,
          "layer": 1,
          "curve": 0.0
        },
        {
          "x1": 2.05,
          "y1": 4.7,
          "x2": 1.95,
          "y2": 4.7,
          "width": 0.1524,
          "layer": 1,
          "curve": 0.0
        },
        {
          "x1": 4.1,
          "y1": 6.75,
          "x2": 2.05,
          "y2": 4.7,
          "width": 0.1524,
          "layer": 1,
          "curve": 0.0
        },
        {
          "x1": 1.4,
          "y1": 4.15,
          "x2": 1.37,
          "y2": 4.135,
          "width": 0.1524,
          "layer": 1,
          "curve": 0.0
        }
      ],
      "vias": [],
      "polygons": []
    },
    {
      "name": "N$5",
      "length": 1.5121320343559646,
      "bends": 1,
      "RelComponentID": "157ac30c-82e3-4c62-ab9a-0f89bcbb077f",
      "pins": [
        {
          "name": "C",
          "gate": "G$1",
          "pad": "2",
          "package": "Q1"
        },
        {
          "name": "1",
          "gate": "G$1",
          "pad": "P$1",
          "package": "R5"
        }
      ],
      "wires": [
        {
          "x1": 4.6,
          "y1": 9.45,
          "x2": 4.75,
          "y2": 9.6,
          "width": 0.1524,
          "layer": 1,
          "curve": 0.0
        },
        {
          "x1": 3.3,
          "y1": 9.45,
          "x2": 4.6,
          "y2": 9.45,
          "width": 0.1524,
          "layer": 1,
          "curve": 0.0
        }
      ],
      "vias": [],
      "polygons": []
    },
    {
      "name": "N$6",
      "length": 2.0063708498984765,
      "bends": 2,
      "RelComponentID": "157ac30c-82e3-4c62-ab9a-0f89bcbb077f",
      "pins": [
        {
          "name": "2",
          "gate": "G$1",
          "pad": "P$2",
          "package": "R2"
        },
        {
          "name": "A2",
          "gate": "G$1",
          "pad": "P$3",
          "package": "U1"
        }
      ],
      "wires": [
        {
          "x1": 7.7,
          "y1": 4.15,
          "x2": 8.5,
          "y2": 4.95,
          "width": 0.1524,
          "layer": 1,
          "curve": 0.0
        },
        {
          "x1": 6.85,
          "y1": 4.15,
          "x2": 7.7,
          "y2": 4.15,
          "width": 0.1524,
          "layer": 1,
          "curve": 0.0
        },
        {
          "x1": 6.85,
          "y1": 4.15,
          "x2": 6.83,
          "y2": 4.135,
          "width": 0.1524,
          "layer": 1,
          "curve": 0.0
        }
      ],
      "vias": [],
      "polygons": []
    },
    {
      "name": "N$7",
      "length": 1.34066564524629,
      "bends": 2,
      "RelComponentID": "157ac30c-82e3-4c62-ab9a-0f89bcbb077f",
      "pins": [
        {
          "name": "2",
          "gate": "G$1",
          "pad": "P$2",
          "package": "R1"
        },
        {
          "name": "A1",
          "gate": "G$1",
          "pad": "P$1",
          "package": "U1"
        }
      ],
      "wires": [
        {
          "x1": 8.0,
          "y1": 1.55,
          "x2": 8.1,
          "y2": 1.45,
          "width": 0.1524,
          "layer": 1,
          "curve": 0.0
        },
        {
          "x1": 6.85,
          "y1": 1.55,
          "x2": 8.0,
          "y2": 1.55,
          "width": 0.1524,
          "layer": 1,
          "curve": 0.0
        },
        {
          "x1": 6.85,
          "y1": 1.55,
          "x2": 6.83,
          "y2": 1.595,
          "width": 0.1524,
          "layer": 1,
          "curve": 0.0
        }
      ],
      "vias": [],
      "polygons": []
    },
    {
      "name": "N$8",
      "length": 3.7664610285991222,
      "bends": 6,
      "RelComponentID": "157ac30c-82e3-4c62-ab9a-0f89bcbb077f",
      "pins": [
        {
          "name": "C1",
          "gate": "G$1",
          "pad": "P$2",
          "package": "U1"
        },
        {
          "name": "C2",
          "gate": "G$1",
          "pad": "P$4",
          "package": "U1"
        }
      ],
      "wires": [
        {
          "x1": 6.25,
          "y1": 3.45,
          "x2": 6.8,
          "y2": 2.9,
          "width": 0.1524,
          "layer": 1,
          "curve": 0.0
        },
        {
          "x1": 6.15,
          "y1": 3.45,
          "x2": 6.25,
          "y2": 3.45,
          "width": 0.1524,
          "layer": 1,
          "curve": 0.0
        },
        {
          "x1": 6.0,
          "y1": 3.6,
          "x2": 6.15,
          "y2": 3.45,
          "width": 0.1524,
          "layer": 1,
          "curve": 0.0
        },
        {
          "x1": 6.0,
          "y1": 5.4,
          "x2": 6.0,
          "y2": 3.6,
          "width": 0.1524,
          "layer": 1,
          "curve": 0.0
        },
        {
          "x1": 6.8,
          "y1": 5.4,
          "x2": 6.0,
          "y2": 5.4,
          "width": 0.1524,
          "layer": 1,
          "curve": 0.0
        },
        {
          "x1": 6.8,
          "y1": 2.9,
          "x2": 6.83,
          "y2": 2.865,
          "width": 0.1524,
          "layer": 1,
          "curve": 0.0
        },
        {
          "x1": 6.8,
          "y1": 5.4,
          "x2": 6.83,
          "y2": 5.405,
          "width": 0.1524,
          "layer": 1,
          "curve": 0.0
        }
      ],
      "vias": [],
      "polygons": []
    }
  ],
  "constraints": null,
  "border": null
}