<!DOCTYPE eagle SYSTEM "eagle.dtd">
<eagle version="6.5.0">
<drawing>
<settings>
<setting alwaysvectorfont="no"/>
<setting verticaltext="up"/>
</settings>
<grid distance="1.45" unitdist="mm" unit="mm" style="lines" multiple="1" display="yes" altdistance="0.025" altunitdist="inch" altunit="mm"/>
<layers>
</layers>
<library>
<packages>
<package name="5-LEADTSOT">
<smd name="P$1" x="-1.1" y="0.95" dx="0.7" dy="0.8" layer="1" rot="R270"/>
<smd name="P$2" x="-1.1" y="0" dx="0.7" dy="0.8" layer="1" rot="R270"/>
<smd name="P$3" x="-1.1" y="-0.95" dx="0.7" dy="0.8" layer="1" rot="R270"/>
<smd name="P$4" x="1.1" y="-0.95" dx="0.7" dy="0.8" layer="1" rot="R270"/>
<smd name="P$5" x="1.1" y="0.95" dx="0.7" dy="0.8" layer="1" rot="R270"/>
<circle x="-1.9" y="1.6" radius="0.15239999999999998" width="0" layer="21"/>
<text x="-2.8" y="2.1" size="1.016" layer="25" ratio="15" font="vector">&gt;NAME</text>
<wire x1="-0.8" y1="1.6" x2="0.8" y2="1.6" width="0.15239999999999998" layer="21"/>
<wire x1="-0.8" y1="-1.6" x2="0.8" y2="-1.6" width="0.15239999999999998" layer="21"/>
<wire x1="1.1" y1="0.3" x2="1.1" y2="-0.3" width="0.15239999999999998" layer="21"/>
</package>
</packages>
<symbols>
<symbol name="OPAMP">
<wire x1="-10.16" y1="10.16" x2="-10.16" y2="-10.16" width="0.254" layer="94"/>
<wire x1="-10.16" y1="-10.16" x2="10.16" y2="0" width="0.254" layer="94"/>
<wire x1="10.16" y1="0" x2="-10.16" y2="10.16" width="0.254" layer="94"/>
<pin name="IN+" x="-15.24" y="5.08" length="middle" direction="pas"/>
<pin name="IN-" x="-15.24" y="-5.08" length="middle" direction="pas"/>
<pin name="V+" x="0" y="10.16" length="middle" rot="R270" direction="pas"/>
<pin name="V-" x="0" y="-10.16" length="middle" rot="R90" direction="pas"/>
<pin name="OUT" x="15.24" y="0" length="middle" rot="R180" direction="pas"/>
<text x="-10.16" y="15.24" size="1.778" layer="95">&gt;NAME</text>
<text x="-10.16" y="17.78" size="1.778" layer="96">&gt;VALUE</text>
</symbol>
</symbols>
<devicesets>
<deviceset name="AD8603">
<gates>
<gate name="G$1" symbol="OPAMP" x="0" y="0"/>
</gates>
<devices>
<device name="" package="5-LEADTSOT">
<connects>
<connect gate="G$1" pin="IN+" pad="P$3"/>
<connect gate="G$1" pin="IN-" pad="P$4"/>
<connect gate="G$1" pin="OUT" pad="P$1"/>
<connect gate="G$1" pin="V+" pad="P$5"/>
<connect gate="G$1" pin="V-" pad="P$2"/>
</connects>
<technologies>
<technology name=""/>
</technologies>
</device>
</devices>
</deviceset>
</devicesets>
</library>
</drawing>
</eagle>