<eagle version="6.5.0" xmlns="eagle">
  <drawing>
    <library>
      <packages>
        <package name="SAMTEC_FTE-116-01-G-DV" xmlns="eagle">
          <smd name="1" x="-5.9944" y="-1.651" dx="0.3556" dy="1.9812" layer="1" />
          <smd name="2" x="-5.9944" y="1.651" dx="0.3556" dy="1.9812" layer="1" />
          <smd name="3" x="-5.207" y="-1.651" dx="0.3556" dy="1.9812" layer="1" />
          <smd name="4" x="-5.207" y="1.651" dx="0.3556" dy="1.9812" layer="1" />
          <smd name="5" x="-4.3942" y="-1.651" dx="0.3556" dy="1.9812" layer="1" />
          <smd name="6" x="-4.3942" y="1.651" dx="0.3556" dy="1.9812" layer="1" />
          <smd name="7" x="-3.6068" y="-1.651" dx="0.3556" dy="1.9812" layer="1" />
          <smd name="8" x="-3.6068" y="1.651" dx="0.3556" dy="1.9812" layer="1" />
          <smd name="9" x="-2.794" y="-1.651" dx="0.3556" dy="1.9812" layer="1" />
          <smd name="10" x="-2.794" y="1.651" dx="0.3556" dy="1.9812" layer="1" />
          <smd name="11" x="-2.0066" y="-1.651" dx="0.3556" dy="1.9812" layer="1" />
          <smd name="12" x="-2.0066" y="1.651" dx="0.3556" dy="1.9812" layer="1" />
          <smd name="13" x="-1.1938" y="-1.651" dx="0.3556" dy="1.9812" layer="1" />
          <smd name="14" x="-1.1938" y="1.651" dx="0.3556" dy="1.9812" layer="1" />
          <smd name="15" x="-0.4064" y="-1.651" dx="0.3556" dy="1.9812" layer="1" />
          <smd name="16" x="-0.4064" y="1.651" dx="0.3556" dy="1.9812" layer="1" />
          <smd name="17" x="0.4064" y="-1.651" dx="0.3556" dy="1.9812" layer="1" />
          <smd name="18" x="0.4064" y="1.651" dx="0.3556" dy="1.9812" layer="1" />
          <smd name="19" x="1.1938" y="-1.651" dx="0.3556" dy="1.9812" layer="1" />
          <smd name="20" x="1.1938" y="1.651" dx="0.3556" dy="1.9812" layer="1" />
          <smd name="21" x="2.0066" y="-1.651" dx="0.3556" dy="1.9812" layer="1" />
          <smd name="22" x="2.0066" y="1.651" dx="0.3556" dy="1.9812" layer="1" />
          <smd name="23" x="2.794" y="-1.651" dx="0.3556" dy="1.9812" layer="1" />
          <smd name="24" x="2.794" y="1.651" dx="0.3556" dy="1.9812" layer="1" />
          <smd name="25" x="3.6068" y="-1.651" dx="0.3556" dy="1.9812" layer="1" />
          <smd name="26" x="3.6068" y="1.651" dx="0.3556" dy="1.9812" layer="1" />
          <smd name="27" x="4.3942" y="-1.651" dx="0.3556" dy="1.9812" layer="1" />
          <smd name="28" x="4.3942" y="1.651" dx="0.3556" dy="1.9812" layer="1" />
          <smd name="29" x="5.207" y="-1.651" dx="0.3556" dy="1.9812" layer="1" />
          <smd name="30" x="5.207" y="1.651" dx="0.3556" dy="1.9812" layer="1" />
          <smd name="31" x="5.9944" y="-1.651" dx="0.3556" dy="1.9812" layer="1" />
          <smd name="32" x="5.9944" y="1.651" dx="0.3556" dy="1.9812" layer="1" />
          <wire x1="-5.9944" y1="-3.0988" x2="-5.3594" y2="-4.3688" width="0.1524" layer="21" />
          <wire x1="-5.3594" y1="-4.3688" x2="-6.6294" y2="-4.3688" width="0.1524" layer="21" />
          <wire x1="-6.6294" y1="-4.3688" x2="-5.9944" y2="-3.0988" width="0.1524" layer="21" />
          <wire x1="-6.4008" y1="0.4064" x2="-6.4008" y2="-0.4064" width="0.1524" layer="21" />
          <wire x1="6.4008" y1="-0.4064" x2="6.4008" y2="0.4064" width="0.1524" layer="21" />
          <text x="-8.0518" y="1.016" size="1.27" layer="21" ratio="6" rot="SR0">2</text>
          <text x="-8.0518" y="-2.286" size="1.27" layer="21" ratio="6" rot="SR0">1</text>
          <text x="6.9088" y="1.016" size="1.27" layer="21" ratio="6" rot="SR0">32</text>
          <text x="6.9088" y="-2.286" size="1.27" layer="21" ratio="6" rot="SR0">31</text>
          <wire x1="-5.9944" y1="-3.0988" x2="-5.3594" y2="-4.3688" width="0.1524" layer="51" />
          <wire x1="-5.3594" y1="-4.3688" x2="-6.6294" y2="-4.3688" width="0.1524" layer="51" />
          <wire x1="-6.6294" y1="-4.3688" x2="-5.9944" y2="-3.0988" width="0.1524" layer="51" />
          <wire x1="-6.4008" y1="1.524" x2="-6.4008" y2="-1.524" width="0.1524" layer="51" />
          <wire x1="-6.4008" y1="-1.524" x2="6.4008" y2="-1.524" width="0.1524" layer="51" />
          <wire x1="6.4008" y1="-1.524" x2="6.4008" y2="1.524" width="0.1524" layer="51" />
          <wire x1="6.4008" y1="1.524" x2="-6.4008" y2="1.524" width="0.1524" layer="51" />
          <text x="-8.0518" y="1.016" size="1.27" layer="51" ratio="6" rot="SR0">2</text>
          <text x="-8.0518" y="-2.286" size="1.27" layer="51" ratio="6" rot="SR0">1</text>
          <text x="6.9088" y="1.016" size="1.27" layer="51" ratio="6" rot="SR0">32</text>
          <text x="6.9088" y="-2.286" size="1.27" layer="51" ratio="6" rot="SR0">31</text>
          <text x="-4.6736" y="2.921" size="2.0828" layer="25" ratio="10" rot="SR0">&gt;NAME</text>
          <text x="-5.5626" y="-5.08" size="2.0828" layer="27" ratio="10" rot="SR0">&gt;VALUE</text>
        </package>
      </packages>
      <symbols>
        <symbol name="FTE-116-01-G-DV">
          <pin name="1" x="-17.78" y="15.24" length="middle" direction="pas" />
          <pin name="3" x="-17.78" y="12.7" length="middle" direction="pas" />
          <pin name="5" x="-17.78" y="10.16" length="middle" direction="pas" />
          <pin name="7" x="-17.78" y="7.62" length="middle" direction="pas" />
          <pin name="9" x="-17.78" y="5.08" length="middle" direction="pas" />
          <pin name="11" x="-17.78" y="2.54" length="middle" direction="pas" />
          <pin name="13" x="-17.78" y="0" length="middle" direction="pas" />
          <pin name="15" x="-17.78" y="-2.54" length="middle" direction="pas" />
          <pin name="17" x="-17.78" y="-5.08" length="middle" direction="pas" />
          <pin name="19" x="-17.78" y="-7.62" length="middle" direction="pas" />
          <pin name="21" x="-17.78" y="-10.16" length="middle" direction="pas" />
          <pin name="23" x="-17.78" y="-12.7" length="middle" direction="pas" />
          <pin name="25" x="-17.78" y="-15.24" length="middle" direction="pas" />
          <pin name="27" x="-17.78" y="-17.78" length="middle" direction="pas" />
          <pin name="29" x="-17.78" y="-20.32" length="middle" direction="pas" />
          <pin name="31" x="-17.78" y="-22.86" length="middle" direction="pas" />
          <pin name="2" x="17.78" y="15.24" length="middle" direction="pas" rot="R180" />
          <pin name="4" x="17.78" y="12.7" length="middle" direction="pas" rot="R180" />
          <pin name="6" x="17.78" y="10.16" length="middle" direction="pas" rot="R180" />
          <pin name="8" x="17.78" y="7.62" length="middle" direction="pas" rot="R180" />
          <pin name="10" x="17.78" y="5.08" length="middle" direction="pas" rot="R180" />
          <pin name="12" x="17.78" y="2.54" length="middle" direction="pas" rot="R180" />
          <pin name="14" x="17.78" y="0" length="middle" direction="pas" rot="R180" />
          <pin name="16" x="17.78" y="-2.54" length="middle" direction="pas" rot="R180" />
          <pin name="18" x="17.78" y="-5.08" length="middle" direction="pas" rot="R180" />
          <pin name="20" x="17.78" y="-7.62" length="middle" direction="pas" rot="R180" />
          <pin name="22" x="17.78" y="-10.16" length="middle" direction="pas" rot="R180" />
          <pin name="24" x="17.78" y="-12.7" length="middle" direction="pas" rot="R180" />
          <pin name="26" x="17.78" y="-15.24" length="middle" direction="pas" rot="R180" />
          <pin name="28" x="17.78" y="-17.78" length="middle" direction="pas" rot="R180" />
          <pin name="30" x="17.78" y="-20.32" length="middle" direction="pas" rot="R180" />
          <pin name="32" x="17.78" y="-22.86" length="middle" direction="pas" rot="R180" />
          <wire x1="-12.7" y1="20.32" x2="-12.7" y2="-27.94" width="0.4064" layer="94" />
          <wire x1="-12.7" y1="-27.94" x2="12.7" y2="-27.94" width="0.4064" layer="94" />
          <wire x1="12.7" y1="-27.94" x2="12.7" y2="20.32" width="0.4064" layer="94" />
          <wire x1="12.7" y1="20.32" x2="-12.7" y2="20.32" width="0.4064" layer="94" />
          <text x="-5.08" y="21.4376" size="2.0828" layer="95" ratio="10" rot="SR0">&gt;NAME</text>
          <text x="-5.3848" y="-31.242" size="2.0828" layer="96" ratio="10" rot="SR0">&gt;VALUE</text>
        </symbol>
      </symbols>
      <devicesets>
        <deviceset name="FTE-116-01-G-DV" prefix="J">
          <gates>
            <gate name="A" symbol="FTE-116-01-G-DV" x="0" y="0" />
          </gates>
          <devices>
            <device name="" package="SAMTEC_FTE-116-01-G-DV" xmlns="eagle">
              <connects>
                <connect gate="A" pin="1" pad="1" />
                <connect gate="A" pin="10" pad="10" />
                <connect gate="A" pin="11" pad="11" />
                <connect gate="A" pin="12" pad="12" />
                <connect gate="A" pin="13" pad="13" />
                <connect gate="A" pin="14" pad="14" />
                <connect gate="A" pin="15" pad="15" />
                <connect gate="A" pin="16" pad="16" />
                <connect gate="A" pin="17" pad="17" />
                <connect gate="A" pin="18" pad="18" />
                <connect gate="A" pin="19" pad="19" />
                <connect gate="A" pin="2" pad="2" />
                <connect gate="A" pin="20" pad="20" />
                <connect gate="A" pin="21" pad="21" />
                <connect gate="A" pin="22" pad="22" />
                <connect gate="A" pin="23" pad="23" />
                <connect gate="A" pin="24" pad="24" />
                <connect gate="A" pin="25" pad="25" />
                <connect gate="A" pin="26" pad="26" />
                <connect gate="A" pin="27" pad="27" />
                <connect gate="A" pin="28" pad="28" />
                <connect gate="A" pin="29" pad="29" />
                <connect gate="A" pin="3" pad="3" />
                <connect gate="A" pin="30" pad="30" />
                <connect gate="A" pin="31" pad="31" />
                <connect gate="A" pin="32" pad="32" />
                <connect gate="A" pin="4" pad="4" />
                <connect gate="A" pin="5" pad="5" />
                <connect gate="A" pin="6" pad="6" />
                <connect gate="A" pin="7" pad="7" />
                <connect gate="A" pin="8" pad="8" />
                <connect gate="A" pin="9" pad="9" />
              </connects>
              <technologies>
                <technology name="">
                  <attribute name="MPN" value="FTE-116-01-G-DV" constant="no" />
                  <attribute name="OC_FARNELL" value="1769028" constant="no" />
                  <attribute name="OC_NEWARK" value="11P4499" constant="no" />
                  <attribute name="PACKAGE" value="SMT,HEADER, 2X16WAY" constant="no" />
                  <attribute name="SUPPLIER" value="SAMTEC" constant="no" />
                </technology>
              </technologies>
            </device>
          </devices>
        </deviceset>
      </devicesets>
    </library>
  </drawing>
</eagle>