<eagle version="6.5.0" xmlns="eagle">
  <drawing>
    <library>
      <packages>
        <package name="TSOT-23" xmlns="eagle">
          <smd name="P$1" x="-1.31" y="0.95" dx="0.62" dy="1.22" layer="1" rot="R90" />
          <smd name="P$2" x="-1.31" y="0" dx="0.62" dy="1.22" layer="1" rot="R90" />
          <smd name="P$3" x="-1.31" y="-0.95" dx="0.62" dy="1.22" layer="1" rot="R90" />
          <smd name="P$4" x="1.31" y="-0.95" dx="0.62" dy="1.22" layer="1" rot="R90" />
          <smd name="P$5" x="1.31" y="0" dx="0.62" dy="1.22" layer="1" rot="R90" />
          <smd name="P$6" x="1.31" y="0.95" dx="0.62" dy="1.22" layer="1" rot="R90" />
          <circle x="-2.46121875" y="1.36446875" radius="0.15239999999999998" width="0" layer="21" />
          <wire x1="-0.75" y1="1.5" x2="0.75" y2="1.5" width="0.15239999999999998" layer="21" />
          <wire x1="-0.75" y1="-1.5" x2="0.75" y2="-1.5" width="0.15239999999999998" layer="21" />
          <text x="-3.175" y="1.905" size="1.016" layer="25" ratio="15" font="vector">&gt;NAME</text>
        </package>
      </packages>
      <symbols>
        <symbol name="STEPDOWN">
          <pin name="RUN" x="-15.24" y="2.54" length="middle" direction="pas" />
          <pin name="GND" x="-15.24" y="0" length="middle" direction="pas" />
          <pin name="SW" x="-15.24" y="-2.54" length="middle" direction="pas" />
          <pin name="MODE" x="15.24" y="2.54" length="middle" rot="R180" direction="pas" />
          <pin name="VOUT" x="15.24" y="0" length="middle" rot="R180" direction="pas" />
          <pin name="VIN" x="15.24" y="-2.54" length="middle" rot="R180" direction="pas" />
          <wire x1="-10.16" y1="5.08" x2="-10.16" y2="-5.08" width="0.254" layer="94" />
          <wire x1="-10.16" y1="-5.08" x2="10.16" y2="-5.08" width="0.254" layer="94" />
          <wire x1="10.16" y1="-5.08" x2="10.16" y2="5.08" width="0.254" layer="94" />
          <wire x1="10.16" y1="5.08" x2="-10.16" y2="5.08" width="0.254" layer="94" />
          <text x="-10.16" y="7.62" size="1.778" layer="95">&gt;NAME</text>
          <text x="-10.16" y="5.08" size="1.778" layer="96">&gt;VALUE</text>
        </symbol>
      </symbols>
      <devicesets>
        <deviceset name="LTC3405AES6-1.8#TRMPBF">
          <gates>
            <gate name="G$1" symbol="STEPDOWN" x="0" y="0" />
          </gates>
          <devices>
            <device name="" package="TSOT-23" xmlns="eagle">
              <connects>
                <connect gate="G$1" pin="GND" pad="P$2" />
                <connect gate="G$1" pin="MODE" pad="P$6" />
                <connect gate="G$1" pin="RUN" pad="P$1" />
                <connect gate="G$1" pin="SW" pad="P$3" />
                <connect gate="G$1" pin="VIN" pad="P$4" />
                <connect gate="G$1" pin="VOUT" pad="P$5" />
              </connects>
              <technologies>
                <technology name="" />
              </technologies>
            </device>
          </devices>
        </deviceset>
      </devicesets>
    </library>
  </drawing>
</eagle>