{
  "boardWidth": 50.0,
  "boardHeight": 10.0,
  "numLayers": 2,
  "boardTemplate": null,
  "designRules": "MacroFab_2_Layer.dru",
  "omitBoundary": null,
  "packages": [
    {
      "name": "RGB-LED 5-Row",
      "package": "__spaceClaim__",
      "pkg_idx": 0,
      "ComponentID": "3f147e62-c8ae-4254-adc5-753fc46105c2",
      "RelComponentID": null,
      "width": 48.0,
      "height": 8.0,
      "koWidth": null,
      "koHeight": null,
      "originX": null,
      "originY": null,
      "x": 0.0,
      "y": 0.0,
      "rotation": 0,
      "layer": 0,
      "constraints": null,
      "multiLayer": null,
      "doNotPlace": null
    },
    {
      "name": "D0",
      "package": "3COLORLED",
      "pkg_idx": 1,
      "ComponentID": "89546818-7270-485a-9f5f-46399609b7a2",
      "RelComponentID": "3f147e62-c8ae-4254-adc5-753fc46105c2",
      "width": 7.7041625000000007,
      "height": 5.2141687500000007,
      "koWidth": 7.7041625000000007,
      "koHeight": 5.2141687500000007,
      "originX": -0.3,
      "originY": 0.1,
      "x": 0.2929,
      "y": -0.1521,
      "rotation": 1,
      "layer": 0,
      "constraints": [],
      "multiLayer": null,
      "doNotPlace": true
    },
    {
      "name": "D1",
      "package": "3COLORLED",
      "pkg_idx": 2,
      "ComponentID": "f2edc4cd-e62a-4e1d-9eac-5cc7d751bab4",
      "RelComponentID": "3f147e62-c8ae-4254-adc5-753fc46105c2",
      "width": 7.7041625000000007,
      "height": 5.2141687500000007,
      "koWidth": 7.7041625000000007,
      "koHeight": 5.2141687500000007,
      "originX": -0.3,
      "originY": 0.1,
      "x": 7.2929,
      "y": -0.1521,
      "rotation": 1,
      "layer": 0,
      "constraints": [],
      "multiLayer": null,
      "doNotPlace": true
    },
    {
      "name": "D2",
      "package": "3COLORLED",
      "pkg_idx": 3,
      "ComponentID": "76ae81e0-26ee-483d-9729-c603ccf6ef0f",
      "RelComponentID": "3f147e62-c8ae-4254-adc5-753fc46105c2",
      "width": 7.7041625000000007,
      "height": 5.2141687500000007,
      "koWidth": 7.7041625000000007,
      "koHeight": 5.2141687500000007,
      "originX": -0.3,
      "originY": 0.1,
      "x": 14.2929,
      "y": -0.1521,
      "rotation": 1,
      "layer": 0,
      "constraints": [],
      "multiLayer": null,
      "doNotPlace": true
    },
    {
      "name": "D3",
      "package": "3COLORLED",
      "pkg_idx": 4,
      "ComponentID": "c6e91a7e-45aa-4bc5-b63b-1594c0d8fedf",
      "RelComponentID": "3f147e62-c8ae-4254-adc5-753fc46105c2",
      "width": 7.7041625000000007,
      "height": 5.2141687500000007,
      "koWidth": 7.7041625000000007,
      "koHeight": 5.2141687500000007,
      "originX": -0.3,
      "originY": 0.1,
      "x": 21.2929,
      "y": -0.1521,
      "rotation": 1,
      "layer": 0,
      "constraints": [],
      "multiLayer": null,
      "doNotPlace": true
    },
    {
      "name": "D4",
      "package": "3COLORLED",
      "pkg_idx": 5,
      "ComponentID": "94794dc9-23c5-4a5f-aa41-696fb876e4cd",
      "RelComponentID": "3f147e62-c8ae-4254-adc5-753fc46105c2",
      "width": 7.7041625000000007,
      "height": 5.2141687500000007,
      "koWidth": 7.7041625000000007,
      "koHeight": 5.2141687500000007,
      "originX": -0.3,
      "originY": 0.1,
      "x": 28.2929,
      "y": -0.1521,
      "rotation": 1,
      "layer": 0,
      "constraints": [],
      "multiLayer": null,
      "doNotPlace": true
    },
    {
      "name": "Q1",
      "package": "SOT523",
      "pkg_idx": 6,
      "ComponentID": "ae4383d8-92f8-48d2-a781-ad3d25e21a07",
      "RelComponentID": "3f147e62-c8ae-4254-adc5-753fc46105c2",
      "width": 1.8,
      "height": 1.8,
      "koWidth": 1.8,
      "koHeight": 1.8,
      "originX": 0.0,
      "originY": 0.0,
      "x": 2.1,
      "y": 2.1,
      "rotation": 3,
      "layer": 1,
      "constraints": [],
      "multiLayer": null,
      "doNotPlace": true
    }
  ],
  "signals": [
    {
      "name": "N$0",
      "length": 34.144999999999996,
      "bends": 18,
      "RelComponentID": "3f147e62-c8ae-4254-adc5-753fc46105c2",
      "pins": [
        {
          "name": "BA",
          "gate": "G$1",
          "pad": "P$1",
          "package": "D0"
        },
        {
          "name": "BA",
          "gate": "G$1",
          "pad": "P$1",
          "package": "D4"
        },
        {
          "name": "BA",
          "gate": "G$1",
          "pad": "P$1",
          "package": "D3"
        },
        {
          "name": "BA",
          "gate": "G$1",
          "pad": "P$1",
          "package": "D2"
        },
        {
          "name": "BA",
          "gate": "G$1",
          "pad": "P$1",
          "package": "D1"
        },
        {
          "name": "RA",
          "gate": "G$1",
          "pad": "P$2",
          "package": "D4"
        },
        {
          "name": "RA",
          "gate": "G$1",
          "pad": "P$2",
          "package": "D3"
        },
        {
          "name": "RA",
          "gate": "G$1",
          "pad": "P$2",
          "package": "D2"
        },
        {
          "name": "RA",
          "gate": "G$1",
          "pad": "P$2",
          "package": "D1"
        },
        {
          "name": "RA",
          "gate": "G$1",
          "pad": "P$2",
          "package": "D0"
        },
        {
          "name": "D",
          "gate": "G$1",
          "pad": "P$3",
          "package": "Q1"
        },
        {
          "name": "GA",
          "gate": "G$1",
          "pad": "P$3",
          "package": "D4"
        },
        {
          "name": "GA",
          "gate": "G$1",
          "pad": "P$3",
          "package": "D3"
        },
        {
          "name": "GA",
          "gate": "G$1",
          "pad": "P$3",
          "package": "D2"
        },
        {
          "name": "GA",
          "gate": "G$1",
          "pad": "P$3",
          "package": "D1"
        },
        {
          "name": "GA",
          "gate": "G$1",
          "pad": "P$3",
          "package": "D0"
        }
      ],
      "wires": [
        {
          "x1": 31.0,
          "y1": 1.8,
          "x2": 29.25,
          "y2": 1.8,
          "width": 0.1524,
          "layer": 1,
          "curve": 0.0
        },
        {
          "x1": 31.0,
          "y1": 1.8,
          "x2": 32.75,
          "y2": 1.8,
          "width": 0.1524,
          "layer": 1,
          "curve": 0.0
        },
        {
          "x1": 24.0,
          "y1": 1.8,
          "x2": 22.25,
          "y2": 1.8,
          "width": 0.1524,
          "layer": 1,
          "curve": 0.0
        },
        {
          "x1": 24.0,
          "y1": 1.8,
          "x2": 25.75,
          "y2": 1.8,
          "width": 0.1524,
          "layer": 1,
          "curve": 0.0
        },
        {
          "x1": 17.0,
          "y1": 1.8,
          "x2": 15.25,
          "y2": 1.8,
          "width": 0.1524,
          "layer": 1,
          "curve": 0.0
        },
        {
          "x1": 17.0,
          "y1": 1.8,
          "x2": 18.75,
          "y2": 1.8,
          "width": 0.1524,
          "layer": 1,
          "curve": 0.0
        },
        {
          "x1": 10.0,
          "y1": 1.8,
          "x2": 8.25,
          "y2": 1.8,
          "width": 0.1524,
          "layer": 1,
          "curve": 0.0
        },
        {
          "x1": 10.0,
          "y1": 1.8,
          "x2": 11.75,
          "y2": 1.8,
          "width": 0.1524,
          "layer": 1,
          "curve": 0.0
        },
        {
          "x1": 2.4,
          "y1": 3.7,
          "x2": 2.4,
          "y2": 3.0,
          "width": 0.1524,
          "layer": 16,
          "curve": 0.0
        },
        {
          "x1": 2.4,
          "y1": 1.8,
          "x2": 2.4,
          "y2": 3.7,
          "width": 0.1524,
          "layer": 1,
          "curve": 0.0
        },
        {
          "x1": 3.0,
          "y1": 1.8,
          "x2": 2.4,
          "y2": 1.8,
          "width": 0.1524,
          "layer": 1,
          "curve": 0.0
        },
        {
          "x1": 2.4,
          "y1": 3.0,
          "x2": 2.355,
          "y2": 3.0,
          "width": 0.1524,
          "layer": 16,
          "curve": 0.0
        },
        {
          "x1": 2.4,
          "y1": 1.8,
          "x2": 1.25,
          "y2": 1.8,
          "width": 0.1524,
          "layer": 1,
          "curve": 0.0
        },
        {
          "x1": 3.0,
          "y1": 1.8,
          "x2": 4.75,
          "y2": 1.8,
          "width": 0.1524,
          "layer": 1,
          "curve": 0.0
        },
        {
          "x1": 4.75,
          "y1": 1.8,
          "x2": 8.25,
          "y2": 1.8,
          "width": 0.1524,
          "layer": 1,
          "curve": 0.0
        },
        {
          "x1": 11.75,
          "y1": 1.8,
          "x2": 15.25,
          "y2": 1.8,
          "width": 0.1524,
          "layer": 1,
          "curve": 0.0
        },
        {
          "x1": 18.75,
          "y1": 1.8,
          "x2": 22.25,
          "y2": 1.8,
          "width": 0.1524,
          "layer": 1,
          "curve": 0.0
        },
        {
          "x1": 25.75,
          "y1": 1.8,
          "x2": 29.25,
          "y2": 1.8,
          "width": 0.1524,
          "layer": 1,
          "curve": 0.0
        }
      ],
      "vias": [
        {
          "x": 2.4,
          "y": 3.7,
          "drill": 0.3048,
          "layerBegin": 1,
          "layerEnd": 16
        }
      ],
      "polygons": []
    }
  ],
  "constraints": null,
  "border": null
}