,,Design Name:,"6 Degrees of Freedom"
,,Pricing Timestamp:,"Tuesday, August 18, 2015 1:09 PM"
,,Cost per Unit (based on 100 units):,$0.15

"Item #",Qty,"Reference Designator",Manufacturer,"Manufacturer Part #",Description,Package,"Supplier 1","Supplier 1 SKU","Supplier 1 Price/Unit","Supplier 1 Extended Price",Notes
1,1,R4,Bourns,CR0603-FX-1002ELF,"0603,10K,1%,T/R,HAZMAT <AZ",'0603,"Allied Electronics",'70154687,0.004,0.004,", RoHS Compliant"
2,2,"C3, 
C4",TDK,CLLC1AX7S0G104M050AC,"CAP CER 0.1UF 4V 20% X7S 0603",,Newark,51X8198,0.074,0.148,", RoHS Compliant"
3,1,PwrGndSplitter,,,,,,,,,
4,1,I2C_Breakout,,,,,,,,,
5,1,LSM6DS3,STMicroelectronics,LSM6DS3,"ACC/GYRO, 3D, 16G, 2000DPS, LGA-14",,,,,,", RoHS Compliant, Lifecycle Status Active"
