<?xml version="1.0" encoding="utf-8"?>
<!DOCTYPE eagle SYSTEM "eagle.dtd">
<eagle version="7.2.0">
<drawing>
<settings>
<setting alwaysvectorfont="no"/>
<setting verticaltext="up"/>
</settings>
<grid distance="0.1" unitdist="mm" unit="mm" style="lines" multiple="1" display="no" altdistance="0.1" altunitdist="mm" altunit="mm"/>
<layers>
<layer number="1" name="Top" color="4" fill="1" visible="yes" active="yes"/>
<layer number="2" name="Route2" color="1" fill="3" visible="no" active="yes"/>
<layer number="3" name="Route3" color="4" fill="3" visible="no" active="no"/>
<layer number="4" name="Route4" color="1" fill="4" visible="no" active="no"/>
<layer number="5" name="Route5" color="4" fill="4" visible="no" active="no"/>
<layer number="6" name="Route6" color="1" fill="8" visible="no" active="no"/>
<layer number="7" name="Route7" color="4" fill="8" visible="no" active="no"/>
<layer number="8" name="Route8" color="1" fill="2" visible="no" active="no"/>
<layer number="9" name="Route9" color="4" fill="2" visible="no" active="no"/>
<layer number="10" name="Route10" color="1" fill="7" visible="no" active="no"/>
<layer number="11" name="Route11" color="4" fill="7" visible="no" active="no"/>
<layer number="12" name="Route12" color="1" fill="5" visible="no" active="no"/>
<layer number="13" name="Route13" color="4" fill="5" visible="no" active="no"/>
<layer number="14" name="Route14" color="1" fill="6" visible="no" active="no"/>
<layer number="15" name="Route15" color="4" fill="6" visible="no" active="yes"/>
<layer number="16" name="Bottom" color="1" fill="1" visible="yes" active="yes"/>
<layer number="17" name="Pads" color="2" fill="1" visible="yes" active="yes"/>
<layer number="18" name="Vias" color="2" fill="1" visible="yes" active="yes"/>
<layer number="19" name="Unrouted" color="6" fill="1" visible="yes" active="yes"/>
<layer number="20" name="Dimension" color="15" fill="1" visible="yes" active="yes"/>
<layer number="21" name="tPlace" color="7" fill="1" visible="yes" active="yes"/>
<layer number="22" name="bPlace" color="7" fill="1" visible="yes" active="yes"/>
<layer number="23" name="tOrigins" color="15" fill="1" visible="yes" active="yes"/>
<layer number="24" name="bOrigins" color="15" fill="1" visible="yes" active="yes"/>
<layer number="25" name="tNames" color="7" fill="1" visible="no" active="yes"/>
<layer number="26" name="bNames" color="7" fill="1" visible="no" active="yes"/>
<layer number="27" name="tValues" color="7" fill="1" visible="no" active="yes"/>
<layer number="28" name="bValues" color="7" fill="1" visible="no" active="yes"/>
<layer number="29" name="tStop" color="7" fill="3" visible="no" active="yes"/>
<layer number="30" name="bStop" color="7" fill="6" visible="no" active="yes"/>
<layer number="31" name="tCream" color="7" fill="4" visible="no" active="yes"/>
<layer number="32" name="bCream" color="7" fill="5" visible="no" active="yes"/>
<layer number="33" name="tFinish" color="6" fill="3" visible="no" active="yes"/>
<layer number="34" name="bFinish" color="6" fill="6" visible="no" active="yes"/>
<layer number="35" name="tGlue" color="7" fill="4" visible="no" active="yes"/>
<layer number="36" name="bGlue" color="7" fill="5" visible="no" active="yes"/>
<layer number="37" name="tTest" color="7" fill="1" visible="no" active="yes"/>
<layer number="38" name="bTest" color="7" fill="1" visible="no" active="yes"/>
<layer number="39" name="tKeepout" color="4" fill="11" visible="yes" active="yes"/>
<layer number="40" name="bKeepout" color="1" fill="11" visible="yes" active="yes"/>
<layer number="41" name="tRestrict" color="4" fill="10" visible="yes" active="yes"/>
<layer number="42" name="bRestrict" color="1" fill="10" visible="yes" active="yes"/>
<layer number="43" name="vRestrict" color="2" fill="10" visible="yes" active="yes"/>
<layer number="44" name="Drills" color="7" fill="1" visible="no" active="yes"/>
<layer number="45" name="Holes" color="7" fill="1" visible="no" active="yes"/>
<layer number="46" name="Milling" color="3" fill="1" visible="no" active="yes"/>
<layer number="47" name="Measures" color="7" fill="1" visible="no" active="yes"/>
<layer number="48" name="Document" color="7" fill="1" visible="no" active="yes"/>
<layer number="49" name="Reference" color="7" fill="1" visible="no" active="yes"/>
<layer number="51" name="tDocu" color="7" fill="1" visible="yes" active="yes"/>
<layer number="52" name="bDocu" color="7" fill="1" visible="yes" active="yes"/>
<layer number="91" name="Nets" color="2" fill="1" visible="no" active="no"/>
<layer number="92" name="Busses" color="1" fill="1" visible="no" active="no"/>
<layer number="93" name="Pins" color="2" fill="1" visible="no" active="no"/>
<layer number="94" name="Symbols" color="4" fill="1" visible="no" active="no"/>
<layer number="95" name="Names" color="7" fill="1" visible="no" active="no"/>
<layer number="96" name="Values" color="7" fill="1" visible="no" active="no"/>
<layer number="97" name="Info" color="7" fill="1" visible="no" active="no"/>
<layer number="98" name="Guide" color="6" fill="1" visible="no" active="no"/>
<layer number="80" name="tBoundingBox" color="12" fill="1" visible="no" active="yes"/>
<layer number="81" name="bBoundingBox" color="14" fill="1" visible="no" active="yes"/>
</layers>
<board>
<plain>
<wire x1="0" y1="0" x2="7" y2="0" width="0" layer="20"/>
<wire x1="0" y1="6" x2="7" y2="6" width="0" layer="20"/>
<wire x1="0" y1="0" x2="0" y2="6" width="0" layer="20"/>
<wire x1="7" y1="0" x2="7" y2="6" width="0" layer="20"/>
<wire x1="5.925" y1="9.05" x2="8.875" y2="9.05" width="0.1" layer="80"/>
<wire x1="8.875" y1="9.05" x2="8.875" y2="10.15" width="0.1" layer="80"/>
<wire x1="5.925" y1="10.15" x2="8.875" y2="10.15" width="0.1" layer="80"/>
<wire x1="5.925" y1="9.05" x2="5.925" y2="10.15" width="0.1" layer="80"/>
<wire x1="9.55" y1="6.625" x2="10.65" y2="6.625" width="0.1" layer="80"/>
<wire x1="10.65" y1="6.625" x2="10.65" y2="9.575" width="0.1" layer="80"/>
<wire x1="9.55" y1="9.575" x2="10.65" y2="9.575" width="0.1" layer="80"/>
<wire x1="9.55" y1="6.625" x2="9.55" y2="9.575" width="0.1" layer="80"/>
<wire x1="4.5125" y1="4.6625" x2="7.6875" y2="4.6625" width="0.1" layer="80"/>
<wire x1="7.6875" y1="4.6625" x2="7.6875" y2="8.3375" width="0.1" layer="80"/>
<wire x1="4.5125" y1="8.3375" x2="7.6875" y2="8.3375" width="0.1" layer="80"/>
<wire x1="4.5125" y1="4.6625" x2="4.5125" y2="8.3375" width="0.1" layer="80"/>
<wire x1="8.2" y1="5.6" x2="9" y2="5.6" width="0.1" layer="80"/>
<wire x1="9" y1="5.6" x2="9" y2="8" width="0.1" layer="80"/>
<wire x1="8.2" y1="8" x2="9" y2="8" width="0.1" layer="80"/>
<wire x1="8.2" y1="5.6" x2="8.2" y2="8" width="0.1" layer="80"/>
</plain>
<libraries>
<library name="mlcc">
<packages>
<package name="C_0603">
<description>&lt;B&gt; 0603&lt;/B&gt; (1608 Metric) MLCC Capacitor &lt;P&gt;</description>
<wire x1="-0.8" y1="0.4" x2="0.8" y2="0.4" width="0.0762" layer="51"/>
<wire x1="0.8" y1="0.4" x2="0.8" y2="-0.4" width="0.0762" layer="51"/>
<wire x1="0.8" y1="-0.4" x2="-0.8" y2="-0.4" width="0.0762" layer="51"/>
<wire x1="-0.8" y1="-0.4" x2="-0.8" y2="0.4" width="0.0762" layer="51"/>
<wire x1="-0.1016" y1="-0.5334" x2="0.1016" y2="-0.5334" width="0.1524" layer="21"/>
<wire x1="-0.1016" y1="0.5334" x2="0.1016" y2="0.5334" width="0.1524" layer="21"/>
<smd name="1" x="-0.9" y="0" dx="1.15" dy="1.1" layer="1"/>
<smd name="2" x="0.9" y="0" dx="1.15" dy="1.1" layer="1"/>
<text x="-1.6" y="0.8" size="1.016" layer="25" font="vector" ratio="15">&gt;NAME</text>
</package>
</packages>
</library>
<library name="TimsLibrary">
<packages>
<package name="LGA14L_DOT_INDICATOR">
<circle x="-1.95" y="1.7" radius="0.1" width="0.125" layer="21"/>
<wire x1="-1.5" y1="-1.25" x2="1.5" y2="-1.25" width="0" layer="51"/>
<wire x1="1.5" y1="-1.25" x2="1.5" y2="1.25" width="0" layer="51"/>
<wire x1="1.5" y1="1.25" x2="-1.5" y2="1.25" width="0" layer="51"/>
<wire x1="-1.5" y1="1.25" x2="-1.5" y2="-1.25" width="0" layer="51"/>
<wire x1="-1.625" y1="1.375" x2="1.625" y2="1.375" width="0.25" layer="21"/>
<wire x1="1.625" y1="1.375" x2="1.625" y2="-1.375" width="0.25" layer="21"/>
<wire x1="1.625" y1="-1.375" x2="-1.625" y2="-1.375" width="0.25" layer="21"/>
<wire x1="-1.625" y1="-1.375" x2="-1.625" y2="1.375" width="0.25" layer="21"/>
<wire x1="-0.25" y1="1.15" x2="-0.25" y2="0.42" width="0.01" layer="41"/>
<wire x1="0.25" y1="1.15" x2="0.25" y2="0.42" width="0.01" layer="41"/>
<wire x1="-0.25" y1="-0.42" x2="-0.25" y2="-1.15" width="0.01" layer="41"/>
<wire x1="0.25" y1="-0.42" x2="0.25" y2="-1.15" width="0.01" layer="41"/>
<wire x1="-1.4" y1="0.5" x2="-0.67" y2="0.5" width="0.01" layer="41"/>
<wire x1="-1.4" y1="0" x2="-0.67" y2="0" width="0.01" layer="41"/>
<wire x1="-1.4" y1="-0.5" x2="-0.67" y2="-0.5" width="0.01" layer="41"/>
<wire x1="0.67" y1="0.5" x2="1.4" y2="0.5" width="0.01" layer="41"/>
<wire x1="0.67" y1="0" x2="1.4" y2="0" width="0.01" layer="41"/>
<wire x1="0.67" y1="-0.5" x2="1.4" y2="-0.5" width="0.01" layer="41"/>
<wire x1="-1.925" y1="1.7" x2="-1.975" y2="1.7" width="0.25" layer="21"/>
<rectangle x1="-0.83" y1="-0.58" x2="0.83" y2="0.58" layer="41"/>
<rectangle x1="-1.5" y1="0.98" x2="-0.74" y2="1.25" layer="41"/>
<rectangle x1="0.74" y1="0.98" x2="1.5" y2="1.25" layer="41"/>
<rectangle x1="0.74" y1="-1.25" x2="1.5" y2="-0.98" layer="41"/>
<rectangle x1="-1.5" y1="-1.25" x2="-0.74" y2="-0.98" layer="41"/>
<rectangle x1="-0.83" y1="0.58" x2="-0.74" y2="0.98" layer="41"/>
<rectangle x1="0.74" y1="0.58" x2="0.83" y2="0.98" layer="41"/>
<rectangle x1="0.74" y1="-0.98" x2="0.83" y2="-0.58" layer="41"/>
<rectangle x1="-0.83" y1="-0.98" x2="-0.74" y2="-0.58" layer="41"/>
<smd name="1" x="-1.175" y="0.75" dx="0.45" dy="0.25" layer="1" rot="R180"/>
<smd name="2" x="-1.175" y="0.25" dx="0.45" dy="0.25" layer="1" rot="R180"/>
<smd name="3" x="-1.175" y="-0.25" dx="0.45" dy="0.25" layer="1" rot="R180"/>
<smd name="4" x="-1.175" y="-0.75" dx="0.45" dy="0.25" layer="1" rot="R180"/>
<smd name="5" x="-0.5" y="-0.925" dx="0.45" dy="0.25" layer="1" rot="R90"/>
<smd name="6" x="0" y="-0.925" dx="0.45" dy="0.25" layer="1" rot="R90"/>
<smd name="7" x="0.5" y="-0.925" dx="0.45" dy="0.25" layer="1" rot="R90"/>
<smd name="8" x="1.175" y="-0.75" dx="0.45" dy="0.25" layer="1" rot="R180"/>
<smd name="9" x="1.175" y="-0.25" dx="0.45" dy="0.25" layer="1" rot="R180"/>
<smd name="10" x="1.175" y="0.25" dx="0.45" dy="0.25" layer="1" rot="R180"/>
<smd name="11" x="1.175" y="0.75" dx="0.45" dy="0.25" layer="1" rot="R180"/>
<smd name="12" x="0.5" y="0.925" dx="0.45" dy="0.25" layer="1" rot="R90"/>
<smd name="13" x="0" y="0.925" dx="0.45" dy="0.25" layer="1" rot="R90"/>
<smd name="14" x="-0.5" y="0.925" dx="0.45" dy="0.25" layer="1" rot="R90"/>
<text x="-2.5" y="1.8" size="1" layer="27" font="vector" ratio="15">&gt;Value</text>
<text x="-2.5" y="-2.8" size="1" layer="27" font="vector" ratio="15">&gt;Name</text>
</package>
</packages>
</library>
<library name="resistor">
<packages>
<package name="R_0603">
<description>&lt;B&gt;
0603
&lt;/B&gt; SMT inch-code chip resistor package&lt;P&gt;
Derived from dimensions and tolerances
in the &lt;B&gt; &lt;A HREF="http://www.samsungsem.com/global/support/library/product-catalog/__icsFiles/afieldfile/2015/01/12/CHIP_RESISTOR_150112_1.pdf"&gt;Samsung Thick Film Chip Resistor Catalog&lt;/A&gt;&lt;/B&gt;
dated December 2014,
for 
general-purpose chip resistor
reflow soldering.</description>
<wire x1="-0.1" y1="0.3" x2="0.1" y2="0.3" width="0.1524" layer="21"/>
<wire x1="-0.1" y1="-0.3" x2="0.1" y2="-0.3" width="0.1524" layer="21"/>
<smd name="P$1" x="-0.8" y="0" dx="0.8" dy="0.8" layer="1"/>
<smd name="P$2" x="0.8" y="0" dx="0.8" dy="0.8" layer="1"/>
<text x="-1.3" y="0.8" size="1.016" layer="25" font="vector" ratio="15">&gt;NAME</text>
<wire x1="-0.8" y1="0.4" x2="0.8" y2="0.4" width="0.0762" layer="51"/>
<wire x1="0.8" y1="0.4" x2="0.8" y2="-0.4" width="0.0762" layer="51"/>
<wire x1="0.8" y1="-0.4" x2="-0.8" y2="-0.4" width="0.0762" layer="51"/>
<wire x1="-0.8" y1="-0.4" x2="-0.8" y2="0.4" width="0.0762" layer="51"/>
</package>
</packages>
</library>
</libraries>
<attributes>
</attributes>
<variantdefs>
</variantdefs>
<classes>
<class number="0" name="default" width="0" drill="0">
</class>
</classes>
<designrules name="MacroFab_2_Layer">
<description language="en">
&lt;b&gt;MacroFab 2-layer EAGLE Design Rules&lt;/b&gt;
&lt;p&gt;
6 mil traces and spaces.&lt;br&gt;
12 mil minimum drill; no micro-drill.&lt;br&gt;
6 mil annular rings.&lt;br&gt;
tented vias.&lt;br&gt;
10 mil clearance between pads and signal polygons.&lt;br&gt;
</description>
<param name="layerSetup" value="(1*16)"/>
<param name="mtCopper" value="0.035mm 0.0175mm 0.035mm 0.035mm 0.035mm 0.035mm 0.035mm 0.035mm 0.035mm 0.035mm 0.035mm 0.035mm 0.035mm 0.035mm 0.0175mm 0.035mm"/>
<param name="mtIsolate" value="0.2mm 1.1mm 0.2mm 0.15mm 0.2mm 0.15mm 0.2mm 0.15mm 0.2mm 0.15mm 0.2mm 0.15mm 0.2mm 0.15mm 0.2mm"/>
<param name="mdWireWire" value="6mil"/>
<param name="mdWirePad" value="6mil"/>
<param name="mdWireVia" value="6mil"/>
<param name="mdPadPad" value="6mil"/>
<param name="mdPadVia" value="6mil"/>
<param name="mdViaVia" value="6mil"/>
<param name="mdSmdPad" value="0mil"/>
<param name="mdSmdVia" value="0mil"/>
<param name="mdSmdSmd" value="0mil"/>
<param name="mdViaViaSameLayer" value="8mil"/>
<param name="mnLayersViaInSmd" value="2"/>
<param name="mdCopperDimension" value="10mil"/>
<param name="mdDrill" value="10mil"/>
<param name="mdSmdStop" value="0mil"/>
<param name="msWidth" value="6mil"/>
<param name="msDrill" value="12mil"/>
<param name="msMicroVia" value="12mil"/>
<param name="msBlindViaRatio" value="0.5"/>
<param name="rvPadTop" value="0.25"/>
<param name="rvPadInner" value="0.25"/>
<param name="rvPadBottom" value="0.25"/>
<param name="rvViaOuter" value="0.25"/>
<param name="rvViaInner" value="0.25"/>
<param name="rvMicroViaOuter" value="0.25"/>
<param name="rvMicroViaInner" value="0.25"/>
<param name="rlMinPadTop" value="6mil"/>
<param name="rlMaxPadTop" value="20mil"/>
<param name="rlMinPadInner" value="6mil"/>
<param name="rlMaxPadInner" value="20mil"/>
<param name="rlMinPadBottom" value="6mil"/>
<param name="rlMaxPadBottom" value="20mil"/>
<param name="rlMinViaOuter" value="6mil"/>
<param name="rlMaxViaOuter" value="20mil"/>
<param name="rlMinViaInner" value="6mil"/>
<param name="rlMaxViaInner" value="20mil"/>
<param name="rlMinMicroViaOuter" value="4mil"/>
<param name="rlMaxMicroViaOuter" value="20mil"/>
<param name="rlMinMicroViaInner" value="4mil"/>
<param name="rlMaxMicroViaInner" value="20mil"/>
<param name="psTop" value="-1"/>
<param name="psBottom" value="-1"/>
<param name="psFirst" value="0"/>
<param name="psElongationLong" value="100"/>
<param name="psElongationOffset" value="100"/>
<param name="mvStopFrame" value="1"/>
<param name="mvCreamFrame" value="0"/>
<param name="mlMinStopFrame" value="2mil"/>
<param name="mlMaxStopFrame" value="2mil"/>
<param name="mlMinCreamFrame" value="0mil"/>
<param name="mlMaxCreamFrame" value="0mil"/>
<param name="mlViaStopLimit" value="25mil"/>
<param name="srRoundness" value="0"/>
<param name="srMinRoundness" value="0mil"/>
<param name="srMaxRoundness" value="0mil"/>
<param name="slThermalIsolate" value="10mil"/>
<param name="slThermalsForVias" value="0"/>
<param name="dpMaxLengthDifference" value="10mm"/>
<param name="dpGapFactor" value="2.5"/>
<param name="checkGrid" value="0"/>
<param name="checkAngle" value="0"/>
<param name="checkFont" value="1"/>
<param name="checkRestrict" value="0"/>
<param name="useDiameter" value="13"/>
<param name="maxErrors" value="50"/>
</designrules>
<autorouter>
<pass name="Default">
<param name="RoutingGrid" value="0.05mm"/>
<param name="AutoGrid" value="1"/>
<param name="Efforts" value="0"/>
<param name="TopRouterVariant" value="1"/>
<param name="tpViaShape" value="round"/>
<param name="PrefDir.1" value="-"/>
<param name="PrefDir.2" value="0"/>
<param name="PrefDir.3" value="0"/>
<param name="PrefDir.4" value="0"/>
<param name="PrefDir.5" value="0"/>
<param name="PrefDir.6" value="0"/>
<param name="PrefDir.7" value="0"/>
<param name="PrefDir.8" value="0"/>
<param name="PrefDir.9" value="0"/>
<param name="PrefDir.10" value="0"/>
<param name="PrefDir.11" value="0"/>
<param name="PrefDir.12" value="0"/>
<param name="PrefDir.13" value="0"/>
<param name="PrefDir.14" value="0"/>
<param name="PrefDir.15" value="0"/>
<param name="PrefDir.16" value="|"/>
<param name="cfVia" value="12"/>
<param name="cfNonPref" value="5"/>
<param name="cfChangeDir" value="2"/>
<param name="cfOrthStep" value="2"/>
<param name="cfDiagStep" value="3"/>
<param name="cfExtdStep" value="0"/>
<param name="cfBonusStep" value="1"/>
<param name="cfMalusStep" value="1"/>
<param name="cfPadImpact" value="4"/>
<param name="cfSmdImpact" value="4"/>
<param name="cfBusImpact" value="0"/>
<param name="cfHugging" value="3"/>
<param name="cfAvoid" value="4"/>
<param name="cfPolygon" value="10"/>
<param name="cfBase.1" value="0"/>
<param name="cfBase.2" value="1"/>
<param name="cfBase.3" value="1"/>
<param name="cfBase.4" value="1"/>
<param name="cfBase.5" value="1"/>
<param name="cfBase.6" value="1"/>
<param name="cfBase.7" value="1"/>
<param name="cfBase.8" value="1"/>
<param name="cfBase.9" value="1"/>
<param name="cfBase.10" value="1"/>
<param name="cfBase.11" value="1"/>
<param name="cfBase.12" value="1"/>
<param name="cfBase.13" value="1"/>
<param name="cfBase.14" value="1"/>
<param name="cfBase.15" value="1"/>
<param name="cfBase.16" value="0"/>
<param name="mnVias" value="20"/>
<param name="mnSegments" value="9999"/>
<param name="mnExtdSteps" value="9999"/>
<param name="mnRipupLevel" value="10"/>
<param name="mnRipupSteps" value="100"/>
<param name="mnRipupTotal" value="100"/>
</pass>
<pass name="Follow-me" refer="Default" active="yes">
</pass>
<pass name="Busses" refer="Default" active="yes">
<param name="cfNonPref" value="4"/>
<param name="cfBusImpact" value="4"/>
<param name="cfHugging" value="0"/>
<param name="mnVias" value="0"/>
</pass>
<pass name="Route" refer="Default" active="yes">
</pass>
<pass name="Optimize1" refer="Default" active="yes">
<param name="cfVia" value="99"/>
<param name="cfExtdStep" value="10"/>
<param name="cfHugging" value="1"/>
<param name="mnExtdSteps" value="1"/>
<param name="mnRipupLevel" value="0"/>
</pass>
<pass name="Optimize2" refer="Optimize1" active="yes">
<param name="cfNonPref" value="0"/>
<param name="cfChangeDir" value="6"/>
<param name="cfExtdStep" value="0"/>
<param name="cfBonusStep" value="2"/>
<param name="cfMalusStep" value="2"/>
<param name="cfPadImpact" value="2"/>
<param name="cfSmdImpact" value="2"/>
<param name="cfHugging" value="0"/>
</pass>
<pass name="Optimize3" refer="Optimize2" active="yes">
<param name="cfChangeDir" value="8"/>
<param name="cfPadImpact" value="0"/>
<param name="cfSmdImpact" value="0"/>
</pass>
<pass name="Optimize4" refer="Optimize3" active="yes">
<param name="cfChangeDir" value="25"/>
</pass>
</autorouter>
<elements>
<element name="C3" library="mlcc" package="C_0603" value="CLLC1AX7S0G104M050AC" x="3.3" y="5.1"/>
<element name="C4" library="mlcc" package="C_0603" value="CLLC1AX7S0G104M050AC" x="6" y="3.6" rot="R90"/>
<element name="LSM6DS3" library="TimsLibrary" package="LGA14L_DOT_INDICATOR" value="LSM6DS3" x="2.2" y="2.3" rot="R90"/>
<element name="R4" library="resistor" package="R_0603" value="CR0603-FX-1002ELF" x="4.5" y="2.3" rot="R270"/>
</elements>
<signals>
<signal name="N$0">
<contactref element="C3" pad="2"/>
<contactref element="LSM6DS3" pad="6"/>
<contactref element="LSM6DS3" pad="7"/>
<contactref element="C4" pad="2"/>
<contactref element="LSM6DS3" pad="2"/>
<contactref element="LSM6DS3" pad="3"/>
<wire x1="3.5576" y1="2.5908" x2="3.2528" y2="2.286" width="0.1524" layer="1"/>
<wire x1="3.2528" y1="2.8956" x2="3.4052" y2="2.7432" width="0.1524" layer="1"/>
<wire x1="3.4052" y1="2.7432" x2="3.5576" y2="2.5908" width="0.1524" layer="1"/>
<wire x1="3.2528" y1="2.286" x2="3.125" y2="2.3" width="0.1524" layer="1"/>
<wire x1="3.2528" y1="2.8956" x2="3.125" y2="2.8" width="0.1524" layer="1"/>
<wire x1="2.0336" y1="0.9144" x2="2.0336" y2="1.0668" width="0.1524" layer="1"/>
<wire x1="2.186" y1="0.762" x2="2.0336" y2="0.9144" width="0.1524" layer="1"/>
<wire x1="2.4908" y1="1.0668" x2="2.3384" y2="0.9144" width="0.1524" layer="1"/>
<wire x1="2.3384" y1="0.9144" x2="2.186" y2="0.762" width="0.1524" layer="1"/>
<wire x1="2.0336" y1="1.0668" x2="1.95" y2="1.125" width="0.1524" layer="1"/>
<wire x1="2.4908" y1="1.0668" x2="2.45" y2="1.125" width="0.1524" layer="1"/>
<wire x1="2.6432" y1="0.6096" x2="2.3384" y2="0.9144" width="0.1524" layer="1"/>
<wire x1="3.71" y1="0.6096" x2="2.6432" y2="0.6096" width="0.1524" layer="1"/>
<wire x1="3.71" y1="3.81" x2="3.71" y2="0.6096" width="0.1524" layer="16"/>
<wire x1="3.4052" y1="4.1148" x2="3.71" y2="3.81" width="0.1524" layer="16"/>
<wire x1="4.3196" y1="5.0292" x2="3.5576" y2="4.2672" width="0.1524" layer="1"/>
<wire x1="2.3384" y1="0.9144" x2="2.45" y2="1.125" width="0.1524" layer="1"/>
<wire x1="3.5576" y1="2.8956" x2="3.4052" y2="2.7432" width="0.1524" layer="1"/>
<wire x1="3.5576" y1="4.2672" x2="3.5576" y2="2.8956" width="0.1524" layer="1"/>
<wire x1="3.5576" y1="4.2672" x2="3.4052" y2="4.1148" width="0.1524" layer="1"/>
<wire x1="4.7768" y1="4.572" x2="5.996" y2="4.572" width="0.1524" layer="1"/>
<wire x1="4.3196" y1="5.0292" x2="4.7768" y2="4.572" width="0.1524" layer="1"/>
<wire x1="5.996" y1="4.572" x2="6" y2="4.5" width="0.1524" layer="1"/>
<wire x1="4.3196" y1="5.0292" x2="4.2" y2="5.1" width="0.1524" layer="1"/>
<via x="3.71" y="0.6096" extent="1-16" drill="0.3048"/>
<via x="3.4052" y="4.1148" extent="1-16" drill="0.3048"/>
</signal>
<signal name="N$1">
<contactref element="C3" pad="1"/>
<contactref element="R4" pad="P$1"/>
<contactref element="LSM6DS3" pad="1"/>
<contactref element="LSM6DS3" pad="5"/>
<contactref element="C4" pad="1"/>
<contactref element="LSM6DS3" pad="8"/>
<wire x1="3.4052" y1="1.8288" x2="3.2528" y2="1.8288" width="0.1524" layer="1"/>
<wire x1="4.6244" y1="3.048" x2="3.4052" y2="1.8288" width="0.1524" layer="1"/>
<wire x1="3.2528" y1="1.8288" x2="3.125" y2="1.8" width="0.1524" layer="1"/>
<wire x1="4.9292" y1="2.7432" x2="5.996" y2="2.7432" width="0.1524" layer="1"/>
<wire x1="4.6244" y1="3.048" x2="4.9292" y2="2.7432" width="0.1524" layer="1"/>
<wire x1="5.996" y1="2.7432" x2="6" y2="2.7" width="0.1524" layer="1"/>
<wire x1="4.6244" y1="3.048" x2="4.5" y2="3.1" width="0.1524" layer="1"/>
<wire x1="1.424" y1="0.762" x2="1.424" y2="1.0668" width="0.1524" layer="1"/>
<wire x1="1.2716" y1="0.6096" x2="1.424" y2="0.762" width="0.1524" layer="1"/>
<wire x1="0.9668" y1="0.6096" x2="1.2716" y2="0.6096" width="0.1524" layer="1"/>
<wire x1="0.3572" y1="1.2192" x2="0.9668" y2="0.6096" width="0.1524" layer="1"/>
<wire x1="0.3572" y1="4.4196" x2="0.3572" y2="1.2192" width="0.1524" layer="1"/>
<wire x1="0.9668" y1="5.0292" x2="0.3572" y2="4.4196" width="0.1524" layer="1"/>
<wire x1="2.3384" y1="5.0292" x2="1.2716" y2="5.0292" width="0.1524" layer="1"/>
<wire x1="1.2716" y1="5.0292" x2="0.9668" y2="5.0292" width="0.1524" layer="1"/>
<wire x1="1.424" y1="1.0668" x2="1.45" y2="1.125" width="0.1524" layer="1"/>
<wire x1="2.3384" y1="5.0292" x2="2.4" y2="5.1" width="0.1524" layer="1"/>
<wire x1="2.948" y1="3.81" x2="2.948" y2="3.5052" width="0.1524" layer="1"/>
<wire x1="2.4908" y1="4.2672" x2="2.948" y2="3.81" width="0.1524" layer="1"/>
<wire x1="2.4908" y1="5.0292" x2="2.4908" y2="4.2672" width="0.1524" layer="1"/>
<wire x1="2.948" y1="3.5052" x2="2.95" y2="3.475" width="0.1524" layer="1"/>
<wire x1="2.4908" y1="5.0292" x2="2.4" y2="5.1" width="0.1524" layer="1"/>
<wire x1="4.472" y1="3.9624" x2="4.472" y2="3.2004" width="0.1524" layer="1"/>
<wire x1="3.4052" y1="5.0292" x2="4.472" y2="3.9624" width="0.1524" layer="16"/>
<wire x1="1.2716" y1="5.0292" x2="3.4052" y2="5.0292" width="0.1524" layer="16"/>
<wire x1="4.472" y1="3.2004" x2="4.5" y2="3.1" width="0.1524" layer="1"/>
<via x="4.472" y="3.9624" extent="1-16" drill="0.3048"/>
<via x="1.2716" y="5.0292" extent="1-16" drill="0.3048"/>
</signal>
<signal name="N$2">
<contactref element="LSM6DS3" pad="12"/>
<contactref element="R4" pad="P$2"/>
<wire x1="0.9668" y1="2.8956" x2="1.2716" y2="2.8956" width="0.1524" layer="1"/>
<wire x1="0.8144" y1="3.048" x2="0.9668" y2="2.8956" width="0.1524" layer="1"/>
<wire x1="0.8144" y1="4.1148" x2="0.8144" y2="3.048" width="0.1524" layer="1"/>
<wire x1="0.9668" y1="4.2672" x2="0.8144" y2="4.1148" width="0.1524" layer="1"/>
<wire x1="0.9668" y1="4.572" x2="0.9668" y2="4.2672" width="0.1524" layer="16"/>
<wire x1="0.662" y1="4.8768" x2="0.9668" y2="4.572" width="0.1524" layer="16"/>
<wire x1="0.662" y1="5.1816" x2="0.662" y2="4.8768" width="0.1524" layer="16"/>
<wire x1="1.1192" y1="5.6388" x2="0.662" y2="5.1816" width="0.1524" layer="16"/>
<wire x1="3.5576" y1="5.6388" x2="1.1192" y2="5.6388" width="0.1524" layer="16"/>
<wire x1="5.3864" y1="3.81" x2="3.5576" y2="5.6388" width="0.1524" layer="16"/>
<wire x1="5.3864" y1="1.524" x2="5.3864" y2="3.81" width="0.1524" layer="16"/>
<wire x1="4.6244" y1="1.524" x2="5.3864" y2="1.524" width="0.1524" layer="1"/>
<wire x1="1.2716" y1="2.8956" x2="1.275" y2="2.8" width="0.1524" layer="1"/>
<wire x1="4.6244" y1="1.524" x2="4.5" y2="1.5" width="0.1524" layer="1"/>
<via x="0.9668" y="4.2672" extent="1-16" drill="0.3048"/>
<via x="5.3864" y="1.524" extent="1-16" drill="0.3048"/>
</signal>
</signals>
</board>
</drawing>
</eagle>
