<?xml version="1.0" encoding="UTF-8" standalone="no"?>
<svg
   xmlns:dc="http://purl.org/dc/elements/1.1/"
   xmlns:cc="http://creativecommons.org/ns#"
   xmlns:rdf="http://www.w3.org/1999/02/22-rdf-syntax-ns#"
   xmlns:svg="http://www.w3.org/2000/svg"
   xmlns="http://www.w3.org/2000/svg"
   xmlns:sodipodi="http://sodipodi.sourceforge.net/DTD/sodipodi-0.dtd"
   xmlns:inkscape="http://www.inkscape.org/namespaces/inkscape"
   version="1.1"
   x="0px"
   y="0px"
   viewBox="0 0 80 90"
   id="svg2"
   inkscape:version="0.91 r13725"
   sodipodi:docname="Rotational Speed.svg"
   width="80"
   height="90">
  <metadata
     id="metadata12">
    <rdf:RDF>
      <cc:Work
         rdf:about="">
        <dc:format>image/svg+xml</dc:format>
        <dc:type
           rdf:resource="http://purl.org/dc/dcmitype/StillImage" />
        <dc:title></dc:title>
      </cc:Work>
    </rdf:RDF>
  </metadata>
  <defs
     id="defs10" />
  <sodipodi:namedview
     pagecolor="#ffffff"
     bordercolor="#666666"
     borderopacity="1"
     objecttolerance="10"
     gridtolerance="10"
     guidetolerance="10"
     inkscape:pageopacity="0"
     inkscape:pageshadow="2"
     inkscape:window-width="686"
     inkscape:window-height="480"
     id="namedview8"
     showgrid="false"
     inkscape:zoom="4.72"
     inkscape:cx="43.781175"
     inkscape:cy="27.777359"
     inkscape:window-x="1057"
     inkscape:window-y="203"
     inkscape:window-maximized="0"
     inkscape:current-layer="svg2" />
  <g
     transform="translate(-9.7457627,-967.0232)"
     id="g4">
    <path
       style="text-indent:0;text-transform:none;direction:ltr;block-progression:tb;baseline-shift:baseline;display:inline;overflow:visible;visibility:visible;fill:#002285;fill-opacity:1;stroke:none;marker:none;enable-background:accumulate"
       d="m 48.934572,985.87114 c -0.383,0 -0.718,0.30495 -0.718,0.6875 0,0.38254 0.335,0.6875 0.718,0.6875 0.383,0 0.688,-0.30496 0.688,-0.6875 0,-0.38255 -0.305,-0.6875 -0.688,-0.6875 z m -5.094,0.65625 c -0.382,0 -0.718,0.3362 -0.718,0.71875 0,0.38254 0.336,0.6875 0.718,0.6875 0.383,0 0.688,-0.30496 0.688,-0.6875 0,-0.38255 -0.305,-0.71875 -0.688,-0.71875 z m 10.219,0 c -0.383,0 -0.719,0.3362 -0.719,0.71875 0,0.38254 0.336,0.6875 0.719,0.6875 0.383,0 0.688,-0.30496 0.688,-0.6875 0,-0.38255 -0.305,-0.71875 -0.688,-0.71875 z m -15,2 c -0.383,0 -0.719,0.30495 -0.719,0.6875 0,0.38254 0.336,0.6875 0.719,0.6875 0.383,0 0.688,-0.30496 0.688,-0.6875 0,-0.38255 -0.305,-0.6875 -0.688,-0.6875 z m 19.781,0 c -0.382,0 -0.718,0.30495 -0.718,0.6875 0,0.38254 0.336,0.6875 0.718,0.6875 0.383,0 0.688,-0.30496 0.688,-0.6875 0,-0.38255 -0.305,-0.6875 -0.688,-0.6875 z m -9.781,0.375 c -9.59,0 -17.406,7.81637 -17.406,17.40631 0,4.8666 2.018,9.2783 5.25,12.4375 l 0.344,0.3437 0.375,-0.375 1.531,-1.5312 0.375,-0.375 -0.375,-0.3438 c -2.646,-2.5762 -4.281,-6.1605 -4.281,-10.1562 0,-7.85554 6.333,-14.18756 14.187,-14.18756 7.856,0 14.188,6.33202 14.188,14.18756 0,4.1123 -1.749,7.7858 -4.531,10.375 l -0.376,0.3437 0.376,0.375 1.562,1.5625 0.344,0.3438 0.344,-0.3438 c 3.378,-3.174 5.5,-7.6659 5.5,-12.6562 0,-9.58994 -7.816,-17.40631 -17.407,-17.40631 z m 0,1 c 9.049,0 16.407,7.35827 16.407,16.40631 0,4.5333 -1.895,8.5923 -4.876,11.5625 l -0.843,-0.8438 c 2.755,-2.748 4.5,-6.5143 4.5,-10.7187 0,-8.39414 -6.793,-15.18756 -15.188,-15.18756 -3.534,0 -6.764,1.22872 -9.343,3.25002 l -0.782,-0.9375 c 2.792,-2.19938 6.303,-3.53127 10.125,-3.53127 z m -14.093,1.75 c -0.383,0 -0.719,0.3362 -0.719,0.71877 0,0.3825 0.335,0.6875 0.719,0.6875 0.382,0 0.687,-0.305 0.687,-0.6875 0,-0.38257 -0.305,-0.71877 -0.687,-0.71877 z m 27.968,0 c -0.383,0 -0.718,0.30495 -0.718,0.68747 0,0.3826 0.335,0.6875 0.718,0.6875 0.383,0 0.688,-0.3049 0.688,-0.6875 0,-0.38252 -0.305,-0.68747 -0.688,-0.68747 z m -31.125,4.09377 c -0.383,0 -0.687,0.3362 -0.687,0.7187 0,0.3826 0.304,0.6875 0.687,0.6875 0.383,0 0.688,-0.3049 0.688,-0.6875 0,-0.3825 -0.305,-0.7187 -0.688,-0.7187 z m 34.25,0 c -0.383,0 -0.719,0.3049 -0.719,0.6875 0,0.3825 0.336,0.6875 0.719,0.6875 0.383,0 0.688,-0.305 0.688,-0.6875 0,-0.3826 -0.305,-0.6875 -0.688,-0.6875 z m -25,0.7812 3.438,5.34384 2.843,4.4375 c 0,0.381 0.116,0.775 0.376,1.0937 0.592,0.7285 1.677,0.8424 2.406,0.25 0.728,-0.5923 0.842,-1.6778 0.25,-2.4062 -0.258,-0.3175 -0.628,-0.4868 -1,-0.5625 l -3.782,-3.7188 -4.531,-4.43754 z m -11.219,4.00004 c -0.382,0 -0.718,0.305 -0.718,0.6875 0,0.3826 0.336,0.6875 0.718,0.6875 0.383,0 0.688,-0.3049 0.688,-0.6875 0,-0.3825 -0.305,-0.6875 -0.688,-0.6875 z m 38.219,0 c -0.383,0 -0.719,0.305 -0.719,0.6875 0,0.3826 0.336,0.6875 0.719,0.6875 0.383,0 0.688,-0.3049 0.688,-0.6875 0,-0.3825 -0.305,-0.6875 -0.688,-0.6875 z m -38.906,5.0938 c -0.383,0 -0.686,0.3362 -0.687,0.7187 0,0.3826 0.304,0.6875 0.687,0.6875 0.383,0 0.689,-0.3049 0.687,-0.6875 0,-0.3825 -0.304,-0.7187 -0.687,-0.7187 z m 39.563,0 c -0.192,0 -0.376,0.087 -0.5,0.2187 -0.133,0.1247 -0.219,0.3087 -0.219,0.5 0,0.084 0.03,0.1442 0.06,0.2188 0.06,0.191 0.192,0.329 0.375,0.4062 0.09,0.035 0.186,0.062 0.282,0.062 0.164,0 0.287,-0.061 0.406,-0.1562 0.02,-0.013 0.05,-0.016 0.06,-0.031 0,-0.01 0,-0.025 0,-0.031 0,-0.01 0.03,0.01 0.03,0 0.01,-0.017 0.02,-0.044 0.03,-0.062 0.04,-0.05 0.07,-0.096 0.09,-0.1563 0.03,-0.075 0.06,-0.1645 0.06,-0.25 0,-0.096 -0.03,-0.1958 -0.06,-0.2812 -0.04,-0.09 -0.08,-0.1531 -0.156,-0.2188 -0.06,-0.06 -0.114,-0.1194 -0.187,-0.1562 -0.02,-0.01 -0.04,0.01 -0.06,0 -0.07,-0.03 -0.134,-0.062 -0.218,-0.062 z m -38.876,5.125 c -0.382,0 -0.718,0.3362 -0.718,0.7187 0,0.3826 0.336,0.6875 0.718,0.6875 0.383,0 0.688,-0.3049 0.688,-0.6875 0,-0.3825 -0.305,-0.7187 -0.688,-0.7187 z m 38.188,0 c -0.383,0 -0.688,0.3362 -0.688,0.7187 0,0.3826 0.305,0.6875 0.688,0.6875 0.383,0 0.688,-0.3049 0.688,-0.6875 0,-0.3825 -0.305,-0.7187 -0.688,-0.7187 z m -1.969,4.75 c -0.383,0 -0.687,0.3362 -0.687,0.7187 0,0.3826 0.304,0.6875 0.687,0.6875 0.383,0 0.688,-0.3049 0.688,-0.6875 0,-0.3825 -0.305,-0.7187 -0.688,-0.7187 z m -34.25,0.031 c -0.383,0 -0.687,0.3049 -0.687,0.6875 0,0.3825 0.304,0.6875 0.687,0.6875 0.383,0 0.688,-0.305 0.688,-0.6875 0,-0.3826 -0.305,-0.6875 -0.688,-0.6875 z m 3.157,4.0625 c -0.383,0 -0.719,0.3362 -0.719,0.7187 0,0.3826 0.336,0.6875 0.719,0.6875 0.382,0 0.687,-0.3049 0.687,-0.6875 0,-0.3825 -0.305,-0.7187 -0.687,-0.7187 z m 27.937,0 c -0.383,0 -0.687,0.3362 -0.687,0.7187 0,0.3826 0.304,0.6875 0.687,0.6875 0.383,0 0.687,-0.3049 0.687,-0.6875 0,-0.3825 -0.304,-0.7187 -0.687,-0.7187 z"
       visibility="visible"
       display="inline"
       overflow="visible"
       fill="#002285"
       id="path6"
       inkscape:connector-curvature="0" />
  </g>
  <path
     inkscape:connector-curvature="0"
     d="M 45.047747,86.910013 18.935042,72.320478 44.624185,56.997401 44.780207,68.016519 c 13.787417,-2.315251 24.245808,-14.398281 24.040421,-28.799098 -0.0013,-0.06199 -0.0025,-0.123974 -0.0038,-0.185961 -0.324224,-15.805675 -13.39532,-28.451262 -29.225041,-28.226566 -7.698386,0.108908 -14.893316,3.20912 -20.260232,8.72935 -5.366894,5.52123 -8.261202,12.80112 -8.152315,20.498506 0.03118,5.810582 1.904336,11.455353 5.267585,16.211377 l -5.83166,4.123468 C 6.4154633,54.428477 4.1491233,47.462492 4.0378263,40.135233 3.9017853,30.529003 7.5142423,21.445005 14.210371,14.556226 20.906499,7.6674474 29.885038,3.7984944 39.490269,3.6624744 59.243698,3.3832964 75.555733,19.162074 75.958311,38.884965 c 0.0016,0.07698 0.0032,0.154968 0.0047,0.230952 0.26132,18.346499 -13.339337,33.715665 -31.079451,36.135003 l 0.164149,11.659093 z"
     id="path4"
     fill="#002285"
     inkscape:transform-center-x="-0.67723769"
     inkscape:transform-center-y="5.9551942" />
</svg>
