<?xml version="1.0" encoding="utf-8"?>
<!DOCTYPE eagle SYSTEM "eagle.dtd">
<eagle version="6.5.0">
<drawing>
<settings>
<setting alwaysvectorfont="no"/>
<setting verticaltext="up"/>
</settings>
<grid distance="0.25" unitdist="mm" unit="mm" style="lines" multiple="1" display="yes" altdistance="0.025" altunitdist="inch" altunit="mm"/>
<layers>
<layer number="1" name="Top" color="4" fill="1" visible="yes" active="yes"/>
<layer number="16" name="Bottom" color="1" fill="1" visible="yes" active="yes"/>
<layer number="17" name="Pads" color="2" fill="1" visible="yes" active="yes"/>
<layer number="18" name="Vias" color="2" fill="1" visible="yes" active="yes"/>
<layer number="19" name="Unrouted" color="6" fill="1" visible="yes" active="yes"/>
<layer number="20" name="Dimension" color="15" fill="1" visible="yes" active="yes"/>
<layer number="21" name="tPlace" color="7" fill="1" visible="yes" active="yes"/>
<layer number="22" name="bPlace" color="7" fill="1" visible="yes" active="yes"/>
<layer number="23" name="tOrigins" color="15" fill="1" visible="yes" active="yes"/>
<layer number="24" name="bOrigins" color="15" fill="1" visible="yes" active="yes"/>
<layer number="25" name="tNames" color="7" fill="1" visible="yes" active="yes"/>
<layer number="26" name="bNames" color="7" fill="1" visible="yes" active="yes"/>
<layer number="27" name="tValues" color="7" fill="1" visible="yes" active="yes"/>
<layer number="28" name="bValues" color="7" fill="1" visible="yes" active="yes"/>
<layer number="29" name="tStop" color="7" fill="3" visible="yes" active="yes"/>
<layer number="30" name="bStop" color="7" fill="6" visible="yes" active="yes"/>
<layer number="31" name="tCream" color="7" fill="4" visible="yes" active="yes"/>
<layer number="32" name="bCream" color="7" fill="5" visible="yes" active="yes"/>
<layer number="33" name="tFinish" color="6" fill="3" visible="yes" active="yes"/>
<layer number="34" name="bFinish" color="6" fill="6" visible="yes" active="yes"/>
<layer number="35" name="tGlue" color="7" fill="4" visible="yes" active="yes"/>
<layer number="36" name="bGlue" color="7" fill="5" visible="yes" active="yes"/>
<layer number="37" name="tTest" color="7" fill="1" visible="yes" active="yes"/>
<layer number="38" name="bTest" color="7" fill="1" visible="yes" active="yes"/>
<layer number="39" name="tKeepout" color="4" fill="11" visible="yes" active="yes"/>
<layer number="40" name="bKeepout" color="1" fill="11" visible="yes" active="yes"/>
<layer number="41" name="tRestrict" color="4" fill="10" visible="yes" active="yes"/>
<layer number="42" name="bRestrict" color="1" fill="10" visible="yes" active="yes"/>
<layer number="43" name="vRestrict" color="2" fill="10" visible="yes" active="yes"/>
<layer number="44" name="Drills" color="7" fill="1" visible="yes" active="yes"/>
<layer number="45" name="Holes" color="7" fill="1" visible="yes" active="yes"/>
<layer number="46" name="Milling" color="3" fill="1" visible="yes" active="yes"/>
<layer number="47" name="Measures" color="7" fill="1" visible="yes" active="yes"/>
<layer number="48" name="Document" color="7" fill="1" visible="yes" active="yes"/>
<layer number="49" name="Reference" color="7" fill="1" visible="yes" active="yes"/>
<layer number="50" name="dxf" color="7" fill="1" visible="yes" active="yes"/>
<layer number="51" name="tDocu" color="7" fill="1" visible="yes" active="yes"/>
<layer number="52" name="bDocu" color="7" fill="1" visible="yes" active="yes"/>
<layer number="53" name="tGND_GNDA" color="7" fill="1" visible="yes" active="yes"/>
<layer number="54" name="bGND_GNDA" color="7" fill="1" visible="yes" active="yes"/>
<layer number="56" name="wert" color="7" fill="1" visible="yes" active="yes"/>
<layer number="57" name="tCAD" color="7" fill="1" visible="yes" active="yes"/>
<layer number="91" name="Nets" color="2" fill="1" visible="yes" active="yes"/>
<layer number="92" name="Busses" color="1" fill="1" visible="yes" active="yes"/>
<layer number="93" name="Pins" color="2" fill="1" visible="yes" active="yes"/>
<layer number="94" name="Symbols" color="4" fill="1" visible="yes" active="yes"/>
<layer number="95" name="Names" color="7" fill="1" visible="yes" active="yes"/>
<layer number="96" name="Values" color="7" fill="1" visible="yes" active="yes"/>
<layer number="97" name="Info" color="7" fill="1" visible="yes" active="yes"/>
<layer number="98" name="Guide" color="6" fill="1" visible="yes" active="yes"/>
<layer number="99" name="SpiceOrder" color="7" fill="1" visible="yes" active="yes"/>
</layers>
<library>
<packages>
<package name="SC70">
<smd name="P$1" x="-1.2" y="0.95" dx="0.6" dy="0.8" layer="1" rot="R90"/>
<smd name="P$2" x="-1.2" y="0" dx="0.6" dy="0.8" layer="1" rot="R90"/>
<smd name="P$3" x="-1.2" y="-0.95" dx="0.6" dy="0.8" layer="1" rot="R90"/>
<smd name="P$4" x="1.2" y="-0.95" dx="0.6" dy="0.8" layer="1" rot="R90"/>
<smd name="P$5" x="1.2" y="0.95" dx="0.6" dy="0.8" layer="1" rot="R90"/>
<wire x1="-0.7" y1="-1.5" x2="0.7" y2="-1.5" width="0.127" layer="21"/>
<wire x1="-0.7" y1="1.5" x2="0.7" y2="1.5" width="0.127" layer="21"/>
<wire x1="0.8" y1="-0.4" x2="0.8" y2="0.4" width="0.127" layer="21"/>
<circle x="-2" y="1.4" radius="0.1" width="0" layer="21"/>
<text x="-2.8" y="2" size="1.27" layer="25">&gt;NAME</text>
</package>
</packages>
<symbols>
<symbol name="V-REG-LDO">
<wire x1="-7.62" y1="-7.62" x2="5.08" y2="-7.62" width="0.4064" layer="94"/>
<wire x1="5.08" y1="-7.62" x2="5.08" y2="7.62" width="0.4064" layer="94"/>
<wire x1="5.08" y1="7.62" x2="-7.62" y2="7.62" width="0.4064" layer="94"/>
<wire x1="-7.62" y1="7.62" x2="-7.62" y2="-7.62" width="0.4064" layer="94"/>
<text x="-7.62" y="9.144" size="1.778" layer="95">&gt;NAME</text>
<text x="-7.62" y="-11.43" size="1.778" layer="96">&gt;VALUE</text>
<pin name="IN" x="-10.16" y="5.08" visible="pin" length="short" direction="pas"/>
<pin name="GND" x="-10.16" y="0" visible="pin" length="short" direction="pas"/>
<pin name="OUT" x="7.62" y="5.08" visible="pin" length="short" direction="pas" rot="R180"/>
<pin name="EN" x="-10.16" y="-5.08" visible="pin" length="short" direction="pas"/>
<pin name="BP" x="7.62" y="-5.08" visible="pin" length="short" direction="pas" rot="R180"/>
</symbol>
</symbols>
<devicesets>
<deviceset name="V_REG_LDO" prefix="U">
<gates>
<gate name="G$1" symbol="V-REG-LDO" x="2.54" y="0"/>
</gates>
<devices>
<device name="SMD2" package="SC70">
<connects>
<connect gate="G$1" pin="BP" pad="P$4"/>
<connect gate="G$1" pin="EN" pad="P$3"/>
<connect gate="G$1" pin="GND" pad="P$2"/>
<connect gate="G$1" pin="IN" pad="P$1"/>
<connect gate="G$1" pin="OUT" pad="P$5"/>
</connects>
<technologies>
<technology name=""/>
</technologies>
</device>
</devices>
</deviceset>
</devicesets>
</library>
</drawing>
</eagle>
