<eagle version="6.5.0" xmlns="eagle">
  <drawing>
    <library>
      <packages>
        <package name="TP4" xmlns="eagle">
          <smd name="P$1" x="0" y="3" dx="0.5" dy="0.5" layer="1" />
          <smd name="P$2" x="0" y="1" dx="0.5" dy="0.5" layer="1" />
          <smd name="P$3" x="0" y="-1.5" dx="0.5" dy="0.5" layer="1" />
          <smd name="P$4" x="0" y="-3.5" dx="0.5" dy="0.5" layer="1" />
        </package>
      </packages>
      <symbols>
        <symbol name="TP4">
          <pin name="P$1" x="-20.32" y="15.24" length="middle" />
          <pin name="P$2" x="-20.32" y="10.16" length="middle" />
          <pin name="P$3" x="-20.32" y="5.08" length="middle" />
          <pin name="P$4" x="-20.32" y="0" length="middle" />
          <wire x1="-17.78" y1="17.78" x2="-17.78" y2="-5.08" width="0.254" layer="94" />
          <wire x1="-17.78" y1="-5.08" x2="-5.08" y2="-5.08" width="0.254" layer="94" />
          <wire x1="-5.08" y1="-5.08" x2="-5.08" y2="17.78" width="0.254" layer="94" />
          <wire x1="-5.08" y1="17.78" x2="-17.78" y2="17.78" width="0.254" layer="94" />
        </symbol>
      </symbols>
      <devicesets>
        <deviceset name="TP4">
          <gates>
            <gate name="G$1" symbol="TP4" x="12.7" y="-5.08" />
          </gates>
          <devices>
            <device name="" package="TP4" xmlns="eagle">
              <connects>
                <connect gate="G$1" pin="P$1" pad="P$1" />
                <connect gate="G$1" pin="P$2" pad="P$2" />
                <connect gate="G$1" pin="P$3" pad="P$3" />
                <connect gate="G$1" pin="P$4" pad="P$4" />
              </connects>
              <technologies>
                <technology name="" />
              </technologies>
            </device>
          </devices>
        </deviceset>
      </devicesets>
    </library>
  </drawing>
</eagle>