<!DOCTYPE eagle SYSTEM "eagle.dtd">
<eagle version="6.6.0">
<drawing>
<settings>
<setting alwaysvectorfont="no"/>
<setting verticaltext="up"/>
</settings>
<grid distance="0.325" unitdist="mm" unit="mm" style="lines" multiple="1" display="yes" altdistance="0.025" altunitdist="inch" altunit="inch"/>
<layers>
</layers>
<library>
<packages>
<package name="DGK">
<smd name="6" x="2.4" y="-0.325" dx="1.02" dy="0.41" layer="1"/>
<smd name="7" x="2.4" y="0.325" dx="1.02" dy="0.41" layer="1"/>
<smd name="5" x="2.4" y="-0.975" dx="1.02" dy="0.41" layer="1"/>
<smd name="8" x="2.4" y="0.975" dx="1.02" dy="0.41" layer="1"/>
<smd name="1" x="-2.4" y="0.975" dx="1.02" dy="0.41" layer="1"/>
<smd name="2" x="-2.4" y="0.325" dx="1.02" dy="0.41" layer="1"/>
<smd name="3" x="-2.4" y="-0.325" dx="1.02" dy="0.41" layer="1"/>
<smd name="4" x="-2.4" y="-0.975" dx="1.02" dy="0.41" layer="1"/>
<wire x1="1.55" y1="-1.55" x2="-1.55" y2="-1.55" width="0.127" layer="21"/>
<wire x1="1.55" y1="1.55" x2="-1.55" y2="1.55" width="0.127" layer="21"/>
<circle x="-2.024" y="1.85" radius="0.1" width="0.3" layer="21"/>
<text x="-1.625" y="2.275" size="0.6096" layer="25">&gt;NAME</text>
</package>
</packages>
<symbols>
<symbol name="LM4864">
<pin name="BYPASS" x="-17.78" y="2.54" length="middle"/>
<pin name="SHUTDOWN" x="-17.78" y="7.62" length="middle"/>
<pin name="IN+" x="-17.78" y="-2.54" length="middle"/>
<pin name="IN-" x="-17.78" y="-7.62" length="middle"/>
<pin name="VO1" x="17.78" y="-7.62" length="middle" rot="R180"/>
<pin name="VDD" x="17.78" y="-2.54" length="middle" rot="R180"/>
<pin name="GND" x="17.78" y="2.54" length="middle" rot="R180"/>
<pin name="VO2" x="17.78" y="7.62" length="middle" rot="R180"/>
<wire x1="-12.7" y1="12.7" x2="-12.7" y2="-12.7" width="0.254" layer="94"/>
<wire x1="-12.7" y1="-12.7" x2="12.7" y2="-12.7" width="0.254" layer="94"/>
<wire x1="12.7" y1="-12.7" x2="12.7" y2="12.7" width="0.254" layer="94"/>
<wire x1="12.7" y1="12.7" x2="-12.7" y2="12.7" width="0.254" layer="94"/>
</symbol>
</symbols>
<devicesets>
<deviceset name="LM4864MM/NOPB">
<gates>
<gate name="G$1" symbol="LM4864" x="0" y="0"/>
</gates>
<devices>
<device name="" package="DGK">
<connects>
<connect gate="G$1" pin="BYPASS" pad="2"/>
<connect gate="G$1" pin="GND" pad="7"/>
<connect gate="G$1" pin="IN+" pad="3"/>
<connect gate="G$1" pin="IN-" pad="4"/>
<connect gate="G$1" pin="SHUTDOWN" pad="1"/>
<connect gate="G$1" pin="VDD" pad="6"/>
<connect gate="G$1" pin="VO1" pad="5"/>
<connect gate="G$1" pin="VO2" pad="8"/>
</connects>
<technologies>
<technology name=""/>
</technologies>
</device>
</devices>
</deviceset>
</devicesets>
</library>
</drawing>
</eagle>