<eagle version="6.5.0" xmlns="eagle">
  <drawing>
    <library>
      <packages>
        <package name="SOD-323" xmlns="eagle">
          <wire x1="-0.9" y1="0.65" x2="-0.5" y2="0.65" width="0.15239999999999998" layer="21" />
          <wire x1="-0.5" y1="0.65" x2="0.9" y2="0.65" width="0.15239999999999998" layer="21" />
          <wire x1="-0.9" y1="-0.65" x2="-0.5" y2="-0.65" width="0.15239999999999998" layer="21" />
          <wire x1="-0.5" y1="-0.65" x2="0.9" y2="-0.65" width="0.15239999999999998" layer="21" />
          <wire x1="-0.5" y1="0.65" x2="-0.5" y2="-0.65" width="0.15239999999999998" layer="21" />
          <smd name="C" x="-1.15" y="0" dx="0.63" dy="0.83" layer="1" />
          <smd name="A" x="1.15" y="0" dx="0.63" dy="0.83" layer="1" />
          <text x="-0.889" y="1.016" size="1.016" layer="25" ratio="15" font="vector">&gt;NAME</text>
        </package>
      </packages>
      <symbols>
        <symbol name="DIODE">
          <wire x1="-1.27" y1="-1.27" x2="1.27" y2="0" width="0.254" layer="94" xmlns="eagle" />
          <wire x1="1.27" y1="0" x2="-1.27" y2="1.27" width="0.254" layer="94" xmlns="eagle" />
          <wire x1="1.27" y1="1.27" x2="1.27" y2="0" width="0.254" layer="94" xmlns="eagle" />
          <wire x1="-1.27" y1="1.27" x2="-1.27" y2="0" width="0.254" layer="94" xmlns="eagle" />
          <wire x1="-1.27" y1="0" x2="-1.27" y2="-1.27" width="0.254" layer="94" xmlns="eagle" />
          <wire x1="1.27" y1="0" x2="1.27" y2="-1.27" width="0.254" layer="94" xmlns="eagle" />
          <text x="2.54" y="0.4826" size="1.778" layer="95" xmlns="eagle">&gt;NAME</text>
          <text x="2.54" y="-2.3114" size="1.778" layer="96" xmlns="eagle">&gt;VALUE</text>
          <pin name="A" x="-2.54" y="0" visible="off" length="point" direction="pas" xmlns="eagle" />
          <pin name="C" x="2.54" y="0" visible="off" length="point" direction="pas" rot="R180" xmlns="eagle" />
          <wire x1="-2.54" y1="0" x2="-1.27" y2="0" width="0.1524" layer="94" xmlns="eagle" />
          <wire x1="2.54" y1="0" x2="1.27" y2="0" width="0.1524" layer="94" xmlns="eagle" />
        </symbol>
      </symbols>
      <devicesets>
        <deviceset name="DIODE" prefix="D" uservalue="yes">
          <gates>
            <gate name="G$1" symbol="DIODE" x="0" y="0" />
          </gates>
          <devices>
            <device name="BAS16" package="SOD-323" xmlns="eagle">
              <connects>
                <connect gate="G$1" pin="A" pad="A" />
                <connect gate="G$1" pin="C" pad="C" />
              </connects>
              <technologies>
                <technology name="">
                  <attribute name="PROD_ID" value="DIO-09646" constant="no" />
                  <attribute name="VALUE" value="250mA/100V" constant="no" />
                </technology>
              </technologies>
            </device>
          </devices>
        </deviceset>
      </devicesets>
    </library>
  </drawing>
</eagle>