<?xml version="1.0" encoding="utf-8"?>
<!DOCTYPE eagle SYSTEM "eagle.dtd">
<eagle version="6.5.0">
<drawing>
<settings>
<setting alwaysvectorfont="no"/>
<setting verticaltext="up"/>
</settings>
<grid distance="0.1" unitdist="mm" unit="mm" style="lines" multiple="1" display="yes" altdistance="0.025" altunitdist="inch" altunit="inch"/>
<layers>
<layer number="1" name="Top" color="4" fill="1" visible="yes" active="yes"/>
<layer number="16" name="Bottom" color="1" fill="1" visible="yes" active="yes"/>
<layer number="17" name="Pads" color="2" fill="1" visible="yes" active="yes"/>
<layer number="18" name="Vias" color="2" fill="1" visible="yes" active="yes"/>
<layer number="19" name="Unrouted" color="6" fill="1" visible="yes" active="yes"/>
<layer number="20" name="Dimension" color="15" fill="1" visible="yes" active="yes"/>
<layer number="21" name="tPlace" color="7" fill="1" visible="yes" active="yes"/>
<layer number="22" name="bPlace" color="7" fill="1" visible="yes" active="yes"/>
<layer number="23" name="tOrigins" color="15" fill="1" visible="yes" active="yes"/>
<layer number="24" name="bOrigins" color="15" fill="1" visible="yes" active="yes"/>
<layer number="25" name="tNames" color="7" fill="1" visible="yes" active="yes"/>
<layer number="26" name="bNames" color="7" fill="1" visible="yes" active="yes"/>
<layer number="27" name="tValues" color="7" fill="1" visible="yes" active="yes"/>
<layer number="28" name="bValues" color="7" fill="1" visible="yes" active="yes"/>
<layer number="29" name="tStop" color="7" fill="3" visible="yes" active="yes"/>
<layer number="30" name="bStop" color="7" fill="6" visible="yes" active="yes"/>
<layer number="31" name="tCream" color="7" fill="4" visible="yes" active="yes"/>
<layer number="32" name="bCream" color="7" fill="5" visible="yes" active="yes"/>
<layer number="33" name="tFinish" color="6" fill="3" visible="yes" active="yes"/>
<layer number="34" name="bFinish" color="6" fill="6" visible="yes" active="yes"/>
<layer number="35" name="tGlue" color="7" fill="4" visible="yes" active="yes"/>
<layer number="36" name="bGlue" color="7" fill="5" visible="yes" active="yes"/>
<layer number="37" name="tTest" color="7" fill="1" visible="yes" active="yes"/>
<layer number="38" name="bTest" color="7" fill="1" visible="yes" active="yes"/>
<layer number="39" name="tKeepout" color="4" fill="11" visible="yes" active="yes"/>
<layer number="40" name="bKeepout" color="1" fill="11" visible="yes" active="yes"/>
<layer number="41" name="tRestrict" color="4" fill="10" visible="yes" active="yes"/>
<layer number="42" name="bRestrict" color="1" fill="10" visible="yes" active="yes"/>
<layer number="43" name="vRestrict" color="2" fill="10" visible="yes" active="yes"/>
<layer number="44" name="Drills" color="7" fill="1" visible="yes" active="yes"/>
<layer number="45" name="Holes" color="7" fill="1" visible="yes" active="yes"/>
<layer number="46" name="Milling" color="3" fill="1" visible="yes" active="yes"/>
<layer number="47" name="Measures" color="7" fill="1" visible="yes" active="yes"/>
<layer number="48" name="Document" color="7" fill="1" visible="yes" active="yes"/>
<layer number="49" name="Reference" color="7" fill="1" visible="yes" active="yes"/>
<layer number="50" name="dxf" color="7" fill="1" visible="yes" active="yes"/>
<layer number="51" name="tDocu" color="7" fill="1" visible="yes" active="yes"/>
<layer number="52" name="bDocu" color="7" fill="1" visible="yes" active="yes"/>
<layer number="53" name="tGND_GNDA" color="7" fill="1" visible="yes" active="yes"/>
<layer number="54" name="bGND_GNDA" color="7" fill="1" visible="yes" active="yes"/>
<layer number="56" name="wert" color="7" fill="1" visible="yes" active="yes"/>
<layer number="57" name="tCAD" color="7" fill="1" visible="yes" active="yes"/>
<layer number="91" name="Nets" color="2" fill="1" visible="yes" active="yes"/>
<layer number="92" name="Busses" color="1" fill="1" visible="yes" active="yes"/>
<layer number="93" name="Pins" color="2" fill="1" visible="yes" active="yes"/>
<layer number="94" name="Symbols" color="4" fill="1" visible="yes" active="yes"/>
<layer number="95" name="Names" color="7" fill="1" visible="yes" active="yes"/>
<layer number="96" name="Values" color="7" fill="1" visible="yes" active="yes"/>
<layer number="97" name="Info" color="7" fill="1" visible="yes" active="yes"/>
<layer number="98" name="Guide" color="6" fill="1" visible="yes" active="yes"/>
<layer number="99" name="SpiceOrder" color="7" fill="1" visible="yes" active="yes"/>
</layers>
<library>
<packages>
<package name="DO214AA">
<description>&lt;b&gt;DIODE&lt;/b&gt;</description>
<wire x1="-1.1" y1="1.1" x2="1.1" y2="1.1" width="0.127" layer="21"/>
<wire x1="1.1" y1="-1.1" x2="-1.1" y2="-1.1" width="0.127" layer="21"/>
<smd name="C" x="-2.55" y="0" dx="1.8" dy="2.2" layer="1"/>
<smd name="A" x="2.55" y="0" dx="1.8" dy="2.2" layer="1"/>
<text x="-4.04" y="1.636" size="1.27" layer="25" ratio="10">&gt;NAME</text>
</package>
</packages>
<symbols>
<symbol name="SCHOTTKY-BIDIR">
<wire x1="-2.57" y1="-1.27" x2="-0.03" y2="0" width="0.254" layer="94"/>
<wire x1="-0.03" y1="0" x2="-2.57" y2="1.27" width="0.254" layer="94"/>
<wire x1="0.605" y1="1.27" x2="-0.03" y2="1.27" width="0.254" layer="94"/>
<wire x1="-0.03" y1="1.27" x2="-0.03" y2="0" width="0.254" layer="94"/>
<wire x1="-1.3" y1="0" x2="-0.03" y2="0" width="0.1524" layer="94"/>
<wire x1="-2.57" y1="1.27" x2="-2.57" y2="-1.27" width="0.254" layer="94"/>
<wire x1="-0.03" y1="0" x2="-0.03" y2="-1.27" width="0.254" layer="94"/>
<wire x1="-0.03" y1="-1.27" x2="-0.665" y2="-1.27" width="0.254" layer="94"/>
<wire x1="2.51" y1="1.27" x2="2.51" y2="-1.27" width="0.254" layer="94"/>
<wire x1="2.51" y1="-1.27" x2="-0.03" y2="0" width="0.254" layer="94"/>
<wire x1="-0.03" y1="0" x2="2.51" y2="1.27" width="0.254" layer="94"/>
<wire x1="-0.03" y1="0" x2="1.24" y2="0" width="0.1524" layer="94"/>
<wire x1="0.605" y1="1.27" x2="0.605" y2="1.016" width="0.254" layer="94"/>
<wire x1="-0.665" y1="-1.016" x2="-0.665" y2="-1.27" width="0.254" layer="94"/>
<text x="-2.57" y="1.905" size="1.778" layer="95">&gt;NAME</text>
<text x="-2.57" y="-3.429" size="1.778" layer="96">&gt;VALUE</text>
<pin name="1" x="-3.84" y="0" visible="off" length="short" direction="pas"/>
<pin name="2" x="3.78" y="0" visible="off" length="short" direction="pas" rot="R180"/>
</symbol>
</symbols>
<devicesets>
<deviceset name="P6SMB6.8CA-E3/5B">
<gates>
<gate name="G$1" symbol="SCHOTTKY-BIDIR" x="0" y="0"/>
</gates>
<devices>
<device name="" package="DO214AA">
<connects>
<connect gate="G$1" pin="1" pad="A"/>
<connect gate="G$1" pin="2" pad="C"/>
</connects>
<technologies>
<technology name=""/>
</technologies>
</device>
</devices>
</deviceset>
</devicesets>
</library>
</drawing>
</eagle>
