<eagle version="6.5.0" xmlns="eagle">
  <drawing>
    <library>
      <packages>
        <package name="GPI-152-3013" xmlns="eagle">
          <description>Switch with part number: GPI-152-3013</description>
          <wire x1="12.7" y1="5.13" x2="-12.7" y2="5.13" width="0.1524" layer="51" />
          <wire x1="-12.7" y1="5.13" x2="-12.7" y2="-5.13" width="0.1524" layer="51" />
          <wire x1="-12.7" y1="-5.13" x2="12.7" y2="-5.13" width="0.1524" layer="51" />
          <wire x1="12.7" y1="-5.13" x2="12.7" y2="5.13" width="0.1524" layer="51" />
          <wire x1="-9.5" y1="5.4" x2="9.5" y2="5.4" width="0.1524" layer="21" />
          <wire x1="-9.4" y1="-5.4" x2="9.6" y2="-5.4" width="0.1524" layer="21" />
          <wire x1="-13" y1="5" x2="-13" y2="-5" width="0.1524" layer="21" />
          <wire x1="13" y1="5" x2="13" y2="-5" width="0.1524" layer="21" />
          <wire x1="2" y1="5.2" x2="1.9" y2="5.2" width="0.1524" layer="51" />
          <wire x1="1.9" y1="5.2" x2="1.9" y2="9.1" width="0.1524" layer="51" />
          <wire x1="1.9" y1="9.1" x2="7" y2="9.1" width="0.1524" layer="51" />
          <wire x1="7" y1="9.1" x2="7" y2="5.2" width="0.1524" layer="51" />
          <circle x="10.31" y="0" radius="0.1524" width="0" layer="51" />
          <circle x="-10.69" y="0" radius="0.1524" width="0" layer="51" />
          <pad name="C@1" x="0" y="3.455" drill="1.65" />
          <pad name="C@2" x="0" y="-3.455" drill="1.65" />
          <pad name="21" x="4.6" y="-3.455" drill="1.65" />
          <pad name="11" x="-4.6" y="-3.455" drill="1.65" />
          <pad name="10" x="-4.6" y="3.455" drill="1.65" />
          <pad name="20" x="4.6" y="3.455" drill="1.65" />
          <pad name="P$7" x="11.43" y="4.85" drill="1.65" />
          <pad name="P$8" x="-11.43" y="4.85" drill="1.65" />
          <pad name="P$9" x="-11.43" y="-4.85" drill="1.65" />
          <pad name="P$10" x="11.43" y="-4.85" drill="1.65" />
        </package>
      </packages>
      <symbols>
        <symbol name="AYZ0202">
          <wire x1="1.27" y1="5.08" x2="-2.286" y2="2.794" width="0.254" layer="94" />
          <wire x1="-2.286" y1="-4.826" x2="1.27" y2="-2.54" width="0.254" layer="94" />
          <wire x1="2.54" y1="6.35" x2="2.54" y2="7.62" width="0.254" layer="94" />
          <wire x1="2.54" y1="7.62" x2="-2.54" y2="7.62" width="0.254" layer="94" />
          <wire x1="-2.54" y1="7.62" x2="-2.54" y2="3.81" width="0.254" layer="94" />
          <wire x1="-2.54" y1="1.27" x2="-2.54" y2="-3.81" width="0.254" layer="94" />
          <wire x1="-2.54" y1="-6.35" x2="-2.54" y2="-10.16" width="0.254" layer="94" />
          <wire x1="-2.54" y1="-10.16" x2="2.54" y2="-10.16" width="0.254" layer="94" />
          <wire x1="2.54" y1="-10.16" x2="2.54" y2="-8.89" width="0.254" layer="94" />
          <wire x1="2.54" y1="-6.35" x2="2.54" y2="-3.81" width="0.254" layer="94" />
          <wire x1="2.54" y1="3.81" x2="2.54" y2="1.27" width="0.254" layer="94" />
          <wire x1="0" y1="4.064" x2="0" y2="2.54" width="0.254" layer="94" />
          <wire x1="0" y1="1.27" x2="0" y2="-1.27" width="0.254" layer="94" />
          <wire x1="0" y1="-2.54" x2="0" y2="-3.302" width="0.254" layer="94" />
          <circle x="-2.54" y="2.54" radius="0.3592" width="0.254" layer="94" />
          <circle x="2.54" y="5.08" radius="0.3592" width="0.254" layer="94" />
          <circle x="2.54" y="0" radius="0.3592" width="0.254" layer="94" />
          <circle x="2.54" y="-2.54" radius="0.3592" width="0.254" layer="94" />
          <circle x="2.54" y="-7.62" radius="0.3592" width="0.254" layer="94" />
          <circle x="-2.54" y="-5.08" radius="0.3592" width="0.254" layer="94" />
          <text x="-2.54" y="8.128" size="1.778" layer="95">&gt;NAME</text>
          <text x="-2.54" y="-12.7" size="1.778" layer="96">&gt;VALUE</text>
          <pin name="POS_1A" x="5.08" y="5.08" visible="off" length="short" direction="pas" rot="R180" />
          <pin name="POLE_A" x="-5.08" y="2.54" visible="off" length="short" direction="pas" />
          <pin name="POS_2A" x="5.08" y="0" visible="off" length="short" direction="pas" rot="R180" />
          <pin name="POS_1B" x="5.08" y="-2.54" visible="off" length="short" direction="pas" rot="R180" />
          <pin name="POLE_B" x="-5.08" y="-5.08" visible="off" length="short" direction="pas" />
          <pin name="POS_2B" x="5.08" y="-7.62" visible="off" length="short" direction="pas" rot="R180" />
        </symbol>
      </symbols>
      <devicesets>
        <deviceset name="SWITCH-DPDT" prefix="S" uservalue="yes">
          <gates>
            <gate name="G$1" symbol="AYZ0202" x="0" y="0" />
          </gates>
          <devices>
            <device name="GPI" package="GPI-152-3013" xmlns="eagle">
              <connects>
                <connect gate="G$1" pin="POLE_A" pad="C@1" />
                <connect gate="G$1" pin="POLE_B" pad="C@2" />
                <connect gate="G$1" pin="POS_1A" pad="10" />
                <connect gate="G$1" pin="POS_1B" pad="11" />
                <connect gate="G$1" pin="POS_2A" pad="20" />
                <connect gate="G$1" pin="POS_2B" pad="21" />
              </connects>
              <technologies>
                <technology name="" />
              </technologies>
            </device>
          </devices>
        </deviceset>
      </devicesets>
    </library>
  </drawing>
</eagle>