{
  "boardWidth": 9.0,
  "boardHeight": 8.0,
  "numLayers": 2,
  "boardTemplate": null,
  "designRules": null,
  "omitBoundary": null,
  "packages": [
    {
      "name": "SUBCKT_Sensor_Altitude-Pressure",
      "package": "__spaceClaim__",
      "pkg_idx": 0,
      "ComponentID": "f1cc0cb5-2558-4403-a3e1-73c4bf49d929",
      "RelComponentID": null,
      "width": 9.0,
      "height": 8.0,
      "koWidth": null,
      "koHeight": null,
      "originX": null,
      "originY": null,
      "x": 0.2,
      "y": 0.2,
      "rotation": 0,
      "layer": 0,
      "constraints": null,
      "multiLayer": null,
      "doNotPlace": null
    },
    {
      "name": "C1",
      "package": "C_0402",
      "pkg_idx": 1,
      "ComponentID": "{c23ef721-064f-4aa3-8fea-8ba0bbb76379}",
      "RelComponentID": "f1cc0cb5-2558-4403-a3e1-73c4bf49d929",
      "width": 1.72,
      "height": 0.72,
      "koWidth": 1.72,
      "koHeight": 0.72,
      "originX": 0.0,
      "originY": 0.0,
      "x": 7.04,
      "y": 5.04,
      "rotation": 2,
      "layer": 0,
      "constraints": [],
      "multiLayer": null,
      "doNotPlace": true
    },
    {
      "name": "C2",
      "package": "C_0402",
      "pkg_idx": 2,
      "ComponentID": "{4b0ea25d-3c4a-425c-94db-d8d5ecd83412}",
      "RelComponentID": "f1cc0cb5-2558-4403-a3e1-73c4bf49d929",
      "width": 1.72,
      "height": 0.72,
      "koWidth": 1.72,
      "koHeight": 0.72,
      "originX": 0.0,
      "originY": 0.0,
      "x": 1.64,
      "y": 3.34,
      "rotation": 1,
      "layer": 0,
      "constraints": [],
      "multiLayer": null,
      "doNotPlace": true
    },
    {
      "name": "C3",
      "package": "C_0402",
      "pkg_idx": 3,
      "ComponentID": "{1242ae49-f9d3-444e-98ed-0a85bcb2db52}",
      "RelComponentID": "f1cc0cb5-2558-4403-a3e1-73c4bf49d929",
      "width": 1.72,
      "height": 0.72,
      "koWidth": 1.72,
      "koHeight": 0.72,
      "originX": 0.0,
      "originY": 0.0,
      "x": 1.54,
      "y": 5.44,
      "rotation": 3,
      "layer": 0,
      "constraints": [],
      "multiLayer": null,
      "doNotPlace": true
    },
    {
      "name": "MPL3115A2",
      "package": "LGA8",
      "pkg_idx": 4,
      "ComponentID": "{c16ab3f0-df64-4d95-b6e9-93c92ef16084}",
      "RelComponentID": "f1cc0cb5-2558-4403-a3e1-73c4bf49d929",
      "width": 3.6,
      "height": 5.0,
      "koWidth": 3.6,
      "koHeight": 5.0,
      "originX": 0.0,
      "originY": 0.0,
      "x": 3.0,
      "y": 1.5,
      "rotation": 0,
      "layer": 0,
      "constraints": [],
      "multiLayer": null,
      "doNotPlace": true
    },
    {
      "name": "tp4",
      "package": "TP4",
      "pkg_idx": 5,
      "ComponentID": "{4412054a-a714-449c-8115-5edb0f7b30ae}",
      "RelComponentID": "f1cc0cb5-2558-4403-a3e1-73c4bf49d929",
      "width": 0.5,
      "height": 7.0,
      "koWidth": 0.5,
      "koHeight": 7.0,
      "originX": 0.0,
      "originY": -0.3,
      "x": 1.5,
      "y": 0.55,
      "rotation": 1,
      "layer": 0,
      "constraints": [],
      "multiLayer": null,
      "doNotPlace": true
    }
  ],
  "signals": [
    {
      "name": "N$0",
      "length": 15.38982322781408,
      "bends": 16,
      "RelComponentID": "f1cc0cb5-2558-4403-a3e1-73c4bf49d929",
      "pins": [
        {
          "name": "P$2",
          "gate": "G$1",
          "pad": "2",
          "package": "C1"
        },
        {
          "name": "P$2",
          "gate": "G$1",
          "pad": "2",
          "package": "C2"
        },
        {
          "name": "P$4",
          "gate": "G$1",
          "pad": "P$4",
          "package": "tp4"
        },
        {
          "name": "P$1",
          "gate": "G$1",
          "pad": "1",
          "package": "C3"
        },
        {
          "name": "GND",
          "gate": "G$1",
          "pad": "3",
          "package": "MPL3115A2"
        }
      ],
      "wires": [
        {
          "x1": 8.2,
          "y1": 4.8,
          "x2": 8.2,
          "y2": 3.9,
          "width": 0.1524,
          "layer": 1,
          "curve": 0.0
        },
        {
          "x1": 8.2,
          "y1": 3.9,
          "x2": 8.2,
          "y2": 0.8,
          "width": 0.1524,
          "layer": 1,
          "curve": 0.0
        },
        {
          "x1": 7.95,
          "y1": 4.8,
          "x2": 8.2,
          "y2": 4.8,
          "width": 0.1524,
          "layer": 1,
          "curve": 0.0
        },
        {
          "x1": 7.4,
          "y1": 5.35,
          "x2": 7.95,
          "y2": 4.8,
          "width": 0.1524,
          "layer": 1,
          "curve": 0.0
        },
        {
          "x1": 7.4,
          "y1": 5.4,
          "x2": 7.4,
          "y2": 5.35,
          "width": 0.1524,
          "layer": 1,
          "curve": 0.0
        },
        {
          "x1": 1.5,
          "y1": 6.4,
          "x2": 1.9,
          "y2": 6.8,
          "width": 0.1524,
          "layer": 1,
          "curve": 0.0
        },
        {
          "x1": 1.45,
          "y1": 6.4,
          "x2": 1.5,
          "y2": 6.4,
          "width": 0.1524,
          "layer": 1,
          "curve": 0.0
        },
        {
          "x1": 1.3,
          "y1": 6.25,
          "x2": 1.45,
          "y2": 6.4,
          "width": 0.1524,
          "layer": 1,
          "curve": 0.0
        },
        {
          "x1": 1.3,
          "y1": 4.7,
          "x2": 1.3,
          "y2": 6.25,
          "width": 0.1524,
          "layer": 1,
          "curve": 0.0
        },
        {
          "x1": 2.0,
          "y1": 4.7,
          "x2": 1.3,
          "y2": 4.7,
          "width": 0.1524,
          "layer": 1,
          "curve": 0.0
        },
        {
          "x1": 2.35,
          "y1": 4.65,
          "x2": 3.15,
          "y2": 3.85,
          "width": 0.1524,
          "layer": 1,
          "curve": 0.0
        },
        {
          "x1": 3.15,
          "y1": 3.85,
          "x2": 3.6,
          "y2": 3.4,
          "width": 0.1524,
          "layer": 1,
          "curve": 0.0
        },
        {
          "x1": 2.05,
          "y1": 4.65,
          "x2": 2.35,
          "y2": 4.65,
          "width": 0.1524,
          "layer": 1,
          "curve": 0.0
        },
        {
          "x1": 3.6,
          "y1": 3.4,
          "x2": 3.6,
          "y2": 3.375,
          "width": 0.1524,
          "layer": 1,
          "curve": 0.0
        },
        {
          "x1": 2.05,
          "y1": 4.65,
          "x2": 2.0,
          "y2": 4.7,
          "width": 0.1524,
          "layer": 1,
          "curve": 0.0
        },
        {
          "x1": 3.2,
          "y1": 3.9,
          "x2": 8.2,
          "y2": 3.9,
          "width": 0.1524,
          "layer": 1,
          "curve": 0.0
        },
        {
          "x1": 3.2,
          "y1": 3.9,
          "x2": 3.15,
          "y2": 3.85,
          "width": 0.1524,
          "layer": 1,
          "curve": 0.0
        }
      ],
      "vias": [],
      "polygons": []
    },
    {
      "name": "N$1",
      "length": 18.501008415653079,
      "bends": 15,
      "RelComponentID": "f1cc0cb5-2558-4403-a3e1-73c4bf49d929",
      "pins": [
        {
          "name": "P$1",
          "gate": "G$1",
          "pad": "1",
          "package": "C1"
        },
        {
          "name": "P$1",
          "gate": "G$1",
          "pad": "1",
          "package": "C2"
        },
        {
          "name": "P$1",
          "gate": "G$1",
          "pad": "P$1",
          "package": "tp4"
        },
        {
          "name": "VDDIO",
          "gate": "G$1",
          "pad": "4",
          "package": "MPL3115A2"
        },
        {
          "name": "VDD",
          "gate": "G$1",
          "pad": "1",
          "package": "MPL3115A2"
        }
      ],
      "wires": [
        {
          "x1": 3.0,
          "y1": 2.1,
          "x2": 1.7,
          "y2": 0.8,
          "width": 0.1524,
          "layer": 1,
          "curve": 0.0
        },
        {
          "x1": 3.6,
          "y1": 2.1,
          "x2": 3.0,
          "y2": 2.1,
          "width": 0.1524,
          "layer": 1,
          "curve": 0.0
        },
        {
          "x1": 3.6,
          "y1": 2.1,
          "x2": 3.6,
          "y2": 2.125,
          "width": 0.1524,
          "layer": 1,
          "curve": 0.0
        },
        {
          "x1": 3.55,
          "y1": 2.15,
          "x2": 2.0,
          "y2": 3.7,
          "width": 0.1524,
          "layer": 1,
          "curve": 0.0
        },
        {
          "x1": 3.55,
          "y1": 2.15,
          "x2": 3.6,
          "y2": 2.125,
          "width": 0.1524,
          "layer": 1,
          "curve": 0.0
        },
        {
          "x1": 8.4,
          "y1": 6.4,
          "x2": 8.4,
          "y2": 5.4,
          "width": 0.1524,
          "layer": 1,
          "curve": 0.0
        },
        {
          "x1": 4.1,
          "y1": 6.4,
          "x2": 8.4,
          "y2": 6.4,
          "width": 0.1524,
          "layer": 1,
          "curve": 0.0
        },
        {
          "x1": 3.6,
          "y1": 5.9,
          "x2": 4.1,
          "y2": 6.4,
          "width": 0.1524,
          "layer": 1,
          "curve": 0.0
        },
        {
          "x1": 3.6,
          "y1": 5.9,
          "x2": 3.6,
          "y2": 5.875,
          "width": 0.1524,
          "layer": 1,
          "curve": 0.0
        },
        {
          "x1": 1.6,
          "y1": 4.1,
          "x2": 2.0,
          "y2": 3.7,
          "width": 0.1524,
          "layer": 1,
          "curve": 0.0
        },
        {
          "x1": 1.45,
          "y1": 4.1,
          "x2": 1.6,
          "y2": 4.1,
          "width": 0.1524,
          "layer": 1,
          "curve": 0.0
        },
        {
          "x1": 0.95,
          "y1": 4.6,
          "x2": 1.45,
          "y2": 4.1,
          "width": 0.1524,
          "layer": 1,
          "curve": 0.0
        },
        {
          "x1": 0.95,
          "y1": 7.4,
          "x2": 0.95,
          "y2": 4.6,
          "width": 0.1524,
          "layer": 1,
          "curve": 0.0
        },
        {
          "x1": 2.4,
          "y1": 7.4,
          "x2": 0.95,
          "y2": 7.4,
          "width": 0.1524,
          "layer": 1,
          "curve": 0.0
        },
        {
          "x1": 3.7,
          "y1": 6.1,
          "x2": 2.4,
          "y2": 7.4,
          "width": 0.1524,
          "layer": 1,
          "curve": 0.0
        },
        {
          "x1": 3.7,
          "y1": 6.1,
          "x2": 3.6,
          "y2": 5.875,
          "width": 0.1524,
          "layer": 1,
          "curve": 0.0
        }
      ],
      "vias": [],
      "polygons": []
    },
    {
      "name": "N$2",
      "length": 2.2013455967290594,
      "bends": 3,
      "RelComponentID": "f1cc0cb5-2558-4403-a3e1-73c4bf49d929",
      "pins": [
        {
          "name": "P$2",
          "gate": "G$1",
          "pad": "2",
          "package": "C3"
        },
        {
          "name": "CAP",
          "gate": "G$1",
          "pad": "2",
          "package": "MPL3115A2"
        }
      ],
      "wires": [
        {
          "x1": 2.4,
          "y1": 5.3,
          "x2": 1.9,
          "y2": 5.8,
          "width": 0.1524,
          "layer": 1,
          "curve": 0.0
        },
        {
          "x1": 2.95,
          "y1": 5.3,
          "x2": 2.4,
          "y2": 5.3,
          "width": 0.1524,
          "layer": 1,
          "curve": 0.0
        },
        {
          "x1": 3.6,
          "y1": 4.65,
          "x2": 2.95,
          "y2": 5.3,
          "width": 0.1524,
          "layer": 1,
          "curve": 0.0
        },
        {
          "x1": 3.6,
          "y1": 4.65,
          "x2": 3.6,
          "y2": 4.625,
          "width": 0.1524,
          "layer": 1,
          "curve": 0.0
        }
      ],
      "vias": [],
      "polygons": []
    },
    {
      "name": "N$3",
      "length": 6.079163056034262,
      "bends": 8,
      "RelComponentID": "f1cc0cb5-2558-4403-a3e1-73c4bf49d929",
      "pins": [
        {
          "name": "SCL",
          "gate": "G$1",
          "pad": "8",
          "package": "MPL3115A2"
        },
        {
          "name": "P$3",
          "gate": "G$1",
          "pad": "P$3",
          "package": "tp4"
        }
      ],
      "wires": [
        {
          "x1": 5.6,
          "y1": 1.4,
          "x2": 6.2,
          "y2": 0.8,
          "width": 0.1524,
          "layer": 1,
          "curve": 0.0
        },
        {
          "x1": 5.45,
          "y1": 1.55,
          "x2": 5.6,
          "y2": 1.4,
          "width": 0.1524,
          "layer": 16,
          "curve": 0.0
        },
        {
          "x1": 5.45,
          "y1": 4.9,
          "x2": 5.45,
          "y2": 1.55,
          "width": 0.1524,
          "layer": 16,
          "curve": 0.0
        },
        {
          "x1": 5.1,
          "y1": 5.25,
          "x2": 5.45,
          "y2": 4.9,
          "width": 0.1524,
          "layer": 16,
          "curve": 0.0
        },
        {
          "x1": 5.7,
          "y1": 5.85,
          "x2": 5.1,
          "y2": 5.25,
          "width": 0.1524,
          "layer": 1,
          "curve": 0.0
        },
        {
          "x1": 6.0,
          "y1": 5.85,
          "x2": 5.7,
          "y2": 5.85,
          "width": 0.1524,
          "layer": 1,
          "curve": 0.0
        },
        {
          "x1": 6.0,
          "y1": 5.85,
          "x2": 6.0,
          "y2": 5.875,
          "width": 0.1524,
          "layer": 1,
          "curve": 0.0
        }
      ],
      "vias": [
        {
          "x": 5.6,
          "y": 1.4,
          "drill": 0.3048,
          "layerBegin": 1,
          "layerEnd": 16
        },
        {
          "x": 5.1,
          "y": 5.25,
          "drill": 0.3048,
          "layerBegin": 1,
          "layerEnd": 16
        }
      ],
      "polygons": []
    },
    {
      "name": "N$4",
      "length": 5.3341883092036788,
      "bends": 6,
      "RelComponentID": "f1cc0cb5-2558-4403-a3e1-73c4bf49d929",
      "pins": [
        {
          "name": "SDA",
          "gate": "G$1",
          "pad": "7",
          "package": "MPL3115A2"
        },
        {
          "name": "P$2",
          "gate": "G$1",
          "pad": "P$2",
          "package": "tp4"
        }
      ],
      "wires": [
        {
          "x1": 4.9,
          "y1": 2.0,
          "x2": 3.7,
          "y2": 0.8,
          "width": 0.1524,
          "layer": 1,
          "curve": 0.0
        },
        {
          "x1": 4.9,
          "y1": 4.45,
          "x2": 4.9,
          "y2": 2.0,
          "width": 0.1524,
          "layer": 16,
          "curve": 0.0
        },
        {
          "x1": 5.05,
          "y1": 4.6,
          "x2": 4.9,
          "y2": 4.45,
          "width": 0.1524,
          "layer": 1,
          "curve": 0.0
        },
        {
          "x1": 6.0,
          "y1": 4.6,
          "x2": 5.05,
          "y2": 4.6,
          "width": 0.1524,
          "layer": 1,
          "curve": 0.0
        },
        {
          "x1": 6.0,
          "y1": 4.6,
          "x2": 6.0,
          "y2": 4.625,
          "width": 0.1524,
          "layer": 1,
          "curve": 0.0
        }
      ],
      "vias": [
        {
          "x": 4.9,
          "y": 2.0,
          "drill": 0.3048,
          "layerBegin": 1,
          "layerEnd": 16
        },
        {
          "x": 4.9,
          "y": 4.45,
          "drill": 0.3048,
          "layerBegin": 1,
          "layerEnd": 16
        }
      ],
      "polygons": []
    }
  ],
  "constraints": null,
  "border": null
}