<eagle version="6.5.0" xmlns="eagle">
  <drawing>
<layers>
<layer number="1" name="Top" color="4" fill="1" visible="yes" active="yes"/>
<layer number="16" name="Bottom" color="1" fill="1" visible="yes" active="yes"/>
<layer number="17" name="Pads" color="2" fill="1" visible="yes" active="yes"/>
<layer number="18" name="Vias" color="2" fill="1" visible="yes" active="yes"/>
<layer number="19" name="Unrouted" color="6" fill="1" visible="yes" active="yes"/>
<layer number="20" name="Dimension" color="15" fill="1" visible="yes" active="yes"/>
<layer number="21" name="tPlace" color="7" fill="1" visible="yes" active="yes"/>
<layer number="22" name="bPlace" color="7" fill="1" visible="yes" active="yes"/>
<layer number="23" name="tOrigins" color="15" fill="1" visible="yes" active="yes"/>
<layer number="24" name="bOrigins" color="15" fill="1" visible="yes" active="yes"/>
<layer number="25" name="tNames" color="7" fill="1" visible="yes" active="yes"/>
<layer number="26" name="bNames" color="7" fill="1" visible="yes" active="yes"/>
<layer number="27" name="tValues" color="7" fill="1" visible="yes" active="yes"/>
<layer number="28" name="bValues" color="7" fill="1" visible="yes" active="yes"/>
<layer number="29" name="tStop" color="7" fill="3" visible="yes" active="yes"/>
<layer number="30" name="bStop" color="7" fill="6" visible="yes" active="yes"/>
<layer number="31" name="tCream" color="7" fill="4" visible="yes" active="yes"/>
<layer number="32" name="bCream" color="7" fill="5" visible="yes" active="yes"/>
<layer number="33" name="tFinish" color="6" fill="3" visible="yes" active="yes"/>
<layer number="34" name="bFinish" color="6" fill="6" visible="yes" active="yes"/>
<layer number="35" name="tGlue" color="7" fill="4" visible="yes" active="yes"/>
<layer number="36" name="bGlue" color="7" fill="5" visible="yes" active="yes"/>
<layer number="37" name="tTest" color="7" fill="1" visible="yes" active="yes"/>
<layer number="38" name="bTest" color="7" fill="1" visible="yes" active="yes"/>
<layer number="39" name="tKeepout" color="4" fill="11" visible="yes" active="yes"/>
<layer number="40" name="bKeepout" color="1" fill="11" visible="yes" active="yes"/>
<layer number="41" name="tRestrict" color="4" fill="10" visible="yes" active="yes"/>
<layer number="42" name="bRestrict" color="1" fill="10" visible="yes" active="yes"/>
<layer number="43" name="vRestrict" color="2" fill="10" visible="yes" active="yes"/>
<layer number="44" name="Drills" color="7" fill="1" visible="yes" active="yes"/>
<layer number="45" name="Holes" color="7" fill="1" visible="yes" active="yes"/>
<layer number="46" name="Milling" color="3" fill="1" visible="yes" active="yes"/>
<layer number="47" name="Measures" color="7" fill="1" visible="yes" active="yes"/>
<layer number="48" name="Document" color="7" fill="1" visible="yes" active="yes"/>
<layer number="49" name="Reference" color="7" fill="1" visible="yes" active="yes"/>
<layer number="50" name="dxf" color="7" fill="1" visible="yes" active="yes"/>
<layer number="51" name="tDocu" color="7" fill="1" visible="yes" active="yes"/>
<layer number="52" name="bDocu" color="7" fill="1" visible="yes" active="yes"/>
<layer number="53" name="tGND_GNDA" color="7" fill="1" visible="yes" active="yes"/>
<layer number="54" name="bGND_GNDA" color="7" fill="1" visible="yes" active="yes"/>
<layer number="56" name="wert" color="7" fill="1" visible="yes" active="yes"/>
<layer number="57" name="tCAD" color="7" fill="1" visible="yes" active="yes"/>
<layer number="91" name="Nets" color="2" fill="1" visible="yes" active="yes"/>
<layer number="92" name="Busses" color="1" fill="1" visible="yes" active="yes"/>
<layer number="93" name="Pins" color="2" fill="1" visible="yes" active="yes"/>
<layer number="94" name="Symbols" color="4" fill="1" visible="yes" active="yes"/>
<layer number="95" name="Names" color="7" fill="1" visible="yes" active="yes"/>
<layer number="96" name="Values" color="7" fill="1" visible="yes" active="yes"/>
<layer number="97" name="Info" color="7" fill="1" visible="yes" active="yes"/>
<layer number="98" name="Guide" color="6" fill="1" visible="yes" active="yes"/>
<layer number="99" name="SpiceOrder" color="7" fill="1" visible="yes" active="yes"/>
</layers>
    <library>
      <packages>
        <package name="C_0201" xmlns="eagle">
          <description>&lt;B&gt; 0201&lt;/B&gt; (0603 Metric) MLCC Capacitor &lt;P&gt;
Designed for the TDK Corporation C0603X5R1E104M030BB&lt;br&gt;
CAP CER 0.1UF 25V 20% X5R 0201&lt;P&gt;</description>
          <wire x1="-0.3" y1="0.15" x2="0.3" y2="0.15" width="0.0762" layer="51" />
          <wire x1="0.3" y1="0.15" x2="0.3" y2="-0.15" width="0.0762" layer="51" />
          <wire x1="0.3" y1="-0.15" x2="-0.3" y2="-0.15" width="0.0762" layer="51" />
          <wire x1="-0.3" y1="-0.15" x2="-0.3" y2="0.15" width="0.0762" layer="51" />
          <smd name="1" x="-0.38" y="0" dx="0.5" dy="0.5" layer="1" />
          <smd name="2" x="0.38" y="0" dx="0.5" dy="0.5" layer="1" />
          <text x="-0.7294" y="0.4396" size="0.508" layer="51" font="vector" ratio="15">&gt;NAME</text>
        </package>
      </packages>
      <symbols>
        <symbol name="CAP_NP">
          <description>&lt;B&gt;Capacitor&lt;/B&gt; -- non-polarized</description>
          <wire x1="-1.905" y1="-3.175" x2="0" y2="-3.175" width="0.6096" layer="94" />
          <wire x1="0" y1="-3.175" x2="1.905" y2="-3.175" width="0.6096" layer="94" />
          <wire x1="-1.905" y1="-4.445" x2="0" y2="-4.445" width="0.6096" layer="94" />
          <wire x1="0" y1="-4.445" x2="1.905" y2="-4.445" width="0.6096" layer="94" />
          <wire x1="0" y1="-2.54" x2="0" y2="-3.175" width="0.254" layer="94" />
          <wire x1="0" y1="-5.08" x2="0" y2="-4.445" width="0.254" layer="94" />
          <pin name="P$1" x="0" y="0" visible="off" length="short" direction="pas" rot="R270" />
          <pin name="P$2" x="0" y="-7.62" visible="off" length="short" direction="pas" rot="R90" />
          <text x="-2.54" y="-7.62" size="1.778" layer="96" rot="R90">&gt;VALUE</text>
          <text x="-5.08" y="-7.62" size="1.778" layer="95" rot="R90">&gt;NAME</text>
          <text x="0.508" y="-2.286" size="1.778" layer="95">1</text>
        </symbol>
      </symbols>
      <devicesets>
        <deviceset name="C_0201" prefix="C">
          <gates>
            <gate name="G$1" symbol="CAP_NP" x="0" y="0" />
          </gates>
          <devices>
            <device name="" package="C_0201" xmlns="eagle">
              <connects>
                <connect gate="G$1" pin="P$1" pad="1" />
                <connect gate="G$1" pin="P$2" pad="2" />
              </connects>
              <technologies>
                <technology name="" />
              </technologies>
            </device>
          </devices>
        </deviceset>
      </devicesets>
    </library>
  </drawing>
</eagle>