<eagle version="6.5.0" xmlns="eagle">
  <drawing>
    <library>
      <packages>
        <package name="SOT523" xmlns="eagle">
          <smd name="P$1" x="-0.5" y="-0.645" dx="0.4" dy="0.51" layer="1" />
          <smd name="P$2" x="0.5" y="-0.645" dx="0.4" dy="0.51" layer="1" />
          <smd name="P$3" x="0" y="0.645" dx="0.4" dy="0.51" layer="1" />
          <text x="-1.905" y="1.27" size="1.016" layer="25" font="vector" ratio="15">&gt;NAME</text>
          <wire x1="-0.9" y1="0.4" x2="-0.9" y2="-0.2" width="0.1524" layer="21" />
          <wire x1="0.9" y1="0.4" x2="0.9" y2="-0.2" width="0.1524" layer="21" />
          <wire x1="-0.9" y1="0.4" x2="-0.5" y2="0.4" width="0.1524" layer="21" />
          <wire x1="0.9" y1="0.4" x2="0.5" y2="0.4" width="0.1524" layer="21" />
          <wire x1="0" y1="-0.3" x2="0" y2="-0.4" width="0.1524" layer="21" />
        </package>
      </packages>
      <symbols>
        <symbol name="PMOS">
          <pin name="G" x="-10.16" y="2.54" visible="pad" length="middle" direction="pas" />
          <wire x1="-2.54" y1="-2.54" x2="-2.54" y2="2.54" width="0.254" layer="94" />
          <wire x1="-1.27" y1="3.048" x2="-1.27" y2="2.54" width="0.254" layer="94" />
          <wire x1="-1.27" y1="2.54" x2="-1.27" y2="2.032" width="0.254" layer="94" />
          <wire x1="-1.27" y1="0.508" x2="-1.27" y2="0" width="0.254" layer="94" />
          <wire x1="-1.27" y1="0" x2="-1.27" y2="-0.508" width="0.254" layer="94" />
          <wire x1="-1.27" y1="-2.032" x2="-1.27" y2="-2.54" width="0.254" layer="94" />
          <wire x1="-1.27" y1="-2.54" x2="-1.27" y2="-3.048" width="0.254" layer="94" />
          <wire x1="-1.27" y1="0" x2="0" y2="0" width="0.254" layer="94" />
          <wire x1="1.27" y1="0" x2="2.54" y2="0" width="0.254" layer="94" />
          <wire x1="2.54" y1="-2.54" x2="2.54" y2="-5.334" width="0.254" layer="94" />
          <wire x1="2.54" y1="-2.54" x2="-1.27" y2="-2.54" width="0.254" layer="94" />
          <wire x1="-1.27" y1="2.54" x2="2.54" y2="2.54" width="0.254" layer="94" />
          <wire x1="2.54" y1="2.54" x2="2.54" y2="5.08" width="0.254" layer="94" />
          <pin name="S" x="2.54" y="-10.16" visible="pad" length="middle" direction="pas" rot="R90" />
          <pin name="D" x="2.54" y="10.16" visible="pad" length="middle" direction="pas" rot="R270" />
          <text x="-7.62" y="0" size="1.778" layer="93">G</text>
          <text x="5.08" y="7.62" size="1.778" layer="93">D</text>
          <text x="5.08" y="-7.62" size="1.778" layer="93">S</text>
          <circle x="0" y="0" radius="5.0096625" width="0.254" layer="94" />
          <text x="-12.7" y="10.16" size="1.778" layer="95">&gt;NAME</text>
          <text x="-12.7" y="7.62" size="1.778" layer="96">&gt;VALUE</text>
          <wire x1="0" y1="0" x2="0" y2="1.27" width="0.254" layer="94" />
          <wire x1="0" y1="1.27" x2="1.27" y2="0" width="0.254" layer="94" />
          <wire x1="1.27" y1="0" x2="0" y2="-1.27" width="0.254" layer="94" />
          <wire x1="0" y1="-1.27" x2="0" y2="0" width="0.254" layer="94" />
          <wire x1="-2.54" y1="2.54" x2="-5.08" y2="2.54" width="0.254" layer="94" />
          <wire x1="2.54" y1="0" x2="2.54" y2="-2.54" width="0.254" layer="94" />
        </symbol>
      </symbols>
      <devicesets>
        <deviceset name="DMG1013T-7">
          <gates>
            <gate name="G$1" symbol="PMOS" x="0" y="0" />
          </gates>
          <devices>
            <device name="" package="SOT523" xmlns="eagle">
              <connects>
                <connect gate="G$1" pin="D" pad="P$3" />
                <connect gate="G$1" pin="G" pad="P$1" />
                <connect gate="G$1" pin="S" pad="P$2" />
              </connects>
              <technologies>
                <technology name="" />
              </technologies>
            </device>
          </devices>
        </deviceset>
      </devicesets>
    </library>
  </drawing>
</eagle>