<eagle xmlns="eagle" version="6.5.0">
  <drawing>
    <library>
      <packages>
        <package xmlns="eagle" name="USB-MICROB">
          <description>Micro USB Package</description>
          <wire x1="-3.4" y1="-2.15" x2="-3" y2="-2.15" width="0.1524" layer="51"/>
          <wire x1="3" y1="-2.15" x2="3.4" y2="-2.15" width="0.1524" layer="51"/>
          <wire x1="-3.4" y1="-2.15" x2="-3.4" y2="-1.45" width="0.1524" layer="51"/>
          <wire x1="-3.4" y1="-1.45" x2="-3.4" y2="2.85" width="0.1524" layer="51"/>
          <wire x1="3.4" y1="2.85" x2="2.2" y2="2.85" width="0.1524" layer="51"/>
          <wire x1="3.4" y1="2.85" x2="3.4" y2="-1.45" width="0.1524" layer="51"/>
          <wire x1="3.4" y1="-1.45" x2="3.4" y2="-2.15" width="0.1524" layer="51"/>
          <wire x1="-3.4" y1="-1.45" x2="3.4" y2="-1.45" width="0.1524" layer="51"/>
          <wire x1="-3.4" y1="1.25" x2="-3.4" y2="2.85" width="0.1524" layer="21"/>
          <wire x1="-3.4" y1="2.85" x2="-2.2" y2="2.85" width="0.1524" layer="21"/>
          <wire x1="3.4" y1="2.85" x2="2.2" y2="2.85" width="0.1524" layer="21"/>
          <wire x1="3.4" y1="1.25" x2="3.4" y2="2.85" width="0.1524" layer="21"/>
          <wire x1="-3.4" y1="-1.45" x2="3.4" y2="-1.45" width="0.1524" layer="21"/>
          <wire x1="-2.2" y1="1.45" x2="2.2" y2="1.45" width="0.1524" layer="51"/>
          <wire x1="2.2" y1="1.45" x2="2.2" y2="2.85" width="0.1524" layer="51"/>
          <wire x1="-2.2" y1="1.45" x2="-2.2" y2="2.85" width="0.1524" layer="51"/>
          <wire x1="-3.4" y1="2.85" x2="-2.2" y2="2.85" width="0.1524" layer="51"/>
          <wire x1="-2.2" y1="2.85" x2="-2.2" y2="1.45" width="0.1524" layer="21"/>
          <wire x1="-2.2" y1="1.45" x2="2.2" y2="1.45" width="0.1524" layer="21"/>
          <wire x1="2.2" y1="1.45" x2="2.2" y2="2.85" width="0.1524" layer="21"/>
          <wire x1="-3.4" y1="-2.15" x2="-4" y2="-2.75" width="0.1524" layer="51"/>
          <wire x1="3.4" y1="-2.15" x2="4" y2="-2.75" width="0.1524" layer="51"/>
          <wire x1="-3" y1="-2.15" x2="-3" y2="-2.55" width="0.1524" layer="51"/>
          <wire x1="-2.8" y1="-2.8" x2="2.75" y2="-2.8" width="0.1524" layer="51"/>
          <wire x1="3" y1="-2.6" x2="3" y2="-2.15" width="0.1524" layer="51"/>
          <wire x1="-3" y1="-2.55" x2="-2.8" y2="-2.8" width="0.1524" layer="51" curve="84.547378"/>
          <wire x1="2.75" y1="-2.8" x2="3" y2="-2.6" width="0.1524" layer="51" curve="84.547378"/>
          <smd name="D+" x="0" y="2.65" dx="1.4" dy="0.35" layer="1" rot="R90"/>
          <smd name="D-" x="-0.65" y="2.65" dx="1.4" dy="0.35" layer="1" rot="R90"/>
          <smd name="GND" x="1.3" y="2.65" dx="1.4" dy="0.35" layer="1" rot="R90"/>
          <smd name="ID" x="0.65" y="2.65" dx="1.4" dy="0.35" layer="1" rot="R90"/>
          <smd name="MT1" x="-4" y="0" dx="1.8" dy="1.9" layer="1"/>
          <smd name="MT2" x="4" y="0" dx="1.8" dy="1.9" layer="1"/>
          <smd name="P$1" x="-1.27" y="0" dx="1.9" dy="1.9" layer="1"/>
          <smd name="P$2" x="1.27" y="0" dx="1.9" dy="1.9" layer="1"/>
          <smd name="VBUS" x="-1.3" y="2.65" dx="1.4" dy="0.35" layer="1" rot="R90"/>
          <text x="-2.235" y="4.095" size="1.016" layer="25" font="vector" ratio="15">&gt;NAME</text>
        </package>
      </packages>
      <symbols>
        <symbol name="USB">
          <wire x1="5.08" y1="8.89" x2="0" y2="8.89" width="0.254" layer="94"/>
          <wire x1="0" y1="8.89" x2="0" y2="-1.27" width="0.254" layer="94"/>
          <wire x1="0" y1="-1.27" x2="5.08" y2="-1.27" width="0.254" layer="94"/>
          <pin name="D+" x="-2.54" y="7.62" visible="pad" length="short" direction="pas"/>
          <pin name="D-" x="-2.54" y="5.08" visible="pad" length="short" direction="pas"/>
          <pin name="GND" x="-2.54" y="0" visible="pad" length="short" direction="pas"/>
          <pin name="VBUS" x="-2.54" y="2.54" visible="pad" length="short" direction="pas"/>
          <text x="3.81" y="0" size="1.778" layer="94" rot="R90">USB</text>
          <text x="-5.08" y="10.16" size="1.778" layer="95">&gt;NAME</text>
          <text x="-5.08" y="-5.08" size="1.778" layer="96">&gt;VALUE</text>
        </symbol>
      </symbols>
      <devicesets>
        <deviceset name="USB" prefix="J">
          <gates>
            <gate name="G$1" symbol="USB" x="0" y="0"/>
          </gates>
          <devices>
            <device xmlns="eagle" name="-MICROB" package="USB-MICROB">
              <connects>
                <connect gate="G$1" pin="D+" pad="D+"/>
                <connect gate="G$1" pin="D-" pad="D-"/>
                <connect gate="G$1" pin="GND" pad="GND MT1 MT2"/>
                <connect gate="G$1" pin="VBUS" pad="VBUS"/>
              </connects>
              <technologies>
                <technology name="">
                  <attribute name="PROD_ID" value="CONN-09505"/>
                </technology>
              </technologies>
            </device>
          </devices>
        </deviceset>
      </devicesets>
    </library>
  </drawing>
</eagle>