<?xml version="1.0" encoding="UTF-8" standalone="no"?>
<svg
   xmlns:dc="http://purl.org/dc/elements/1.1/"
   xmlns:cc="http://creativecommons.org/ns#"
   xmlns:rdf="http://www.w3.org/1999/02/22-rdf-syntax-ns#"
   xmlns:svg="http://www.w3.org/2000/svg"
   xmlns="http://www.w3.org/2000/svg"
   xmlns:sodipodi="http://sodipodi.sourceforge.net/DTD/sodipodi-0.dtd"
   xmlns:inkscape="http://www.inkscape.org/namespaces/inkscape"
   version="1.1"
   x="0px"
   y="0px"
   viewBox="0 0 110 70"
   enable-background="new 0 0 100 100"
   xml:space="preserve"
   id="svg2"
   inkscape:version="0.91 r13725"
   sodipodi:docname="icon.svg"
   width="110"
   height="70"><metadata
     id="metadata22"><rdf:RDF><cc:Work
         rdf:about=""><dc:format>image/svg+xml</dc:format><dc:type
           rdf:resource="http://purl.org/dc/dcmitype/StillImage" /><dc:title></dc:title></cc:Work></rdf:RDF></metadata><defs
     id="defs20" /><sodipodi:namedview
     pagecolor="#ffffff"
     bordercolor="#666666"
     borderopacity="1"
     objecttolerance="10"
     gridtolerance="10"
     guidetolerance="10"
     inkscape:pageopacity="0"
     inkscape:pageshadow="2"
     inkscape:window-width="2048"
     inkscape:window-height="1072"
     id="namedview18"
     showgrid="false"
     inkscape:zoom="4.72"
     inkscape:cx="-28.138548"
     inkscape:cy="48.115283"
     inkscape:window-x="-8"
     inkscape:window-y="-8"
     inkscape:window-maximized="1"
     inkscape:current-layer="svg2" /><g
     id="g4141"
     transform="matrix(0,1,-1,0,104.50309,-10.848635)"><g
       transform="matrix(0.59882922,0,0,0.6,3.2365051,39.152339)"
       id="g4156"><path
         d="m 50,16.89 c 0.513,0 1.021,0.024 1.523,0.073 l 0,-16.963 -3.046,0 0,16.963 C 48.979,16.914 49.487,16.89 50,16.89 Z"
         id="path4"
         inkscape:connector-curvature="0"
         style="fill:#002285" /><path
         d="m 33.51,33.379 c 0,-0.479 0.024,-0.947 0.063,-1.416 l -17.055,0 0,3.047 17.07,0 C 33.54,34.473 33.51,33.931 33.51,33.379 Z"
         id="path6"
         inkscape:connector-curvature="0"
         style="fill:#002285" /><path
         d="M 62.739,22.905 74.751,10.888 72.603,8.73 60.591,20.742 c 0.775,0.654 1.498,1.377 2.148,2.163 z"
         id="path8"
         inkscape:connector-curvature="0"
         style="fill:#002285" /><path
         d="M 39.414,20.742 27.402,8.73 25.244,10.888 37.26,22.905 c 0.65,-0.786 1.372,-1.509 2.154,-2.163 z"
         id="path10"
         inkscape:connector-curvature="0"
         style="fill:#002285" /><path
         d="m 66.431,31.963 c 0.039,0.469 0.059,0.938 0.059,1.416 0,0.552 -0.029,1.094 -0.078,1.631 l 17.07,0 0,-3.047 -17.051,0 z"
         id="path12"
         inkscape:connector-curvature="0"
         style="fill:#002285" /><polygon
         points="44.917,56.689 44.917,100 47.968,100 47.968,56.689 52.03,56.689 52.03,86.133 55.083,86.133 55.083,56.689 62.456,56.689 62.456,52.363 37.543,52.363 37.543,56.689 "
         id="polygon14"
         style="fill:#002285" /><path
         d="m 50,22.881 c -5.195,0 -9.404,4.209 -9.404,9.404 l 0,0.005 0,18.804 18.808,0 0,-18.794 c 0,-0.005 0,-0.01 0,-0.015 C 59.403,27.09 55.194,22.881 50,22.881 Z m 3.237,7.583 c -0.963,0.171 -1.88,-0.649 -2.901,-0.366 -1.475,0.405 -0.913,1.396 -1.543,2.451 -0.63,1.069 -2.153,1.377 -3.242,0.737 -3.398,-1.992 0.034,-6.367 2.183,-7.031 1.704,-1.333 5.181,-0.4 6.421,1.709 0.635,1.079 0.326,2.275 -0.918,2.5 z"
         id="path16"
         inkscape:connector-curvature="0"
         style="fill:#002285" /></g><path
       sodipodi:nodetypes="ccccccccccccccccccccccccc"
       id="path4-9"
       d="m 66.927129,62.225774 5.338763,0 -6.328071,8.050826 -6.150217,-7.921496 4.982042,0 0.105933,-51.698715 -5.176572,0 6.327411,-8.1817702 6.682466,8.0516312 -5.764421,0.12933 z M 78.29592,0.94528881 l -23.751955,0 m 23.751955,-0.807577 -23.751955,0 0,2.26180099 23.751955,-0.129329 z m 0.07191,71.79835519 -23.751955,0 m 23.751955,-1.583555 -23.751955,0 0,2.391132 23.751955,0 z"
       inkscape:connector-curvature="0"
       style="fill:#002285" /></g></svg>