{
  "boardWidth": 16.0,
  "boardHeight": 16.0,
  "numLayers": 2,
  "boardTemplate": null,
  "designRules": null,
  "omitBoundary": null,
  "packages": [
    {
      "name": "Bio-Impedance",
      "package": "__spaceClaim__",
      "pkg_idx": 0,
      "ComponentID": "82becece-66ce-425f-859b-9fb47339195b",
      "RelComponentID": null,
      "width": 13.0,
      "height": 13.0,
      "koWidth": null,
      "koHeight": null,
      "originX": null,
      "originY": null,
      "x": 0.2,
      "y": 0.2,
      "rotation": 0,
      "layer": 0,
      "constraints": null,
      "multiLayer": null,
      "doNotPlace": null
    },
    {
      "name": "AD5933",
      "package": "AD5933",
      "pkg_idx": 1,
      "ComponentID": "{ee49e045-59f0-409f-af59-fc51e34b6e44}",
      "RelComponentID": "82becece-66ce-425f-859b-9fb47339195b",
      "width": 8.2000000000000011,
      "height": 6.5542,
      "koWidth": 8.2000000000000011,
      "koHeight": 6.5542,
      "originX": 0.0,
      "originY": 0.0,
      "x": 2.1,
      "y": 0.7229,
      "rotation": 2,
      "layer": 0,
      "constraints": [],
      "multiLayer": null,
      "doNotPlace": true
    },
    {
      "name": "AD8606",
      "package": "8-LEADMSOP",
      "pkg_idx": 2,
      "ComponentID": "{903c1232-b97e-439a-8e90-ec8e17724e61}",
      "RelComponentID": "82becece-66ce-425f-859b-9fb47339195b",
      "width": 5.2,
      "height": 3.2,
      "koWidth": 5.2,
      "koHeight": 3.2,
      "originX": 0.0,
      "originY": 0.0,
      "x": 8.2,
      "y": 12.4,
      "rotation": 2,
      "layer": 0,
      "constraints": [],
      "multiLayer": null,
      "doNotPlace": true
    },
    {
      "name": "C1",
      "package": "C_0201",
      "pkg_idx": 3,
      "ComponentID": "{e4eea45c-109e-481c-b0f4-f906b5eb1c57}",
      "RelComponentID": "82becece-66ce-425f-859b-9fb47339195b",
      "width": 1.26,
      "height": 0.5,
      "koWidth": 1.26,
      "koHeight": 0.5,
      "originX": 0.0,
      "originY": 0.0,
      "x": 13.37,
      "y": 6.45,
      "rotation": 0,
      "layer": 0,
      "constraints": [],
      "multiLayer": null,
      "doNotPlace": true
    },
    {
      "name": "R1",
      "package": "R_1206",
      "pkg_idx": 4,
      "ComponentID": "{8f612572-83c7-4ee1-9a66-f89ef461c964}",
      "RelComponentID": "82becece-66ce-425f-859b-9fb47339195b",
      "width": 4.4,
      "height": 1.6,
      "koWidth": 4.4,
      "koHeight": 1.6,
      "originX": 0.0,
      "originY": 0.0,
      "x": 13.1,
      "y": 0.7,
      "rotation": 1,
      "layer": 0,
      "constraints": [],
      "multiLayer": null,
      "doNotPlace": true
    },
    {
      "name": "R2",
      "package": "R_1206",
      "pkg_idx": 5,
      "ComponentID": "{5b93e6e5-1536-4bc8-bced-9ff02fba8726}",
      "RelComponentID": "82becece-66ce-425f-859b-9fb47339195b",
      "width": 4.4,
      "height": 1.6,
      "koWidth": 4.4,
      "koHeight": 1.6,
      "originX": 0.0,
      "originY": 0.0,
      "x": 10.8,
      "y": 8.9,
      "rotation": 2,
      "layer": 1,
      "constraints": [],
      "multiLayer": null,
      "doNotPlace": true
    },
    {
      "name": "R3",
      "package": "R_0201",
      "pkg_idx": 6,
      "ComponentID": "{848caa5e-420c-4d23-ba0c-7934c0560fc0}",
      "RelComponentID": "82becece-66ce-425f-859b-9fb47339195b",
      "width": 1.02,
      "height": 0.29,
      "koWidth": 1.02,
      "koHeight": 0.29,
      "originX": 0.0,
      "originY": 0.0,
      "x": 12.055,
      "y": 3.49,
      "rotation": 1,
      "layer": 0,
      "constraints": [],
      "multiLayer": null,
      "doNotPlace": true
    },
    {
      "name": "R4",
      "package": "R_0201",
      "pkg_idx": 7,
      "ComponentID": "{103891f6-c135-4ddd-8d24-b29b71cc8dbb}",
      "RelComponentID": "82becece-66ce-425f-859b-9fb47339195b",
      "width": 1.02,
      "height": 0.29,
      "koWidth": 1.02,
      "koHeight": 0.29,
      "originX": 0.0,
      "originY": 0.0,
      "x": 7.19,
      "y": 8.655,
      "rotation": 2,
      "layer": 0,
      "constraints": [],
      "multiLayer": null,
      "doNotPlace": true
    },
    {
      "name": "R5",
      "package": "R_1206",
      "pkg_idx": 8,
      "ComponentID": "{e79b2985-7f51-490b-9ac9-8bcf47c02b5c}",
      "RelComponentID": "82becece-66ce-425f-859b-9fb47339195b",
      "width": 4.4,
      "height": 1.6,
      "koWidth": 4.4,
      "koHeight": 1.6,
      "originX": 0.0,
      "originY": 0.0,
      "x": 1.6,
      "y": 13.1,
      "rotation": 0,
      "layer": 1,
      "constraints": [],
      "multiLayer": null,
      "doNotPlace": true
    },
    {
      "name": "R6",
      "package": "R_1206",
      "pkg_idx": 9,
      "ComponentID": "{475441db-f8d3-447c-a861-86a606b74e56}",
      "RelComponentID": "82becece-66ce-425f-859b-9fb47339195b",
      "width": 4.4,
      "height": 1.6,
      "koWidth": 4.4,
      "koHeight": 1.6,
      "originX": 0.0,
      "originY": 0.0,
      "x": 1.9,
      "y": 10.1,
      "rotation": 0,
      "layer": 1,
      "constraints": [],
      "multiLayer": null,
      "doNotPlace": true
    },
    {
      "name": "RFB",
      "package": "R_0603",
      "pkg_idx": 10,
      "ComponentID": "{df228409-53ff-4f0b-aaf0-5dd7e46c104d}",
      "RelComponentID": "82becece-66ce-425f-859b-9fb47339195b",
      "width": 2.4,
      "height": 0.8,
      "koWidth": 2.4,
      "koHeight": 0.8,
      "originX": 0.0,
      "originY": 0.0,
      "x": 3.0,
      "y": 9.0,
      "rotation": 2,
      "layer": 0,
      "constraints": [],
      "multiLayer": null,
      "doNotPlace": true
    },
    {
      "name": "tp4",
      "package": "TP4",
      "pkg_idx": 11,
      "ComponentID": "{4a1dd6a1-d5bf-430c-8ba2-3d3a79c0f7c8}",
      "RelComponentID": "82becece-66ce-425f-859b-9fb47339195b",
      "width": 0.5,
      "height": 7.0,
      "koWidth": 0.5,
      "koHeight": 7.0,
      "originX": 0.0,
      "originY": -0.3,
      "x": 0.75,
      "y": 4.2,
      "rotation": 0,
      "layer": 0,
      "constraints": [],
      "multiLayer": null,
      "doNotPlace": true
    }
  ],
  "signals": [
    {
      "name": "N$0",
      "length": 4.6991630560342612,
      "bends": 3,
      "RelComponentID": "82becece-66ce-425f-859b-9fb47339195b",
      "pins": [
        {
          "name": "VOUT",
          "gate": "G$1",
          "pad": "6",
          "package": "AD5933"
        },
        {
          "name": "P$1",
          "gate": "G$1",
          "pad": "1",
          "package": "C1"
        }
      ],
      "wires": [
        {
          "x1": 11.9,
          "y1": 5.0,
          "x2": 13.6,
          "y2": 6.7,
          "width": 0.1524,
          "layer": 1,
          "curve": 0.0
        },
        {
          "x1": 9.65,
          "y1": 5.0,
          "x2": 11.9,
          "y2": 5.0,
          "width": 0.1524,
          "layer": 1,
          "curve": 0.0
        },
        {
          "x1": 13.6,
          "y1": 6.7,
          "x2": 13.62,
          "y2": 6.7,
          "width": 0.1524,
          "layer": 1,
          "curve": 0.0
        },
        {
          "x1": 9.65,
          "y1": 5.0,
          "x2": 9.65,
          "y2": 4.975,
          "width": 0.1524,
          "layer": 1,
          "curve": 0.0
        }
      ],
      "vias": [],
      "polygons": []
    },
    {
      "name": "N$1",
      "length": 2.5999999999999996,
      "bends": 2,
      "RelComponentID": "82becece-66ce-425f-859b-9fb47339195b",
      "pins": [
        {
          "name": "RFB",
          "gate": "G$1",
          "pad": "4",
          "package": "AD5933"
        },
        {
          "name": "1",
          "gate": "G$1",
          "pad": "P$1",
          "package": "R3"
        }
      ],
      "wires": [
        {
          "x1": 9.65,
          "y1": 3.7,
          "x2": 12.2,
          "y2": 3.7,
          "width": 0.1524,
          "layer": 1,
          "curve": 0.0
        },
        {
          "x1": 12.2,
          "y1": 3.7,
          "x2": 12.2,
          "y2": 3.675,
          "width": 0.1524,
          "layer": 1,
          "curve": 0.0
        },
        {
          "x1": 9.65,
          "y1": 3.7,
          "x2": 9.65,
          "y2": 3.675,
          "width": 0.1524,
          "layer": 1,
          "curve": 0.0
        }
      ],
      "vias": [],
      "polygons": []
    },
    {
      "name": "N$2",
      "length": 7.6720562748477139,
      "bends": 7,
      "RelComponentID": "82becece-66ce-425f-859b-9fb47339195b",
      "pins": [
        {
          "name": "SDA",
          "gate": "G$1",
          "pad": "15",
          "package": "AD5933"
        },
        {
          "name": "P$2",
          "gate": "G$1",
          "pad": "P$2",
          "package": "tp4"
        }
      ],
      "wires": [
        {
          "x1": 1.0,
          "y1": 7.25,
          "x2": 1.0,
          "y2": 9.0,
          "width": 0.1524,
          "layer": 1,
          "curve": 0.0
        },
        {
          "x1": 1.6,
          "y1": 6.65,
          "x2": 1.0,
          "y2": 7.25,
          "width": 0.1524,
          "layer": 16,
          "curve": 0.0
        },
        {
          "x1": 1.6,
          "y1": 3.0,
          "x2": 1.6,
          "y2": 6.65,
          "width": 0.1524,
          "layer": 16,
          "curve": 0.0
        },
        {
          "x1": 2.2,
          "y1": 2.4,
          "x2": 1.6,
          "y2": 3.0,
          "width": 0.1524,
          "layer": 1,
          "curve": 0.0
        },
        {
          "x1": 2.75,
          "y1": 2.4,
          "x2": 2.2,
          "y2": 2.4,
          "width": 0.1524,
          "layer": 1,
          "curve": 0.0
        },
        {
          "x1": 2.75,
          "y1": 2.4,
          "x2": 2.75,
          "y2": 2.375,
          "width": 0.1524,
          "layer": 1,
          "curve": 0.0
        }
      ],
      "vias": [
        {
          "x": 1.0,
          "y": 7.25,
          "drill": 0.3048,
          "layerBegin": 1,
          "layerEnd": 16
        },
        {
          "x": 1.6,
          "y": 3.0,
          "drill": 0.3048,
          "layerBegin": 1,
          "layerEnd": 16
        }
      ],
      "polygons": []
    },
    {
      "name": "N$3",
      "length": 32.161893751794715,
      "bends": 18,
      "RelComponentID": "82becece-66ce-425f-859b-9fb47339195b",
      "pins": [
        {
          "name": "AVDD2",
          "gate": "G$1",
          "pad": "11",
          "package": "AD5933"
        },
        {
          "name": "P$1",
          "gate": "G$1",
          "pad": "P$1",
          "package": "tp4"
        },
        {
          "name": "AVDD1",
          "gate": "G$1",
          "pad": "10",
          "package": "AD5933"
        },
        {
          "name": "DVVD",
          "gate": "G$1",
          "pad": "9",
          "package": "AD5933"
        },
        {
          "name": "VS+",
          "gate": "G$1",
          "pad": "P$8",
          "package": "AD8606"
        },
        {
          "name": "1",
          "gate": "G$1",
          "pad": "P$1",
          "package": "R1"
        },
        {
          "name": "2",
          "gate": "G$1",
          "pad": "P$2",
          "package": "R5"
        }
      ],
      "wires": [
        {
          "x1": 3.0,
          "y1": 13.0,
          "x2": 2.6,
          "y2": 12.6,
          "width": 0.1524,
          "layer": 1,
          "curve": 0.0
        },
        {
          "x1": 2.6,
          "y1": 12.6,
          "x2": 1.0,
          "y2": 11.0,
          "width": 0.1524,
          "layer": 1,
          "curve": 0.0
        },
        {
          "x1": 8.8,
          "y1": 13.0,
          "x2": 4.1,
          "y2": 13.0,
          "width": 0.1524,
          "layer": 1,
          "curve": 0.0
        },
        {
          "x1": 4.1,
          "y1": 13.0,
          "x2": 3.0,
          "y2": 13.0,
          "width": 0.1524,
          "layer": 1,
          "curve": 0.0
        },
        {
          "x1": 8.8,
          "y1": 13.0,
          "x2": 8.8,
          "y2": 13.025,
          "width": 0.1524,
          "layer": 1,
          "curve": 0.0
        },
        {
          "x1": 2.55,
          "y1": 13.6,
          "x2": 2.25,
          "y2": 13.9,
          "width": 0.1524,
          "layer": 16,
          "curve": 0.0
        },
        {
          "x1": 2.55,
          "y1": 12.65,
          "x2": 2.55,
          "y2": 13.6,
          "width": 0.1524,
          "layer": 16,
          "curve": 0.0
        },
        {
          "x1": 2.55,
          "y1": 12.65,
          "x2": 2.6,
          "y2": 12.6,
          "width": 0.1524,
          "layer": 1,
          "curve": 0.0
        },
        {
          "x1": 2.75,
          "y1": 5.625,
          "x2": 2.75,
          "y2": 4.975,
          "width": 0.1524,
          "layer": 1,
          "curve": 0.0
        },
        {
          "x1": 2.75,
          "y1": 5.625,
          "x2": 2.75,
          "y2": 6.2275,
          "width": 0.1524,
          "layer": 1,
          "curve": 0.0
        },
        {
          "x1": 13.85,
          "y1": 1.3,
          "x2": 13.9,
          "y2": 1.35,
          "width": 0.1524,
          "layer": 1,
          "curve": 0.0
        },
        {
          "x1": 6.95,
          "y1": 1.3,
          "x2": 13.85,
          "y2": 1.3,
          "width": 0.1524,
          "layer": 1,
          "curve": 0.0
        },
        {
          "x1": 3.3,
          "y1": 4.95,
          "x2": 6.95,
          "y2": 1.3,
          "width": 0.1524,
          "layer": 1,
          "curve": 0.0
        },
        {
          "x1": 2.8,
          "y1": 4.95,
          "x2": 3.3,
          "y2": 4.95,
          "width": 0.1524,
          "layer": 1,
          "curve": 0.0
        },
        {
          "x1": 2.8,
          "y1": 4.95,
          "x2": 2.75,
          "y2": 4.975,
          "width": 0.1524,
          "layer": 1,
          "curve": 0.0
        },
        {
          "x1": 4.1,
          "y1": 6.3,
          "x2": 4.1,
          "y2": 13.0,
          "width": 0.1524,
          "layer": 1,
          "curve": 0.0
        },
        {
          "x1": 2.75,
          "y1": 6.3,
          "x2": 4.1,
          "y2": 6.3,
          "width": 0.1524,
          "layer": 1,
          "curve": 0.0
        },
        {
          "x1": 2.75,
          "y1": 6.3,
          "x2": 2.75,
          "y2": 6.2275,
          "width": 0.1524,
          "layer": 1,
          "curve": 0.0
        }
      ],
      "vias": [
        {
          "x": 2.55,
          "y": 12.65,
          "drill": 0.3048,
          "layerBegin": 1,
          "layerEnd": 16
        }
      ],
      "polygons": []
    },
    {
      "name": "N$4",
      "length": 22.567514421272207,
      "bends": 14,
      "RelComponentID": "82becece-66ce-425f-859b-9fb47339195b",
      "pins": [
        {
          "name": "AGND1",
          "gate": "G$1",
          "pad": "13",
          "package": "AD5933"
        },
        {
          "name": "P$4",
          "gate": "G$1",
          "pad": "P$4",
          "package": "tp4"
        },
        {
          "name": "VS-",
          "gate": "G$1",
          "pad": "P$4",
          "package": "AD8606"
        },
        {
          "name": "DGND",
          "gate": "G$1",
          "pad": "12",
          "package": "AD5933"
        },
        {
          "name": "AGND2",
          "gate": "G$1",
          "pad": "14",
          "package": "AD5933"
        },
        {
          "name": "1",
          "gate": "G$1",
          "pad": "P$1",
          "package": "R2"
        },
        {
          "name": "2",
          "gate": "G$1",
          "pad": "P$2",
          "package": "R6"
        }
      ],
      "wires": [
        {
          "x1": 2.75,
          "y1": 3.675,
          "x2": 2.75,
          "y2": 3.025,
          "width": 0.1524,
          "layer": 1,
          "curve": 0.0
        },
        {
          "x1": 1.15,
          "y1": 4.35,
          "x2": 1.0,
          "y2": 4.5,
          "width": 0.1524,
          "layer": 1,
          "curve": 0.0
        },
        {
          "x1": 2.75,
          "y1": 4.35,
          "x2": 1.85,
          "y2": 4.35,
          "width": 0.1524,
          "layer": 1,
          "curve": 0.0
        },
        {
          "x1": 1.85,
          "y1": 4.35,
          "x2": 1.15,
          "y2": 4.35,
          "width": 0.1524,
          "layer": 1,
          "curve": 0.0
        },
        {
          "x1": 2.75,
          "y1": 4.35,
          "x2": 2.75,
          "y2": 4.325,
          "width": 0.1524,
          "layer": 1,
          "curve": 0.0
        },
        {
          "x1": 2.75,
          "y1": 4.325,
          "x2": 2.75,
          "y2": 3.675,
          "width": 0.1524,
          "layer": 1,
          "curve": 0.0
        },
        {
          "x1": 12.8,
          "y1": 11.05,
          "x2": 12.8,
          "y2": 13.025,
          "width": 0.1524,
          "layer": 1,
          "curve": 0.0
        },
        {
          "x1": 11.45,
          "y1": 9.7,
          "x2": 12.8,
          "y2": 11.05,
          "width": 0.1524,
          "layer": 16,
          "curve": 0.0
        },
        {
          "x1": 3.8,
          "y1": 9.65,
          "x2": 2.55,
          "y2": 10.9,
          "width": 0.1524,
          "layer": 16,
          "curve": 0.0
        },
        {
          "x1": 11.4,
          "y1": 9.65,
          "x2": 3.8,
          "y2": 9.65,
          "width": 0.1524,
          "layer": 16,
          "curve": 0.0
        },
        {
          "x1": 11.4,
          "y1": 9.65,
          "x2": 11.45,
          "y2": 9.7,
          "width": 0.1524,
          "layer": 16,
          "curve": 0.0
        },
        {
          "x1": 1.85,
          "y1": 7.7,
          "x2": 1.85,
          "y2": 4.35,
          "width": 0.1524,
          "layer": 1,
          "curve": 0.0
        },
        {
          "x1": 3.8,
          "y1": 9.65,
          "x2": 1.85,
          "y2": 7.7,
          "width": 0.1524,
          "layer": 16,
          "curve": 0.0
        }
      ],
      "vias": [
        {
          "x": 12.8,
          "y": 11.05,
          "drill": 0.3048,
          "layerBegin": 1,
          "layerEnd": 16
        },
        {
          "x": 1.85,
          "y": 7.7,
          "drill": 0.3048,
          "layerBegin": 1,
          "layerEnd": 16
        }
      ],
      "polygons": []
    },
    {
      "name": "N$5",
      "length": 8.665138781886597,
      "bends": 6,
      "RelComponentID": "82becece-66ce-425f-859b-9fb47339195b",
      "pins": [
        {
          "name": "VIN",
          "gate": "G$1",
          "pad": "5",
          "package": "AD5933"
        },
        {
          "name": "1",
          "gate": "G$1",
          "pad": "P$1",
          "package": "R4"
        },
        {
          "name": "2",
          "gate": "G$1",
          "pad": "P$2",
          "package": "R3"
        }
      ],
      "wires": [
        {
          "x1": 9.65,
          "y1": 4.35,
          "x2": 12.2,
          "y2": 4.35,
          "width": 0.1524,
          "layer": 1,
          "curve": 0.0
        },
        {
          "x1": 12.2,
          "y1": 4.35,
          "x2": 12.2,
          "y2": 4.325,
          "width": 0.1524,
          "layer": 1,
          "curve": 0.0
        },
        {
          "x1": 9.65,
          "y1": 4.35,
          "x2": 9.65,
          "y2": 4.325,
          "width": 0.1524,
          "layer": 1,
          "curve": 0.0
        },
        {
          "x1": 8.05,
          "y1": 4.4,
          "x2": 8.05,
          "y2": 8.8,
          "width": 0.1524,
          "layer": 1,
          "curve": 0.0
        },
        {
          "x1": 9.6,
          "y1": 4.4,
          "x2": 8.05,
          "y2": 4.4,
          "width": 0.1524,
          "layer": 1,
          "curve": 0.0
        },
        {
          "x1": 8.05,
          "y1": 8.8,
          "x2": 8.025,
          "y2": 8.8,
          "width": 0.1524,
          "layer": 1,
          "curve": 0.0
        },
        {
          "x1": 9.6,
          "y1": 4.4,
          "x2": 9.65,
          "y2": 4.325,
          "width": 0.1524,
          "layer": 1,
          "curve": 0.0
        }
      ],
      "vias": [],
      "polygons": []
    },
    {
      "name": "N$6",
      "length": 7.4371320343559635,
      "bends": 5,
      "RelComponentID": "82becece-66ce-425f-859b-9fb47339195b",
      "pins": [
        {
          "name": "SCL",
          "gate": "G$1",
          "pad": "16",
          "package": "AD5933"
        },
        {
          "name": "P$3",
          "gate": "G$1",
          "pad": "P$3",
          "package": "tp4"
        }
      ],
      "wires": [
        {
          "x1": 1.0,
          "y1": 5.0,
          "x2": 1.0,
          "y2": 6.5,
          "width": 0.1524,
          "layer": 1,
          "curve": 0.0
        },
        {
          "x1": 0.65,
          "y1": 5.0,
          "x2": 1.0,
          "y2": 5.0,
          "width": 0.1524,
          "layer": 1,
          "curve": 0.0
        },
        {
          "x1": 0.5,
          "y1": 4.85,
          "x2": 0.65,
          "y2": 5.0,
          "width": 0.1524,
          "layer": 1,
          "curve": 0.0
        },
        {
          "x1": 0.5,
          "y1": 1.75,
          "x2": 0.5,
          "y2": 4.85,
          "width": 0.1524,
          "layer": 1,
          "curve": 0.0
        },
        {
          "x1": 2.75,
          "y1": 1.75,
          "x2": 0.5,
          "y2": 1.75,
          "width": 0.1524,
          "layer": 1,
          "curve": 0.0
        },
        {
          "x1": 2.75,
          "y1": 1.75,
          "x2": 2.75,
          "y2": 1.725,
          "width": 0.1524,
          "layer": 1,
          "curve": 0.0
        }
      ],
      "vias": [],
      "polygons": []
    },
    {
      "name": "N$7",
      "length": 0.65000000000000036,
      "bends": 0,
      "RelComponentID": "82becece-66ce-425f-859b-9fb47339195b",
      "pins": [
        {
          "name": "IN_N_A",
          "gate": "G$1",
          "pad": "P$2",
          "package": "AD8606"
        },
        {
          "name": "OUT_A",
          "gate": "G$1",
          "pad": "P$1",
          "package": "AD8606"
        }
      ],
      "wires": [
        {
          "x1": 12.8,
          "y1": 14.975,
          "x2": 12.8,
          "y2": 14.325,
          "width": 0.1524,
          "layer": 1,
          "curve": 0.0
        }
      ],
      "vias": [],
      "polygons": []
    },
    {
      "name": "N$8",
      "length": 12.046396086168281,
      "bends": 13,
      "RelComponentID": "82becece-66ce-425f-859b-9fb47339195b",
      "pins": [
        {
          "name": "IN_P_A",
          "gate": "G$1",
          "pad": "P$3",
          "package": "AD8606"
        },
        {
          "name": "2",
          "gate": "G$1",
          "pad": "P$2",
          "package": "R1"
        },
        {
          "name": "P$2",
          "gate": "G$1",
          "pad": "2",
          "package": "C1"
        },
        {
          "name": "2",
          "gate": "G$1",
          "pad": "P$2",
          "package": "R2"
        }
      ],
      "wires": [
        {
          "x1": 14.35,
          "y1": 4.45,
          "x2": 14.35,
          "y2": 6.7,
          "width": 0.1524,
          "layer": 1,
          "curve": 0.0
        },
        {
          "x1": 13.9,
          "y1": 4.45,
          "x2": 14.35,
          "y2": 4.45,
          "width": 0.1524,
          "layer": 1,
          "curve": 0.0
        },
        {
          "x1": 14.35,
          "y1": 6.7,
          "x2": 14.38,
          "y2": 6.7,
          "width": 0.1524,
          "layer": 1,
          "curve": 0.0
        },
        {
          "x1": 12.95,
          "y1": 13.5,
          "x2": 12.8,
          "y2": 13.65,
          "width": 0.1524,
          "layer": 1,
          "curve": 0.0
        },
        {
          "x1": 13.45,
          "y1": 13.5,
          "x2": 12.95,
          "y2": 13.5,
          "width": 0.1524,
          "layer": 1,
          "curve": 0.0
        },
        {
          "x1": 14.3,
          "y1": 12.65,
          "x2": 13.45,
          "y2": 13.5,
          "width": 0.1524,
          "layer": 1,
          "curve": 0.0
        },
        {
          "x1": 14.3,
          "y1": 6.75,
          "x2": 14.3,
          "y2": 10.95,
          "width": 0.1524,
          "layer": 1,
          "curve": 0.0
        },
        {
          "x1": 14.3,
          "y1": 10.95,
          "x2": 14.3,
          "y2": 12.65,
          "width": 0.1524,
          "layer": 1,
          "curve": 0.0
        },
        {
          "x1": 12.8,
          "y1": 13.65,
          "x2": 12.8,
          "y2": 13.675,
          "width": 0.1524,
          "layer": 1,
          "curve": 0.0
        },
        {
          "x1": 14.3,
          "y1": 6.75,
          "x2": 14.38,
          "y2": 6.7,
          "width": 0.1524,
          "layer": 1,
          "curve": 0.0
        },
        {
          "x1": 14.35,
          "y1": 9.9,
          "x2": 14.55,
          "y2": 9.7,
          "width": 0.1524,
          "layer": 16,
          "curve": 0.0
        },
        {
          "x1": 14.35,
          "y1": 10.95,
          "x2": 14.35,
          "y2": 9.9,
          "width": 0.1524,
          "layer": 16,
          "curve": 0.0
        },
        {
          "x1": 14.35,
          "y1": 10.95,
          "x2": 14.3,
          "y2": 10.95,
          "width": 0.1524,
          "layer": 1,
          "curve": 0.0
        }
      ],
      "vias": [
        {
          "x": 14.35,
          "y": 10.95,
          "drill": 0.3048,
          "layerBegin": 1,
          "layerEnd": 16
        }
      ],
      "polygons": []
    },
    {
      "name": "N$9",
      "length": 7.034188309203679,
      "bends": 6,
      "RelComponentID": "82becece-66ce-425f-859b-9fb47339195b",
      "pins": [
        {
          "name": "IN_P_B",
          "gate": "G$1",
          "pad": "P$5",
          "package": "AD8606"
        },
        {
          "name": "1",
          "gate": "G$1",
          "pad": "P$1",
          "package": "R5"
        },
        {
          "name": "1",
          "gate": "G$1",
          "pad": "P$1",
          "package": "R6"
        }
      ],
      "wires": [
        {
          "x1": 6.4,
          "y1": 14.95,
          "x2": 8.8,
          "y2": 14.95,
          "width": 0.1524,
          "layer": 1,
          "curve": 0.0
        },
        {
          "x1": 5.35,
          "y1": 13.9,
          "x2": 6.4,
          "y2": 14.95,
          "width": 0.1524,
          "layer": 16,
          "curve": 0.0
        },
        {
          "x1": 8.8,
          "y1": 14.95,
          "x2": 8.8,
          "y2": 14.975,
          "width": 0.1524,
          "layer": 1,
          "curve": 0.0
        },
        {
          "x1": 5.4,
          "y1": 11.15,
          "x2": 5.65,
          "y2": 10.9,
          "width": 0.1524,
          "layer": 16,
          "curve": 0.0
        },
        {
          "x1": 5.4,
          "y1": 13.85,
          "x2": 5.4,
          "y2": 11.15,
          "width": 0.1524,
          "layer": 16,
          "curve": 0.0
        },
        {
          "x1": 5.4,
          "y1": 13.85,
          "x2": 5.35,
          "y2": 13.9,
          "width": 0.1524,
          "layer": 16,
          "curve": 0.0
        }
      ],
      "vias": [
        {
          "x": 6.4,
          "y": 14.95,
          "drill": 0.3048,
          "layerBegin": 1,
          "layerEnd": 16
        }
      ],
      "polygons": []
    },
    {
      "name": "N$10",
      "length": 15.392766952966369,
      "bends": 5,
      "RelComponentID": "82becece-66ce-425f-859b-9fb47339195b",
      "pins": [
        {
          "name": "IN_N_B",
          "gate": "G$1",
          "pad": "P$6",
          "package": "AD8606"
        },
        {
          "name": "2",
          "gate": "G$1",
          "pad": "P$2",
          "package": "RFB"
        }
      ],
      "wires": [
        {
          "x1": 2.3,
          "y1": 10.5,
          "x2": 3.4,
          "y2": 9.4,
          "width": 0.1524,
          "layer": 1,
          "curve": 0.0
        },
        {
          "x1": 0.65,
          "y1": 10.5,
          "x2": 2.3,
          "y2": 10.5,
          "width": 0.1524,
          "layer": 1,
          "curve": 0.0
        },
        {
          "x1": 0.5,
          "y1": 10.65,
          "x2": 0.65,
          "y2": 10.5,
          "width": 0.1524,
          "layer": 1,
          "curve": 0.0
        },
        {
          "x1": 0.5,
          "y1": 14.3,
          "x2": 0.5,
          "y2": 10.65,
          "width": 0.1524,
          "layer": 1,
          "curve": 0.0
        },
        {
          "x1": 8.8,
          "y1": 14.3,
          "x2": 0.5,
          "y2": 14.3,
          "width": 0.1524,
          "layer": 1,
          "curve": 0.0
        },
        {
          "x1": 8.8,
          "y1": 14.3,
          "x2": 8.8,
          "y2": 14.325,
          "width": 0.1524,
          "layer": 1,
          "curve": 0.0
        }
      ],
      "vias": [],
      "polygons": []
    },
    {
      "name": "N$11",
      "length": 10.414213562373098,
      "bends": 9,
      "RelComponentID": "82becece-66ce-425f-859b-9fb47339195b",
      "pins": [
        {
          "name": "OUT_B",
          "gate": "G$1",
          "pad": "P$7",
          "package": "AD8606"
        },
        {
          "name": "1",
          "gate": "G$1",
          "pad": "P$1",
          "package": "RFB"
        },
        {
          "name": "2",
          "gate": "G$1",
          "pad": "P$2",
          "package": "R4"
        }
      ],
      "wires": [
        {
          "x1": 6.75,
          "y1": 9.4,
          "x2": 7.35,
          "y2": 8.8,
          "width": 0.1524,
          "layer": 1,
          "curve": 0.0
        },
        {
          "x1": 5.0,
          "y1": 9.4,
          "x2": 6.75,
          "y2": 9.4,
          "width": 0.1524,
          "layer": 1,
          "curve": 0.0
        },
        {
          "x1": 7.35,
          "y1": 8.8,
          "x2": 7.375,
          "y2": 8.8,
          "width": 0.1524,
          "layer": 1,
          "curve": 0.0
        },
        {
          "x1": 8.95,
          "y1": 13.5,
          "x2": 8.8,
          "y2": 13.65,
          "width": 0.1524,
          "layer": 1,
          "curve": 0.0
        },
        {
          "x1": 9.45,
          "y1": 13.5,
          "x2": 8.95,
          "y2": 13.5,
          "width": 0.1524,
          "layer": 1,
          "curve": 0.0
        },
        {
          "x1": 9.65,
          "y1": 13.3,
          "x2": 9.45,
          "y2": 13.5,
          "width": 0.1524,
          "layer": 1,
          "curve": 0.0
        },
        {
          "x1": 9.65,
          "y1": 9.45,
          "x2": 9.65,
          "y2": 13.3,
          "width": 0.1524,
          "layer": 1,
          "curve": 0.0
        },
        {
          "x1": 6.8,
          "y1": 9.45,
          "x2": 9.65,
          "y2": 9.45,
          "width": 0.1524,
          "layer": 1,
          "curve": 0.0
        },
        {
          "x1": 8.8,
          "y1": 13.65,
          "x2": 8.8,
          "y2": 13.675,
          "width": 0.1524,
          "layer": 1,
          "curve": 0.0
        },
        {
          "x1": 6.8,
          "y1": 9.45,
          "x2": 6.75,
          "y2": 9.4,
          "width": 0.1524,
          "layer": 1,
          "curve": 0.0
        }
      ],
      "vias": [],
      "polygons": []
    }
  ],
  "constraints": null,
  "border": null
}