{
  "boardWidth": 7.0,
  "boardHeight": 11.0,
  "numLayers": 2,
  "boardTemplate": null,
  "designRules": null,
  "omitBoundary": null,
  "packages": [
    {
      "name": "SUBCKT_PRESSURE_TEMPERATURE",
      "package": "__spaceClaim__",
      "pkg_idx": 0,
      "ComponentID": "0451d9d2-267e-48ea-af56-8cd517f3e173",
      "RelComponentID": null,
      "width": 6.0,
      "height": 10.0,
      "koWidth": null,
      "koHeight": null,
      "originX": null,
      "originY": null,
      "x": 0.2,
      "y": 0.2,
      "rotation": 0,
      "layer": 0,
      "constraints": null,
      "multiLayer": null,
      "doNotPlace": null
    },
    {
      "name": "C3",
      "package": "TANT_2012-METRIC",
      "pkg_idx": 1,
      "ComponentID": "{03faa614-f3c6-4a97-964e-ddfb01b515e1}",
      "RelComponentID": "0451d9d2-267e-48ea-af56-8cd517f3e173",
      "width": 3.6392,
      "height": 1.6,
      "koWidth": 3.6392,
      "koHeight": 1.6,
      "originX": -0.3,
      "originY": 0.0,
      "x": 1.3804,
      "y": 1.3,
      "rotation": 2,
      "layer": 0,
      "constraints": [],
      "multiLayer": null,
      "doNotPlace": true
    },
    {
      "name": "C1",
      "package": "C_0201",
      "pkg_idx": 2,
      "ComponentID": "{7d36d8a5-629e-4ce2-940d-5ff65c08e190}",
      "RelComponentID": "0451d9d2-267e-48ea-af56-8cd517f3e173",
      "width": 1.26,
      "height": 0.5,
      "koWidth": 1.26,
      "koHeight": 0.5,
      "originX": 0.0,
      "originY": 0.0,
      "x": 1.15,
      "y": 3.37,
      "rotation": 3,
      "layer": 0,
      "constraints": [],
      "multiLayer": null,
      "doNotPlace": true
    },
    {
      "name": "C2",
      "package": "C_0201",
      "pkg_idx": 3,
      "ComponentID": "{64b80f14-0cb6-4775-aa4c-5ccd355741d3}",
      "RelComponentID": "0451d9d2-267e-48ea-af56-8cd517f3e173",
      "width": 1.26,
      "height": 0.5,
      "koWidth": 1.26,
      "koHeight": 0.5,
      "originX": 0.0,
      "originY": 0.0,
      "x": 3.45,
      "y": 3.27,
      "rotation": 1,
      "layer": 0,
      "constraints": [],
      "multiLayer": null,
      "doNotPlace": true
    },
    {
      "name": "tp4",
      "package": "TP4",
      "pkg_idx": 4,
      "ComponentID": "{942576a9-ee3a-4661-8d4c-05f19ea3adc1}",
      "RelComponentID": "0451d9d2-267e-48ea-af56-8cd517f3e173",
      "width": 0.5,
      "height": 7.0,
      "koWidth": 0.5,
      "koHeight": 7.0,
      "originX": 0.0,
      "originY": -0.3,
      "x": 6.05,
      "y": 2.7,
      "rotation": 0,
      "layer": 0,
      "constraints": [],
      "multiLayer": null,
      "doNotPlace": true
    },
    {
      "name": "BMP180_I2C",
      "package": "7_PIN_LGA",
      "pkg_idx": 5,
      "ComponentID": "{8b4bc7b9-8ef9-4eed-9548-a8b8c9dba593}",
      "RelComponentID": "0451d9d2-267e-48ea-af56-8cd517f3e173",
      "width": 4.9542,
      "height": 5.0542,
      "koWidth": 4.9542,
      "koHeight": 5.0542,
      "originX": -0.3,
      "originY": 0.2,
      "x": 0.4229,
      "y": 5.0729,
      "rotation": 0,
      "layer": 0,
      "constraints": [],
      "multiLayer": null,
      "doNotPlace": true
    }
  ],
  "signals": [
    {
      "name": "N$0",
      "length": 24.079377313914318,
      "bends": 16,
      "RelComponentID": "0451d9d2-267e-48ea-af56-8cd517f3e173",
      "pins": [
        {
          "name": "-",
          "gate": "G$1",
          "pad": "P$2",
          "package": "C3"
        },
        {
          "name": "P$2",
          "gate": "G$1",
          "pad": "2",
          "package": "C2"
        },
        {
          "name": "P$4",
          "gate": "G$1",
          "pad": "P$4",
          "package": "tp4"
        },
        {
          "name": "GND",
          "gate": "G$1",
          "pad": "7",
          "package": "BMP180_I2C"
        },
        {
          "name": "P$2",
          "gate": "G$1",
          "pad": "2",
          "package": "C1"
        }
      ],
      "wires": [
        {
          "x1": 1.4,
          "y1": 2.1,
          "x2": 1.4,
          "y2": 3.62,
          "width": 0.1524,
          "layer": 1,
          "curve": 0.0
        },
        {
          "x1": 1.945,
          "y1": 2.1,
          "x2": 1.4,
          "y2": 2.1,
          "width": 0.1524,
          "layer": 1,
          "curve": 0.0
        },
        {
          "x1": 3.45,
          "y1": 4.0,
          "x2": 3.7,
          "y2": 4.25,
          "width": 0.1524,
          "layer": 1,
          "curve": 0.0
        },
        {
          "x1": 1.85,
          "y1": 4.0,
          "x2": 3.45,
          "y2": 4.0,
          "width": 0.1524,
          "layer": 1,
          "curve": 0.0
        },
        {
          "x1": 1.5,
          "y1": 3.65,
          "x2": 1.85,
          "y2": 4.0,
          "width": 0.1524,
          "layer": 1,
          "curve": 0.0
        },
        {
          "x1": 1.45,
          "y1": 3.65,
          "x2": 1.5,
          "y2": 3.65,
          "width": 0.1524,
          "layer": 1,
          "curve": 0.0
        },
        {
          "x1": 3.7,
          "y1": 4.25,
          "x2": 3.7,
          "y2": 4.28,
          "width": 0.1524,
          "layer": 1,
          "curve": 0.0
        },
        {
          "x1": 1.45,
          "y1": 3.65,
          "x2": 1.4,
          "y2": 3.62,
          "width": 0.1524,
          "layer": 1,
          "curve": 0.0
        },
        {
          "x1": 5.1,
          "y1": 4.2,
          "x2": 6.3,
          "y2": 3.0,
          "width": 0.1524,
          "layer": 1,
          "curve": 0.0
        },
        {
          "x1": 3.75,
          "y1": 4.2,
          "x2": 5.1,
          "y2": 4.2,
          "width": 0.1524,
          "layer": 1,
          "curve": 0.0
        },
        {
          "x1": 3.75,
          "y1": 4.2,
          "x2": 3.7,
          "y2": 4.28,
          "width": 0.1524,
          "layer": 1,
          "curve": 0.0
        },
        {
          "x1": 2.25,
          "y1": 7.95,
          "x2": 3.2,
          "y2": 8.9,
          "width": 0.1524,
          "layer": 1,
          "curve": 0.0
        },
        {
          "x1": 1.4,
          "y1": 7.95,
          "x2": 2.25,
          "y2": 7.95,
          "width": 0.1524,
          "layer": 1,
          "curve": 0.0
        },
        {
          "x1": 0.55,
          "y1": 7.1,
          "x2": 1.4,
          "y2": 7.95,
          "width": 0.1524,
          "layer": 1,
          "curve": 0.0
        },
        {
          "x1": 0.55,
          "y1": 0.85,
          "x2": 0.55,
          "y2": 7.1,
          "width": 0.1524,
          "layer": 1,
          "curve": 0.0
        },
        {
          "x1": 4.15,
          "y1": 0.85,
          "x2": 0.55,
          "y2": 0.85,
          "width": 0.1524,
          "layer": 1,
          "curve": 0.0
        },
        {
          "x1": 6.3,
          "y1": 3.0,
          "x2": 4.15,
          "y2": 0.85,
          "width": 0.1524,
          "layer": 1,
          "curve": 0.0
        }
      ],
      "vias": [],
      "polygons": []
    },
    {
      "name": "N$1",
      "length": 18.022035444036078,
      "bends": 18,
      "RelComponentID": "0451d9d2-267e-48ea-af56-8cd517f3e173",
      "pins": [
        {
          "name": "+",
          "gate": "G$1",
          "pad": "P$1",
          "package": "C3"
        },
        {
          "name": "P$1",
          "gate": "G$1",
          "pad": "P$1",
          "package": "tp4"
        },
        {
          "name": "VDD",
          "gate": "G$1",
          "pad": "2",
          "package": "BMP180_I2C"
        },
        {
          "name": "VDDIO",
          "gate": "G$1",
          "pad": "3",
          "package": "BMP180_I2C"
        },
        {
          "name": "P$1",
          "gate": "G$1",
          "pad": "1",
          "package": "C1"
        },
        {
          "name": "P$1",
          "gate": "G$1",
          "pad": "1",
          "package": "C2"
        }
      ],
      "wires": [
        {
          "x1": 3.7,
          "y1": 2.1,
          "x2": 3.7,
          "y2": 3.52,
          "width": 0.1524,
          "layer": 1,
          "curve": 0.0
        },
        {
          "x1": 3.855,
          "y1": 2.1,
          "x2": 3.7,
          "y2": 2.1,
          "width": 0.1524,
          "layer": 1,
          "curve": 0.0
        },
        {
          "x1": 1.4,
          "y1": 5.9,
          "x2": 1.4,
          "y2": 4.38,
          "width": 0.1524,
          "layer": 1,
          "curve": 0.0
        },
        {
          "x1": 1.75,
          "y1": 5.9,
          "x2": 1.4,
          "y2": 5.9,
          "width": 0.1524,
          "layer": 1,
          "curve": 0.0
        },
        {
          "x1": 6.25,
          "y1": 9.45,
          "x2": 6.3,
          "y2": 9.5,
          "width": 0.1524,
          "layer": 1,
          "curve": 0.0
        },
        {
          "x1": 4.3,
          "y1": 9.45,
          "x2": 6.25,
          "y2": 9.45,
          "width": 0.1524,
          "layer": 1,
          "curve": 0.0
        },
        {
          "x1": 3.75,
          "y1": 8.9,
          "x2": 4.3,
          "y2": 9.45,
          "width": 0.1524,
          "layer": 1,
          "curve": 0.0
        },
        {
          "x1": 3.75,
          "y1": 7.4,
          "x2": 3.75,
          "y2": 8.9,
          "width": 0.1524,
          "layer": 1,
          "curve": 0.0
        },
        {
          "x1": 1.75,
          "y1": 7.4,
          "x2": 3.75,
          "y2": 7.4,
          "width": 0.1524,
          "layer": 1,
          "curve": 0.0
        },
        {
          "x1": 1.7,
          "y1": 7.35,
          "x2": 1.7,
          "y2": 5.95,
          "width": 0.1524,
          "layer": 1,
          "curve": 0.0
        },
        {
          "x1": 1.7,
          "y1": 5.95,
          "x2": 1.75,
          "y2": 5.9,
          "width": 0.1524,
          "layer": 1,
          "curve": 0.0
        },
        {
          "x1": 1.7,
          "y1": 7.35,
          "x2": 1.75,
          "y2": 7.4,
          "width": 0.1524,
          "layer": 1,
          "curve": 0.0
        },
        {
          "x1": 2.8,
          "y1": 1.2,
          "x2": 3.65,
          "y2": 2.05,
          "width": 0.1524,
          "layer": 1,
          "curve": 0.0
        },
        {
          "x1": 1.3,
          "y1": 1.2,
          "x2": 2.8,
          "y2": 1.2,
          "width": 0.1524,
          "layer": 1,
          "curve": 0.0
        },
        {
          "x1": 0.9,
          "y1": 1.6,
          "x2": 1.3,
          "y2": 1.2,
          "width": 0.1524,
          "layer": 1,
          "curve": 0.0
        },
        {
          "x1": 0.9,
          "y1": 4.35,
          "x2": 0.9,
          "y2": 1.6,
          "width": 0.1524,
          "layer": 1,
          "curve": 0.0
        },
        {
          "x1": 1.35,
          "y1": 4.35,
          "x2": 0.9,
          "y2": 4.35,
          "width": 0.1524,
          "layer": 1,
          "curve": 0.0
        },
        {
          "x1": 3.65,
          "y1": 2.05,
          "x2": 3.855,
          "y2": 2.1,
          "width": 0.1524,
          "layer": 1,
          "curve": 0.0
        },
        {
          "x1": 1.35,
          "y1": 4.35,
          "x2": 1.4,
          "y2": 4.38,
          "width": 0.1524,
          "layer": 1,
          "curve": 0.0
        }
      ],
      "vias": [],
      "polygons": []
    },
    {
      "name": "N$2",
      "length": 3.8156854249492378,
      "bends": 2,
      "RelComponentID": "0451d9d2-267e-48ea-af56-8cd517f3e173",
      "pins": [
        {
          "name": "P$3",
          "gate": "G$1",
          "pad": "P$3",
          "package": "tp4"
        },
        {
          "name": "SCL",
          "gate": "G$1",
          "pad": "5",
          "package": "BMP180_I2C"
        }
      ],
      "wires": [
        {
          "x1": 6.3,
          "y1": 7.0,
          "x2": 6.3,
          "y2": 5.0,
          "width": 0.1524,
          "layer": 1,
          "curve": 0.0
        },
        {
          "x1": 5.05,
          "y1": 7.0,
          "x2": 6.3,
          "y2": 7.0,
          "width": 0.1524,
          "layer": 1,
          "curve": 0.0
        },
        {
          "x1": 4.65,
          "y1": 7.4,
          "x2": 5.05,
          "y2": 7.0,
          "width": 0.1524,
          "layer": 1,
          "curve": 0.0
        }
      ],
      "vias": [],
      "polygons": []
    },
    {
      "name": "N$3",
      "length": 2.2298989873223327,
      "bends": 1,
      "RelComponentID": "0451d9d2-267e-48ea-af56-8cd517f3e173",
      "pins": [
        {
          "name": "P$2",
          "gate": "G$1",
          "pad": "P$2",
          "package": "tp4"
        },
        {
          "name": "SDA",
          "gate": "G$1",
          "pad": "6",
          "package": "BMP180_I2C"
        }
      ],
      "wires": [
        {
          "x1": 4.9,
          "y1": 8.9,
          "x2": 6.3,
          "y2": 7.5,
          "width": 0.1524,
          "layer": 1,
          "curve": 0.0
        },
        {
          "x1": 4.65,
          "y1": 8.9,
          "x2": 4.9,
          "y2": 8.9,
          "width": 0.1524,
          "layer": 1,
          "curve": 0.0
        }
      ],
      "vias": [],
      "polygons": []
    }
  ],
  "constraints": null,
  "border": null
}