<?xml version="1.0" encoding="utf-8"?>
<!DOCTYPE eagle SYSTEM "eagle.dtd">
<eagle version="6.6.0">
<drawing>
<settings>
<setting alwaysvectorfont="no"/>
<setting verticaltext="up"/>
</settings>
<grid distance="0.1" unitdist="inch" unit="inch" style="lines" multiple="1" display="no" altdistance="0.01" altunitdist="inch" altunit="inch"/>
<layers>
</layers>
<library>
<packages>
<package name="SOT-23-5">
<description>&lt;b&gt;Small Outline Transistor&lt;/b&gt;</description>
<wire x1="1.45" y1="0.8104" x2="1.45" y2="-0.8104" width="0.1524" layer="21"/>
<wire x1="1.4224" y1="-0.8104" x2="-1.4224" y2="-0.8104" width="0.1524" layer="51"/>
<wire x1="-1.45" y1="-0.8104" x2="-1.45" y2="0.8104" width="0.1524" layer="21"/>
<wire x1="-1.4224" y1="0.8104" x2="1.4224" y2="0.8104" width="0.1524" layer="51"/>
<wire x1="-0.5224" y1="0.8104" x2="0.5224" y2="0.8104" width="0.1524" layer="21"/>
<wire x1="-0.4276" y1="-0.8104" x2="-0.5224" y2="-0.8104" width="0.1524" layer="21"/>
<wire x1="0.5224" y1="-0.8104" x2="0.4276" y2="-0.8104" width="0.1524" layer="21"/>
<wire x1="-1.3276" y1="-0.8104" x2="-1.45" y2="-0.8104" width="0.1524" layer="21"/>
<wire x1="1.45" y1="-0.8104" x2="1.3276" y2="-0.8104" width="0.1524" layer="21"/>
<wire x1="1.3276" y1="0.8104" x2="1.45" y2="0.8104" width="0.1524" layer="21"/>
<wire x1="-1.45" y1="0.8104" x2="-1.3276" y2="0.8104" width="0.1524" layer="21"/>
<smd name="1" x="-0.95" y="-1.3001" dx="0.69" dy="1.2" layer="1"/>
<smd name="2" x="0" y="-1.3001" dx="0.69" dy="1.2" layer="1"/>
<smd name="3" x="0.95" y="-1.3001" dx="0.69" dy="1.2" layer="1"/>
<smd name="4" x="0.95" y="1.3001" dx="0.69" dy="1.2" layer="1"/>
<smd name="5" x="-0.95" y="1.3001" dx="0.69" dy="1.2" layer="1"/>
<text x="-1.905" y="-1.27" size="0.889" layer="25" ratio="11" rot="R90">&gt;NAME</text>
<text x="-1.27" y="-0.254" size="0.635" layer="27" ratio="10">&gt;VALUE</text>
<rectangle x1="-1.2" y1="-1.5" x2="-0.7" y2="-0.85" layer="51"/>
<rectangle x1="-0.25" y1="-1.5" x2="0.25" y2="-0.85" layer="51"/>
<rectangle x1="0.7" y1="-1.5" x2="1.2" y2="-0.85" layer="51"/>
<rectangle x1="0.7" y1="0.85" x2="1.2" y2="1.5" layer="51"/>
<rectangle x1="-1.2" y1="0.85" x2="-0.7" y2="1.5" layer="51"/>
<rectangle x1="-1.397" y1="-0.762" x2="1.397" y2="0.762" layer="39"/>
</package>
</packages>
<symbols>
<symbol name="PMIC-RT9167A-33PB">
<pin name="VIN" x="-10.16" y="2.54" length="short"/>
<pin name="GND" x="-10.16" y="0" length="short"/>
<pin name="EN" x="-10.16" y="-2.54" length="short"/>
<pin name="BP" x="10.16" y="-2.54" length="short" rot="R180"/>
<pin name="VOUT" x="10.16" y="2.54" length="short" rot="R180"/>
<text x="-6.35" y="5.08" size="1.27" layer="95" ratio="10">&gt;NAME</text>
<text x="0" y="5.08" size="1.27" layer="96" ratio="10">&gt;VALUE</text>
<wire x1="-6.35" y1="5.08" x2="6.35" y2="5.08" width="0.1524" layer="94"/>
<wire x1="6.35" y1="5.08" x2="6.35" y2="2.54" width="0.1524" layer="94"/>
<wire x1="6.35" y1="2.54" x2="6.35" y2="-2.54" width="0.1524" layer="94"/>
<wire x1="6.35" y1="-2.54" x2="6.35" y2="-5.08" width="0.1524" layer="94"/>
<wire x1="6.35" y1="-5.08" x2="-6.35" y2="-5.08" width="0.1524" layer="94"/>
<wire x1="-6.35" y1="-5.08" x2="-6.35" y2="-2.54" width="0.1524" layer="94"/>
<wire x1="-6.35" y1="-2.54" x2="-6.35" y2="0" width="0.1524" layer="94"/>
<wire x1="-6.35" y1="0" x2="-6.35" y2="2.54" width="0.1524" layer="94"/>
<wire x1="-6.35" y1="2.54" x2="-6.35" y2="5.08" width="0.1524" layer="94"/>
<wire x1="-7.62" y1="2.54" x2="-6.35" y2="2.54" width="0.1524" layer="94"/>
<wire x1="-7.62" y1="0" x2="-6.35" y2="0" width="0.1524" layer="94"/>
<wire x1="-7.62" y1="-2.54" x2="-6.35" y2="-2.54" width="0.1524" layer="94"/>
<wire x1="7.62" y1="-2.54" x2="6.35" y2="-2.54" width="0.1524" layer="94"/>
<wire x1="7.62" y1="2.54" x2="6.35" y2="2.54" width="0.1524" layer="94"/>
</symbol>
</symbols>
<devicesets>
<deviceset name="RT9167A-33GB" prefix="U" uservalue="yes">
<gates>
<gate name="G$1" symbol="PMIC-RT9167A-33PB" x="0" y="0"/>
</gates>
<devices>
<device name="-310040021" package="SOT-23-5">
<connects>
<connect gate="G$1" pin="BP" pad="4"/>
<connect gate="G$1" pin="EN" pad="3"/>
<connect gate="G$1" pin="GND" pad="2"/>
<connect gate="G$1" pin="VIN" pad="1"/>
<connect gate="G$1" pin="VOUT" pad="5"/>
</connects>
<technologies>
<technology name=""/>
</technologies>
</device>
</devices>
</deviceset>
</devicesets>
</library>
</drawing>
</eagle>
