<svg xmlns:dc="http://purl.org/dc/elements/1.1/" xmlns:cc="http://creativecommons.org/ns#" xmlns:rdf="http://www.w3.org/1999/02/22-rdf-syntax-ns#" xmlns:svg="http://www.w3.org/2000/svg" xmlns="http://www.w3.org/2000/svg" xmlns:sodipodi="http://sodipodi.sourceforge.net/DTD/sodipodi-0.dtd" xmlns:inkscape="http://www.inkscape.org/namespaces/inkscape" version="1.1" data-icon="dial" data-container-transform="translate(0 2)" viewBox="0 0 32 32" x="0px" y="0px" id="svg2" inkscape:version="0.91 r13725" sodipodi:docname="Mux.svg">
  <metadata id="metadata10">
    <rdf:RDF>
      <cc:Work rdf:about="">
        <dc:format>image/svg+xml</dc:format>
        <dc:type rdf:resource="http://purl.org/dc/dcmitype/StillImage"/>
      </cc:Work>
    </rdf:RDF>
  </metadata>
  <defs id="defs8"/>
  <sodipodi:namedview pagecolor="#ffffff" bordercolor="#666666" borderopacity="1" objecttolerance="10" gridtolerance="10" guidetolerance="10" inkscape:pageopacity="0" inkscape:pageshadow="2" inkscape:window-width="2048" inkscape:window-height="1091" id="namedview6" showgrid="true" inkscape:zoom="16" inkscape:cx="1.175528" inkscape:cy="10.150898" inkscape:window-x="-8" inkscape:window-y="-8" inkscape:window-maximized="1" inkscape:current-layer="svg2">
    <inkscape:grid type="xygrid" id="grid4138"/>
  </sodipodi:namedview>
  <path d="M 18.125 2.9199219 L 17.722656 3.2089844 L 16.757812 6.1074219 C 16.189794 6.0345839 15.596043 5.9863281 14.953125 5.9863281 L 8.6113281 5.9863281 C 7.1642159 5.9863281 5.96875 7.1087768 5.96875 8.6289062 L 5.96875 9.359375 L 1.8847656 9.359375 L 1.8847656 10.205078 L 5.96875 10.205078 L 5.96875 10.742188 L 5.96875 19.353516 L 1.8847656 19.353516 L 1.8847656 20.197266 L 5.96875 20.197266 L 5.96875 21.851562 L 1.8847656 21.851562 L 1.8847656 22.697266 L 5.96875 22.697266 L 5.96875 23.427734 C 5.96875 24.910631 7.1695471 26.070313 8.6113281 26.070312 L 14.953125 26.070312 C 15.395639 26.070312 15.808086 26.041066 16.214844 26.005859 L 16.650391 28.777344 L 17.066406 29.134766 L 29.751953 29.134766 L 29.751953 28.289062 L 17.429688 28.289062 L 17.052734 25.900391 C 18.543099 25.672048 19.773021 25.206557 20.777344 24.583984 L 22.056641 25.841797 L 22.351562 25.962891 L 29.751953 25.962891 L 29.751953 25.117188 L 22.525391 25.117188 L 21.488281 24.097656 C 22.241893 23.513634 22.855813 22.84373 23.324219 22.125 C 23.471254 21.899387 23.599603 21.668392 23.722656 21.4375 L 26.394531 22.75 L 26.580078 22.792969 L 29.751953 22.792969 L 29.751953 21.947266 L 26.677734 21.947266 L 24.085938 20.671875 C 24.45193 19.809402 24.67956 18.946075 24.8125 18.152344 L 25.962891 18.542969 L 26.097656 18.564453 L 29.751953 18.564453 L 29.751953 17.71875 L 26.167969 17.71875 L 24.931641 17.298828 C 24.978423 16.826184 24.994141 16.395368 24.994141 16.027344 C 24.994141 15.554511 24.960671 14.971812 24.876953 14.335938 L 29.751953 14.335938 L 29.751953 13.490234 L 24.736328 13.490234 C 24.572605 12.682062 24.307184 11.82188 23.898438 10.970703 L 25.623047 10.107422 L 29.751953 10.107422 L 29.751953 9.2636719 L 25.523438 9.2636719 L 25.333984 9.3066406 L 23.496094 10.226562 C 23.437194 10.128023 23.387695 10.027086 23.324219 9.9296875 C 22.735925 9.0269992 21.923797 8.1999761 20.876953 7.53125 L 21.470703 6.9375 L 29.751953 6.9375 L 29.751953 6.0917969 L 21.294922 6.0917969 L 20.996094 6.2148438 L 20.121094 7.0917969 C 19.389245 6.7237762 18.549596 6.4385682 17.601562 6.2480469 L 18.429688 3.765625 L 29.751953 3.765625 L 29.751953 2.9199219 L 18.125 2.9199219 z M 8.6113281 7.0429688 L 14.953125 7.0429688 C 19.041406 7.0429688 21.201888 8.609914 22.4375 10.505859 C 23.673112 12.401806 23.9375 14.689803 23.9375 16.027344 C 23.9375 17.364884 23.673112 19.652883 22.4375 21.548828 C 21.201888 23.444773 19.041406 25.011719 14.953125 25.011719 L 8.6113281 25.011719 C 7.7169104 25.011719 7.0253906 24.358268 7.0253906 23.427734 L 7.0253906 10.742188 L 7.0253906 8.6289062 C 7.0253906 7.6196367 7.6641716 7.0429686 8.6113281 7.0429688 z M 16.232422 9.1152344 C 16.176457 9.1043469 16.115903 9.1046667 16.056641 9.1171875 C 15.819588 9.1672695 15.668667 9.401613 15.71875 9.6386719 C 15.76883 9.8757311 16.001228 10.026645 16.238281 9.9765625 C 16.475334 9.9264805 16.628207 9.6940901 16.578125 9.4570312 C 16.540565 9.2792363 16.400317 9.1478969 16.232422 9.1152344 z M 18.638672 10.09375 C 18.582707 10.082862 18.524107 10.083183 18.464844 10.095703 C 18.227792 10.145783 18.076871 10.378175 18.126953 10.615234 C 18.177033 10.852292 18.409432 11.003207 18.646484 10.953125 C 18.883536 10.903045 19.034457 10.670653 18.984375 10.433594 C 18.946815 10.2558 18.806567 10.126413 18.638672 10.09375 z M 14.880859 11.207031 C 14.579624 11.212723 14.274513 11.245947 13.96875 11.310547 C 11.359888 11.861736 9.6929665 14.424269 10.244141 17.033203 C 10.795315 19.642139 13.355982 21.310955 15.964844 20.759766 C 18.428554 20.239243 20.047185 17.926086 19.755859 15.472656 L 15.488281 16.373047 C 15.230616 16.427487 15.021235 16.292831 14.966797 16.035156 C 14.912367 15.777484 15.048977 15.570063 15.306641 15.515625 L 19.574219 14.613281 C 19.568719 14.596041 19.56794 14.575834 19.5625 14.558594 C 18.910585 12.51888 16.989507 11.16719 14.880859 11.207031 z M 20.332031 11.900391 C 20.094978 11.950471 19.944059 12.184816 19.994141 12.421875 C 20.044221 12.658934 20.276621 12.809848 20.513672 12.759766 C 20.750725 12.709686 20.903599 12.477294 20.853516 12.240234 C 20.803436 12.003176 20.569083 11.850308 20.332031 11.900391 z M 21.492188 14.242188 C 21.436222 14.2313 21.377622 14.23162 21.318359 14.244141 C 21.081306 14.294221 20.930386 14.528566 20.980469 14.765625 C 21.030549 15.002684 21.262949 15.153599 21.5 15.103516 C 21.737054 15.053436 21.887974 14.821044 21.837891 14.583984 C 21.800331 14.406191 21.660083 14.27485 21.492188 14.242188 z M 21.539062 16.785156 C 21.483097 16.774269 21.424497 16.774588 21.365234 16.787109 C 21.128181 16.837189 20.975308 17.069583 21.025391 17.306641 C 21.075471 17.543701 21.309824 17.694615 21.546875 17.644531 C 21.783929 17.594451 21.934849 17.362059 21.884766 17.125 C 21.847206 16.947206 21.706958 16.817818 21.539062 16.785156 z M 20.386719 19.193359 C 20.149669 19.243439 19.998745 19.477786 20.048828 19.714844 C 20.098908 19.951903 20.331308 20.102818 20.568359 20.052734 C 20.805412 20.002654 20.958284 19.770261 20.908203 19.533203 C 20.858123 19.296144 20.623771 19.143275 20.386719 19.193359 z M 18.755859 21.060547 C 18.699894 21.049659 18.639341 21.049979 18.580078 21.0625 C 18.343026 21.11258 18.192107 21.344973 18.242188 21.582031 C 18.292268 21.819091 18.524666 21.970006 18.761719 21.919922 C 18.998771 21.869842 19.151645 21.63745 19.101562 21.400391 C 19.064003 21.222596 18.923755 21.093209 18.755859 21.060547 z M 16.412109 22.046875 C 16.356144 22.035988 16.297544 22.036307 16.238281 22.048828 C 16.001227 22.098908 15.848355 22.331302 15.898438 22.568359 C 15.948517 22.805419 16.18287 22.956334 16.419922 22.90625 C 16.656974 22.85617 16.807895 22.623778 16.757812 22.386719 C 16.720253 22.208925 16.580005 22.079537 16.412109 22.046875 z " id="path4" fill="#002285"/>
</svg>