<eagle version="6.5.0" xmlns="eagle">
  <drawing>
    <library>
      <packages>
        <package name="SOIC127P600X175-14N" xmlns="eagle">
          <smd name="1" x="-4.8006" y="7.62" dx="2.0574" dy="0.6096" layer="1" />
          <smd name="2" x="-4.8006" y="6.35" dx="2.0574" dy="0.6096" layer="1" />
          <smd name="3" x="-4.8006" y="5.08" dx="2.0574" dy="0.6096" layer="1" />
          <smd name="4" x="-4.8006" y="3.81" dx="2.0574" dy="0.6096" layer="1" />
          <smd name="5" x="-4.8006" y="2.54" dx="2.0574" dy="0.6096" layer="1" />
          <smd name="6" x="-4.8006" y="1.27" dx="2.0574" dy="0.6096" layer="1" />
          <smd name="7" x="-4.8006" y="0" dx="2.0574" dy="0.6096" layer="1" />
          <smd name="8" x="0" y="0" dx="2.0574" dy="0.6096" layer="1" />
          <smd name="9" x="0" y="1.27" dx="2.0574" dy="0.6096" layer="1" />
          <smd name="10" x="0" y="2.54" dx="2.0574" dy="0.6096" layer="1" />
          <smd name="11" x="0" y="3.81" dx="2.0574" dy="0.6096" layer="1" />
          <smd name="12" x="0" y="5.08" dx="2.0574" dy="0.6096" layer="1" />
          <smd name="13" x="0" y="6.35" dx="2.0574" dy="0.6096" layer="1" />
          <smd name="14" x="0" y="7.62" dx="2.0574" dy="0.6096" layer="1" />
          <wire x1="-3.556" y1="-0.5588" x2="-1.2446" y2="-0.5588" width="0.1524" layer="21" />
          <wire x1="-1.2446" y1="8.1788" x2="-2.0828" y2="8.1788" width="0.1524" layer="21" />
          <wire x1="-2.0828" y1="8.1788" x2="-2.6924" y2="8.1788" width="0.1524" layer="21" />
          <wire x1="-2.6924" y1="8.1788" x2="-3.556" y2="8.1788" width="0.1524" layer="21" />
          <wire x1="-2.0828" y1="8.1788" x2="-2.6924" y2="8.1788" width="0" layer="21" curve="-180" />
          <text x="-5.3848" y="8.0518" size="1.27" layer="21" ratio="6" rot="SR0">*</text>
          <wire x1="-4.8006" y1="7.62" x2="-4.3942" y2="7.62" width="0.1524" layer="51" />
          <wire x1="-4.8006" y1="6.35" x2="-4.3942" y2="6.35" width="0.1524" layer="51" />
          <wire x1="-4.8006" y1="5.08" x2="-4.3942" y2="5.08" width="0.1524" layer="51" />
          <wire x1="-4.8006" y1="3.81" x2="-4.3942" y2="3.81" width="0.1524" layer="51" />
          <wire x1="-4.8006" y1="2.54" x2="-4.3942" y2="2.54" width="0.1524" layer="51" />
          <wire x1="-4.8006" y1="1.27" x2="-4.3942" y2="1.27" width="0.1524" layer="51" />
          <wire x1="-4.8006" y1="0" x2="-4.3942" y2="0" width="0.1524" layer="51" />
          <wire x1="0" y1="0" x2="-0.4064" y2="0" width="0.1524" layer="51" />
          <wire x1="0" y1="1.27" x2="-0.4064" y2="1.27" width="0.1524" layer="51" />
          <wire x1="0" y1="2.54" x2="-0.4064" y2="2.54" width="0.1524" layer="51" />
          <wire x1="0" y1="3.81" x2="-0.4064" y2="3.81" width="0.1524" layer="51" />
          <wire x1="0" y1="5.08" x2="-0.4064" y2="5.08" width="0.1524" layer="51" />
          <wire x1="0" y1="6.35" x2="-0.4064" y2="6.35" width="0.1524" layer="51" />
          <wire x1="0" y1="7.62" x2="-0.4064" y2="7.62" width="0.1524" layer="51" />
          <wire x1="-4.3942" y1="-0.5588" x2="-0.4064" y2="-0.5588" width="0.1524" layer="51" />
          <wire x1="-0.4064" y1="-0.5588" x2="-0.4064" y2="8.1788" width="0.1524" layer="51" />
          <wire x1="-0.4064" y1="8.1788" x2="-2.0828" y2="8.1788" width="0.1524" layer="51" />
          <wire x1="-2.0828" y1="8.1788" x2="-2.6924" y2="8.1788" width="0.1524" layer="51" />
          <wire x1="-2.6924" y1="8.1788" x2="-4.3942" y2="8.1788" width="0.1524" layer="51" />
          <wire x1="-4.3942" y1="8.1788" x2="-4.3942" y2="-0.5588" width="0.1524" layer="51" />
          <wire x1="-2.0828" y1="8.1788" x2="-2.6924" y2="8.1788" width="0" layer="51" curve="-180" />
          <text x="-5.3848" y="8.0518" size="1.27" layer="51" ratio="6" rot="SR0">*</text>
          <text x="-6.985" y="8.9408" size="2.0828" layer="25" ratio="10" rot="SR0">&gt;NAME</text>
          <text x="-7.8232" y="-3.4036" size="2.0828" layer="27" ratio="10" rot="SR0">&gt;VALUE</text>
        </package>
      </packages>
      <symbols>
        <symbol name="TL084ACD">
          <pin name="VCC+" x="-17.78" y="12.7" length="middle" direction="pwr" xmlns="eagle" />
          <pin name="1IN+" x="-17.78" y="7.62" length="middle" direction="in" xmlns="eagle" />
          <pin name="2IN+" x="-17.78" y="5.08" length="middle" direction="in" xmlns="eagle" />
          <pin name="3IN+" x="-17.78" y="2.54" length="middle" direction="in" xmlns="eagle" />
          <pin name="4IN+" x="-17.78" y="0" length="middle" direction="in" xmlns="eagle" />
          <pin name="1IN-" x="-17.78" y="-5.08" length="middle" direction="in" xmlns="eagle" />
          <pin name="2IN-" x="-17.78" y="-7.62" length="middle" direction="in" xmlns="eagle" />
          <pin name="3IN-" x="-17.78" y="-10.16" length="middle" direction="in" xmlns="eagle" />
          <pin name="4IN-" x="-17.78" y="-12.7" length="middle" direction="in" xmlns="eagle" />
          <pin name="VCC-" x="-17.78" y="-17.78" length="middle" direction="pwr" xmlns="eagle" />
          <pin name="1OUT" x="17.78" y="12.7" length="middle" direction="out" rot="R180" xmlns="eagle" />
          <pin name="2OUT" x="17.78" y="10.16" length="middle" direction="out" rot="R180" xmlns="eagle" />
          <pin name="3OUT" x="17.78" y="7.62" length="middle" direction="out" rot="R180" xmlns="eagle" />
          <pin name="4OUT" x="17.78" y="5.08" length="middle" direction="out" rot="R180" xmlns="eagle" />
          <wire x1="-12.7" y1="17.78" x2="-12.7" y2="-22.86" width="0.4064" layer="94" xmlns="eagle" />
          <wire x1="-12.7" y1="-22.86" x2="12.7" y2="-22.86" width="0.4064" layer="94" xmlns="eagle" />
          <wire x1="12.7" y1="-22.86" x2="12.7" y2="17.78" width="0.4064" layer="94" xmlns="eagle" />
          <wire x1="12.7" y1="17.78" x2="-12.7" y2="17.78" width="0.4064" layer="94" xmlns="eagle" />
          <text x="-5.3594" y="21.8186" size="2.0828" layer="95" ratio="10" rot="SR0" xmlns="eagle">&gt;NAME</text>
          <text x="-4.3942" y="-28.8036" size="2.0828" layer="96" ratio="10" rot="SR0" xmlns="eagle">&gt;VALUE</text>
        </symbol>
      </symbols>
      <devicesets>
        <deviceset name="TL084ACD" prefix="U">
          <gates>
            <gate name="A" symbol="TL084ACD" x="0" y="0" />
          </gates>
          <devices>
            <device name="" package="SOIC127P600X175-14N" xmlns="eagle">
              <connects>
                <connect gate="A" pin="1IN+" pad="3" />
                <connect gate="A" pin="1IN-" pad="2" />
                <connect gate="A" pin="1OUT" pad="1" />
                <connect gate="A" pin="2IN+" pad="5" />
                <connect gate="A" pin="2IN-" pad="6" />
                <connect gate="A" pin="2OUT" pad="7" />
                <connect gate="A" pin="3IN+" pad="10" />
                <connect gate="A" pin="3IN-" pad="9" />
                <connect gate="A" pin="3OUT" pad="8" />
                <connect gate="A" pin="4IN+" pad="12" />
                <connect gate="A" pin="4IN-" pad="13" />
                <connect gate="A" pin="4OUT" pad="14" />
                <connect gate="A" pin="VCC+" pad="4" />
                <connect gate="A" pin="VCC-" pad="11" />
              </connects>
              <technologies>
                <technology name="">
                  <attribute name="MPN" value="TL084ACD" constant="no" />
                  <attribute name="OC_FARNELL" value="9593420" constant="no" />
                  <attribute name="OC_NEWARK" value="08F9355" constant="no" />
                  <attribute name="PACKAGE" value="SOIC-14" constant="no" />
                  <attribute name="SUPPLIER" value="Texas Instruments" constant="no" />
                </technology>
              </technologies>
            </device>
          </devices>
        </deviceset>
      </devicesets>
    </library>
  </drawing>
</eagle>