<?xml version="1.0" encoding="utf-8"?>
<!DOCTYPE eagle SYSTEM "eagle.dtd">
<eagle version="6.5.0">
<drawing>
<settings>
<setting alwaysvectorfont="no"/>
<setting verticaltext="up"/>
</settings>
<grid distance="0.1" unitdist="inch" unit="inch" style="lines" multiple="1" display="no" altdistance="0.01" altunitdist="inch" altunit="inch"/>
<layers>
</layers>
<library>
<packages>
<package name="SOT753">
<smd name="P$1" x="-1.175" y="0.95" dx="0.5" dy="0.7" layer="1" rot="R270"/>
<smd name="P$2" x="-1.175" y="0" dx="0.5" dy="0.7" layer="1" rot="R270"/>
<smd name="P$3" x="-1.175" y="-0.95" dx="0.5" dy="0.7" layer="1" rot="R270"/>
<smd name="P$4" x="1.175" y="-0.95" dx="0.5" dy="0.7" layer="1" rot="R270"/>
<smd name="P$5" x="1.175" y="0.95" dx="0.5" dy="0.7" layer="1" rot="R270"/>
<wire x1="0.85" y1="1.55" x2="-0.8" y2="1.55" width="0.1" layer="21"/>
<wire x1="0.85" y1="-1.55" x2="-0.75" y2="-1.55" width="0.1" layer="21"/>
<wire x1="0.85" y1="1.55" x2="0.85" y2="1.4" width="0.1" layer="21"/>
<wire x1="-0.8" y1="1.55" x2="-0.8" y2="1.4" width="0.1" layer="21"/>
<wire x1="-0.8" y1="-1.55" x2="-0.8" y2="-1.4" width="0.1" layer="21"/>
<wire x1="0.85" y1="-1.55" x2="0.85" y2="-1.4" width="0.1" layer="21"/>
<wire x1="0.85" y1="-0.5" x2="0.85" y2="0.5" width="0.1" layer="21"/>
<wire x1="-0.8" y1="0.55" x2="-0.8" y2="0.4" width="0.1" layer="21"/>
<wire x1="-0.8" y1="-0.4" x2="-0.8" y2="-0.55" width="0.1" layer="21"/>
<circle x="-1.25" y="1.6" radius="0.1" width="0" layer="21"/>
<text x="-2.6" y="1.8" size="1.27" layer="25">&gt;NAME</text>
</package>
</packages>
<symbols>
<symbol name="74HC1G125GV">
<pin name="A" x="-12.7" y="0" length="middle"/>
<pin name="/OE" x="-12.7" y="7.62" length="middle"/>
<pin name="GND" x="-12.7" y="-7.62" length="middle"/>
<pin name="Y" x="12.7" y="-7.62" length="middle" rot="R180"/>
<pin name="VCC" x="12.7" y="7.62" length="middle" rot="R180"/>
<wire x1="-7.62" y1="10.16" x2="-7.62" y2="-10.16" width="0.254" layer="94"/>
<wire x1="-7.62" y1="-10.16" x2="7.62" y2="-10.16" width="0.254" layer="94"/>
<wire x1="7.62" y1="-10.16" x2="7.62" y2="10.16" width="0.254" layer="94"/>
<wire x1="7.62" y1="10.16" x2="-7.62" y2="10.16" width="0.254" layer="94"/>
<text x="-10.16" y="12.7" size="1.778" layer="95">&gt;NAME</text>
<text x="-10.16" y="15.24" size="1.778" layer="96">&gt;VALUE</text>
</symbol>
</symbols>
<devicesets>
<deviceset name="74HC1G125GV">
<gates>
<gate name="G$1" symbol="74HC1G125GV" x="0" y="0"/>
</gates>
<devices>
<device name="" package="SOT753">
<connects>
<connect gate="G$1" pin="/OE" pad="P$1"/>
<connect gate="G$1" pin="A" pad="P$2"/>
<connect gate="G$1" pin="GND" pad="P$3"/>
<connect gate="G$1" pin="VCC" pad="P$5"/>
<connect gate="G$1" pin="Y" pad="P$4"/>
</connects>
<technologies>
<technology name=""/>
</technologies>
</device>
</devices>
</deviceset>
</devicesets>
</library>
</drawing>
</eagle>
