<!-- Created with Inkscape (http://www.inkscape.org/) --><svg xmlns:dc="http://purl.org/dc/elements/1.1/" xmlns:cc="http://creativecommons.org/ns#" xmlns:rdf="http://www.w3.org/1999/02/22-rdf-syntax-ns#" xmlns:svg="http://www.w3.org/2000/svg" xmlns="http://www.w3.org/2000/svg" xmlns:sodipodi="http://sodipodi.sourceforge.net/DTD/sodipodi-0.dtd" xmlns:inkscape="http://www.inkscape.org/namespaces/inkscape" width="88mm" height="30mm" viewBox="0 0 311.81102 106.29922" id="svg4167" version="1.1" inkscape:version="0.91 r13725" sodipodi:docname="LevelShifter.svg">
  <defs id="defs4169"/>
  <sodipodi:namedview id="base" pagecolor="#ffffff" bordercolor="#666666" borderopacity="1.0" inkscape:pageopacity="0.0" inkscape:pageshadow="2" inkscape:zoom="2.8" inkscape:cx="179.89197" inkscape:cy="26.141848" inkscape:document-units="px" inkscape:current-layer="g4802" showgrid="false" showguides="false" objecttolerance="10000" inkscape:window-width="2048" inkscape:window-height="1091" inkscape:window-x="-8" inkscape:window-y="-8" inkscape:window-maximized="1">
    <inkscape:grid type="xygrid" id="grid4715"/>
  </sodipodi:namedview>
  <metadata id="metadata4172">
    <rdf:RDF>
      <cc:Work rdf:about="">
        <dc:format>image/svg+xml</dc:format>
        <dc:type rdf:resource="http://purl.org/dc/dcmitype/StillImage"/>
        <dc:title/>
      </cc:Work>
    </rdf:RDF>
  </metadata>
  <g inkscape:label="Layer 1" inkscape:groupmode="layer" id="layer1" transform="translate(0,-946.06299)">
    <g id="g4802" transform="translate(-24.748737,120.20815)" style="stroke-width:4;stroke-miterlimit:4;stroke-dasharray:none">
      <path style="color:#000000;font-style:normal;font-variant:normal;font-weight:normal;font-stretch:normal;font-size:medium;line-height:normal;font-family:sans-serif;text-indent:0;text-align:start;text-decoration:none;text-decoration-line:none;text-decoration-style:solid;text-decoration-color:#000000;letter-spacing:normal;word-spacing:normal;text-transform:none;direction:ltr;block-progression:tb;writing-mode:lr-tb;baseline-shift:baseline;text-anchor:start;white-space:normal;clip-rule:nonzero;display:inline;overflow:visible;visibility:visible;opacity:1;isolation:auto;mix-blend-mode:normal;color-interpolation:sRGB;color-interpolation-filters:linearRGB;solid-color:#000000;solid-opacity:1;fill:002285;fill-opacity:1;fill-rule:evenodd;stroke:none;stroke-width:2.74842691;stroke-linecap:round;stroke-linejoin:round;stroke-miterlimit:4;stroke-dasharray:none;stroke-dashoffset:0;stroke-opacity:1;color-rendering:auto;image-rendering:auto;shape-rendering:auto;text-rendering:auto;enable-background:accumulate" d="M 140.22266 9.4785156 A 2.0001998 2.0001999 0 0 0 139.93945 9.5058594 L 125.25195 9.5058594 A 2.0001998 2.0001999 0 0 0 123.25195 11.505859 L 123.25195 84.505859 L 120.25195 84.505859 A 2.0001998 2.0001999 0 0 0 118.83789 85.091797 L 113.83789 90.091797 A 2.0001998 2.0001999 0 0 0 113.25195 91.505859 L 113.25195 96.505859 A 2.0001998 2.0001999 0 0 0 115.25195 98.505859 L 195.25195 98.505859 A 2.0001998 2.0001999 0 0 0 197.25195 96.505859 L 197.25195 91.505859 A 2.0001998 2.0001999 0 0 0 196.66602 90.091797 L 191.66602 85.091797 A 2.0001998 2.0001999 0 0 0 190.25195 84.505859 L 187.76367 84.505859 L 187.25195 41.505859 L 187.25195 41.482422 A 2.0001998 2.0001999 0 0 0 185.25195 39.527344 L 185.25195 39.505859 L 171.08008 39.505859 L 141.83594 10.261719 A 2.0001998 2.0001999 0 0 0 140.22266 9.4785156 z M 127.25195 13.505859 L 138.25195 13.505859 L 138.25195 56.505859 A 2.0001998 2.0001999 0 1 0 142.25195 56.505859 L 142.25195 16.333984 L 168.25195 42.335938 L 168.25195 56.505859 A 2.0001998 2.0001999 0 1 0 172.25195 56.505859 L 172.25195 43.505859 L 183.25195 43.505859 L 183.25195 84.505859 L 127.25195 84.505859 L 127.25195 13.505859 z M 16.730469 14.818359 A 1.3743507 1.3743508 0 0 0 15.355469 16.193359 L 15.355469 76.908203 L 6.7226562 76.908203 A 1.3743507 1.3743508 0 1 0 6.7226562 79.65625 L 16.730469 79.65625 A 1.3743507 1.3743508 0 0 0 18.103516 78.28125 L 18.103516 17.568359 L 30.369141 17.568359 L 30.369141 78.28125 A 1.3743507 1.3743508 0 0 0 31.742188 79.65625 L 46.753906 79.65625 A 1.3743507 1.3743508 0 0 0 48.128906 78.28125 L 48.128906 17.568359 L 60.392578 17.568359 L 60.392578 78.28125 A 1.3743507 1.3743508 0 0 0 61.767578 79.65625 L 76.779297 79.65625 A 1.3743507 1.3743508 0 0 0 78.154297 78.28125 L 78.154297 17.568359 L 90.417969 17.568359 L 90.417969 78.28125 A 1.3743507 1.3743508 0 0 0 91.791016 79.65625 L 106.80469 79.65625 A 1.3743507 1.3743508 0 0 0 108.17773 78.28125 L 108.17773 17.568359 L 116.8125 17.568359 A 1.3749998 1.3749999 0 0 0 116.8125 14.818359 L 106.80469 14.818359 A 1.3743507 1.3743508 0 0 0 105.42969 16.193359 L 105.42969 76.908203 L 93.166016 76.908203 L 93.166016 16.193359 A 1.3743507 1.3743508 0 0 0 91.791016 14.818359 L 76.779297 14.818359 A 1.3743507 1.3743508 0 0 0 75.40625 16.193359 L 75.40625 76.908203 L 63.140625 76.908203 L 63.140625 16.193359 A 1.3743507 1.3743508 0 0 0 61.767578 14.818359 L 46.753906 14.818359 A 1.3743507 1.3743508 0 0 0 45.380859 16.193359 L 45.380859 76.908203 L 33.117188 76.908203 L 33.117188 16.193359 A 1.3743507 1.3743508 0 0 0 31.742188 14.818359 L 16.730469 14.818359 z M 192.66016 44.492188 A 1.3496098 1.3496099 0 1 0 192.66016 47.191406 L 201.32422 47.191406 L 201.32422 78.001953 A 1.3491607 1.3491608 0 0 0 202.67383 79.351562 L 217.69336 79.351562 A 1.3491607 1.3491608 0 0 0 219.04297 78.001953 L 219.04297 47.191406 L 231.36523 47.191406 L 231.36523 78.001953 A 1.3491607 1.3491608 0 0 0 232.71484 79.351562 L 247.73633 79.351562 A 1.3491607 1.3491608 0 0 0 249.08398 78.001953 L 249.08398 47.191406 L 261.4082 47.191406 L 261.4082 78.001953 A 1.3491607 1.3491608 0 0 0 262.75586 79.351562 L 277.77734 79.351562 A 1.3491607 1.3491608 0 0 0 279.12695 78.001953 L 279.12695 47.191406 L 291.44922 47.191406 L 291.44922 78.001953 A 1.3491607 1.3491608 0 0 0 292.79883 79.351562 L 302.79297 79.345703 A 1.3496102 1.3496103 0 0 0 302.79102 76.646484 L 294.14844 76.652344 L 294.14844 45.841797 A 1.3491607 1.3491608 0 0 0 292.79883 44.492188 L 277.77734 44.492188 A 1.3491607 1.3491608 0 0 0 276.42773 45.841797 L 276.42773 76.654297 L 264.10547 76.654297 L 264.10547 45.841797 A 1.3491607 1.3491608 0 0 0 262.75586 44.492188 L 247.73633 44.492188 A 1.3491607 1.3491608 0 0 0 246.38672 45.841797 L 246.38672 76.654297 L 234.06445 76.654297 L 234.06445 45.841797 A 1.3491607 1.3491608 0 0 0 232.71484 44.492188 L 217.69336 44.492188 A 1.3491607 1.3491608 0 0 0 216.3457 45.841797 L 216.3457 76.654297 L 204.02148 76.654297 L 204.02148 45.841797 A 1.3491607 1.3491608 0 0 0 202.67383 44.492188 L 192.66016 44.492188 z M 140.22656 65.244141 A 1.250125 1.250125 0 0 0 139.36719 65.623047 L 134.36719 70.623047 A 1.250125 1.250125 0 0 0 134.36719 72.390625 L 139.36719 77.390625 A 1.2505573 1.2505574 0 1 0 141.13672 75.623047 L 138.26953 72.755859 L 170.25195 72.755859 L 172.23438 72.755859 L 169.36719 75.623047 A 1.2505573 1.2505574 0 1 0 171.13672 77.390625 L 176.13672 72.390625 A 1.250125 1.250125 0 0 0 176.13672 70.623047 L 171.13672 65.623047 A 1.250125 1.250125 0 0 0 170.23828 65.244141 A 1.250125 1.250125 0 0 0 169.36719 67.390625 L 172.23047 70.255859 L 170.25195 70.255859 L 138.27344 70.255859 L 141.13672 67.390625 A 1.250125 1.250125 0 0 0 140.22656 65.244141 z M 121.08008 88.505859 L 125.25195 88.505859 L 185.78711 88.505859 L 189.42383 88.505859 L 193.25195 92.335938 L 193.25195 94.505859 L 117.25195 94.505859 L 117.25195 92.335938 L 121.08008 88.505859 z " transform="translate(24.748722,825.85484)" id="path4739" fill="#002285"/>
      <g id="g4146" transform="translate(4.9997352,0)">
        <g id="g4778" style="stroke-width:4;stroke-miterlimit:4;stroke-dasharray:none" transform="translate(0,15)">
          <g style="stroke-width:4;stroke-miterlimit:4;stroke-dasharray:none" id="g4787"/>
        </g>
      </g>
    </g>
  </g>
</svg>