<eagle version="6.5.0" xmlns="eagle">
  <drawing>
    <library>
      <packages>
        <package name="SOT223" xmlns="eagle">
          <wire x1="1.778" y1="-3.2766" x2="-1.778" y2="-3.2766" width="0.2032" layer="21" />
          <wire x1="-1.778" y1="-3.2766" x2="-1.778" y2="3.2766" width="0.2032" layer="21" />
          <wire x1="-1.778" y1="3.2766" x2="1.778" y2="3.2766" width="0.2032" layer="21" />
          <wire x1="1.778" y1="3.2766" x2="1.778" y2="-3.2766" width="0.2032" layer="21" />
          <text x="-4.318" y="-1.0208" size="0.8128" layer="21" ratio="12" rot="R270">3</text>
          <text x="2.54" y="-1.905" size="0.8128" layer="21" ratio="12" rot="R270">4</text>
          <text x="-4.318" y="3.4526" size="0.8128" layer="21" ratio="12" rot="R270">1</text>
          <text x="-4.3274" y="1.2906" size="0.8128" layer="21" ratio="12" rot="R270">2</text>
          <text x="0.0508" y="2.54" size="1.27" layer="25" rot="R270">&gt;NAME</text>
          <text x="-1.3208" y="2.54" size="1.27" layer="27" rot="R270">&gt;VALUE</text>
          <rectangle x1="1.1303" y1="-0.9271" x2="4.3307" y2="0.9271" layer="51" rot="R270" />
          <rectangle x1="-3.1623" y1="-0.9271" x2="-2.2987" y2="0.9271" layer="51" rot="R270" />
          <rectangle x1="-3.1623" y1="1.3843" x2="-2.2987" y2="3.2385" layer="51" rot="R270" />
          <rectangle x1="-3.1623" y1="-3.2385" x2="-2.2987" y2="-1.3843" layer="51" rot="R270" />
          <rectangle x1="1.1303" y1="-0.9271" x2="4.3307" y2="0.9271" layer="51" rot="R270" />
          <rectangle x1="-3.1623" y1="-0.9271" x2="-2.2987" y2="0.9271" layer="51" rot="R270" />
          <rectangle x1="-3.1623" y1="1.3843" x2="-2.2987" y2="3.2385" layer="51" rot="R270" />
          <rectangle x1="-3.1623" y1="-3.2385" x2="-2.2987" y2="-1.3843" layer="51" rot="R270" />
          <circle x="-3.175" y="3.683" radius="0.127" width="0.127" layer="21" />
          <smd name="1" x="-3.0988" y="2.3114" dx="1.2192" dy="2.2352" layer="1" rot="R270" />
          <smd name="2" x="-3.0988" y="0" dx="1.2192" dy="2.2352" layer="1" rot="R270" />
          <smd name="3" x="-3.0988" y="-2.3114" dx="1.2192" dy="2.2352" layer="1" rot="R270" />
          <smd name="4" x="3.099" y="0" dx="3.6" dy="2.2" layer="1" rot="R270" />
        </package>
      </packages>
      <symbols>
        <symbol name="LD1117S50TR">
          <wire x1="12.7" y1="5.08" x2="12.7" y2="-5.08" width="0.254" layer="94" />
          <wire x1="12.7" y1="-5.08" x2="-12.7" y2="-5.08" width="0.254" layer="94" />
          <wire x1="-12.7" y1="-5.08" x2="-12.7" y2="5.08" width="0.254" layer="94" />
          <wire x1="-12.7" y1="5.08" x2="12.7" y2="5.08" width="0.254" layer="94" />
          <text x="-17.78" y="-15.24" size="1.778" layer="95">&gt;NAME</text>
          <text x="-17.78" y="-17.78" size="1.778" layer="96">&gt;VALUE</text>
          <pin name="IN" x="-17.78" y="0" length="middle" direction="pas" />
          <pin name="OUT" x="17.78" y="0" length="middle" direction="pas" rot="R180" />
          <pin name="GND" x="0" y="-10.16" length="middle" direction="pas" rot="R90" />
        </symbol>
      </symbols>
      <devicesets>
        <deviceset name="LD1117S50TR" prefix="U">
          <gates>
            <gate name="G$1" symbol="LD1117S50TR" x="0" y="0" />
          </gates>
          <devices>
            <device name="" package="SOT223" xmlns="eagle">
              <connects>
                <connect gate="G$1" pin="GND" pad="1" />
                <connect gate="G$1" pin="IN" pad="3" />
                <connect gate="G$1" pin="OUT" pad="2 4" />
              </connects>
              <technologies>
                <technology name="" />
              </technologies>
            </device>
          </devices>
        </deviceset>
      </devicesets>
    </library>
  </drawing>
</eagle>