<eagle version="6.5.0" xmlns="eagle">
  <drawing>
<layers>
<layer number="1" name="Top" color="4" fill="1" visible="yes" active="yes"/>
<layer number="16" name="Bottom" color="1" fill="1" visible="yes" active="yes"/>
<layer number="17" name="Pads" color="2" fill="1" visible="yes" active="yes"/>
<layer number="18" name="Vias" color="2" fill="1" visible="yes" active="yes"/>
<layer number="19" name="Unrouted" color="6" fill="1" visible="yes" active="yes"/>
<layer number="20" name="Dimension" color="15" fill="1" visible="yes" active="yes"/>
<layer number="21" name="tPlace" color="7" fill="1" visible="yes" active="yes"/>
<layer number="22" name="bPlace" color="7" fill="1" visible="yes" active="yes"/>
<layer number="23" name="tOrigins" color="15" fill="1" visible="yes" active="yes"/>
<layer number="24" name="bOrigins" color="15" fill="1" visible="yes" active="yes"/>
<layer number="25" name="tNames" color="7" fill="1" visible="yes" active="yes"/>
<layer number="26" name="bNames" color="7" fill="1" visible="yes" active="yes"/>
<layer number="27" name="tValues" color="7" fill="1" visible="yes" active="yes"/>
<layer number="28" name="bValues" color="7" fill="1" visible="yes" active="yes"/>
<layer number="29" name="tStop" color="7" fill="3" visible="yes" active="yes"/>
<layer number="30" name="bStop" color="7" fill="6" visible="yes" active="yes"/>
<layer number="31" name="tCream" color="7" fill="4" visible="yes" active="yes"/>
<layer number="32" name="bCream" color="7" fill="5" visible="yes" active="yes"/>
<layer number="33" name="tFinish" color="6" fill="3" visible="yes" active="yes"/>
<layer number="34" name="bFinish" color="6" fill="6" visible="yes" active="yes"/>
<layer number="35" name="tGlue" color="7" fill="4" visible="yes" active="yes"/>
<layer number="36" name="bGlue" color="7" fill="5" visible="yes" active="yes"/>
<layer number="37" name="tTest" color="7" fill="1" visible="yes" active="yes"/>
<layer number="38" name="bTest" color="7" fill="1" visible="yes" active="yes"/>
<layer number="39" name="tKeepout" color="4" fill="11" visible="yes" active="yes"/>
<layer number="40" name="bKeepout" color="1" fill="11" visible="yes" active="yes"/>
<layer number="41" name="tRestrict" color="4" fill="10" visible="yes" active="yes"/>
<layer number="42" name="bRestrict" color="1" fill="10" visible="yes" active="yes"/>
<layer number="43" name="vRestrict" color="2" fill="10" visible="yes" active="yes"/>
<layer number="44" name="Drills" color="7" fill="1" visible="yes" active="yes"/>
<layer number="45" name="Holes" color="7" fill="1" visible="yes" active="yes"/>
<layer number="46" name="Milling" color="3" fill="1" visible="yes" active="yes"/>
<layer number="47" name="Measures" color="7" fill="1" visible="yes" active="yes"/>
<layer number="48" name="Document" color="7" fill="1" visible="yes" active="yes"/>
<layer number="49" name="Reference" color="7" fill="1" visible="yes" active="yes"/>
<layer number="50" name="dxf" color="7" fill="1" visible="yes" active="yes"/>
<layer number="51" name="tDocu" color="7" fill="1" visible="yes" active="yes"/>
<layer number="52" name="bDocu" color="7" fill="1" visible="yes" active="yes"/>
<layer number="53" name="tGND_GNDA" color="7" fill="1" visible="yes" active="yes"/>
<layer number="54" name="bGND_GNDA" color="7" fill="1" visible="yes" active="yes"/>
<layer number="56" name="wert" color="7" fill="1" visible="yes" active="yes"/>
<layer number="57" name="tCAD" color="7" fill="1" visible="yes" active="yes"/>
<layer number="91" name="Nets" color="2" fill="1" visible="yes" active="yes"/>
<layer number="92" name="Busses" color="1" fill="1" visible="yes" active="yes"/>
<layer number="93" name="Pins" color="2" fill="1" visible="yes" active="yes"/>
<layer number="94" name="Symbols" color="4" fill="1" visible="yes" active="yes"/>
<layer number="95" name="Names" color="7" fill="1" visible="yes" active="yes"/>
<layer number="96" name="Values" color="7" fill="1" visible="yes" active="yes"/>
<layer number="97" name="Info" color="7" fill="1" visible="yes" active="yes"/>
<layer number="98" name="Guide" color="6" fill="1" visible="yes" active="yes"/>
<layer number="99" name="SpiceOrder" color="7" fill="1" visible="yes" active="yes"/>
</layers>
    <library>
      <packages>
        <package name="0805" xmlns="eagle">
          <smd name="2" x="0" y="0" dx="0.8" dy="0.95" layer="1" />
          <smd name="3" x="1.25" y="0" dx="0.5" dy="0.95" layer="1" />
          <smd name="1" x="-1.25" y="0" dx="0.5" dy="0.95" layer="1" />
          <wire x1="-0.8" y1="0.4" x2="-0.6" y2="0.4" width="0.127" layer="21" />
          <wire x1="0.6" y1="0.4" x2="0.8" y2="0.4" width="0.127" layer="21" />
          <wire x1="0.6" y1="-0.4" x2="0.8" y2="-0.4" width="0.127" layer="21" />
          <wire x1="-0.8" y1="-0.4" x2="-0.6" y2="-0.4" width="0.127" layer="21" />
          <text x="-2" y="1" size="1.27" layer="25">&gt;NAME</text>
          <circle x="-1.8" y="-0.6" radius="0.1" width="0" layer="21" />
        </package>
      </packages>
      <symbols>
        <symbol name="FEEDTHROUGHCAPACITOR">
          <wire x1="-5.08" y1="0" x2="5.08" y2="0" width="0.254" layer="94" />
          <wire x1="3.81" y1="5.08" x2="-3.81" y2="5.08" width="0.254" layer="94" curve="-180" />
          <wire x1="-3.81" y1="-5.08" x2="3.81" y2="-5.08" width="0.254" layer="94" curve="-180" />
          <pin name="OUT" x="10.16" y="0" length="middle" rot="R180" />
          <pin name="IN" x="-10.16" y="0" length="middle" />
          <pin name="GND" x="0" y="-7.62" length="middle" rot="R90" />
          <text x="-7.62" y="7.62" size="1.778" layer="95">&gt;NAME</text>
          <text x="-7.62" y="10.16" size="1.778" layer="96">&gt;VALUE</text>
        </symbol>
      </symbols>
      <devicesets>
        <deviceset name="NFM21PC105B1C3D">
          <gates>
            <gate name="G$1" symbol="FEEDTHROUGHCAPACITOR" x="0" y="0" />
          </gates>
          <devices>
            <device name="" package="0805" xmlns="eagle">
              <connects>
                <connect gate="G$1" pin="GND" pad="2" />
                <connect gate="G$1" pin="IN" pad="1" />
                <connect gate="G$1" pin="OUT" pad="3" />
              </connects>
              <technologies>
                <technology name="" />
              </technologies>
            </device>
          </devices>
        </deviceset>
      </devicesets>
    </library>
  </drawing>
</eagle>