<eagle version="6.5.0" xmlns="eagle">
  <drawing>
    <library>
      <packages>
        <package name="7A-27.120MAAJ-T" xmlns="eagle">
          <smd name="P$1" x="-1.85" y="0" dx="1.7" dy="2.4" layer="1" />
          <smd name="P$2" x="1.85" y="0" dx="1.7" dy="2.4" layer="1" />
          <wire x1="2.7" y1="1.4" x2="2.7" y2="1.7" width="0.127" layer="21" />
          <wire x1="2.7" y1="1.7" x2="-2.7" y2="1.7" width="0.127" layer="21" />
          <wire x1="-2.7" y1="1.7" x2="-2.7" y2="1.5" width="0.127" layer="21" />
          <wire x1="-2.7" y1="-1.4" x2="-2.7" y2="-1.7" width="0.127" layer="21" />
          <wire x1="-2.7" y1="-1.7" x2="2.7" y2="-1.7" width="0.127" layer="21" />
          <wire x1="2.7" y1="-1.7" x2="2.7" y2="-1.4" width="0.127" layer="21" />
          <circle x="-3" y="1.1" radius="0.1" width="0" layer="21" />
          <text x="-3.6" y="2.1" size="1.27" layer="25">&gt;NAME</text>
        </package>
      </packages>
      <symbols>
        <symbol name="CRYSTAL">
          <wire x1="-0.635" y1="2.54" x2="-0.635" y2="-2.54" width="0.254" layer="94" />
          <wire x1="-0.635" y1="-2.54" x2="0.635" y2="-2.54" width="0.254" layer="94" />
          <wire x1="0.635" y1="-2.54" x2="0.635" y2="2.54" width="0.254" layer="94" />
          <wire x1="0.635" y1="2.54" x2="-0.635" y2="2.54" width="0.254" layer="94" />
          <wire x1="1.27" y1="3.175" x2="1.27" y2="-3.175" width="0.254" layer="94" />
          <wire x1="-1.27" y1="3.175" x2="-1.27" y2="-3.175" width="0.254" layer="94" />
          <pin name="2" x="3.81" y="0" length="short" rot="R180" />
          <pin name="1" x="-3.81" y="0" length="short" />
          <text x="-5.715" y="3.81" size="1.778" layer="95">&gt;NAME</text>
          <text x="-5.715" y="5.715" size="1.778" layer="96">&gt;VALUE</text>
        </symbol>
      </symbols>
      <devicesets>
        <deviceset name="7A-27.120MAAJ-T">
          <gates>
            <gate name="G$1" symbol="CRYSTAL" x="0" y="0" />
          </gates>
          <devices>
            <device name="" package="7A-27.120MAAJ-T" xmlns="eagle">
              <connects>
                <connect gate="G$1" pin="1" pad="P$1" />
                <connect gate="G$1" pin="2" pad="P$2" />
              </connects>
              <technologies>
                <technology name="" />
              </technologies>
            </device>
          </devices>
        </deviceset>
      </devicesets>
    </library>
  </drawing>
</eagle>