<!DOCTYPE eagle SYSTEM "eagle.dtd">
<eagle version="6.5.0">
<drawing>
<settings>
<setting alwaysvectorfont="no"/>
<setting verticaltext="up"/>
</settings>
<grid distance="0.2" unitdist="mm" unit="mm" style="lines" multiple="1" display="yes" altdistance="0.025" altunitdist="inch" altunit="inch"/>
<layers>
<layer number="1" name="Top" color="4" fill="1" visible="yes" active="yes"/>
<layer number="16" name="Bottom" color="1" fill="1" visible="yes" active="yes"/>
<layer number="17" name="Pads" color="2" fill="1" visible="yes" active="yes"/>
<layer number="18" name="Vias" color="2" fill="1" visible="yes" active="yes"/>
<layer number="19" name="Unrouted" color="6" fill="1" visible="yes" active="yes"/>
<layer number="20" name="Dimension" color="15" fill="1" visible="yes" active="yes"/>
<layer number="21" name="tPlace" color="7" fill="1" visible="yes" active="yes"/>
<layer number="22" name="bPlace" color="7" fill="1" visible="yes" active="yes"/>
<layer number="23" name="tOrigins" color="15" fill="1" visible="yes" active="yes"/>
<layer number="24" name="bOrigins" color="15" fill="1" visible="yes" active="yes"/>
<layer number="25" name="tNames" color="7" fill="1" visible="yes" active="yes"/>
<layer number="26" name="bNames" color="7" fill="1" visible="yes" active="yes"/>
<layer number="27" name="tValues" color="7" fill="1" visible="yes" active="yes"/>
<layer number="28" name="bValues" color="7" fill="1" visible="yes" active="yes"/>
<layer number="29" name="tStop" color="7" fill="3" visible="yes" active="yes"/>
<layer number="30" name="bStop" color="7" fill="6" visible="yes" active="yes"/>
<layer number="31" name="tCream" color="7" fill="4" visible="yes" active="yes"/>
<layer number="32" name="bCream" color="7" fill="5" visible="yes" active="yes"/>
<layer number="33" name="tFinish" color="6" fill="3" visible="yes" active="yes"/>
<layer number="34" name="bFinish" color="6" fill="6" visible="yes" active="yes"/>
<layer number="35" name="tGlue" color="7" fill="4" visible="yes" active="yes"/>
<layer number="36" name="bGlue" color="7" fill="5" visible="yes" active="yes"/>
<layer number="37" name="tTest" color="7" fill="1" visible="yes" active="yes"/>
<layer number="38" name="bTest" color="7" fill="1" visible="yes" active="yes"/>
<layer number="39" name="tKeepout" color="4" fill="11" visible="yes" active="yes"/>
<layer number="40" name="bKeepout" color="1" fill="11" visible="yes" active="yes"/>
<layer number="41" name="tRestrict" color="4" fill="10" visible="yes" active="yes"/>
<layer number="42" name="bRestrict" color="1" fill="10" visible="yes" active="yes"/>
<layer number="43" name="vRestrict" color="2" fill="10" visible="yes" active="yes"/>
<layer number="44" name="Drills" color="7" fill="1" visible="yes" active="yes"/>
<layer number="45" name="Holes" color="7" fill="1" visible="yes" active="yes"/>
<layer number="46" name="Milling" color="3" fill="1" visible="yes" active="yes"/>
<layer number="47" name="Measures" color="7" fill="1" visible="yes" active="yes"/>
<layer number="48" name="Document" color="7" fill="1" visible="yes" active="yes"/>
<layer number="49" name="Reference" color="7" fill="1" visible="yes" active="yes"/>
<layer number="50" name="dxf" color="7" fill="1" visible="yes" active="yes"/>
<layer number="51" name="tDocu" color="7" fill="1" visible="yes" active="yes"/>
<layer number="52" name="bDocu" color="7" fill="1" visible="yes" active="yes"/>
<layer number="53" name="tGND_GNDA" color="7" fill="1" visible="yes" active="yes"/>
<layer number="54" name="bGND_GNDA" color="7" fill="1" visible="yes" active="yes"/>
<layer number="56" name="wert" color="7" fill="1" visible="yes" active="yes"/>
<layer number="57" name="tCAD" color="7" fill="1" visible="yes" active="yes"/>
<layer number="91" name="Nets" color="2" fill="1" visible="yes" active="yes"/>
<layer number="92" name="Busses" color="1" fill="1" visible="yes" active="yes"/>
<layer number="93" name="Pins" color="2" fill="1" visible="yes" active="yes"/>
<layer number="94" name="Symbols" color="4" fill="1" visible="yes" active="yes"/>
<layer number="95" name="Names" color="7" fill="1" visible="yes" active="yes"/>
<layer number="96" name="Values" color="7" fill="1" visible="yes" active="yes"/>
<layer number="97" name="Info" color="7" fill="1" visible="yes" active="yes"/>
<layer number="98" name="Guide" color="6" fill="1" visible="yes" active="yes"/>
<layer number="99" name="SpiceOrder" color="7" fill="1" visible="yes" active="yes"/>
</layers>
<library>
<packages>
<package name="SO8">
<description>&lt;b&gt;SMALL OUTLINE INTEGRATED CIRCUIT&lt;/b&gt;</description>
<circle x="-0.889" y="1.905" radius="0.15239999999999998" width="0" layer="21"/>
<smd name="1" x="-2.6" y="1.905" dx="0.6" dy="2.2" layer="1" rot="R270"/>
<smd name="2" x="-2.6" y="0.635" dx="0.6" dy="2.2" layer="1" rot="R270"/>
<smd name="3" x="-2.6" y="-0.635" dx="0.6" dy="2.2" layer="1" rot="R270"/>
<smd name="4" x="-2.6" y="-1.905" dx="0.6" dy="2.2" layer="1" rot="R270"/>
<smd name="5" x="2.6" y="-1.905" dx="0.6" dy="2.2" layer="1" rot="R270"/>
<smd name="6" x="2.6" y="-0.635" dx="0.6" dy="2.2" layer="1" rot="R270"/>
<smd name="7" x="2.6" y="0.635" dx="0.6" dy="2.2" layer="1" rot="R270"/>
<smd name="8" x="2.6" y="1.905" dx="0.6" dy="2.2" layer="1" rot="R270"/>
<text x="-2.505" y="2.975" size="1.016" layer="25" font="vector" ratio="15">&gt;NAME</text>
<wire x1="-1.5" y1="2.5" x2="1.5" y2="2.5" width="0.15239999999999998" layer="21"/>
<wire x1="-1.5" y1="-2.5" x2="1.5" y2="-2.5" width="0.15239999999999998" layer="21"/>
</package>
</packages>
<symbols>
<symbol name="STANDARD_INA">
<rectangle x1="-3.81" y1="9.652" x2="-3.556" y2="10.922" layer="94"/>
<rectangle x1="-4.318" y1="10.16" x2="-3.048" y2="10.414" layer="94"/>
<rectangle x1="-4.318" y1="-10.16" x2="-3.048" y2="-9.906" layer="94"/>
<wire x1="-5.08" y1="15.24" x2="-5.08" y2="-15.24" width="0.254" layer="94"/>
<wire x1="-5.08" y1="-15.24" x2="10.16" y2="0" width="0.254" layer="94"/>
<wire x1="10.16" y1="0" x2="-5.08" y2="15.24" width="0.254" layer="94"/>
<pin name="+" x="-7.62" y="10.16" visible="pad" length="short" direction="pas"/>
<pin name="+V" x="0" y="15.24" visible="pad" length="middle" direction="pas" rot="R270"/>
<pin name="-" x="-7.62" y="-10.16" visible="pad" length="short" direction="pas"/>
<pin name="-V" x="0" y="-15.24" visible="pad" length="middle" direction="pas" rot="R90"/>
<pin name="OUT" x="12.7" y="0" visible="pad" length="short" direction="pas" rot="R180"/>
<pin name="REF" x="5.08" y="-10.16" length="middle" direction="pas" rot="R90"/>
<pin name="RG@1" x="-7.62" y="5.08" visible="pad" length="short" direction="pas"/>
<pin name="RG@2" x="-7.62" y="-5.08" visible="pad" length="short" direction="pas"/>
<text x="8.89" y="6.35" size="1.778" layer="95">&gt;NAME</text>
<text x="8.89" y="-7.62" size="1.778" layer="96">&gt;VALUE</text>
<text x="-1.524" y="7.62" size="1.778" layer="91">+V</text>
<text x="-1.016" y="-9.144" size="1.778" layer="91">-V</text>
<text x="-4.318" y="4.572" size="1.778" layer="94">RG</text>
<text x="-4.318" y="-5.588" size="1.778" layer="94">RG</text>
</symbol>
</symbols>
<devicesets>
<deviceset name="AD8221AR" prefix="U">
<gates>
<gate name="A" symbol="STANDARD_INA" x="0" y="0"/>
</gates>
<devices>
<device name="AR" package="SO8">
<connects>
<connect gate="A" pin="+" pad="4"/>
<connect gate="A" pin="+V" pad="8"/>
<connect gate="A" pin="-" pad="1"/>
<connect gate="A" pin="-V" pad="5"/>
<connect gate="A" pin="OUT" pad="7"/>
<connect gate="A" pin="REF" pad="6"/>
<connect gate="A" pin="RG@1" pad="2"/>
<connect gate="A" pin="RG@2" pad="3"/>
</connects>
<technologies>
<technology name=""/>
</technologies>
</device>
</devices>
</deviceset>
</devicesets>
</library>
</drawing>
</eagle>